#####################################################################
# Alchemist log file - simulation started at: 2019-02-25T19:57+0000 #
#####################################################################
# seed = 14.0
#
# The columns have the following meaning: 
# time distance-rep[Mean] distance-rep[Max] leader-rep[CountDistinct] distance-share[Mean] distance-share[Max] leader-share[CountDistinct] 
0.0 NaN NaN NaN NaN NaN NaN 
1.0029261369996305 0.0 0.0 498.0 0.0 0.0 82.0 
2.0011538615611912 0.0 0.0 105.0 0.0 0.0 72.0 
3.000051963583751 0.0 0.0 92.0 0.0 0.0 63.0 
4.000064183650566 0.0 0.0 91.0 0.0 0.0 51.0 
5.001128571090219 0.0 0.0 85.0 0.0 0.0 47.0 
6.0000679085156525 0.0 0.0 73.0 0.0 0.0 43.0 
7.000302991558637 0.0 0.0 75.0 0.0 0.0 40.0 
8.000876093109632 0.0 0.0 68.0 0.0 0.0 37.0 
9.000636433024857 0.0 0.0 65.0 0.0 0.0 37.0 
10.002332356043945 0.0 0.0 62.0 0.0 0.0 37.0 
11.000483317444509 0.0 0.0 59.0 0.0013122760524904578 0.6561380262452303 36.0 
12.00115386156119 0.0 0.0 58.0 0.0013122760524904578 0.6561380262452303 33.0 
13.000755811804828 0.0 0.0 55.0 0.0 0.0 33.0 
14.000848326635579 0.0 0.0 53.0 0.008671932532323475 4.3359662661617335 33.0 
15.003276665194152 0.0 0.0 53.0 0.023392876718117413 7.36047209289697 31.0 
16.000724541898396 0.0 0.0 53.0 0.034496161360018776 7.36047209289697 27.0 
17.000234633610926 0.0 0.0 51.0 0.0 0.0 25.0 
18.000876093109632 0.0 0.0 50.0 0.0 0.0 24.0 
19.00267553698446 0.0 0.0 49.0 2.4183768150118012E-4 0.12091884075059056 22.0 
20.001900094241357 0.0 0.0 48.0 0.0 0.0 21.0 
21.00345786582136 0.0 0.0 47.0 0.0 0.0 21.0 
22.001153861561193 0.0 0.0 47.0 0.0 0.0 21.0 
23.000853346113583 0.0 0.0 45.0 0.009338696379150309 3.0872737544298445 21.0 
24.00741318667193 0.0 0.0 46.0 0.006174547508859676 3.0872737544298445 20.0 
25.00162765883131 0.0 0.0 47.0 0.0 0.0 20.0 
26.004100536747668 0.0 0.0 44.0 0.0 0.0 18.0 
27.001153861561193 0.0 0.0 43.0 0.0 0.0 18.0 
28.000876093109632 0.0 0.0 43.0 0.0 0.0 19.0 
29.00070951677552 0.0 0.0 42.0 0.0 0.0 18.0 
30.00164989242113 0.0 0.0 40.0 0.0 0.0 18.0 
31.00274568150576 0.0 0.0 41.0 0.0 0.0 18.0 
32.00115386156119 0.0 0.0 39.0 7.44259559762332E-4 0.37212977988116336 19.0 
33.00054755022298 0.0 0.0 38.0 0.011442524939866474 2.1328787080354346 19.0 
34.00310863718538 0.00752675905684877 3.7633795284243945 36.0 0.02594806420675634 10.841153395342815 20.0 
35.000683219294146 0.0 0.0 36.0 0.0 0.0 20.0 
36.00984333117724 0.007059182353702744 3.529591176851369 34.0 0.0033935395144232177 1.696769757211598 18.0 
37.00115386156119 0.052702066406388824 17.282522311714928 33.0 0.0033935395144232177 1.696769757211598 18.0 
38.00087609310963 0.06760234974376272 17.282522311714928 34.0 0.0033935395144232177 1.696769757211598 19.0 
39.000029110618456 0.06760234974376272 17.282522311714928 34.0 0.0 0.0 19.0 
40.00112664426617 0.07131628627314228 17.282522311714928 34.0 0.0 0.0 19.0 
41.00099884370956 0.1623851380675697 24.154665615739788 35.0 0.00500840883188274 1.548846982890666 18.0 
42.000841501041464 0.0822939463527321 22.77135235150982 35.0 0.0076609391814797985 2.875112157689216 19.0 
43.00073870968257 0.19106330142985561 25.607779084846754 34.0 0.005750224315378443 2.875112157689216 19.0 
44.00073971383155 0.2033126775700022 27.504448351547126 33.0 0.0 0.0 19.0 
45.00103744304909 0.29586345408919007 43.19616858594577 33.0 0.0027169567877245383 1.3584783938622707 19.0 
46.00000818958523 0.3126830749840154 43.19616858594577 32.0 0.007398514731719416 3.699257365859694 18.0 
47.00090437740525 0.29904144641717867 43.19616858594577 34.0 0.007510872860187724 3.699257365859694 18.0 
48.00087609310963 0.36902780786117556 50.017085008272346 34.0 0.027684916388516553 10.087021764164433 18.0 
49.000017842519604 0.40066202781266336 50.017085008272346 34.0 0.007510872860187724 3.699257365859694 19.0 
50.00009318960386 0.4132164001859651 42.902465912278444 36.0 0.007398514731719416 3.699257365859694 19.0 
51.00214719674883 0.31275587809733635 42.902465912278444 37.0 0.006348621308279248 3.174310654139589 18.0 
52.00115386156119 0.3838214986868804 42.902465912278444 37.0 0.0 0.0 19.0 
53.00087609310963 0.4655793603264375 68.30228698832082 34.0 0.0 0.0 18.0 
54.00956954568873 0.512774524212084 68.30228698832082 32.0 0.0 0.0 18.0 
55.001754772004894 0.4505851704190411 68.30228698832082 34.0 0.0 0.0 18.0 
56.00080346119493 0.3388152772315289 68.30228698832082 34.0 0.0 0.0 17.0 
57.00115386156119 0.23296166337781718 68.30228698832082 35.0 0.0 0.0 17.0 
58.00087609310963 0.049345741268819965 13.700106014336143 34.0 0.0 0.0 18.0 
59.00064848737358 0.0 0.0 32.0 0.0 0.0 19.0 
60.00144667074487 0.016452377169830425 8.226188584915178 28.0 0.0 0.0 19.0 
61.0016995684365 0.0 0.0 29.0 0.0 0.0 18.0 
62.00073105000016 0.0 0.0 30.0 0.0 0.0 17.0 
63.00087609310963 0.0 0.0 29.0 0.0 0.0 17.0 
64.00211108917145 0.0 0.0 30.0 0.0 0.0 17.0 
65.00002649228614 0.0 0.0 30.0 0.0 0.0 17.0 
66.00086262769548 0.0 0.0 30.0 0.0 0.0 17.0 
67.00115386156119 0.0 0.0 29.0 0.0 0.0 17.0 
68.00087609310964 0.0 0.0 29.0 0.0 0.0 16.0 
69.00123612251525 0.0 0.0 30.0 0.0 0.0 16.0 
70.00006367859885 0.0 0.0 30.0 0.0 0.0 16.0 
71.00038958860526 0.0 0.0 31.0 0.0 0.0 16.0 
72.00068706813836 0.0 0.0 29.0 0.0 0.0 16.0 
73.00087609310964 0.0 0.0 29.0 0.0 0.0 16.0 
74.00140907056715 0.0 0.0 28.0 0.0 0.0 17.0 
75.00268192292346 0.0 0.0 29.0 0.0 0.0 18.0 
76.00887627156041 0.0 0.0 29.0 0.0 0.0 18.0 
77.00115386156119 0.0 0.0 29.0 0.0 0.0 17.0 
78.00087609310964 0.0 0.0 29.0 0.0 0.0 16.0 
79.00048089395764 0.0 0.0 28.0 0.0 0.0 16.0 
80.00090227561952 0.0 0.0 29.0 0.0 0.0 16.0 
81.0005625204814 0.0 0.0 28.0 0.0 0.0 17.0 
82.00013673273283 0.0 0.0 28.0 0.0 0.0 17.0 
83.00087609310964 0.0 0.0 28.0 0.0 0.0 17.0 
84.00200270970024 0.0 0.0 28.0 0.0 0.0 17.0 
85.00055461462448 0.0 0.0 28.0 0.0 0.0 17.0 
86.00128995037052 0.006637261687504959 3.318630843752487 27.0 0.0 0.0 16.0 
87.00051682481663 0.006637261687504959 3.318630843752487 28.0 0.0 0.0 16.0 
88.00087609310964 0.006637261687504959 3.318630843752487 29.0 0.0 0.0 16.0 
89.00211254890516 0.0070023555624316594 3.318630843752487 27.0 0.0 0.0 16.0 
90.00003656164098 0.021833228830319663 10.734067477696499 26.0 0.0 0.0 16.0 
91.00038784991598 0.05159174443887802 18.2002820085267 26.0 0.0 0.0 17.0 
92.0010134423568 0.05159174443887802 18.2002820085267 24.0 0.0 0.0 16.0 
93.00087609310964 0.05159174443887802 18.2002820085267 25.0 0.0 0.0 15.0 
94.00531552620356 0.12890301485576744 28.06121715210776 24.0 0.0 0.0 16.0 
95.00447079562478 0.07278058055155233 23.481729126528734 24.0 0.0 0.0 16.0 
96.00043843290798 0.1738767895596912 36.60450371879219 24.0 0.0 0.0 16.0 
97.00115386156119 0.1738767895596912 36.60450371879219 24.0 0.0 0.0 16.0 
98.00009602011133 0.1800678388094895 39.70002834369146 24.0 0.0 0.0 16.0 
99.00208717144508 0.20633645571752515 40.806039661785945 24.0 0.0 0.0 17.0 
100.00016607855385 0.3889932728799929 45.13720147387059 23.0 0.0 0.0 16.0 
101.00699040100514 0.3889932728799929 45.13720147387059 22.0 0.0 0.0 16.0 
102.00115386156119 0.40366471169725066 45.13720147387059 21.0 0.0 0.0 16.0 
103.00087609310964 0.42447122596137404 45.13720147387059 21.0 0.0 0.0 16.0 
104.00007348574837 0.4547069718178544 45.00838464593818 21.0 0.0 0.0 16.0 
105.00064998201772 0.51032891195338 45.00838464593818 21.0 0.0 0.0 16.0 
106.00225769924504 0.5140110351439957 45.00838464593818 21.0 0.0 0.0 16.0 
107.00070154072515 0.5140110351439957 45.00838464593818 21.0 0.0 0.0 16.0 
108.00087609310964 0.43319427243634484 40.607256855328245 21.0 0.0 0.0 16.0 
109.00066919899892 0.5412807926801497 44.55336485133557 21.0 0.0 0.0 16.0 
110.00497697128233 0.504407027141758 39.91892839144796 21.0 0.0 0.0 16.0 
111.00306639982568 0.5920166768542477 44.55336485133557 21.0 0.0 0.0 16.0 
112.00115386156119 0.5920166768542477 44.55336485133557 20.0 0.0 0.0 16.0 
113.00087609310964 0.4984852190933444 37.70656436233196 20.0 0.0 0.0 16.0 
114.0039540296122 0.7048931765921744 44.89295439186307 20.0 0.0 0.0 16.0 
115.00051641942157 0.7521692726703851 44.89295439186307 19.0 0.0 0.0 16.0 
116.00308350148244 0.7577832597435598 44.89295439186307 19.0 0.0 0.0 16.0 
117.00115386156119 0.7577832597435598 44.89295439186307 19.0 0.0 0.0 16.0 
118.00087609310964 0.7689627954796566 44.89295439186307 19.0 0.0 0.0 16.0 
119.00000204549295 0.8616146467225159 46.198707503068846 19.0 0.0 0.0 16.0 
120.00088159177608 0.9324376211046949 50.241134903375354 19.0 0.0 0.0 16.0 
121.00189195878613 0.9736465581650985 50.241134903375354 20.0 0.0 0.0 17.0 
122.00014657218387 0.9736465581650985 50.241134903375354 20.0 0.0 0.0 17.0 
123.00087609310964 0.9738762343492892 50.241134903375354 20.0 0.0 0.0 18.0 
124.00035576376578 1.1205764749409362 62.55832846831731 20.0 0.0 0.0 18.0 
125.00032398354682 1.1826075407243943 62.55832846831731 19.0 0.0 0.0 17.0 
126.00295770568133 1.1824685203481602 62.55832846831731 19.0 0.0 0.0 17.0 
127.00115386156119 1.1824685203481602 62.55832846831731 19.0 0.0 0.0 17.0 
128.00028877394487 1.1814081265037453 62.55832846831731 19.0 0.0 0.0 17.0 
129.00273522459506 1.3314336570644567 65.91432381371601 18.0 0.0 0.0 17.0 
130.00051817561922 1.3892038534659366 75.21864751481553 19.0 0.0 0.0 17.0 
131.00327872147773 1.4066634003412888 75.21864751481553 18.0 0.0 0.0 17.0 
132.0011538615612 1.405165038096979 75.21864751481553 18.0 0.0 0.0 18.0 
133.00087609310964 1.4083982901574683 75.21864751481553 17.0 0.0 0.0 18.0 
134.0011240057328 1.56619054671158 88.13300803566227 17.0 0.0 0.0 18.0 
135.00241535749691 1.6092660654242845 88.13300803566227 17.0 0.0 0.0 17.0 
136.0037219873344 1.653756509718426 88.13300803566227 17.0 0.0 0.0 17.0 
137.0011538615612 1.5293049052033665 88.13300803566227 17.0 0.0 0.0 17.0 
138.00016286741288 1.5274006559279631 88.13300803566227 18.0 0.0 0.0 17.0 
139.00248711694255 1.6512232240488298 91.41112729886936 18.0 0.0 0.0 17.0 
140.0033969409434 1.7871228918290416 100.66906058225237 19.0 0.0 0.0 18.0 
141.00044743190526 1.6010155689929781 100.66906058225237 21.0 0.0 0.0 19.0 
142.0011538615612 0.786932031124225 100.66906058225237 21.0 0.0 0.0 18.0 
143.00037987570892 0.14040668051705385 23.91386911822778 21.0 0.0 0.0 18.0 
144.00534395664675 0.1415220780289869 19.256242509083904 22.0 0.0 0.0 19.0 
145.00049676178045 0.21999177854552587 23.408969828625004 21.0 0.0 0.0 19.0 
146.00174661772817 0.306022141320252 24.310395647389527 21.0 0.0 0.0 20.0 
147.0011538615612 0.29714977451521396 24.310395647389527 21.0 0.0 0.0 19.0 
148.0008204728301 0.2957572449672295 24.310395647389527 21.0 0.0 0.0 18.0 
149.00291396393675 0.27131058162305804 24.310395647389527 21.0 0.0 0.0 18.0 
150.00126085678946 0.3495171392279283 34.75068898635831 21.0 0.0 0.0 18.0 
151.00033675499753 0.5072983307066167 42.183670353746635 21.0 0.0 0.0 17.0 
152.0011538615612 0.6139445622850961 42.183670353746635 21.0 0.0 0.0 17.0 
153.00087609310964 0.5851954003862135 42.183670353746635 21.0 0.0 0.0 17.0 
154.00114781942943 0.5023544739723295 35.041723137687995 21.0 0.0 0.0 16.0 
155.00117269082784 0.5167927011978442 40.39556166661245 21.0 0.0 0.0 16.0 
156.00063945600013 0.634506362533481 49.62249596747492 21.0 0.0 0.0 16.0 
157.0011538615612 0.6278659270015277 46.04176449720168 22.0 0.0 0.0 16.0 
158.00087609310964 0.5849289457451934 42.46767728285462 23.0 0.0 0.0 16.0 
159.00217604404963 0.08571214460169742 17.587440855234206 24.0 0.0 0.0 16.0 
160.00086900210962 0.07593102966287835 17.587440855234206 23.0 0.0 0.0 16.0 
161.00054433311055 0.08571386168983287 10.438253981564628 24.0 0.0 0.0 17.0 
162.000708312501 0.11727541685370906 17.465477723379536 24.0 0.0 0.0 17.0 
163.00087609310964 0.18246684710732858 25.108342721083773 24.0 0.0 0.0 18.0 
164.00178973846766 0.1879711452931443 25.108342721083773 24.0 0.0 0.0 18.0 
165.0031877773462 0.19515916350862494 25.108342721083773 23.0 0.0 0.0 18.0 
166.00098164175498 0.27546493787326515 25.108342721083773 24.0 0.0 0.0 18.0 
167.00019446820173 0.32439515394450325 28.796077534458362 24.0 0.0 0.0 18.0 
168.00087609310964 0.2984898992959452 28.796077534458362 23.0 0.0 0.0 18.0 
169.0027459094316 0.31590517738918067 32.18103990966986 23.0 0.0 0.0 17.0 
170.0026223528073 0.2970439525524309 32.18103990966986 23.0 0.0 0.0 17.0 
171.0035958888017 0.4616743496021739 39.61671437596473 23.0 0.0 0.0 16.0 
172.0011538615612 0.4882480243704613 39.61671437596473 23.0 0.0 0.0 16.0 
173.00087609310964 0.3538898343312385 39.61671437596473 23.0 0.0 0.0 16.0 
174.00311738720012 0.12914090815478457 29.193039978935445 23.0 0.0 0.0 16.0 
175.00274634883618 0.1498521934489769 43.49805278088894 24.0 0.0 0.0 15.0 
176.00041861117316 0.13858272023851992 50.74441734649656 22.0 0.0 0.0 15.0 
177.0003477042693 0.12197659864587543 50.92883135492687 22.0 0.0 0.0 15.0 
178.00087609310964 0.0607048591764158 12.41719822292265 22.0 0.0 0.0 15.0 
179.0027248289755 0.07557757925397128 12.41719822292265 22.0 0.0 0.0 15.0 
180.00165861765404 0.04662558350549989 11.921429164922927 22.0 0.0 0.0 15.0 
181.001228609625 0.044178337199261314 11.921429164922927 20.0 0.0 0.0 15.0 
182.00066056243622 0.02458700372544896 5.178705207126939 20.0 0.0 0.0 15.0 
183.00087609310964 0.07713612213723098 12.5752040575411 20.0 0.0 0.0 16.0 
184.00165217291283 0.14302415119801076 20.521766920376194 20.0 0.0 0.0 16.0 
185.00026928959238 0.1138671892820866 20.521766920376194 20.0 0.0 0.0 16.0 
186.00081719245694 0.11616342738138705 11.414157993867349 20.0 0.0 0.0 16.0 
187.0011538615612 0.08496626884476181 20.180236518841696 20.0 0.0 0.0 15.0 
188.0004605968917 0.224300049801314 32.41630489201583 20.0 0.0 0.0 15.0 
189.0044278781348 0.18153576646362146 20.114797983932164 20.0 0.0 0.0 15.0 
190.00537187613827 0.327589000693061 32.41630489201583 20.0 0.0 0.0 15.0 
191.00072623132002 0.3153178627802887 29.70384545464455 19.0 0.0 0.0 15.0 
192.00094613684197 0.3069622370002879 32.488993549191605 18.0 0.0 0.0 15.0 
193.00087609310964 0.3960918293342557 32.488993549191605 18.0 0.0 0.0 15.0 
194.00586477629562 0.38515607935491125 32.488993549191605 18.0 0.0 0.0 15.0 
195.00084246296703 0.38278766487536176 32.488993549191605 18.0 0.0 0.0 15.0 
196.0048147945111 0.3795075837700268 32.488993549191605 18.0 0.0 0.0 15.0 
197.0011538615612 0.3901772767721313 29.776020909685684 18.0 0.0 0.0 15.0 
198.00087609310964 0.44222054308125913 32.63413138744926 18.0 0.0 0.0 15.0 
199.0020810988941 0.35122626480247393 26.018821302506723 17.0 0.0 0.0 15.0 
200.0005444735948 0.360677891617084 26.018821302506723 17.0 0.0 0.0 15.0 
201.00146241840287 0.2940381388007073 24.21180035400556 16.0 0.0 0.0 15.0 
202.0011538615612 0.34915328252795524 24.38564675234028 16.0 0.0 0.0 15.0 
203.00087609310964 0.376360633083867 31.69445369232534 16.0 0.0 0.0 15.0 
204.0012813375696 0.15321406264963022 30.1847237192529 16.0 0.0 0.0 15.0 
205.00071625787558 0.17372863965569768 31.86793863217298 16.0 0.0 0.0 15.0 
206.0013612232831 0.11118073466546297 30.1847237192529 16.0 0.0 0.0 14.0 
207.00027781942327 0.08171037377979258 30.1847237192529 16.0 0.0 0.0 14.0 
208.00015505668333 0.006288932680323987 1.9082349296512575 16.0 0.0 0.0 14.0 
209.00047028101332 0.048075605054212905 14.484604717227768 16.0 0.0 0.0 14.0 
210.00090750582672 0.05129311214674159 14.841908229019737 16.0 0.0 0.0 14.0 
211.00103939606402 0.10468369588034082 27.05259537859149 16.0 0.0 0.0 14.0 
212.0011538615612 0.2115262386273958 31.801951117033923 16.0 0.0 0.0 14.0 
213.00087609310964 0.16664836701093244 27.05259537859149 16.0 0.0 0.0 15.0 
214.0078745790344 0.17609228343384242 34.1551876089965 16.0 0.0 0.0 15.0 
215.0001873458919 0.16987229179057045 34.1551876089965 16.0 0.0 0.0 15.0 
216.00044525963608 0.0969662501467451 27.140761016240987 16.0 0.0 0.0 15.0 
217.0002758496281 0.20258947759468837 31.86959646883247 16.0 0.0 0.0 15.0 
218.00087609310964 0.2574242755773107 38.947207495110206 16.0 0.0 0.0 15.0 
219.00072086635598 0.20892767260754666 34.202511954984544 15.0 0.0 0.0 15.0 
220.00212705508198 0.19707535613730973 34.202511954984544 15.0 0.0 0.0 15.0 
221.0015114757931 0.14077502078014506 29.45052704440664 15.0 0.0 0.0 15.0 
222.0011538615612 0.17519787397604755 31.898065632240446 15.0 0.0 0.0 17.0 
223.00087609310964 0.14470777003478244 31.898065632240446 14.0 0.0 0.0 17.0 
224.0037723022934 0.15541501885465558 22.509930809003947 14.0 0.0 0.0 17.0 
225.00453822320577 0.12232723489645633 27.272390065224386 15.0 0.0 0.0 16.0 
226.0008220446449 0.06781130162152253 27.272390065224386 17.0 0.0 0.0 18.0 
227.0011538615612 0.13076104633480684 32.01471489901587 16.0 0.0 0.0 18.0 
228.00033637983296 0.07386115208045269 9.705593481767579 16.0 0.0 0.0 18.0 
229.00008266930715 0.2859368236210408 38.067217133345 16.0 0.011554914234398016 5.777457117198992 18.0 
230.0018321998399 0.14579082844016714 21.44881713714409 15.0 0.011554914234398016 5.777457117198992 18.0 
231.00002610131503 0.15055776021698958 21.44881713714409 14.0 0.0 0.0 20.0 
232.0011538615612 0.20251344127141852 22.13979966203445 15.0 0.0 0.0 18.0 
233.00087609310964 0.37967911264895843 34.77285339645843 15.0 0.0 0.0 18.0 
234.00113476113287 0.39060906260723316 29.411871811616237 14.0 0.0 0.0 17.0 
235.0044064059812 0.3834386889665715 28.97807251137894 14.0 0.0 0.0 17.0 
236.0012782302236 0.4103814114893436 28.97807251137894 14.0 0.0 0.0 17.0 
237.0009687361501 0.40223028803348365 29.411871811616237 14.0 0.0 0.0 17.0 
238.00087609310964 0.4231589544993099 30.313580673393062 14.0 0.0 0.0 17.0 
239.00072440471888 0.33409538190174476 30.99739944980152 15.0 0.0 0.0 17.0 
240.00366736468135 0.3917051978536884 30.99739944980152 15.0 0.0 0.0 17.0 
241.00032664891216 0.2568196106111685 30.99739944980152 15.0 0.0 0.0 17.0 
242.0011538615612 0.1994147927246913 37.07844604093228 15.0 0.0 0.0 17.0 
243.00087609310964 0.046938762035126695 23.469381017563222 15.0 0.0 0.0 17.0 
244.0047097733388 0.036991217122990847 18.49560856149543 15.0 0.0 0.0 16.0 
245.00141444097872 0.036991217122990847 18.49560856149543 15.0 0.0 0.0 16.0 
246.0021972176027 0.050459211651687666 25.229605825843862 15.0 0.0 0.0 16.0 
247.00095620239983 0.050459211651687666 25.229605825843862 15.0 0.0 0.0 16.0 
248.00087609310964 0.050459211651687666 25.229605825843862 15.0 0.0 0.0 16.0 
249.00009730331908 0.039389521800613725 19.69476090030679 15.0 0.0 0.0 16.0 
250.00232418583843 0.039389521800613725 19.69476090030679 15.0 0.0 0.0 16.0 
251.00111030367384 0.053117161407450625 26.55858070372537 16.0 0.005115805608093208 2.5579028040465914 17.0 
252.0011538615612 0.053117161407450625 26.55858070372537 16.0 0.005115805608093208 2.5579028040465914 17.0 
253.00087609310964 0.053117161407450625 26.55858070372537 16.0 0.005115805608093208 2.5579028040465914 17.0 
254.00018478121495 0.040682978152355435 20.341489076177794 16.0 0.0 0.0 18.0 
255.00071737798214 0.04942322359675083 24.71161179837543 16.0 0.0 0.0 17.0 
256.0005681377107 0.06577781491485138 24.71161179837543 16.0 0.0 0.0 17.0 
257.0011538615612 0.06577781491485138 24.71161179837543 15.0 0.0 0.0 17.0 
258.00087609310964 0.13828562624007407 36.253905662611146 15.0 0.0 0.0 17.0 
259.0002342227932 0.05096423640097303 17.30482254143621 20.0 0.0 0.0 18.0 
260.00129116649464 0.05096423640097303 17.30482254143621 20.0 0.0 0.0 19.0 
261.0000687708894 0.1628149120422419 40.52292764250086 21.0 0.0 0.0 19.0 
262.0011538615612 0.1628149120422419 40.52292764250086 21.0 0.0 0.0 20.0 
263.000227795254 0.08176905675724098 21.306423914794664 21.0 0.0 0.0 20.0 
264.0002045818406 0.13622520719546236 34.8334129147465 21.0 0.0 0.0 19.0 
265.00016785151735 0.1441405633837245 34.8334129147465 22.0 0.0 0.0 20.0 
266.0020615140122 0.20005980682303737 39.372705235536245 21.0 0.0 0.0 20.0 
267.0008874738981 0.20005980682303737 39.372705235536245 21.0 0.0 0.0 20.0 
268.0008562781088 0.18679326652182815 32.73943508493187 22.0 0.0 0.0 21.0 
269.00045344321603 0.17157466802562368 32.73943508493187 22.0 0.0 0.0 21.0 
270.00111017784576 0.18962929600601333 32.73943508493187 22.0 0.0 0.0 21.0 
271.0004679867034 0.23583493631543312 42.55673289467623 21.0 0.0 0.0 21.0 
272.0011538615612 0.23583493631543312 42.55673289467623 21.0 0.0 0.0 21.0 
273.00087609310964 0.2208012674785054 42.55673289467623 21.0 0.0 0.0 21.0 
274.0019150553671 0.2059710707988137 42.55673289467623 21.0 0.0 0.0 21.0 
275.00048382583225 0.2153282296623706 42.55673289467623 21.0 0.0 0.0 21.0 
276.0016009639089 0.28282035563615043 53.402900713115656 21.0 0.0 0.0 21.0 
277.0011538615612 0.28282035563615043 53.402900713115656 21.0 0.006219459459836821 3.1097297299183992 21.0 
278.00087609310964 0.28282035563615043 53.402900713115656 21.0 0.006219459459836821 3.1097297299183992 20.0 
279.0002378276352 0.2531330397985461 53.402900713115656 21.0 0.006219459459836821 3.1097297299183992 20.0 
280.0013809527907 0.2723645679334184 53.402900713115656 21.0 0.006219459459836821 3.1097297299183992 19.0 
281.0045673270215 0.18985760570493232 47.17902085493682 21.0 0.0 0.0 18.0 
282.0011538615612 0.18985760570493232 47.17902085493682 21.0 0.0 0.0 18.0 
283.000449696597 0.1747423634335136 47.17902085493682 22.0 0.0 0.0 18.0 
284.00198907336176 0.1603805348870547 47.17902085493682 22.0 0.0 0.0 18.0 
285.0043749839702 0.20757165530419766 53.26750959288026 21.0 0.0 0.0 18.0 
286.00011621141493 0.21169668006637193 59.78330133845685 21.0 0.0 0.0 18.0 
287.0011538615612 0.21590208710130188 59.78330133845685 21.0 0.0 0.0 18.0 
288.00087609310964 0.22468175107542712 59.78330133845685 21.0 0.0 0.0 18.0 
289.0074839978043 0.18267713049400272 59.78330133845685 20.0 0.0 0.0 18.0 
290.00064432636304 0.19517388215946924 66.03167717119089 20.0 0.0 0.0 18.0 
291.0023084623654 0.23900002445165644 71.86093659681507 20.0 0.0 0.0 19.0 
292.0003251086047 0.23900002445165644 71.86093659681507 19.0 0.0 0.0 19.0 
293.00023954828913 0.22440460779771335 71.86093659681507 19.0 0.0 0.0 19.0 
294.00090221483856 0.21976524547746243 71.86093659681507 19.0 0.0 0.0 19.0 
295.0050132873721 0.25965898462143416 78.10266577590636 19.0 0.0 0.0 19.0 
296.0013218756862 0.14134554706871863 28.111973803236765 19.0 0.0 0.0 19.0 
297.0011538615612 0.14134554706871863 28.111973803236765 19.0 0.0 0.0 19.0 
298.00087609310964 0.17324618579838613 28.111973803236765 19.0 0.0 0.0 19.0 
299.003650389318 0.1349270898226529 20.73014989218396 20.0 0.0 0.0 19.0 
300.0009502043649 0.16365664982525463 20.73014989218396 20.0 0.0 0.0 19.0 
301.00052755145896 0.23283452878841276 27.091262911987258 20.0 0.0 0.0 19.0 
302.0011538615612 0.23283452878841276 27.091262911987258 20.0 0.0 0.0 20.0 
303.00087609310964 0.2253875587542273 24.904208380170587 20.0 0.0 0.0 20.0 
304.0087520012725 0.23855899900016617 25.694348028568214 20.0 0.0 0.0 20.0 
305.0099153273456 0.255343328784452 25.694348028568214 20.0 0.0 0.0 20.0 
306.0046405595897 0.3456206443096874 38.65050476317742 20.0 0.0 0.0 19.0 
307.00109076683117 0.37357408453730806 38.65050476317742 19.0 0.0 0.0 19.0 
308.00087609310964 0.3882679118478543 38.65050476317742 19.0 0.0 0.0 19.0 
309.00282473176935 0.4071502972847097 38.65050476317742 20.0 0.0 0.0 21.0 
310.0039054679261 0.45303112571818327 39.44510785507509 20.0 0.0 0.0 19.0 
311.00854356428704 0.5595463152990263 52.336429237037436 20.0 0.0 0.0 20.0 
312.0011538615612 0.16754164430320037 32.44564536692633 21.0 0.0 0.0 20.0 
313.00087609310964 0.3582060771714714 52.336429237037436 20.0 0.0 0.0 20.0 
314.00080243767167 0.26664937654477894 25.900302189161977 20.0 0.0 0.0 20.0 
315.0008322804106 0.22567214843122804 30.781210105219316 20.0 0.0014216040158583497 0.7108020079291748 20.0 
316.00237495438364 0.21179461873395722 30.781210105219316 20.0 0.015610153408959788 7.094274696550741 20.0 
317.0001110143075 0.2250229636566819 30.781210105219316 20.0 0.010545261628155373 5.272630814077672 19.0 
318.00087609310964 0.3136942067098372 37.397846031578865 20.0 0.0 0.0 19.0 
319.0009292840393 0.3513908148225705 37.397846031578865 19.0 0.0 0.0 18.0 
320.00393230631624 0.37985828013565937 44.211322340507905 18.0 0.0 0.0 18.0 
321.0005318380114 0.36999394463380486 44.211322340507905 19.0 0.0 0.0 18.0 
322.0011538615612 0.3797273026276089 44.211322340507905 17.0 0.0 0.0 18.0 
323.00087609310964 0.42760742975002747 50.754559970139894 17.0 0.0 0.0 18.0 
324.00418206246263 0.4673459841555452 50.754559970139894 18.0 0.0 0.0 17.0 
325.0004043955787 0.5331013233966984 58.2126115554824 17.0 0.0 0.0 17.0 
326.00165120846094 0.5772506374711138 58.2126115554824 17.0 0.0 0.0 17.0 
327.0011538615612 0.5477308109278292 58.2126115554824 19.0 0.0 0.0 17.0 
328.00087609310964 0.5304759423927038 62.35997938487799 19.0 0.0 0.0 17.0 
329.0005909491768 0.6986205944533812 62.35997938487799 19.0 0.0 0.0 18.0 
330.0030177100305 0.6588391791439593 69.74516693761558 19.0 0.0 0.0 18.0 
331.0008284540841 0.6549459157200924 69.74516693761558 17.0 0.0 0.0 18.0 
332.0011538615612 0.5992690850622098 69.74516693761558 19.0 0.0 0.0 18.0 
333.00032350119335 0.6245701538377681 69.74516693761558 19.0 0.0 0.0 19.0 
334.0035367803471 0.674089994404576 74.09937825349766 18.0 0.0 0.0 19.0 
335.0034764891264 0.7183094042797901 81.45933155241926 18.0 0.0 0.0 19.0 
336.001049771472 0.7676766785343513 81.45933155241926 18.0 0.0 0.0 19.0 
337.00027343802094 0.7528615861882314 81.45933155241926 18.0 0.0 0.0 19.0 
338.0000665403809 0.7527977610670128 81.45933155241926 18.0 2.0701096828133863E-5 0.010350548414066907 18.0 
339.00218474845695 0.8139330357976927 85.87063602702852 18.0 0.0 0.0 18.0 
340.00041442226825 0.8593871685007247 93.160623287774 18.0 0.0 0.0 18.0 
341.00076180536047 0.8864098920606255 93.160623287774 19.0 0.0 0.0 19.0 
342.0011538615612 0.8715809158271023 93.160623287774 19.0 0.0 0.0 19.0 
343.00087609310964 0.9592779080663314 93.160623287774 19.0 0.0 0.0 19.0 
344.0010095012038 0.850195499807707 97.71065626002013 19.0 0.0 0.0 18.0 
345.00374383849044 0.8150214179857824 90.63607097684468 19.0 0.0 0.0 18.0 
346.00136782289354 0.0651265958349486 18.22628601587968 18.0 0.0 0.0 18.0 
347.0011538615612 0.050518617785323516 18.22628601587968 18.0 0.0 0.0 17.0 
348.00087609310964 0.050518617785323516 18.22628601587968 18.0 0.0 0.0 17.0 
349.00090996100954 0.08107409972656571 21.218956005641473 18.0 0.0 0.0 18.0 
350.0007748813206 0.09893888018288666 21.218956005641473 18.0 0.0 0.0 18.0 
351.0006223370461 0.04590082892400403 7.9882879680258725 18.0 0.0 0.0 19.0 
352.00090606611775 0.04590082892400403 7.9882879680258725 18.0 0.0 0.0 19.0 
353.0006241158944 0.04432602855018046 7.9882879680258725 17.0 0.0 0.0 19.0 
354.0006290545553 0.1424760464822074 14.661087226946734 17.0 0.0 0.0 19.0 
355.0003170013505 0.1577297143786989 15.174417893673223 16.0 0.0 0.0 20.0 
356.00229077804016 0.13937540266831927 15.174417893673223 16.0 0.0 0.0 21.0 
357.0006017947087 0.1684885672331959 18.13031322310013 16.0 0.0 0.0 21.0 
358.00087609310964 0.15911135658627662 18.13031322310013 16.0 0.0 0.0 20.0 
359.0011273871727 0.17545662111980762 28.474616133346814 16.0 0.0 0.0 22.0 
360.00006931850254 0.22033184718044835 28.474616133346814 17.0 0.0 0.0 21.0 
361.00023774582064 0.19004269643423014 28.474616133346814 17.0 0.0 0.0 21.0 
362.0011538615612 0.16834034388763308 28.474616133346814 17.0 0.0 0.0 20.0 
363.00087609310964 0.15943731258977553 28.474616133346814 19.0 0.0 0.0 20.0 
364.00054824334285 0.11620260692712406 21.049724700939635 19.0 0.0 0.0 20.0 
365.00024902174505 0.11620260692712406 21.049724700939635 19.0 0.0 0.0 20.0 
366.0027790337186 0.07771277922811556 24.91600983024705 19.0 0.0 0.0 20.0 
367.0003782088275 0.13473483861413976 28.13488154992092 18.0 0.0 0.0 19.0 
368.00087609310964 0.04319496993778431 12.76934587887422 17.0 0.0 0.0 19.0 
369.002985899152 0.1336004143850319 33.15218360134503 17.0 0.0 0.0 19.0 
370.00101320032195 0.127218465233708 29.961209025683104 17.0 0.0 0.0 19.0 
371.0007877093486 0.0752998759755748 13.516897259229836 17.0 0.0 0.0 19.0 
372.0007394196037 0.09209732670129864 17.94289157619022 17.0 0.0 0.0 19.0 
373.00087609310964 0.12865308353991187 23.934795931340545 17.0 0.0 0.0 19.0 
374.0001468267035 0.13700391198627856 23.934795931340545 17.0 0.0 0.0 19.0 
375.00063835340205 0.13700391198627856 23.934795931340545 18.0 0.0 0.0 19.0 
376.0024157514465 0.11530495055020756 23.934795931340545 17.0 0.0 0.0 19.0 
377.0011006980461 0.10456296629482813 23.934795931340545 17.0 0.0 0.0 19.0 
378.00087609310964 0.1415098180782739 31.00731693477323 17.0 0.0 0.0 19.0 
379.00186220596726 0.11134555062862127 26.07171872334891 17.0 0.0 0.0 18.0 
380.0011008762687 0.1312610468810688 26.07171872334891 17.0 0.0 0.0 18.0 
381.01083992307207 0.13817649540633611 26.07171872334891 17.0 0.0 0.0 18.0 
382.0011538615612 0.05599943678101365 11.241315137094915 17.0 0.0 0.0 18.0 
383.00087609310964 0.10462637932040864 15.31945978573961 17.0 0.0 0.0 18.0 
384.0021322348548 0.12929021214022007 15.31945978573961 17.0 0.0 0.0 18.0 
385.00145050731584 0.09865129256874042 14.711056655632603 17.0 0.0 0.0 18.0 
386.00492929515207 0.12596952203443734 21.423435486251208 18.0 0.0 0.0 18.0 
387.0011538615612 0.12981250764486596 21.423435486251208 18.0 0.0 0.0 18.0 
388.00087609310964 0.2077314262188156 28.43870072549973 18.0 0.0 0.0 18.0 
389.0021912816833 0.23929121701528697 28.43870072549973 18.0 0.0 0.0 18.0 
390.0002206397303 0.26727367526698687 28.43870072549973 18.0 0.014170459827618376 7.085229913809229 17.0 
391.00427665093866 0.22582830970585357 33.58140777200748 18.0 0.014170459827618376 7.085229913809229 17.0 
392.0011538615612 0.2392328731926822 33.58140777200748 18.0 0.029126061031270467 14.563030515635234 17.0 
393.00020521585907 0.17948366849295463 40.595826107298876 18.0 0.029126061031270467 14.563030515635234 17.0 
394.00154839283636 0.27189603187841216 40.595826107298876 18.0 0.029126061031270467 14.563030515635234 17.0 
395.0011551781255 0.1271853892003117 37.14814161273239 18.0 0.0 0.0 18.0 
396.00478774380286 0.1355836216897778 38.49101082942576 17.0 0.0 0.0 18.0 
397.0011538615612 0.06268318368920014 17.852186670032808 17.0 0.0 0.0 18.0 
398.00087609310964 0.1190558307768392 40.12332270297205 17.0 0.07911441386410124 14.783158955113407 18.0 
399.00107937513803 0.1302715800591628 45.731197344133705 17.0 0.07911441386410124 14.783158955113407 18.0 
400.00634876426454 0.13748654805189126 45.731197344133705 18.0 0.07144747339852314 14.88250472124227 18.0 
401.00089318923625 0.1002810013101635 14.680888298607897 18.0 0.07144747339852314 14.88250472124227 18.0 
402.00019198815806 0.10204437273799145 15.562574012521907 19.0 0.06323340373800335 14.88250472124227 18.0 
403.0000925135654 0.09617050519617233 15.562574012521907 19.0 0.06462431735358916 13.982412638587789 18.0 
404.00167877837663 0.08661528941068741 15.562574012521907 20.0 0.059120748335245873 13.982412638587789 18.0 
405.00308972226696 0.08661528941068741 15.562574012521907 19.0 0.06287712640694482 14.083052735934558 18.0 
406.0005340652062 0.13274048988253598 23.079063112695223 22.0 0.03471102093507628 13.982412638587789 18.0 
407.0011538615612 0.1348766078363745 24.14712208961447 21.0 0.0349123011297694 14.083052735934558 18.0 
408.00069255881823 0.1355233679618319 24.14712208961447 21.0 0.0 0.0 17.0 
409.00178117477236 0.1355233679618319 24.14712208961447 21.0 0.0 0.0 17.0 
410.00240975915995 0.1355233679618319 24.14712208961447 20.0 0.0 0.0 17.0 
411.001167337179 0.18839459007305037 31.595862206044984 19.0 0.0 0.0 17.0 
412.0011538615612 0.1234154408505607 30.367152579287648 19.0 0.0 0.0 17.0 
413.00087609310964 0.1330808511734997 30.367152579287648 19.0 0.014714561966302026 7.357280983151071 17.0 
414.0009231231841 0.20575118725697264 34.09353162357951 18.0 0.0 0.0 19.0 
415.000367354199 0.20575118725697264 34.09353162357951 18.0 0.0 0.0 20.0 
416.00059498666303 0.3413001621174443 41.52629718669047 17.0 0.0 0.0 18.0 
417.0011538615612 0.27201183410446655 38.96164599945541 17.0 0.0 0.0 18.0 
418.00087609310964 0.27355262616318976 38.96164599945541 16.0 0.006337367437725544 3.168683718862809 18.0 
419.00097630676936 0.2893545641741511 38.96164599945541 16.0 0.0 0.0 17.0 
420.000422671952 0.3268323667849014 38.96164599945541 16.0 0.0 0.0 16.0 
421.0005813346771 0.18466891585712636 33.887331760897666 16.0 0.0 0.0 16.0 
422.0011538615612 0.19966546669218865 33.887331760897666 16.0 0.0 0.0 17.0 
423.00087609310964 0.13405205536928327 31.574736977540738 16.0 0.0 0.0 17.0 
424.000781266674 0.13405205536928327 31.574736977540738 16.0 0.0 0.0 17.0 
425.00025452012335 0.2656468880068605 33.887331760897666 15.0 0.0 0.0 17.0 
426.00106667382187 0.10163383581834992 24.059235554957468 16.0 0.0 0.0 17.0 
427.0011538615612 0.10634223464639951 24.059235554957468 16.0 0.0 0.0 18.0 
428.00087609310964 0.16936968480777717 29.33123210727797 15.0 0.0 0.0 18.0 
429.00098013466504 0.11286516574644621 26.241728528367986 15.0 0.0 0.0 18.0 
430.00353523436104 0.18626811075706987 29.33123210727797 15.0 0.0 0.0 18.0 
431.000606488097 0.08366502961656068 18.7595122112142 15.0 0.0 0.0 18.0 
432.0011538615612 0.08231533747750479 18.7595122112142 15.0 0.0 0.0 18.0 
433.0004263388158 0.04479631305507638 13.767170096505254 15.0 0.0 0.0 18.0 
434.0005919429499 0.23231420586272292 51.41142475750456 15.0 0.0 0.0 18.0 
435.0011761655651 0.37165878883468617 54.26933514724493 14.0 0.0 0.0 19.0 
436.0049721864995 0.2672913379455913 53.598845878730856 15.0 0.0 0.0 19.0 
437.0011538615612 0.24541991931785614 53.598845878730856 15.0 0.0 0.0 19.0 
438.00087609310964 0.025126119849783076 6.626798563764851 15.0 0.0 0.0 19.0 
439.00228875246455 0.028364768202214206 6.626798563764851 14.0 0.0 0.0 18.0 
440.00166586311315 0.07935611221133555 22.144173473030264 14.0 0.0 0.0 17.0 
441.00001646227065 0.006721482997286863 3.3607414986434208 14.0 0.0 0.0 16.0 
442.0011538615612 0.006721482997286863 3.3607414986434208 14.0 0.0 0.0 16.0 
443.00087609310964 0.006721482997286863 3.3607414986434208 14.0 0.0 0.0 16.0 
444.00049142031475 0.050594104710872626 21.93631085679297 14.0 0.0 0.0 16.0 
445.000054767141 0.006721482997286863 3.3607414986434208 14.0 0.0 0.0 16.0 
446.0015007607383 0.0 0.0 15.0 0.0 0.0 16.0 
447.0011538615612 0.0 0.0 15.0 0.0 0.0 16.0 
448.00087609310964 0.0 0.0 15.0 0.0 0.0 17.0 
449.00306945589796 0.0 0.0 15.0 0.0 0.0 17.0 
450.0006280113566 0.0 0.0 15.0 0.0 0.0 17.0 
451.0026406418788 0.0 0.0 15.0 0.0 0.0 17.0 
452.0011538615612 0.0 0.0 15.0 0.0 0.0 17.0 
453.0001113323992 0.0 0.0 15.0 0.0 0.0 17.0 
454.0030829365125 0.009031640137120486 4.515820068560231 15.0 0.0 0.0 17.0 
455.0028248783821 7.898957311304023E-4 0.3949478655652001 16.0 0.0 0.0 17.0 
456.0040829941691 7.898957311304023E-4 0.3949478655652001 16.0 0.0 0.0 17.0 
457.0011538615612 7.898957311304023E-4 0.3949478655652001 16.0 0.0 0.0 17.0 
458.00087609310964 0.0 0.0 16.0 0.0 0.0 17.0 
459.000470781047 0.0 0.0 16.0 0.0 0.0 16.0 
460.00750323225606 0.0 0.0 16.0 0.0 0.0 16.0 
461.003446764923 0.0 0.0 16.0 0.0 0.0 16.0 
462.00106703063966 0.0 0.0 16.0 0.0 0.0 16.0 
463.00087609310964 0.0 0.0 16.0 0.0 0.0 15.0 
464.0004097216925 0.0 0.0 16.0 0.0 0.0 15.0 
465.003356677716 0.004994688028257591 2.4973440141287995 16.0 0.0 0.0 15.0 
466.00474722543237 0.009451572216885614 4.725786108442833 16.0 0.0 0.0 15.0 
467.0003992545075 0.0 0.0 16.0 0.0 0.0 15.0 
468.00087609310964 0.0 0.0 17.0 0.0 0.0 15.0 
469.00453775015933 0.0 0.0 17.0 0.0 0.0 15.0 
470.0011034000126 0.0016514988492200993 0.8257494246100521 17.0 0.0 0.0 15.0 
471.0027299718551 0.0093536114554565 4.676805727728237 16.0 0.0 0.0 15.0 
472.0011538615612 0.0 0.0 17.0 0.0 0.0 15.0 
473.00087609310964 0.0 0.0 17.0 0.010631556310180684 5.3157781550903564 15.0 
474.00188967635546 1.2205159538154998E-5 0.006102579769077465 16.0 0.010631556310180684 5.3157781550903564 15.0 
475.0012221304738 0.0 0.0 16.0 0.019261862760589978 5.3157781550903564 16.0 
476.0046918915284 0.012322066399245933 3.876038344861172 14.0 0.10732632541962443 12.84439165195181 15.0 
477.0000155075246 0.012322066399245933 3.876038344861172 15.0 0.10732632541962443 12.84439165195181 15.0 
478.00087609310964 0.004569989709523546 2.284994854761777 15.0 0.10261269552617963 11.840379142511978 16.0 
479.0009465847961 0.004569989709523546 2.284994854761777 15.0 0.0 0.0 18.0 
480.0002963899465 0.005504910400604215 2.7524552003021086 15.0 0.0 0.0 17.0 
481.0071086854589 0.01457791988868555 6.795855536561817 15.0 0.0 0.0 17.0 
482.0011538615612 0.01457791988868555 6.795855536561817 15.0 0.0 0.0 17.0 
483.00087609310964 0.0 0.0 15.0 0.0 0.0 19.0 
484.00724658797554 0.0 0.0 16.0 0.0 0.0 19.0 
485.0006927527617 0.0 0.0 16.0 0.0 0.0 19.0 
486.00277816973386 0.015648592519971027 6.445929807649577 17.0 0.0 0.0 18.0 
487.0011538615612 0.015648592519971027 6.445929807649577 17.0 0.0 0.0 18.0 
488.00030941262975 0.013935633154156132 4.064433490820647 18.0 0.0 0.0 17.0 
489.00182639912066 0.008128866981641308 4.064433490820647 18.0 0.0 0.0 16.0 
490.00082063575115 0.01996585590739248 4.064433490820647 18.0 0.0 0.0 16.0 
491.0000559676979 0.04000275331073396 5.392043591694545 18.0 0.0 0.0 16.0 
492.0011538615612 0.05501630431851395 7.630340305618773 18.0 0.0 0.0 16.0 
493.00087609310964 0.059019801838769675 11.795699091321097 18.0 0.0 0.0 16.0 
494.0033488934346 0.08060585177579412 12.577615379318445 18.0 0.0 0.0 16.0 
495.00002184332595 0.09501669108414983 12.577615379318445 18.0 0.0 0.0 15.0 
496.00138841130365 0.13183262307060795 18.7274136473724 17.0 0.0 0.0 15.0 
497.000995710111 0.15349276264906384 18.7274136473724 17.0 0.0 0.0 15.0 
498.0005431936391 0.2034575355993791 25.940765032983933 17.0 0.0 0.0 15.0 
499.00396874675835 0.17830263096554735 25.940765032983933 17.0 0.0 0.0 16.0 
500.0011748125005 0.18100152325594543 25.940765032983933 17.0 0.0 0.0 17.0 
501.00053185150296 0.24960075529442796 32.95425322636521 17.0 0.0 0.0 17.0 
502.0011538615612 0.2656975306273047 32.95425322636521 17.0 0.0 0.0 17.0 
503.000541851235 0.34938987692357304 33.80013065422298 17.0 0.0 0.0 18.0 
504.0022253138193 0.29508332292177364 32.2834681031178 17.0 0.0 0.0 17.0 
505.00172357774625 0.3014449175204617 36.699420365080016 18.0 0.0 0.0 18.0 
506.00506049269853 0.4776966671161222 40.87051564956849 19.0 0.0 0.0 19.0 
507.0011538615612 0.32037376246126215 43.938565166727216 18.0 0.0 0.0 17.0 
508.00087609310964 0.2492591665655278 43.938565166727216 18.0 0.0 0.0 17.0 
509.0001178297335 0.3391762817759009 51.3689737164041 18.0 0.0 0.0 17.0 
510.0018772631343 0.2923027488279955 51.3689737164041 19.0 0.0 0.0 17.0 
511.0002869052707 0.3291680432068239 51.3689737164041 19.0 0.0 0.0 17.0 
512.0010861684356 0.2799595250965022 44.27641983310832 19.0 0.0 0.0 17.0 
513.0001962220047 0.3420728743949459 44.27641983310832 18.0 0.0 0.0 16.0 
514.0008574261628 0.35099385942866124 44.27641983310832 18.0 0.0 0.0 15.0 
515.0022690465539 0.5089952045482301 51.69897281618654 19.0 0.0 0.0 16.0 
516.0037775643672 0.6685614754597141 51.69897281618654 18.0 0.0 0.0 16.0 
517.0011538615612 0.6899285294413242 56.19234028935023 17.0 0.0 0.0 16.0 
518.0003950165041 1.054642380506686 78.2596158568225 16.0 0.0 0.0 16.0 
519.0058060441102 1.1872630798924944 84.86493169351252 17.0 0.0 0.0 15.0 
520.0027772625261 0.9479730664266244 79.74803251435827 20.0 0.0 0.0 15.0 
521.0028247634077 1.09385956827877 79.74803251435827 18.0 0.0 0.0 15.0 
522.0011538615612 0.45680483986224607 31.979014622662277 22.0 0.0 0.0 15.0 
523.000311694735 0.5753300937139955 31.979014622662277 20.0 0.0 0.0 15.0 
524.0017504871996 0.6411876092233766 35.611896704149586 20.0 0.0 0.0 15.0 
525.0002148011545 0.6075162567829541 31.426418558127125 20.0 0.0 0.0 15.0 
526.0030779892184 0.5324634255475925 31.426418558127125 20.0 0.0 0.0 15.0 
527.0011538615612 0.5373804681016717 34.49997218247205 18.0 0.0 0.0 15.0 
528.000595475867 0.5754693206540831 44.594293524242005 18.0 0.0 0.0 15.0 
529.000428456621 0.602889149735127 44.594293524242005 18.0 0.0 0.0 15.0 
530.0037013454357 0.7806203928992934 44.594293524242005 19.0 0.0 0.0 16.0 
531.0034188374137 0.6450899024090535 44.594293524242005 19.0 0.0 0.0 15.0 
532.0004576933809 0.7175041862721453 45.15363089190015 18.0 0.0 0.0 15.0 
533.0006068705744 0.7285122567468784 45.15363089190015 18.0 0.0 0.0 15.0 
534.0003751531476 0.997303262818248 73.3890620829946 18.0 0.0 0.0 15.0 
535.0051509162902 1.0264682315013849 73.3890620829946 18.0 0.0 0.0 15.0 
536.0008904924593 1.2768774330677892 83.31531934112252 18.0 0.0 0.0 15.0 
537.0001996560865 1.4788425511708045 105.47407121824165 17.0 0.0 0.0 15.0 
538.0008760931096 1.6251566516438136 105.47407121824165 17.0 0.0 0.0 14.0 
539.0012855367787 1.6298599737767372 111.91423461640244 17.0 0.0 0.0 14.0 
540.0015729245187 1.71507435074778 111.91423461640244 17.0 0.0 0.0 14.0 
541.002270466891 1.486528139533765 83.56626887704346 19.0 0.0 0.0 14.0 
542.0005985800275 1.2915056973401875 78.72076388427837 18.0 0.0 0.0 14.0 
543.0008760931096 1.1007905579879171 58.542796285467716 21.0 0.0 0.0 16.0 
544.002768312459 0.8376901931424907 63.26182833051382 20.0 0.0 0.0 16.0 
545.0018586107592 0.8481250819169244 61.93767987129985 20.0 0.003468500510624877 1.7342502553124461 16.0 
546.0000551416235 1.0950277417015888 71.36529389186268 20.0 0.003468500510624877 1.7342502553124461 16.0 
547.0004580486445 1.0810360006441417 71.36529389186268 20.0 0.00438837446517134 1.7342502553124461 16.0 
548.0008760931096 1.0797178204279696 71.36529389186268 20.0 0.031005658752713647 9.201614713462334 16.0 
549.0016342723203 1.2020213893375937 76.11462671565107 20.0 0.012602429325788854 6.301214662894466 16.0 
550.000589037355 1.3625815843889526 76.11462671565107 20.0 0.0 0.0 16.0 
551.0002358012377 1.2541873653619136 72.99110099735356 20.0 0.0 0.0 16.0 
552.0011538615612 1.420095884763148 94.23469164973352 20.0 0.014979691426298365 6.947791932746469 16.0 
553.0004559112452 1.8217737073009987 103.56768728628708 20.0 0.0 0.0 16.0 
554.0025375432616 2.0595728937422635 108.32809809183323 20.0 0.0 0.0 16.0 
555.0004425947608 2.323141749629204 108.32809809183323 20.0 0.0 0.0 16.0 
556.0002206636839 2.5027948081635336 140.61988020897087 20.0 0.0 0.0 16.0 
557.0002141535048 2.6451064366844697 140.61988020897087 21.0 0.0 0.0 16.0 
558.0008760931096 2.7217607297162543 140.61988020897087 21.0 0.0 0.0 16.0 
559.0008027232935 2.927308358415501 148.72356353974305 21.0 0.0 0.0 16.0 
560.0067744800301 3.1823712931734836 148.72356353974305 21.0 0.0 0.0 16.0 
561.0015229881221 3.156167148487863 148.72356353974305 21.0 0.0 0.0 16.0 
562.0009105052934 3.0622905162370366 148.72356353974305 20.0 0.008452151655619893 3.441804496555932 16.0 
563.0008760931096 3.5330570353199615 148.72356353974305 19.0 0.0 0.0 16.0 
564.0018084496159 3.5147031083722213 157.27758886653857 19.0 0.0 0.0 16.0 
565.0036243652547 3.934866639808414 157.27758886653857 19.0 0.0 0.0 16.0 
566.0000040864223 3.8046434084428236 157.27758886653857 20.0 0.0 0.0 17.0 
567.0011538615612 3.9320953329470134 157.27758886653857 19.0 0.0 0.0 17.0 
568.0000102322622 3.9350433767970663 157.27758886653857 19.0 0.0 0.0 17.0 
569.0013724915447 3.6862302756153733 139.1622325766054 20.0 0.0 0.0 17.0 
570.001146100171 2.894184120600794 139.1622325766054 20.0 0.0 0.0 17.0 
571.0001596455379 2.345941543548937 93.9403709852221 20.0 0.0 0.0 17.0 
572.0003749688976 1.9661921984449051 93.9403709852221 20.0 0.0 0.0 17.0 
573.0007330532095 1.8780203348581885 93.9403709852221 20.0 0.0 0.0 17.0 
574.0021590273104 1.9134182256679964 104.56417659560543 20.0 0.0 0.0 17.0 
575.0022174579705 1.9803210733090904 107.0094726429574 19.0 0.0 0.0 19.0 
576.0008247642934 1.777293246760223 104.56417659560543 20.0 0.0 0.0 20.0 
577.0011538615612 1.6552638914219335 104.56417659560543 19.0 0.0 0.0 22.0 
578.0008760931096 1.9828380075537502 107.0094726429574 19.0 0.0 0.0 22.0 
579.0001232163436 1.83892814011906 107.0094726429574 20.0 0.0 0.0 23.0 
580.0019782540293 1.8802998439225802 114.95007760181483 21.0 0.0 0.0 23.0 
581.0024771745551 1.9220253519050732 114.95007760181483 19.0 0.0 0.0 23.0 
582.0011538615612 1.8061487147674122 105.72914854357373 18.0 0.0 0.0 22.0 
583.0008760931096 1.5979355631430079 105.55859167335768 18.0 0.0 0.0 21.0 
584.0067964424317 1.6597590906114377 105.72914854357373 18.0 0.0 0.0 20.0 
585.0006683442944 1.8211331824459325 104.88947314007379 18.0 0.0 0.0 20.0 
586.0003416914005 1.3704489738527528 94.58576469226716 19.0 0.0 0.0 19.0 
587.0011538615612 1.2884057454334303 85.330763088195 19.0 0.0 0.0 17.0 
588.0008760931096 0.9096443811928693 85.330763088195 20.0 0.0037566037695408103 1.8783018847703943 17.0 
589.0012298576476 1.1171739091180886 90.95175758398898 20.0 0.027866597978769125 12.05499710461413 17.0 
590.0007842652931 1.0043002483611847 85.93987293184205 20.0 0.0 0.0 17.0 
591.0022024400715 1.08457614103015 85.93987293184205 20.0 0.0 0.0 17.0 
592.0011538615612 1.2813588159819134 87.30475415939702 20.0 0.0 0.0 18.0 
593.0004207856578 1.0931334440822889 85.93987293184205 20.0 0.0 0.0 18.0 
594.0002200312044 1.003223520069921 91.72880382536493 21.0 0.0025448329819731776 1.2724164909865863 18.0 
595.0027616372603 1.060045350297138 97.52607704597796 21.0 0.0 0.0 18.0 
596.0101056853001 0.7009730189172024 97.52607704597796 21.0 0.0 0.0 18.0 
597.0011538615612 0.39215939903946634 85.36839391167564 21.0 0.0 0.0 18.0 
598.0008760931096 0.20348906982609935 22.36932270576733 21.0 0.0 0.0 18.0 
599.0028693917014 0.25317085636181 23.816075983734976 21.0 0.0024905938575736203 1.2452969287868143 18.0 
600.0001152018515 0.21833641497458636 23.816075983734976 21.0 0.0 0.0 18.0 
#####################################################################
# End of data export. Simulation finished at: 2019-02-25T20:01+0000 #
#####################################################################
