#####################################################################
# Alchemist log file - simulation started at: 2019-02-25T20:47+0000 #
#####################################################################
# seed = 194.0
#
# The columns have the following meaning: 
# time distance-rep[Mean] distance-rep[Max] leader-rep[CountDistinct] distance-share[Mean] distance-share[Max] leader-share[CountDistinct] 
0.0 NaN NaN NaN NaN NaN NaN 
1.0073946968174396 0.0 0.0 498.0 0.0 0.0 74.0 
2.0009378250680774 0.0 0.0 98.0 0.0 0.0 69.0 
3.0004769691453808 0.0 0.0 96.0 0.0 0.0 61.0 
4.002024284090197 0.0 0.0 92.0 0.0 0.0 54.0 
5.000038992487279 0.0 0.0 86.0 0.0 0.0 50.0 
6.000431705416696 0.0 0.0 83.0 0.0 0.0 47.0 
7.010060283729942 0.0 0.0 77.0 0.0 0.0 45.0 
8.000795424601765 0.0 0.0 75.0 0.0 0.0 47.0 
9.000627324146873 0.0 0.0 70.0 0.0 0.0 45.0 
10.001011808219115 0.0 0.0 71.0 0.0 0.0 45.0 
11.00058557213761 0.0 0.0 69.0 0.0 0.0 46.0 
12.000505165015566 0.0 0.0 67.0 0.03557306282453975 17.786531412269852 41.0 
13.000196825523908 0.0 0.0 66.0 0.0 0.0 38.0 
14.000499109461419 0.0 0.0 63.0 0.0 0.0 33.0 
15.001011808219115 0.0 0.0 62.0 0.0 0.0 28.0 
16.000129654058107 0.0 0.0 62.0 0.0 0.0 25.0 
17.00220879041973 0.0 0.0 59.0 0.0 0.0 25.0 
18.000795424601765 0.0 0.0 58.0 0.0 0.0 25.0 
19.002451461894008 0.0 0.0 55.0 0.0 0.0 24.0 
20.001011808219115 0.0 0.0 53.0 0.0 0.0 25.0 
21.002194754733836 0.0 0.0 51.0 0.003195494854714717 1.5977474273573478 23.0 
22.001976452290418 0.0 0.0 51.0 0.020375193717031496 8.58984943115837 22.0 
23.000795424601765 0.0 0.0 50.0 0.017844118396960686 3.592819754015977 22.0 
24.003356565725376 0.0 0.0 46.0 0.047324538986345345 14.91648634066226 21.0 
25.000545570523382 0.0 0.0 47.0 0.055463968332753466 15.790388740021115 22.0 
26.00063082652622 0.0 0.0 44.0 0.0 0.0 25.0 
27.00037208129774 0.0 0.0 42.0 0.0 0.0 24.0 
28.000795424601765 0.0 0.0 44.0 0.0 0.0 24.0 
29.002854757007466 0.0 0.0 43.0 0.0 0.0 22.0 
30.001011808219115 0.0 0.0 43.0 0.0 0.0 21.0 
31.002521684660294 0.0 0.0 41.0 0.0 0.0 20.0 
32.0067080795981 0.0 0.0 40.0 0.0 0.0 20.0 
33.00079542460176 0.0 0.0 41.0 0.0 0.0 19.0 
34.000920303628476 0.07128758595662991 35.64379297831502 42.0 0.0 0.0 19.0 
35.00101180821912 0.05618408511123296 28.092042555616615 41.0 0.0 0.0 19.0 
36.00119667811009 0.05618408511123296 28.092042555616615 39.0 0.0 0.0 19.0 
37.00269324487689 0.0 0.0 37.0 0.0 0.0 21.0 
38.00037752151041 0.0 0.0 36.0 0.0 0.0 21.0 
39.00040099103115 0.0 0.0 36.0 0.0 0.0 21.0 
40.00046449996543 0.021219977810256172 10.609988905128091 36.0 0.0 0.0 20.0 
41.00098567738487 0.0 0.0 36.0 0.0 0.0 20.0 
42.002798952066925 0.02539850855144937 12.699254275724627 36.0 0.0 0.0 19.0 
43.000628357955584 0.0 0.0 35.0 0.0 0.0 19.0 
44.001227139200445 0.0 0.0 35.0 0.0 0.0 18.0 
45.00101180821912 0.04386160642701642 16.73460041289482 36.0 0.0 0.0 18.0 
46.00051632029803 0.04386160642701642 16.73460041289482 37.0 0.0 0.0 18.0 
47.000021400032125 0.0495752808293394 18.190203770964757 37.0 0.0 0.0 18.0 
48.00079542460176 0.013194873287410086 6.597436643705009 37.0 0.0 0.0 18.0 
49.00039135623365 0.0 0.0 37.0 0.0 0.0 19.0 
50.000771184340174 0.0 0.0 38.0 0.0 0.0 20.0 
51.0006502620557 0.01406830112990099 7.034150564950494 38.0 0.0 0.0 19.0 
52.00352152235287 0.08412655698580997 26.845850268501835 37.0 0.0 0.0 19.0 
53.00079542460176 0.03043485644880633 14.58317645411205 37.0 0.0 0.0 19.0 
54.00026771541174 0.09282741700553775 31.196280278365577 35.0 0.0 0.0 19.0 
55.00101180821912 0.03324169765187712 14.58317645411205 34.0 0.0 0.0 19.0 
56.00038587191353 0.10963833947953137 30.634659665994434 33.0 0.0 0.0 19.0 
57.00747587186719 0.1477187216999782 42.10180524488291 32.0 0.0 0.0 18.0 
58.00028776015837 0.06204792175181842 25.2131488211607 28.0 0.0 0.0 18.0 
59.00309898531261 0.06351511121021358 25.94674355035812 28.0 0.0 0.0 18.0 
60.00101180821912 0.02657237415708223 13.286187078541076 27.0 3.324625472455965E-4 0.126749182271908 18.0 
61.00034940506524 0.1272867594110467 25.593924316310734 27.0 0.0 0.0 18.0 
62.001116909138446 0.025876730374695477 12.9383651873477 27.0 0.0 0.0 18.0 
63.00079542460176 0.042674319806326536 21.337159903163382 27.0 0.0 0.0 18.0 
64.00045823232867 0.0 0.0 26.0 0.0 0.0 18.0 
65.0003327752385 0.0 0.0 24.0 0.0 0.0 18.0 
66.00241462285258 0.0 0.0 23.0 0.0 0.0 18.0 
67.00090751742177 0.0 0.0 22.0 0.0 0.0 18.0 
68.00079542460176 0.0 0.0 23.0 0.0 0.0 18.0 
69.00093721576013 0.0 0.0 25.0 0.0 0.0 19.0 
70.00024612393845 0.0 0.0 24.0 0.0 0.0 19.0 
71.00204350400796 0.0 0.0 23.0 0.0 0.0 19.0 
72.0044621826894 0.0 0.0 23.0 0.0 0.0 19.0 
73.00055077815463 0.0 0.0 23.0 0.0 0.0 19.0 
74.00048085439565 0.0 0.0 22.0 0.0 0.0 19.0 
75.0007125059559 0.0 0.0 22.0 0.0 0.0 18.0 
76.00135242162642 0.0 0.0 22.0 0.0 0.0 18.0 
77.00351801928662 0.0011577433115099885 0.5788716557549947 22.0 0.0 0.0 18.0 
78.00079542460176 0.0 0.0 22.0 0.0 0.0 18.0 
79.00000416840497 0.0 0.0 22.0 0.0 0.0 18.0 
80.00101180821912 0.0 0.0 21.0 0.0 0.0 18.0 
81.00120391141512 0.0 0.0 22.0 0.0 0.0 17.0 
82.00449777136005 0.00541438145803852 2.70719072901926 21.0 0.0 0.0 17.0 
83.00079542460176 0.0 0.0 21.0 0.0 0.0 17.0 
84.00015983797252 0.0 0.0 20.0 0.0 0.0 17.0 
85.00101180821912 0.0 0.0 20.0 0.0 0.0 17.0 
86.00022297531112 0.0 0.0 20.0 0.0 0.0 17.0 
87.00185580441848 0.0 0.0 20.0 0.0 0.0 17.0 
88.00079542460176 0.0 0.0 20.0 0.0 0.0 17.0 
89.00269827663173 0.0 0.0 20.0 0.0 0.0 17.0 
90.00011425331749 0.0 0.0 20.0 0.0 0.0 17.0 
91.00018260133297 0.0 0.0 19.0 0.0 0.0 17.0 
92.00087381675303 0.0 0.0 19.0 0.0 0.0 17.0 
93.00079542460176 0.0 0.0 19.0 0.0 0.0 17.0 
94.00056873749391 0.0 0.0 19.0 0.0 0.0 17.0 
95.00101180821912 0.0 0.0 19.0 0.0 0.0 17.0 
96.00168548625423 0.0 0.0 19.0 0.0 0.0 17.0 
97.00061800325095 0.0 0.0 19.0 0.0 0.0 17.0 
98.00079542460176 0.0 0.0 19.0 0.0 0.0 17.0 
99.00112154321333 0.0 0.0 19.0 0.0 0.0 17.0 
100.00039071591402 0.0 0.0 19.0 0.0 0.0 18.0 
101.00244666346684 0.0 0.0 19.0 0.0 0.0 18.0 
102.00116551146947 0.0 0.0 19.0 0.0 0.0 18.0 
103.00079542460176 0.0 0.0 20.0 0.0 0.0 19.0 
104.00168348503924 0.0 0.0 20.0 0.0 0.0 19.0 
105.00101180821912 0.0 0.0 19.0 0.0 0.0 18.0 
106.0010287864431 0.0 0.0 19.0 0.0 0.0 18.0 
107.0006687789532 0.0 0.0 18.0 0.0 0.0 17.0 
108.00079542460176 0.0 0.0 18.0 0.0 0.0 17.0 
109.0027613939981 0.0 0.0 18.0 0.0 0.0 17.0 
110.000153697126 0.0 0.0 18.0 0.0 0.0 17.0 
111.00291561405786 0.0 0.0 18.0 0.0 0.0 17.0 
112.00184233782446 0.0 0.0 17.0 0.0 0.0 18.0 
113.00063855425832 0.0 0.0 17.0 0.0 0.0 18.0 
114.00089180815829 0.0 0.0 17.0 0.0 0.0 18.0 
115.00101180821912 0.0 0.0 17.0 0.0 0.0 20.0 
116.00099044962172 0.0 0.0 17.0 0.0 0.0 18.0 
117.00237879720879 0.0 0.0 17.0 0.0 0.0 18.0 
118.00079542460176 0.0 0.0 17.0 0.0 0.0 18.0 
119.00052426750652 0.0 0.0 17.0 0.0 0.0 17.0 
120.00101180821912 0.0 0.0 17.0 0.0 0.0 17.0 
121.0004709250598 0.0 0.0 17.0 0.0 0.0 18.0 
122.0008204823443 0.0 0.0 17.0 0.0 0.0 19.0 
123.00079542460176 0.0 0.0 17.0 0.0 0.0 19.0 
124.00428685804685 0.0 0.0 17.0 0.0 0.0 19.0 
125.00023766055807 0.0 0.0 17.0 0.0 0.0 19.0 
126.00250124477193 0.0 0.0 17.0 0.0 0.0 19.0 
127.0013288658233 0.0 0.0 17.0 0.0 0.0 18.0 
128.00079542460176 0.0 0.0 18.0 0.0 0.0 18.0 
129.00046607212022 0.0 0.0 18.0 0.0 0.0 18.0 
130.00101180821912 0.0071648622920648785 3.582431146032434 18.0 0.0 0.0 18.0 
131.00211078921677 0.0071648622920648785 3.582431146032434 18.0 0.0 0.0 18.0 
132.00105890472713 0.0 0.0 19.0 0.0 0.0 18.0 
133.00079542460176 0.0 0.0 19.0 0.001079985625400472 0.539992812700234 18.0 
134.00273189630076 0.020499664622280415 6.741240430194409 19.0 0.0 0.0 18.0 
135.00091562873737 0.053101182567460777 11.890488199249347 19.0 0.0 0.0 18.0 
136.00739469681744 0.05741041878796935 11.890488199249347 18.0 0.0 0.0 18.0 
137.00310099865473 0.0374913190455084 7.918862654286755 17.0 0.001079985625400472 0.539992812700234 18.0 
138.00050500078265 0.030019970801207305 6.741240430194409 18.0 0.0 0.0 20.0 
139.00096186147294 0.06177037781883234 18.421831723981597 18.0 0.0 0.0 20.0 
140.00101180821912 0.06177037781883234 18.421831723981597 18.0 0.0 0.0 20.0 
141.0011527171457 0.06983763390944914 18.421831723981597 18.0 0.0 0.0 20.0 
142.00046792344463 0.041306700973931056 10.494171898613075 18.0 0.0 0.0 19.0 
143.00079542460176 0.028705772321498083 14.352886160748994 18.0 0.0 0.0 19.0 
144.0028664387575 0.029349365218104283 14.674682609052184 18.0 0.0 0.0 18.0 
145.00101180821912 0.004092528964372387 2.0462644821861886 18.0 0.0 0.0 18.0 
146.00539201953606 0.004092528964372387 2.0462644821861886 18.0 0.0 0.0 18.0 
147.0005209969785 0.0 0.0 17.0 0.0 0.0 18.0 
148.0000168632091 0.0 0.0 18.0 0.0 0.0 18.0 
149.000329499863 0.0 0.0 16.0 0.0 0.0 18.0 
150.00052698468014 0.0 0.0 16.0 0.0 0.0 18.0 
151.00270032300025 0.0 0.0 16.0 0.0 0.0 17.0 
152.003859307114 0.0 0.0 16.0 0.0 0.0 16.0 
153.00079542460176 0.0 0.0 16.0 0.0 0.0 16.0 
154.00054109395734 0.0 0.0 15.0 0.0 0.0 16.0 
155.00002147376887 0.0 0.0 15.0 0.0 0.0 16.0 
156.00090856904362 0.0 0.0 15.0 0.0 0.0 15.0 
157.0005118299209 0.0 0.0 15.0 0.0 0.0 15.0 
158.00079542460176 0.0 0.0 15.0 0.0 0.0 15.0 
159.00028431416666 0.002577564427026912 1.288782213513457 15.0 0.0 0.0 14.0 
160.00101180821912 0.002577564427026912 1.288782213513457 15.0 0.0 0.0 14.0 
161.0002617295457 0.002577564427026912 1.288782213513457 16.0 0.0 0.0 14.0 
162.0011521739296 0.002577564427026912 1.288782213513457 16.0 0.0 0.0 14.0 
163.00059928931887 0.0 0.0 17.0 0.0 0.0 15.0 
164.00261037145737 0.025576443136031655 12.788221568015842 17.0 0.0 0.0 15.0 
165.00101180821912 0.05561481537776998 17.166939438408036 17.0 0.0 0.0 15.0 
166.00604627074233 0.0 0.0 17.0 0.0 0.0 15.0 
167.00409938064686 0.01029835138034899 5.149175690174474 17.0 0.0 0.0 15.0 
168.00079542460176 0.0 0.0 17.0 0.0 0.0 15.0 
169.00403517169156 0.0 0.0 16.0 0.0 0.0 16.0 
170.00074778499462 0.0 0.0 15.0 0.0 0.0 16.0 
171.00349444808643 0.0 0.0 15.0 0.0 0.0 16.0 
172.0010628035359 0.0 0.0 15.0 0.0 0.0 16.0 
173.00079542460176 0.0 0.0 16.0 0.0 0.0 17.0 
174.00246107353303 0.001510845729848778 0.7554228649243839 16.0 0.0 0.0 17.0 
175.0010031736294 0.05025855525683464 16.928260197276728 16.0 0.0 0.0 17.0 
176.00083603777762 0.01640203486228103 8.20101743114057 16.0 0.0 0.0 17.0 
177.00057795104192 0.01640203486228103 8.20101743114057 15.0 0.0 0.0 17.0 
178.00079542460176 0.01640203486228103 8.20101743114057 15.0 0.0 0.0 17.0 
179.00134076991117 0.031009883983949972 15.504941991975016 16.0 0.0 0.0 17.0 
180.00101180821912 0.036281434631695406 18.140717315847894 16.0 0.0 0.0 17.0 
181.0004274694385 0.036281434631695406 18.140717315847894 15.0 0.0 0.0 17.0 
182.00357885917984 0.1271840903452506 27.510564402949115 15.0 0.0 0.0 18.0 
183.00055447880354 0.13313296374759767 27.510564402949115 15.0 0.0 0.0 18.0 
184.00049040615167 0.14806442458241434 27.510564402949115 16.0 0.0 0.0 18.0 
185.00101180821912 0.13113516228144934 27.218695971592894 15.0 0.0 0.0 18.0 
186.00336990758493 0.11525164101888663 25.113111010396068 14.0 0.0 0.0 18.0 
187.0033102930553 0.11525164101888663 25.113111010396068 14.0 0.0 0.0 18.0 
188.00079542460176 0.1923799556467377 31.207809755699117 14.0 0.0 0.0 18.0 
189.00456720355191 0.28990663712485026 41.334026991254575 15.0 0.0 0.0 17.0 
190.00101180821912 0.2658743110068416 37.015489518124184 14.0 0.0 0.0 16.0 
191.004631992093 0.2813326738991804 37.015489518124184 14.0 0.0 0.0 16.0 
192.00102817932674 0.19228117126300034 32.51069648006907 13.0 0.0 0.0 15.0 
193.00079542460176 0.27289105564006516 37.015489518124184 13.0 0.0 0.0 15.0 
194.00011411593204 0.2578666393703167 32.51069648006907 15.0 0.0 0.0 16.0 
195.000125796114 0.3943838591493028 49.06230375335386 15.0 0.0 0.0 15.0 
196.00240201369405 0.38216519606337807 40.24026280313112 14.0 0.0 0.0 16.0 
197.0027779473841 0.46536435448884966 40.24026280313112 14.0 0.0 0.0 17.0 
198.00065506830856 0.38936112665971684 40.24026280313112 14.0 0.0 0.0 18.0 
199.0036159194587 0.3893701306313732 47.76605579412956 15.0 0.0 0.0 18.0 
200.00101180821912 0.3419242496336337 26.944671562253774 14.0 0.0 0.0 18.0 
201.0008769088075 0.35274640510364724 32.56812362399333 14.0 0.0 0.0 18.0 
202.00481249041016 0.32951601332509994 31.461879184301438 14.0 0.0 0.0 18.0 
203.00003670610266 0.3207222644550313 33.153173934295836 14.0 0.0 0.0 16.0 
204.00042831815773 0.27300212226310344 33.153173934295836 15.0 0.0 0.0 16.0 
205.00101180821912 0.34025309527375736 33.82120059076334 15.0 0.0 0.0 16.0 
206.00289001030515 0.3713044358444776 33.841570011585674 15.0 0.0 0.0 16.0 
207.00711628521918 0.44221249179863903 33.82120059076334 14.0 0.0 0.0 16.0 
208.00079542460176 0.39150597837536405 41.27829784376456 15.0 0.0 0.0 16.0 
209.00065866263537 0.3764255091856567 41.27829784376456 15.0 0.0 0.0 16.0 
210.00101180821912 0.3849406259246394 42.107380806882844 16.0 0.0 0.0 16.0 
211.00739469681744 0.37941322118647053 42.107380806882844 15.0 0.0 0.0 16.0 
212.00273962110546 0.3956381427773283 42.107380806882844 15.0 0.0 0.0 15.0 
213.00017339483637 0.36133881802370893 47.01906194638809 15.0 0.0 0.0 15.0 
214.0013466251142 0.24981336361545853 21.685491140531667 16.0 0.0 0.0 15.0 
215.00101180821912 0.42104120078827506 28.22572854999737 15.0 0.0 0.0 15.0 
216.0062018612111 0.5307491695928978 40.568909100716866 14.0 0.0 0.0 15.0 
217.00116985804013 0.5596884359396995 40.568909100716866 14.0 0.0 0.0 15.0 
218.00022441155244 0.550358429119102 40.568909100716866 14.0 0.0 0.0 15.0 
219.00134949468173 0.5672368885435405 40.568909100716866 15.0 0.0 0.0 17.0 
220.00101180821912 1.0133688237273284 65.45900575633607 15.0 0.0 0.0 16.0 
221.0015587027151 1.1079908329030048 66.04192459483647 15.0 0.0 0.0 16.0 
222.00605623899915 0.9490799416775887 46.31028814185399 15.0 0.0 0.0 17.0 
223.00078052373416 1.203923494640004 47.64524062519067 14.0 0.013242872099640764 6.621436049820375 16.0 
224.00280908442548 1.3315995206390931 60.56907379578405 14.0 0.013242872099640764 6.621436049820375 16.0 
225.00101180821912 1.3959637328879104 45.52230600643975 16.0 0.0 0.0 17.0 
226.0006748564756 1.4502759688553113 45.52230600643975 16.0 0.0 0.0 17.0 
227.0003460277725 1.5050716658764984 43.93701658418104 15.0 0.0 0.0 17.0 
228.00079542460176 1.4920634922988432 43.93701658418104 17.0 0.0 0.0 18.0 
229.00014223826167 1.5216719844859439 49.80059107102744 15.0 0.0 0.0 17.0 
230.00101180821912 1.6222340647570694 51.00926098738506 15.0 0.0 0.0 17.0 
231.00381143495792 1.6881080437822638 51.00926098738506 15.0 0.0 0.0 17.0 
232.0018655215452 1.6337810583795573 51.00926098738506 15.0 0.0 0.0 19.0 
233.00079542460176 1.6386153477141943 48.81579152489803 16.0 0.0 0.0 19.0 
234.00144877251262 1.5980195114200013 48.81579152489803 15.0 0.0 0.0 18.0 
235.00082954968371 1.9201038997590527 61.15037797646147 15.0 0.0 0.0 18.0 
236.0007712168897 2.5459394542702576 78.90535231056072 15.0 0.0 0.0 18.0 
237.0001114056224 2.0929346804442663 61.15037797646147 16.0 0.0 0.0 16.0 
238.00079542460176 1.8483511601241007 58.69281438547455 16.0 0.0 0.0 16.0 
239.0021392200001 1.1216058888718272 62.704126532802434 16.0 0.0 0.0 16.0 
240.0005915248539 1.2261784560975169 64.32911286307711 16.0 0.0 0.0 16.0 
241.0005597308433 1.2473654071224862 64.32911286307711 16.0 0.0 0.0 16.0 
242.00085313127994 1.5284226255046816 72.91639056706737 16.0 0.0 0.0 16.0 
243.00079542460176 1.3405398699897748 63.79321426607612 17.0 0.0 0.0 17.0 
244.00124689923177 1.344067078393872 63.79321426607612 17.0 0.0 0.0 17.0 
245.00101180821912 1.7013055699079447 69.49396644574028 18.0 0.0 0.0 18.0 
246.00013186556964 1.7275664987931734 71.96240265015228 18.0 0.0 0.0 18.0 
247.00034397116784 1.6094666691701658 71.96240265015228 18.0 0.0 0.0 18.0 
248.00079542460176 1.8139844897292012 67.57921402221439 18.0 0.0 0.0 18.0 
249.00396021124007 1.4002873718362647 65.37614841275087 18.0 0.0 0.0 18.0 
250.00101180821912 1.3774675036246522 69.22047142103588 19.0 0.0 0.0 18.0 
251.00286549192256 1.386322228488332 69.22047142103588 19.0 0.0 0.0 18.0 
252.00178553878268 1.0739724944958555 62.00885674045668 19.0 0.0 0.0 18.0 
253.00044138192774 1.0087133608502143 62.00885674045668 19.0 0.0 0.0 19.0 
254.00090816439132 0.9141098729310048 60.47070236609164 19.0 0.0 0.0 20.0 
255.00101180821912 0.9260678457017881 62.87222122850545 18.0 0.0 0.0 20.0 
256.000621865072 1.058816697188132 62.87222122850545 19.0 0.0 0.0 20.0 
257.00631795074173 0.8504515349680817 60.26906367796164 20.0 0.0 0.0 20.0 
258.00079542460173 0.7664103480662046 60.26906367796164 20.0 0.0 0.0 20.0 
259.00322145928703 0.4370818846105646 33.468907368588106 21.0 0.0 0.0 20.0 
260.0000313712149 0.2552144201750788 25.065730674717713 20.0 0.0 0.0 19.0 
261.0003736709444 0.4145096998362103 35.654737428817924 20.0 0.0 0.0 19.0 
262.00366957510124 0.4482901709473395 35.92855796980538 19.0 0.0 0.0 19.0 
263.00079542460173 0.5770931426090599 35.92855796980538 19.0 0.0 0.0 19.0 
264.0007920308902 0.45298788011678537 35.654737428817924 19.0 0.0 0.0 18.0 
265.0010118082191 0.35754029853236563 30.744818074283955 19.0 0.0 0.0 18.0 
266.0004761879043 0.4145203581445044 30.744818074283955 20.0 0.0 0.0 18.0 
267.0013235410372 0.6300780762037663 30.744818074283955 20.0 0.0 0.0 18.0 
268.0004199698218 0.5810056113974652 33.83896967913557 20.0 0.0 0.0 18.0 
269.0007678094628 0.3161252928481063 33.83896967913557 19.0 0.0 0.0 18.0 
270.0010118082191 0.4075041497910695 39.26374547523008 19.0 0.0 0.0 17.0 
271.0037960669401 0.5638771923147821 39.26374547523008 19.0 0.0 0.0 17.0 
272.00013941626685 0.8310227167145597 45.40082065646337 19.0 0.0 0.0 17.0 
273.00079542460173 0.6721496490565335 45.40082065646337 18.0 0.0 0.0 17.0 
274.001086614896 0.7390162844580652 49.457298425367156 18.0 0.0 0.0 17.0 
275.0010118082191 0.9686716442746808 56.92628221086761 18.0 0.0 0.0 17.0 
276.000301223694 0.9159967618825926 56.92628221086761 18.0 0.0 0.0 17.0 
277.0008549457881 0.9535344236581563 56.92628221086761 18.0 0.0 0.0 17.0 
278.0005492044465 0.9181459661120163 52.74826785822006 18.0 0.0 0.0 17.0 
279.00306909900206 0.8514752979191703 52.74826785822006 18.0 0.0 0.0 17.0 
280.0004153752664 1.1273092130652829 60.081553240854475 18.0 0.0 0.0 17.0 
281.00283356878873 1.2390025866804488 66.95298292017657 17.0 0.0 0.0 17.0 
282.0000085985426 1.218938648264168 66.95298292017657 17.0 0.0010482686454282646 0.5241343227141328 18.0 
283.0002642826235 1.2013902238389833 66.95298292017657 17.0 0.0010482686454282646 0.5241343227141328 19.0 
284.0035101437165 1.1857579083553287 66.95298292017657 17.0 0.0010482686454282646 0.5241343227141328 18.0 
285.0010118082191 1.5182409709790012 73.01469578942272 17.0 0.0 0.0 19.0 
286.0038871057978 1.6204532691460884 79.88554916966734 17.0 0.0 0.0 19.0 
287.00123393221503 1.7273589073528322 79.88554916966734 17.0 0.0 0.0 19.0 
288.00079542460173 1.6127789908280474 79.88554916966734 17.0 0.0 0.0 19.0 
289.0007536819397 1.5456845058337298 79.88554916966734 17.0 0.0 0.0 19.0 
290.00021630810545 1.2561634088298805 73.81748720442408 17.0 0.0 0.0 18.0 
291.0032274639168 1.4785560918037668 85.96077735517088 18.0 0.0 0.0 18.0 
292.0051370408865 1.5198589266224374 85.96077735517088 18.0 0.0 0.0 18.0 
293.00061916133393 1.5014221132259857 85.96077735517088 18.0 0.0 0.0 18.0 
294.0055453734181 1.5636208503704048 85.96077735517088 18.0 0.0 0.0 18.0 
295.00051336815187 1.4212247090820698 81.46079736303636 18.0 0.0 0.0 18.0 
296.000584410054 1.8142263765578002 81.46079736303636 18.0 0.0 0.0 18.0 
297.0007320563057 1.4874993599473834 81.46079736303636 18.0 0.0 0.0 18.0 
298.0002730582154 1.7095001026777183 81.46079736303636 18.0 0.0 0.0 19.0 
299.0017364464314 1.986492405350191 81.46079736303636 17.0 0.0 0.0 19.0 
300.0001720033718 1.5975906435223726 80.01482807120982 18.0 0.0 0.0 20.0 
301.0001499331603 1.4015277490102698 70.92787283548608 18.0 0.0 0.0 20.0 
302.00155827210483 1.548218152286129 70.92787283548608 18.0 0.0 0.0 21.0 
303.00079542460173 1.3834384353211864 70.92787283548608 18.0 0.0 0.0 21.0 
304.00025605380307 1.6279443358718637 74.03718012407569 18.0 0.0 0.0 21.0 
305.0010118082191 1.3502101055743876 64.10103839564636 18.0 0.0 0.0 21.0 
306.0004705021047 1.2081208492554598 64.10103839564636 18.0 0.0 0.0 21.0 
307.00771143110205 1.1062975067745828 65.70028507172373 19.0 0.0 0.0 21.0 
308.0000399440504 1.2512027682557272 69.07153919067804 20.0 0.0 0.0 21.0 
309.0013717415863 1.17468484219211 63.748491348541165 20.0 0.0 0.0 21.0 
310.0010118082191 1.0730066813601817 62.6974887091331 20.0 0.0 0.0 21.0 
311.00091192741354 0.9379762270503006 61.58601534705474 20.0 0.0 0.0 21.0 
312.0035896424617 0.8469135342541068 61.58601534705474 20.0 0.0 0.0 21.0 
313.00079542460173 0.6238311788464473 46.769242490776406 20.0 0.0 0.0 21.0 
314.00100234436155 0.7745838536963275 61.58601534705474 20.0 0.0 0.0 21.0 
315.0010118082191 0.5687299150850925 36.82188991190597 21.0 0.0 0.0 21.0 
316.00111925742436 0.5620609204080128 36.82188991190597 21.0 0.0 0.0 21.0 
317.000398715115 0.5978751622565035 39.12986625393265 20.0 0.0 0.0 21.0 
318.00079542460173 0.6421639781784603 40.28425598352669 20.0 0.0 0.0 21.0 
319.0013020686352 0.69477177671691 40.28425598352669 20.0 0.0 0.0 23.0 
320.0010118082191 0.5644969255893717 37.653494190827956 20.0 0.0 0.0 23.0 
321.0022255770971 0.5739112888369794 37.653494190827956 19.0 0.0 0.0 23.0 
322.0060511923439 0.6513953778847986 43.63099784646994 18.0 0.0 0.0 23.0 
323.00058311385476 0.6120570937115065 43.63099784646994 18.0 0.0 0.0 22.0 
324.00042644548154 0.8142556900270554 46.0198335082471 19.0 0.0 0.0 23.0 
325.0010118082191 0.6641435665147796 43.91681443619055 19.0 0.0 0.0 23.0 
326.00199084500053 0.6567007278197119 43.91681443619055 19.0 0.0 0.0 23.0 
327.00170328744593 0.5939687164265318 43.91681443619055 19.0 0.0 0.0 23.0 
328.00067032325427 0.631330606611567 44.00102373584224 19.0 0.0 0.0 24.0 
329.0014484939768 0.7708927795894465 49.871975590165704 20.0 0.0 0.0 24.0 
330.00076947996354 0.3384032323436048 42.019749030100456 18.0 0.0 0.0 24.0 
331.0004026915827 0.1894563629131017 43.44495501496007 19.0 0.0 0.0 23.0 
332.00160754672163 0.059365440887665065 19.152077517701287 19.0 0.0 0.0 23.0 
333.00079542460173 0.03496709200603513 17.483546003017494 19.0 0.0 0.0 23.0 
334.0008214767453 0.038304155035402465 19.152077517701287 19.0 0.0 0.0 23.0 
335.0010118082191 0.019068854652633284 6.029879413291894 19.0 0.0 0.0 22.0 
336.00106101926787 0.06788049141130349 24.40581837933493 19.0 0.0 0.0 21.0 
337.000826579693 0.019068854652633284 6.029879413291894 19.0 0.0 0.0 21.0 
338.00079542460173 0.019068854652633284 6.029879413291894 19.0 0.0 0.0 21.0 
339.0014134706701 0.019068854652633284 6.029879413291894 19.0 0.0 0.0 21.0 
340.0002233330251 0.05979286658683164 18.09745480009076 19.0 0.0 0.0 21.0 
341.00012501363426 0.0636550175294338 18.09745480009076 19.0 0.0 0.0 21.0 
342.00275756808685 0.0636550175294338 18.09745480009076 19.0 0.0 0.0 20.0 
343.00079542460173 0.027460107929252072 13.730053964626023 19.0 0.0 0.0 21.0 
344.0029479625327 0.0636550175294338 18.09745480009076 20.0 0.0 0.0 21.0 
345.0010118082191 0.07394067205617945 21.95082306924391 20.0 0.0 0.0 20.0 
346.0003842608772 0.07796333051258267 21.95082306924391 20.0 0.0 0.0 19.0 
347.0003735500159 0.09259660605607054 21.95082306924391 20.0 0.0 0.0 19.0 
348.00079542460173 0.05847479297024965 17.030842187047455 20.0 0.0 0.0 19.0 
349.0008637859596 0.08813351414008683 17.030842187047455 19.0 0.0 0.0 19.0 
350.0010118082191 0.11643624542640543 24.164116461726366 19.0 0.0 0.0 19.0 
351.0009475289799 0.1556391690898337 26.132452046279127 19.0 0.0 0.0 19.0 
352.00168302163235 0.1556391690898337 26.132452046279127 19.0 0.0 0.0 19.0 
353.0004061302513 0.1391353240118474 26.132452046279127 20.0 0.0 0.0 19.0 
354.0025860502607 0.08687041991928882 21.874079641622984 20.0 0.0 0.0 20.0 
355.0010118082191 0.024883360088875303 12.441680044437618 21.0 0.0 0.0 20.0 
356.0002113673527 0.0 0.0 21.0 0.0 0.0 20.0 
357.0043506782133 0.0 0.0 21.0 0.0 0.0 19.0 
358.00079542460173 0.0064741647521023155 3.2370823760511485 21.0 0.0 0.0 19.0 
359.00027267553133 0.010393007183247763 3.2370823760511485 21.0 0.0 0.0 20.0 
360.00037143328467 0.01808844331922687 4.183337975604076 21.0 0.0 0.0 20.0 
361.00164195368194 0.02161273298787962 5.945482809930411 21.0 0.0 0.0 20.0 
362.00026852764057 0.02161273298787962 5.945482809930411 21.0 0.0 0.0 21.0 
363.00057939240975 0.04520285755138693 5.963659519252047 21.0 0.0 0.0 20.0 
364.0047789301108 0.11860654785606346 13.33545597778678 21.0 0.0 0.0 19.0 
365.00040092246184 0.11675727296341275 13.63660863608277 22.0 0.0 0.0 19.0 
366.00510471978833 0.11960497657120817 13.63660863608277 22.0 0.0 0.0 19.0 
367.00230433805115 0.0647009878042557 10.016363168911056 22.0 0.0 0.0 19.0 
368.00079542460173 0.0 0.0 22.0 0.0 0.0 19.0 
369.00171127693176 0.0 0.0 21.0 0.0 0.0 19.0 
370.0001230488089 0.0 0.0 21.0 0.0 0.0 19.0 
371.0010911294859 0.0 0.0 20.0 0.0 0.0 19.0 
372.0002817869524 0.0 0.0 20.0 0.0 0.0 19.0 
373.0007550171341 0.0 0.0 20.0 0.0 0.0 19.0 
374.00016123558026 0.005282767933261047 2.6413839666305137 20.0 0.0 0.0 19.0 
375.0007161432384 0.016494082034910956 3.485406423701278 20.0 0.0 0.0 18.0 
376.00081960877793 0.016494082034910956 3.485406423701278 20.0 0.0 0.0 18.0 
377.0014237185882 0.012253580780663553 3.485406423701278 20.0 0.0 0.0 18.0 
378.00079542460173 0.00952326918750844 2.6413839666305137 19.0 0.0 0.0 17.0 
379.00023479616505 0.0 0.0 19.0 0.0 0.0 17.0 
380.0007410025174 9.766446719249294E-4 0.4883223359624651 19.0 0.0 0.0 17.0 
381.00051045319407 9.766446719249294E-4 0.4883223359624651 19.0 0.0 0.0 17.0 
382.00130581924475 0.0 0.0 19.0 0.0 0.0 17.0 
383.00051382568836 0.0460962447244967 23.04812236224842 19.0 0.0 0.0 17.0 
384.0016646415699 0.0 0.0 19.0 0.0 0.0 17.0 
385.0000677766362 0.005894675304643095 1.4921572118355186 19.0 0.0 0.0 16.0 
386.00126246640883 0.03227643012864446 15.036093739769143 20.0 0.0 0.0 16.0 
387.0000004644882 0.005114603530078478 1.455180440486032 20.0 0.0 0.0 16.0 
388.00079542460173 0.005309976282430761 1.1530120295004451 20.0 0.0 0.0 16.0 
389.0017013630685 0.0030039522234299133 1.1021213245531953 20.0 0.0 0.0 16.0 
390.0010118082191 0.036866170704190494 8.77932251791745 20.0 0.0 0.0 16.0 
391.0036388392691 0.06822080888791779 8.77932251791745 20.0 0.0 0.0 17.0 
392.0036036466239 0.06822080888791779 8.77932251791745 20.0 0.0 0.0 16.0 
393.0001596107193 0.13839368940528884 22.957977106930542 20.0 0.0 0.0 17.0 
394.0000899186858 0.15507084083665787 18.609534602500446 20.0 0.0 0.0 17.0 
395.0010118082191 0.23405592975464143 22.923948931858007 20.0 0.0 0.0 18.0 
396.00073423810073 0.3104069477179353 28.970834805891116 20.0 0.0 0.0 18.0 
397.00197872684316 0.2869905234578113 24.017699939965297 20.0 0.0 0.0 17.0 
398.00003203695246 0.29609911457369786 31.735779391294415 20.0 0.0 0.0 17.0 
399.00018658779857 0.3321016384004096 29.744531238572392 21.0 0.0 0.0 17.0 
400.0001053778775 0.3461209223937905 28.480142347805582 21.0 0.0 0.0 17.0 
401.00221360453526 0.5641541732874706 36.08421777766324 21.0 0.0 0.0 17.0 
402.00166563935545 0.5110168094962272 36.08421777766324 21.0 0.0 0.0 17.0 
403.00079542460173 0.6412627160171014 43.77008017455705 21.0 0.0 0.0 17.0 
404.0069984499915 0.48026790891994653 34.993250721365655 21.0 0.0 0.0 17.0 
405.00096583920845 0.7512754637004699 41.66581313677116 19.0 0.0 0.0 15.0 
406.0040346716781 0.8930597882941349 44.0316286449339 19.0 0.0 0.0 15.0 
407.00005629766537 0.5908397477470785 44.0316286449339 20.0 0.0 0.0 16.0 
408.00012257375533 0.7046404669791304 44.0316286449339 20.0 0.0 0.0 17.0 
409.0036327480799 0.5549938731218921 33.86280194671636 20.0 0.0 0.0 18.0 
410.00046382111066 1.1531834683923294 57.03085279478677 19.0 0.0 0.0 16.0 
411.00151482802244 0.8933651311105766 44.88769523374373 19.0 0.0 0.0 16.0 
412.00273201140595 1.1377995445842988 62.98513798610588 18.0 0.0 0.0 16.0 
413.0005142265959 1.0380410783110194 55.291764066115746 18.0 0.0 0.0 16.0 
414.00324295375384 1.1698778602172522 59.73242850190309 18.0 0.0 0.0 15.0 
415.0002193604871 1.2407926032143417 65.2792397033449 18.0 0.0 0.0 15.0 
416.0016335115319 1.2230116460736817 61.87305902195942 18.0 0.0 0.0 15.0 
417.00298828106446 1.0896235805323378 65.68897213610722 18.0 0.0 0.0 15.0 
418.00079542460173 1.136621766222432 65.68897213610722 19.0 0.0 0.0 16.0 
419.000570669082 1.0297098231848971 61.52693399195675 19.0 0.0 0.0 16.0 
420.0003238631868 1.0688696340269443 65.68897213610722 18.0 0.0 0.0 17.0 
421.0003509784591 0.9329414399801995 60.48228712262551 18.0 0.0 0.0 17.0 
422.0004373374054 0.9137725998994096 60.48228712262551 17.0 0.0 0.0 17.0 
423.00079542460173 0.884666333999057 60.48228712262551 17.0 0.0 0.0 17.0 
424.00110598259073 0.9756303318326786 61.12194780552261 17.0 0.0 0.0 17.0 
425.00086556981756 1.2477546936817943 75.6841487917585 17.0 0.0 0.0 17.0 
426.0009230753143 1.0598198977906546 62.61427398194587 17.0 0.0 0.0 17.0 
427.00449662320585 1.0348657355745952 62.61427398194587 17.0 0.0 0.0 17.0 
428.0001699904579 1.049718821038501 69.7925388052634 16.0 0.0 0.0 17.0 
429.0047977784303 1.129084765753969 69.97321904238498 18.0 0.0 0.0 17.0 
430.0010118082191 1.1856577887789168 71.70515217848481 18.0 0.0 0.0 18.0 
431.0008875957626 1.2501753862969573 71.70515217848481 17.0 0.0 0.0 18.0 
432.00111534001127 1.202521235286747 71.70515217848481 17.0 0.0 0.0 18.0 
433.00079542460173 0.9932693459081916 71.70515217848481 17.0 0.0 0.0 17.0 
434.00224445644335 1.3784871723437233 79.05975401763004 17.0 0.0 0.0 18.0 
435.00033473499394 1.429391820470003 80.95578655907894 17.0 0.0 0.0 18.0 
436.0016201977957 1.4388184358452356 80.95578655907894 17.0 0.0 0.0 18.0 
437.0050856432621 1.5557939451667258 80.95578655907894 17.0 0.0 0.0 17.0 
438.00079542460173 1.3798253875746949 80.95578655907894 17.0 0.0 0.0 16.0 
439.0011993251074 1.3559843419520008 88.21253442953156 17.0 0.0 0.0 16.0 
440.00072456125343 1.5695680688373501 87.08586079887618 17.0 0.0 0.0 16.0 
441.00167079554933 1.492587314221183 90.93206539208262 17.0 0.0 0.0 16.0 
442.00129905396955 1.4924084064568726 91.14783445275077 17.0 0.0 0.0 16.0 
443.00016036039915 1.3564295378556739 81.29800629770489 17.0 0.0 0.0 16.0 
444.00049163092507 1.3516532373529762 82.33712219539836 18.0 0.0 0.0 16.0 
445.0010118082191 1.4658333065145597 88.89866763306475 18.0 0.0 0.0 16.0 
446.00491747020544 1.555002283405166 88.89866763306475 17.0 0.0 0.0 16.0 
447.000224035199 1.2263143972567168 88.89866763306475 17.0 0.0 0.0 16.0 
448.00022782429124 1.0303293623303715 88.89866763306475 17.0 0.0 0.0 16.0 
449.0009731225922 1.290629175610311 91.33622547599185 17.0 0.0 0.0 16.0 
450.0010118082191 1.0588038639121269 99.03827063666097 17.0 0.0 0.0 16.0 
451.0018188338626 1.0874416949718089 99.03827063666097 17.0 0.0 0.0 16.0 
452.0007141665669 0.5656016524485906 96.26766768301064 17.0 0.0 0.0 16.0 
453.00079542460173 0.8273188430022853 99.03827063666097 17.0 0.0 0.0 16.0 
454.0010718162745 0.5136277950089372 102.27380582657827 17.0 0.0 0.0 16.0 
455.0010118082191 0.5411393928321782 109.69312144802296 17.0 0.0 0.0 16.0 
456.0009578297242 0.5558711316728644 109.69312144802296 17.0 0.0 0.0 16.0 
457.0013860578963 0.10835780296275978 23.885584357593473 17.0 0.0 0.0 16.0 
458.00018422565785 0.5594994632933017 115.87770871724894 19.0 0.0 0.0 16.0 
459.00066171725445 0.09035334778184592 30.224706831272925 18.0 0.0 0.0 16.0 
460.00009028374166 0.0 0.0 18.0 0.0 0.0 16.0 
461.00259363405644 0.0 0.0 18.0 0.0 0.0 16.0 
462.00050490355113 0.0 0.0 18.0 0.0 0.0 16.0 
463.00056169987516 0.019398333474899783 9.699166737449929 18.0 0.0 0.0 16.0 
464.0038371512662 0.019398333474899783 9.699166737449929 18.0 0.0 0.0 16.0 
465.0008196867084 0.039864974779544544 14.936956430097808 18.0 0.0 0.0 16.0 
466.00178702256983 0.039864974779544544 14.936956430097808 18.0 0.0 0.0 16.0 
467.00089197979065 0.039864974779544544 14.936956430097808 18.0 0.0 0.0 16.0 
468.00079542460173 0.039864974779544544 14.936956430097808 18.0 0.0 0.0 16.0 
469.0007229798969 0.0401198864650149 12.529728284836324 18.0 0.0 0.0 15.0 
470.0009883709746 0.05096104880321518 17.95030945393654 18.0 0.0 0.0 14.0 
471.0007148285726 0.07133960148689676 17.95030945393654 18.0 0.0 0.0 14.0 
472.0045849848141 0.07133960148689676 17.95030945393654 18.0 0.0 0.0 14.0 
473.00079542460173 0.07133960148689676 17.95030945393654 18.0 0.0 0.0 14.0 
474.0039085157821 0.07182540539473707 25.53428040376258 18.0 0.0 0.0 14.0 
475.0003124095532 0.09398549201073633 31.057047269383474 18.0 0.0 0.0 14.0 
476.0002768079057 0.1203419971656394 31.057047269383474 18.0 0.0 0.0 14.0 
477.00090437918544 0.1203419971656394 31.057047269383474 18.0 0.0 0.0 14.0 
478.00079542460173 0.1203419971656394 31.057047269383474 17.0 0.0 0.0 14.0 
479.00056954371877 0.12061360726304592 38.63105576200874 17.0 0.0 0.0 14.0 
480.00060863837393 0.11223102648237691 31.097424823264475 17.0 0.0 0.0 14.0 
481.0004226244204 0.2424581200360654 44.188237136679845 16.0 0.0 0.0 15.0 
482.0012857491171 0.2425779960935406 44.188237136679845 16.0 0.0 0.0 15.0 
483.00033932055385 0.15408164576270617 31.097424823264475 15.0 0.0 0.0 15.0 
484.0019011385572 0.15445850307101514 31.097424823264475 16.0 0.0 0.0 15.0 
485.0010118082191 0.2067589872789397 31.097424823264475 16.0 0.0 0.0 15.0 
486.0007893109396 0.36128074046198355 54.734152126456365 15.0 0.0 0.0 15.0 
487.0057352683108 0.18750597236989028 44.37358759144007 16.0 0.0 0.0 15.0 
488.00079542460173 0.0 0.0 16.0 0.0 0.0 15.0 
489.00684858152823 0.0 0.0 15.0 0.0 0.0 15.0 
490.0010118082191 0.0 0.0 15.0 0.0 0.0 15.0 
491.00021419703097 0.0 0.0 15.0 0.0 0.0 15.0 
492.00229006227363 0.0 0.0 15.0 0.0 0.0 15.0 
493.0003947749314 0.0 0.0 15.0 0.0 0.0 17.0 
494.0004675148888 0.0 0.0 15.0 0.0 0.0 17.0 
495.0010118082191 0.0 0.0 15.0 0.0 0.0 17.0 
496.0017219219866 0.0 0.0 15.0 0.0 0.0 17.0 
497.00032814445956 0.0 0.0 15.0 0.0 0.0 16.0 
498.00030672893104 0.0 0.0 15.0 0.0 0.0 16.0 
499.0025054847853 0.0 0.0 14.0 0.0 0.0 16.0 
500.00012400379444 0.0 0.0 14.0 0.0 0.0 16.0 
501.0023536464689 0.018463398750428458 9.231699375214276 14.0 0.0 0.0 16.0 
502.0061425103878 0.004006837036423365 2.003418518211703 14.0 0.0 0.0 16.0 
503.00079542460173 0.004006837036423365 2.003418518211703 14.0 0.0 0.0 16.0 
504.00337616762465 0.004006837036423365 2.003418518211703 14.0 0.0 0.0 16.0 
505.0010118082191 0.0211882398696244 9.145018896862695 15.0 0.0 0.0 15.0 
506.0050278201472 0.006904927588707031 2.003362756404073 15.0 0.0 0.0 15.0 
507.00556882792273 0.006904927588707031 2.003362756404073 15.0 0.0 0.0 15.0 
508.00079542460173 0.01905727685989001 7.525275673540904 15.0 0.0 0.0 15.0 
509.00043385667954 0.01905727685989001 7.525275673540904 15.0 0.0 0.0 15.0 
510.0001426933282 0.04765417348932113 13.500698981842788 15.0 0.0 0.0 15.0 
511.0003164230338 0.06571934795076605 13.500698981842788 15.0 0.0 0.0 15.0 
512.001350955287 0.06379909334440173 19.728708528753714 15.0 0.0 0.0 15.0 
513.0005866901851 0.06379909334440173 19.728708528753714 15.0 0.0 0.0 15.0 
514.0008120450349 0.0761829855204658 19.728708528753714 15.0 0.0 0.0 15.0 
515.0010118082191 0.10050331855254216 25.82901561458152 15.0 0.0 0.0 15.0 
516.0008140325637 0.16952021089725253 25.82901561458152 15.0 0.0 0.0 15.0 
517.0001519476673 0.11816501068653654 29.83257264330493 14.0 0.0 0.0 15.0 
518.0007954246017 0.1755914886432257 29.83257264330493 15.0 0.0 0.0 15.0 
519.0089937211067 0.10245045409623983 29.83257264330493 15.0 0.0 0.0 15.0 
520.0007393940349 0.18997175277737402 30.55743089162769 15.0 0.0 0.0 15.0 
521.0001190404121 0.13197088414963454 36.091061410766 16.0 0.0 0.0 16.0 
522.0007710958091 0.13040475293034443 36.091061410766 17.0 0.0 0.0 16.0 
523.0007954246017 0.13221039698842416 32.31369874104408 17.0 0.0 0.0 16.0 
524.0007363825798 0.13221039698842416 32.31369874104408 17.0 0.0 0.0 16.0 
525.0010118082191 0.15928546835271165 38.363812910834696 16.0 0.0 0.0 16.0 
526.0006040197296 0.18756880799358158 38.84464312638343 16.0 0.0 0.0 16.0 
527.001291558725 0.15807365508331933 38.84464312638343 17.0 0.0 0.0 16.0 
528.0007954246017 0.15939021712288215 42.51844129499145 17.0 0.0 0.0 16.0 
529.0002622611999 0.15939021712288215 42.51844129499145 17.0 0.0 0.0 16.0 
530.0010118082191 0.1674434162364913 42.51844129499145 17.0 0.0 0.0 16.0 
531.0028712530647 0.18193728763561534 46.8746434503106 17.0 0.0 0.0 16.0 
532.001216905583 0.16552337384261243 46.8746434503106 17.0 0.0 0.0 16.0 
533.0007954246017 0.15785420888669155 43.040060972350545 17.0 0.0 0.0 16.0 
534.0015766149378 0.1821952682152812 43.040060972350545 17.0 0.0 0.0 16.0 
535.000088348944 0.167674986105617 43.040060972350545 17.0 0.0 0.0 15.0 
536.0001970041827 0.18181016604236838 47.38800813026896 17.0 0.0 0.0 15.0 
537.0037836569139 0.17485138861318908 47.38800813026896 17.0 0.0 0.0 15.0 
538.0007954246017 0.18728793196043703 43.56212427846745 17.0 0.0 0.0 15.0 
539.0026086086699 0.15997659114634316 43.56212427846745 18.0 0.0 0.0 15.0 
540.0010118082191 0.2072650047957535 47.87203489474331 18.0 0.0012341056253306968 0.6170528126653494 15.0 
541.0002290708231 0.21182939210832305 47.87203489474331 18.0 0.003142122073629479 0.9540082241493906 16.0 
542.0024975066606 0.20488385741159548 47.87203489474331 18.0 0.0012341056253306968 0.6170528126653494 16.0 
543.0007954246017 0.20687333961914203 44.05307127578894 18.0 0.0012341056253306968 0.6170528126653494 16.0 
544.0042199076537 0.13301228137871834 44.05307127578894 18.0 0.0 0.0 16.0 
545.0010118082191 0.05184695548457324 15.622686855854823 18.0 0.0 0.0 16.0 
546.000655934099 0.04774422689799147 12.638731526677475 18.0 0.014348598944870056 7.174299472434967 16.0 
547.0024770058645 0.06725461828120173 17.07203124885956 18.0 0.014348598944870056 7.174299472434967 16.0 
548.000342132679 0.03277806079594596 10.76687166051272 17.0 0.0 0.0 16.0 
549.0028270646956 0.03277806079594596 10.76687166051272 17.0 0.0 0.0 15.0 
550.0004056906057 0.059515862693250945 12.99705143087192 17.0 0.003307929929407395 1.6539649647037038 15.0 
551.0020217664874 0.059515862693250945 12.99705143087192 17.0 0.02910614020899221 9.031749165418034 15.0 
552.000650637875 0.055682468682887294 12.050073531505433 18.0 0.05951080722385744 15.202333507432485 16.0 
553.0007954246017 0.06492615347052672 16.67191592532501 18.0 0.1178635637242432 21.793140654663688 16.0 
554.0009996126471 0.07484206133952885 16.67191592532501 18.0 0.07427728241491544 15.202333507432485 16.0 
555.0010118082191 0.10469295034153965 23.06226188379941 18.0 0.12918197103693793 22.784239152233454 16.0 
556.0020476704226 0.07860677796706393 23.06226188379941 20.0 0.17428434624606012 24.001778853161994 16.0 
557.0006140093543 0.07860677796706393 23.06226188379941 20.0 0.1593702589919838 24.001778853161994 16.0 
558.0007954246017 0.07860677796706393 23.06226188379941 20.0 0.18897790115864244 27.8805781115245 16.0 
559.0006292119458 0.08018841300293103 21.552126297541946 20.0 0.18897790115864244 27.8805781115245 16.0 
560.0010118082191 0.03708416040784638 18.54208020392329 20.0 0.2333296798267017 31.400420939466613 16.0 
561.0001904746625 0.049968364963794774 24.98418248189742 20.0 0.38101151657812343 38.76139890467556 16.0 
562.0003043512594 0.002557095102508059 1.2785475512540359 20.0 0.4359432006197198 38.76139890467556 15.0 
563.0002557635561 0.002557095102508059 1.2785475512540359 20.0 0.45067227393017756 42.64798493206487 15.0 
564.0012381437322 0.0 0.0 19.0 0.3801644307622159 38.76139890467556 15.0 
565.0010118082191 0.0027301623998119895 1.365081199906001 19.0 0.5168819894646288 45.18075047639306 14.0 
566.0005299777289 0.01169822652082284 5.849113260411372 19.0 0.43405847340298126 44.073622915186235 14.0 
567.0010404747256 0.01169822652082284 5.849113260411372 19.0 0.534052745753513 49.99713617526575 14.0 
568.0007954246017 0.01169822652082284 5.849113260411372 19.0 0.455356552332741 44.073622915186235 14.0 
569.0024344206735 0.0 0.0 19.0 0.4811504518984265 44.073622915186235 14.0 
570.0010118082191 0.0 0.0 19.0 0.5846846238293832 51.47169384630578 15.0 
571.0010580644948 0.0 0.0 19.0 0.6827608304590108 58.78306640118274 15.0 
572.0003066922976 0.0 0.0 19.0 0.68284519534517 58.78306640118274 15.0 
573.0007954246017 0.0 0.0 19.0 0.7116459201292176 58.78306640118274 15.0 
574.0006283468763 0.0 0.0 19.0 0.7367658512164514 58.78306640118274 15.0 
575.0001376666319 0.01945079420345938 9.725397101729698 19.0 0.806527427407468 64.26475326296224 15.0 
576.0033659005521 0.01945079420345938 9.725397101729698 19.0 0.7777317567444079 64.26475326296224 16.0 
577.0054638145532 0.032480858237824296 9.725397101729698 20.0 0.7783710500549513 64.26475326296224 16.0 
578.0007954246017 0.030411687763707482 11.20444398525106 21.0 0.6944531304182605 48.66640231663149 17.0 
579.0044755437289 0.03543895200486712 11.20444398525106 22.0 0.6944531304182605 48.66640231663149 17.0 
580.0010118082191 0.05736097066974677 14.570453720489326 21.0 0.7238156778054133 56.08999410465424 17.0 
581.0001169586776 0.0725553187938394 14.570453720489326 21.0 0.9050829636500132 68.4589405451058 17.0 
582.0028210342085 0.08898607699106936 14.570453720489326 20.0 0.8900512591418094 68.4589405451058 17.0 
583.0007954246017 0.06831209578670981 8.342583711371589 20.0 0.7514331731820918 68.4589405451058 17.0 
584.0040009999872 0.08976551667716186 9.799152874596018 20.0 0.7811143874112764 68.4589405451058 17.0 
585.0004120123822 0.13852299502919718 15.689158052588368 20.0 0.7370029323822341 75.77364489320979 17.0 
586.0010247652098 0.15335260697572486 15.625288801863434 20.0 0.6952764674064771 78.1855513970288 18.0 
587.0065074801568 0.1588234935553095 16.068751340784416 22.0 0.8097947308497828 78.1855513970288 20.0 
588.0007954246017 0.06973139168445901 15.544209023384951 21.0 0.6534236280557252 75.96691498246628 20.0 
589.0033194780541 0.007618407567416446 3.8092037837082557 21.0 0.6831646171904121 75.96691498246628 19.0 
590.0000480252635 0.011066638554389385 5.533319277194693 21.0 0.8742418262742532 80.90868079566621 19.0 
591.0012087267385 0.0 0.0 22.0 0.615205726379477 80.90868079566621 20.0 
592.0002784087075 0.011066638554389385 5.533319277194693 23.0 0.615205726379477 80.90868079566621 20.0 
593.0007954246017 0.0 0.0 23.0 0.4602047352855576 80.90868079566621 19.0 
594.0013028672764 0.0 0.0 23.0 0.47509395762157397 80.90868079566621 19.0 
595.0003192793577 1.0153148491781349E-4 0.05076574245890697 23.0 0.5046088043587443 86.83241472921503 19.0 
596.0005547646881 1.0153148491781349E-4 0.05076574245890697 22.0 0.5141400352105402 89.39967016892905 18.0 
597.0012612172852 1.0153148491781349E-4 0.05076574245890697 22.0 0.0 0.0 18.0 
598.0007954246017 1.0153148491781349E-4 0.05076574245890697 22.0 0.0 0.0 19.0 
599.000154415796 0.02592185840842139 7.268254195966108 22.0 0.0 0.0 19.0 
600.0010118082191 0.018936035123785264 7.873413948182019 21.0 0.0 0.0 19.0 
#####################################################################
# End of data export. Simulation finished at: 2019-02-25T20:49+0000 #
#####################################################################
