#####################################################################
# Alchemist log file - simulation started at: 2019-02-25T20:31+0000 #
#####################################################################
# seed = 135.0
#
# The columns have the following meaning: 
# time distance-rep[Mean] distance-rep[Max] leader-rep[CountDistinct] distance-share[Mean] distance-share[Max] leader-share[CountDistinct] 
0.0 NaN NaN NaN NaN NaN NaN 
1.0016346475605054 0.0 0.0 496.0 0.0 0.0 80.0 
2.000386447415632 0.0 0.0 107.0 0.0 0.0 74.0 
3.001834136678802 0.0 0.0 98.0 0.0 0.0 65.0 
4.000761240021607 0.0 0.0 95.0 0.0 0.0 54.0 
5.001041753105406 0.0 0.0 86.0 0.0 0.0 48.0 
6.001088263130304 0.0 0.0 79.0 0.0 0.0 45.0 
7.000386447415632 0.0 0.0 73.0 0.0 0.0 41.0 
8.001124131683602 0.0 0.0 69.0 0.0 0.0 40.0 
9.000762552144746 0.0 0.0 58.0 0.0 0.0 39.0 
10.001041753105406 0.0 0.0 60.0 0.0 0.0 41.0 
11.00061218851525 0.0 0.0 56.0 0.0 0.0 40.0 
12.000386447415632 0.0 0.0 54.0 0.0 0.0 36.0 
13.001194916066632 0.0 0.0 55.0 0.0 0.0 32.0 
14.000762552144746 0.0 0.0 53.0 0.0 0.0 31.0 
15.000128163184 0.0 0.0 52.0 0.0 0.0 33.0 
16.000122937326786 0.0 0.0 51.0 0.0 0.0 30.0 
17.000386447415632 0.0 0.0 47.0 0.0 0.0 28.0 
18.000145159844013 0.0 0.0 48.0 0.0 0.0 28.0 
19.000762552144746 0.0 0.0 48.0 0.013786750043129015 6.8933750215645375 23.0 
20.000395465589186 0.0 0.0 46.0 0.064514908816444 14.676387825218427 24.0 
21.00025687501924 0.0 0.0 47.0 0.0882677938073838 21.186675263168496 24.0 
22.000386447415632 0.0 0.0 46.0 0.0882677938073838 21.186675263168496 22.0 
23.00167489500374 0.0 0.0 45.0 0.0423733505263371 21.186675263168496 23.0 
24.00027953806955 0.0 0.0 44.0 0.0 0.0 24.0 
25.000182880506657 0.0 0.0 45.0 0.0 0.0 23.0 
26.00021330931332 0.0 0.0 44.0 0.0 0.0 22.0 
27.000386447415632 0.0 0.0 44.0 0.0 0.0 23.0 
28.002970539676717 0.0 0.0 42.0 0.0 0.0 24.0 
29.000762552144746 0.0 0.0 41.0 0.07682745315167341 38.41372657583668 23.0 
30.001041753105405 0.0 0.0 41.0 0.07682745315167341 38.41372657583668 21.0 
31.001634647560508 0.0 0.0 40.0 0.06448550753330713 32.24275376665349 21.0 
32.000386447415636 0.0 0.0 37.0 0.0 0.0 22.0 
33.00093003408986 0.0 0.0 38.0 0.0 0.0 20.0 
34.00076255214475 0.0 0.0 38.0 0.016950686228075138 8.475343114037514 20.0 
35.000949252175964 0.0 0.0 38.0 0.0569094672514862 19.979390511705645 20.0 
36.00163464756051 0.01084150917041411 5.42075458520705 38.0 0.0569094672514862 19.979390511705645 20.0 
37.000386447415636 0.0 0.0 38.0 0.06645530825093261 19.979390511705645 20.0 
38.002058418926794 0.0 0.0 36.0 0.07532358189334636 24.41352733291251 20.0 
39.00076255214475 0.0 0.0 35.0 0.0 0.0 20.0 
40.001041753105405 0.03638750305492202 18.193751527460932 36.0 0.0 0.0 19.0 
41.000292035615345 0.0 0.0 36.0 0.0 0.0 19.0 
42.000386447415636 0.0 0.0 35.0 0.0 0.0 19.0 
43.000005847775334 0.006415884938673803 3.207942469336899 35.0 0.0 0.0 18.0 
44.00076255214475 0.0 0.0 35.0 0.0 0.0 18.0 
45.00047327834414 0.0 0.0 35.0 0.0 0.0 17.0 
46.00163464756051 0.0 0.0 35.0 0.0 0.0 17.0 
47.000386447415636 0.0 0.0 36.0 0.0 0.0 17.0 
48.00297053967672 0.0 0.0 36.0 0.01474089396410756 7.370446982053778 17.0 
49.00019337147543 0.0 0.0 38.0 0.01474089396410756 7.370446982053778 17.0 
50.00010282501264 0.0 0.0 38.0 0.026652140652487482 7.370446982053778 17.0 
51.000242945638064 0.0 0.0 37.0 0.026652140652487482 7.370446982053778 17.0 
52.000386447415636 0.0 0.0 37.0 0.059226786547913635 14.803275086109949 17.0 
53.00184489843547 0.0 0.0 36.0 0.11177840997711061 18.843758261504206 18.0 
54.00076255214475 0.0 0.0 34.0 0.13097445355179588 18.843758261504206 18.0 
55.001041753105405 0.0 0.0 32.0 0.13855310968930867 18.843758261504206 18.0 
56.00163464756051 0.0 0.0 30.0 0.12347108770086357 18.843758261504206 18.0 
57.000386447415636 0.0 0.0 28.0 0.13393830790163802 26.3519116828123 19.0 
58.00014567694708 0.0 0.0 29.0 0.0 0.0 21.0 
59.00076255214475 0.0 0.0 28.0 0.0 0.0 21.0 
60.001041753105405 0.0 0.0 28.0 0.0 0.0 21.0 
61.00047771568329 0.0 0.0 28.0 0.0 0.0 21.0 
62.000386447415636 0.0 0.0 28.0 0.0 0.0 21.0 
63.00045913049344 0.0 0.0 26.0 0.0 0.0 20.0 
64.00076255214475 0.0 0.0 26.0 0.0 0.0 22.0 
65.0010417531054 0.0 0.0 26.0 0.0 0.0 21.0 
66.00163464756051 0.0 0.0 26.0 0.0 0.0 21.0 
67.00038644741564 0.0 0.0 28.0 0.0 0.0 21.0 
68.00039053526118 0.0 0.0 27.0 0.0 0.0 22.0 
69.00076255214475 0.0 0.0 28.0 0.0 0.0 22.0 
70.0009355743797 9.793692900100866E-4 0.48968464500504183 26.0 0.0 0.0 22.0 
71.00029511158256 0.015730593653174196 7.375612181582056 27.0 0.0 0.0 22.0 
72.00038644741564 0.015730593653174196 7.375612181582056 26.0 0.0 0.0 22.0 
73.00297053967671 0.015730593653174196 7.375612181582056 26.0 0.0 0.0 22.0 
74.00076255214475 0.02722141335911268 7.375612181582056 26.0 0.0 0.0 22.0 
75.00073261634745 0.07766224052746218 21.601583830455695 27.0 0.0 0.0 22.0 
76.00085728227883 0.0725150264084491 21.601583830455695 27.0 0.0 0.0 22.0 
77.00038644741564 0.029311858747538107 14.655929373768998 26.0 0.0 0.0 22.0 
78.00089988201556 0.029311858747538107 14.655929373768998 24.0 0.0 0.0 22.0 
79.00076255214475 0.029311858747538107 14.655929373768998 24.0 0.0 0.0 22.0 
80.00071482533504 0.0 0.0 24.0 0.0 0.0 21.0 
81.00138150964878 0.0 0.0 24.0 0.0 0.0 21.0 
82.00038644741564 0.0 0.0 25.0 0.0 0.0 21.0 
83.00001822041926 0.0 0.0 24.0 0.0 0.0 21.0 
84.00038634749059 0.0 0.0 23.0 0.0 0.0 21.0 
85.00025861943543 0.0 0.0 21.0 0.0 0.0 21.0 
86.00163464756051 0.0 0.0 20.0 0.0 0.0 21.0 
87.00015457830656 0.0 0.0 19.0 0.0 0.0 23.0 
88.00010568401768 0.0 0.0 20.0 0.0 0.0 22.0 
89.00076255214475 0.0 0.0 20.0 0.0 0.0 23.0 
90.0001928556973 0.0 0.0 20.0 0.0 0.0 23.0 
91.00163464756051 0.0 0.0 21.0 0.0 0.0 23.0 
92.00038644741564 0.0 0.0 21.0 0.0 0.0 22.0 
93.00149131326526 0.0 0.0 21.0 0.0 0.0 22.0 
94.00039277053446 0.0 0.0 22.0 0.0 0.0 23.0 
95.0010417531054 0.0 0.0 22.0 0.0 0.0 23.0 
96.00032788468023 0.0 0.0 22.0 0.0 0.0 23.0 
97.00038644741564 0.0 0.0 22.0 0.0 0.0 23.0 
98.00297053967671 0.0 0.0 22.0 0.0 0.0 23.0 
99.00007146995219 0.010579435472799511 5.289717736399751 22.0 0.0 0.0 22.0 
100.00011775795298 0.0 0.0 21.0 0.0 0.0 22.0 
101.00163464756051 0.0 0.0 21.0 0.0 0.0 22.0 
102.00038644741564 0.0 0.0 21.0 0.0 0.0 22.0 
103.00170086357153 0.0 0.0 21.0 0.0 0.0 22.0 
104.00045076327217 0.0 0.0 22.0 0.0 0.0 22.0 
105.0010417531054 0.007022843198194799 3.511421599097389 22.0 0.0 0.0 22.0 
106.00163464756051 0.007022843198194799 3.511421599097389 22.0 0.0 0.0 22.0 
107.00038644741564 0.007022843198194799 3.511421599097389 22.0 0.0 0.0 21.0 
108.00275935742674 0.029626268205691437 6.499406011809157 21.0 0.0 0.0 21.0 
109.00076255214475 0.023592815917079808 6.499406011809157 22.0 0.0 0.0 21.0 
110.0010417531054 0.006165651426485298 3.0828257132426415 21.0 0.0 0.0 21.0 
111.00099974296053 0.06523793940750022 15.468973483139308 21.0 0.0 0.0 21.0 
112.00038644741564 0.0 0.0 21.0 0.0 0.0 21.0 
113.00297053967671 0.036875075754157424 9.428765720264892 22.0 0.0 0.0 21.0 
114.00075070919853 0.0 0.0 22.0 0.0 0.0 20.0 
115.00022682550791 0.0 0.0 22.0 0.0 0.0 20.0 
116.00163464756051 0.0 0.0 22.0 0.0 0.0 19.0 
117.00038644741564 0.0 0.0 22.0 0.0 0.0 19.0 
118.00003375184009 0.0 0.0 22.0 0.0 0.0 18.0 
119.00076255214475 0.0 0.0 24.0 0.0 0.0 18.0 
120.0010417531054 0.0 0.0 24.0 0.0 0.0 18.0 
121.00141036180928 0.011434723902309724 5.717361951154913 24.0 0.0 0.0 17.0 
122.00033223295517 0.011434723902309724 5.717361951154913 24.0 0.0 0.0 17.0 
123.00219685600594 0.011434723902309724 5.717361951154913 22.0 0.0 0.0 17.0 
124.00042685406463 0.03194898357888287 12.597819671602394 22.0 0.0020428137792737255 1.0214068896368644 17.0 
125.0010417531054 0.02519563934320484 12.597819671602394 22.0 0.0020428137792737255 1.0214068896368644 16.0 
126.00163464756051 0.04003439779610552 20.01719889805281 22.0 0.0020428137792737255 1.0214068896368644 16.0 
127.00038644741564 0.06533047158891044 20.01719889805281 22.0 0.009838610470921123 4.91930523546057 16.0 
128.0029705396767 0.06533047158891044 20.01719889805281 22.0 0.009838610470921123 4.91930523546057 16.0 
129.00076255214475 0.09319533457333515 26.82340279085372 21.0 0.0 0.0 17.0 
130.0002917031029 0.08024699409439608 26.82340279085372 20.0 0.0 0.0 17.0 
131.0016346475605 0.0017668034369148645 0.883401718457435 21.0 0.0 0.0 16.0 
132.00038644741562 0.012029938056525642 5.131567309805405 20.0 0.0 0.0 16.0 
133.0029705396767 0.027805531616058705 8.268804610023182 20.0 0.0 0.0 16.0 
134.00014309940977 0.04593748356250455 11.603995777180984 21.0 0.0 0.0 17.0 
135.0010417531054 0.07828859670306863 18.586644508235167 21.0 0.0 0.0 17.0 
136.00040700997604 0.09100617390575094 22.511177872457438 21.0 0.0 0.0 17.0 
137.00038644741562 0.10036656330527392 22.511177872457438 21.0 0.0 0.0 18.0 
138.0017627521589 0.09679001043302841 20.406928829435316 21.0 0.0 0.0 18.0 
139.00076255214475 0.22525462331790785 26.515369896370203 21.0 0.0 0.0 18.0 
140.0010417531054 0.20254963014742264 26.515369896370203 21.0 0.0 0.0 18.0 
141.00154775395993 0.1522196802151742 23.055937603324338 21.0 0.0 0.0 18.0 
142.00038644741562 0.2718768485226393 33.299026637612116 21.0 0.0 0.0 18.0 
143.0029705396767 0.24381271976342925 33.299026637612116 21.0 0.0 0.0 18.0 
144.000103475971 0.27967044216018433 18.977268939499027 21.0 0.0 0.0 18.0 
145.00023854233606 0.26875675265836396 22.416225787179286 21.0 0.0 0.0 17.0 
146.0016346475605 0.33382739193418115 22.416225787179286 21.0 0.0 0.0 17.0 
147.00038644741562 0.36477328892259686 23.047966373404932 20.0 0.0 0.0 17.0 
148.0029705396767 0.5502401933718076 31.964187986522063 21.0 0.0 0.0 17.0 
149.00076255214475 0.6467911363362272 35.63144562696954 21.0 0.0 0.0 17.0 
150.0010417531054 0.7194122021449907 38.22643779054317 21.0 0.0 0.0 17.0 
151.0016346475605 0.8942839648827767 35.546743225824 21.0 0.0 0.0 17.0 
152.00038644741562 0.6573013570065801 29.056439133195937 21.0 0.0 0.0 17.0 
153.0016811105834 0.87816917991495 35.99154842588925 21.0 0.0 0.0 17.0 
154.00076255214475 0.7562894800298764 35.61814953740145 20.0 0.0 0.0 17.0 
155.0010417531054 1.062670463979538 46.417069301846084 21.0 0.0 0.0 18.0 
156.0016346475605 1.2915423573730982 46.417069301846084 21.0 0.0 0.0 18.0 
157.00038644741562 1.502262125421928 47.05255515892182 20.0 0.0 0.0 18.0 
158.0029705396767 1.6062595509613975 47.48289335575751 20.0 0.0 0.0 18.0 
159.00000096619556 1.8084517354362744 52.28974503168283 21.0 0.0 0.0 18.0 
160.0010417531054 1.987482503080803 52.28974503168283 20.0 0.0 0.0 18.0 
161.00150162862025 2.2608314781221184 62.44373576084149 20.0 0.0 0.0 18.0 
162.00038644741562 2.0852680917168303 54.73654091772369 20.0 0.0 0.0 17.0 
163.0029705396767 2.359921875836411 64.81129628440027 20.0 0.0 0.0 17.0 
164.00076255214475 2.3103137058438294 64.81129628440027 20.0 0.0 0.0 16.0 
165.0003951699283 2.986069880693321 63.18912640254837 20.0 0.0 0.0 16.0 
166.0016346475605 2.60677146579305 63.41702571932768 20.0 0.0 0.0 16.0 
167.00038644741562 2.627067347623584 63.18912640254837 20.0 0.0 0.0 16.0 
168.00141449859987 2.863689620073353 74.82187035360704 20.0 0.0 0.0 16.0 
169.00076255214475 3.060661516167043 75.21463097687183 23.0 0.0 0.0 17.0 
170.0010417531054 2.7365904314636764 75.21463097687183 24.0 0.0 0.0 17.0 
171.0016346475605 0.40122221067129027 40.2433829250954 25.0 0.0 0.0 17.0 
172.00038644741562 0.0 0.0 23.0 0.0 0.0 17.0 
173.0029705396767 0.0 0.0 23.0 0.0 0.0 17.0 
174.00076255214475 0.0 0.0 23.0 0.0 0.0 17.0 
175.00039288579637 0.0 0.0 23.0 0.0 0.0 17.0 
176.0016346475605 0.0 0.0 23.0 0.0 0.0 17.0 
177.00038644741562 0.0 0.0 23.0 0.0 0.0 17.0 
178.00054471994528 0.0 0.0 23.0 0.0 0.0 17.0 
179.00076255214475 0.0 0.0 23.0 0.0 0.0 17.0 
180.0010417531054 0.0 0.0 23.0 0.0 0.0 19.0 
181.00029574028125 0.0 0.0 24.0 0.0 0.0 19.0 
182.00038644741562 0.0 0.0 23.0 0.0 0.0 19.0 
183.0029705396767 0.0 0.0 23.0 0.0 0.0 19.0 
184.00076255214475 0.0 0.0 23.0 0.004368722461467099 2.1843612307335434 19.0 
185.0009998322182 0.0 0.0 23.0 0.0 0.0 23.0 
186.0016346475605 0.0 0.0 23.0 0.0 0.0 22.0 
187.00038644741562 0.0 0.0 24.0 0.0 0.0 21.0 
188.00212032459095 0.0 0.0 24.0 0.0 0.0 21.0 
189.00076255214475 0.0 0.0 24.0 0.0 0.0 21.0 
190.0010417531054 0.0 0.0 24.0 0.0 0.0 21.0 
191.0016346475605 0.0 0.0 24.0 0.0 0.0 21.0 
192.00038644741562 0.0 0.0 24.0 0.0 0.0 20.0 
193.00084329927054 0.0 0.0 24.0 0.0 0.0 20.0 
194.00076255214475 0.0 0.0 24.0 0.0 0.0 20.0 
195.00065218957258 0.0 0.0 24.0 0.0 0.0 20.0 
196.00055284349833 0.0 0.0 23.0 0.0 0.0 20.0 
197.00038644741562 0.0 0.0 23.0 0.0 0.0 20.0 
198.000417087945 0.0 0.0 23.0 0.0 0.0 20.0 
199.00076255214475 0.0 0.0 23.0 0.0 0.0 20.0 
200.0010417531054 0.035026540639737105 17.51327031986864 23.0 0.0 0.0 20.0 
201.00050234907985 0.035026540639737105 17.51327031986864 23.0 0.0 0.0 20.0 
202.00038644741562 0.035026540639737105 17.51327031986864 23.0 0.0 0.0 20.0 
203.0022645634512 0.04077850963169922 20.389254815849682 23.0 0.0 0.0 20.0 
204.00076255214475 0.0 0.0 23.0 0.0 0.0 18.0 
205.0010417531054 0.05481417263665116 27.40708631832544 23.0 0.0 0.0 18.0 
206.00107252416888 0.0 0.0 23.0 0.0 0.0 18.0 
207.00024578118314 0.0 0.0 23.0 0.0 0.0 18.0 
208.00090882084675 0.0 0.0 23.0 0.0 0.0 18.0 
209.00076255214475 0.0 0.0 23.0 0.0 0.0 17.0 
210.0010417531054 0.07503039605540586 37.51519802770264 23.0 0.0 0.0 17.0 
211.0016346475605 0.07503039605540586 37.51519802770264 23.0 0.0 0.0 17.0 
212.00038644741562 0.0 0.0 22.0 0.0 0.0 17.0 
213.0024793430265 0.0 0.0 22.0 0.0 0.0 17.0 
214.00076255214475 0.0 0.0 22.0 0.0 0.0 16.0 
215.0010417531054 0.0 0.0 23.0 0.0 0.0 17.0 
216.0016346475605 0.0 0.0 23.0 0.0 0.0 17.0 
217.00029120637248 0.0 0.0 22.0 0.0 0.0 17.0 
218.0002088391796 0.0 0.0 22.0 0.0 0.0 17.0 
219.00076255214475 0.0 0.0 22.0 0.0 0.0 16.0 
220.0010417531054 0.0 0.0 22.0 0.0 0.0 16.0 
221.0013595726567 0.0 0.0 20.0 0.0 0.0 16.0 
222.00038644741562 0.0 0.0 21.0 0.0 0.0 16.0 
223.0029705396767 0.0 0.0 20.0 0.0 0.0 16.0 
224.00076255214475 0.0 0.0 20.0 0.0 0.0 16.0 
225.00064529243625 0.0 0.0 20.0 0.0 0.0 17.0 
226.00051866228964 0.0 0.0 20.0 0.0 0.0 17.0 
227.00038644741562 0.0 0.0 20.0 0.0 0.0 17.0 
228.00130704409085 0.0 0.0 20.0 0.0 0.0 17.0 
229.0002662555197 0.0 0.0 20.0 0.0 0.0 17.0 
230.0000051663616 0.003828311262908082 0.9827231655480659 20.0 0.0 0.0 17.0 
231.001559798369 0.02242189999297944 5.721762648953188 20.0 0.0 0.0 17.0 
232.00038644741562 0.02242189999297944 5.721762648953188 20.0 0.0 0.0 17.0 
233.0005679539436 0.02242189999297944 5.721762648953188 19.0 0.0 0.0 17.0 
234.00076255214475 0.02242189999297944 5.721762648953188 19.0 0.0 0.0 17.0 
235.0009881369318 0.049906301471231526 12.551133491317216 19.0 0.0 0.0 17.0 
236.00047783446058 0.03474816260293307 17.374081301466475 19.0 0.0 0.0 17.0 
237.00012877859115 0.0 0.0 17.0 0.0 0.0 17.0 
238.00158115855928 0.0 0.0 17.0 0.0 0.0 17.0 
239.00076255214475 0.001037573414758646 0.51878670737932 17.0 0.0 0.0 17.0 
240.00095484511615 0.07173950870984813 27.421950627180138 17.0 0.0 0.0 17.0 
241.00042377428667 0.01689560745548763 5.086307804906653 17.0 0.0 0.0 16.0 
242.00038644741562 0.07070193529508895 27.421950627180138 17.0 0.0 0.0 16.0 
243.0029705396767 0.05522104188826061 19.978195719287953 18.0 0.0 0.0 16.0 
244.00076255214475 0.07010949450499813 19.978195719287953 18.0 0.0 0.0 16.0 
245.00083443253294 0.12986368582161306 27.41368525330796 18.0 0.0 0.0 16.0 
246.0016346475605 0.13456444272825652 27.41368525330796 18.0 0.0 0.0 16.0 
247.00038644741562 0.14088066069579452 27.41368525330796 18.0 0.0 0.0 16.0 
248.00089988572446 0.11853134155918568 19.968778746922737 18.0 0.0 0.0 16.0 
249.0001850490578 0.14186161216812573 27.41368525330796 18.0 0.0 0.0 16.0 
250.0010417531054 0.21926637445286162 32.431762900990634 18.0 0.0 0.0 16.0 
251.0004460546969 0.25432950501509144 34.85142258128212 18.0 0.0 0.0 16.0 
252.00038644741562 0.2919691412318453 34.85142258128212 18.0 0.0 0.0 15.0 
253.0003688924193 0.15630953951288556 32.431762900990634 17.0 0.0 0.0 15.0 
254.00076255214475 0.23548110155595606 32.431762900990634 17.0 0.0 0.0 15.0 
255.0010417531054 0.1901545184755648 27.352443731992963 17.0 0.0 0.0 15.0 
256.00053771654365 0.2405752255727475 31.565065511439002 17.0 0.0 0.0 15.0 
257.0000042991935 0.1909709127453737 31.565065511439002 17.0 0.0 0.0 15.0 
258.0002934462027 0.16789187692105514 31.565065511439002 17.0 0.0 0.0 15.0 
259.00076255214475 0.09554353491157812 24.009163194028474 17.0 0.0 0.0 15.0 
260.0001521129651 0.06736596591034692 7.0744910546964945 18.0 0.0 0.0 14.0 
261.0001712460639 0.0671405113952172 7.835108365279098 18.0 0.0 0.0 14.0 
262.0003864474156 0.052294305777840874 7.835108365279098 17.0 0.0 0.0 14.0 
263.0006812811226 0.04641614037790093 7.835108365279098 15.0 0.0 0.0 14.0 
264.0006886921246 0.12335998350976274 14.241959137558837 15.0 0.0 0.0 14.0 
265.0003900755809 0.10463991088509628 14.241959137558837 15.0 0.0 0.0 14.0 
266.00163464756054 0.10016300652911696 17.975186899294954 14.0 0.0 0.0 16.0 
267.0003864474156 0.1078523246434158 17.975186899294954 13.0 0.0 0.0 16.0 
268.00250711407125 0.1124496887953283 17.975186899294954 13.0 0.0 0.0 14.0 
269.00076255214475 0.13708317125752698 25.2177482465504 13.0 0.0 0.0 14.0 
270.00104175310537 0.15412736810121255 25.2177482465504 13.0 0.0 0.0 15.0 
271.00163464756054 0.16462223612274904 30.952480027924764 13.0 0.0 0.0 15.0 
272.0003864474156 0.15877948615667448 30.952480027924764 13.0 0.0 0.0 15.0 
273.0029705396767 0.16867328855141028 30.952480027924764 14.0 0.0 0.0 15.0 
274.00076255214475 0.1341401950061028 38.20990514638015 14.0 0.0 0.0 15.0 
275.00104175310537 0.16484097691283772 38.20990514638015 14.0 0.0 0.0 15.0 
276.00054762970547 0.0962814139872663 15.056509751962068 15.0 0.0 0.0 15.0 
277.0003864474156 0.07851603178742035 14.091240512384928 15.0 0.0 0.0 15.0 
278.0005235310268 0.02110290889703824 4.186464033598838 14.0 0.0 0.0 15.0 
279.0004752366294 0.012966536657981224 6.483268328990619 14.0 0.0 0.0 15.0 
280.0002480388466 0.039495796025906686 6.331178038858752 14.0 0.0 0.0 15.0 
281.0012908504363 0.06343953661024239 12.206707089730969 14.0 0.0 0.0 16.0 
282.0003864474156 0.051017468286378674 12.206707089730969 14.0 0.0 0.0 15.0 
283.00079711352856 0.10007685178569693 20.145196567925296 14.0 0.0 0.0 15.0 
284.00076255214475 0.03632001072962754 12.206707089730969 14.0 0.0 0.0 15.0 
285.00104175310537 0.0749509170303131 8.850310903983825 14.0 0.0 0.0 15.0 
286.00163464756054 0.060159078074713046 8.184212791739213 14.0 0.0 0.0 15.0 
287.0003864474156 0.093080433539096 15.688007910199985 14.0 0.0 0.0 14.0 
288.0029705396767 0.08570862534358623 12.724078194998185 14.0 0.0 0.0 14.0 
289.00076255214475 0.08769309224477645 19.521194657307234 14.0 0.0 0.0 14.0 
290.00104175310537 0.12249955146282761 12.70717965357207 14.0 0.0 0.0 14.0 
291.00144302137693 0.1718244713206137 13.002702873119688 14.0 0.0 0.0 14.0 
292.0003864474156 0.23581833064030644 22.27666070028468 14.0 0.0 0.0 14.0 
293.0001687959569 0.2339710528647487 22.27666070028468 14.0 0.0 0.0 14.0 
294.0000476428897 0.34512705883613914 32.17831898348908 13.0 0.0 0.0 14.0 
295.00104175310537 0.389366332676721 32.17831898348908 13.0 0.0 0.0 15.0 
296.0004167715613 0.3663158327822004 32.17831898348908 13.0 0.0 0.0 15.0 
297.0003864474156 0.40019959919050996 32.17831898348908 13.0 0.0 0.0 15.0 
298.0029705396767 0.37850632287138586 32.17831898348908 13.0 0.0 0.0 15.0 
299.00076255214475 0.5648366702166202 45.506946967469474 13.0 0.0 0.0 15.0 
300.00104175310537 0.6581517544944883 45.506946967469474 13.0 0.0 0.0 15.0 
301.0013059802943 0.6093898672837863 38.23119552454014 12.0 0.0 0.0 15.0 
302.0003864474156 0.6696232697643639 38.23119552454014 14.0 0.0 0.0 16.0 
303.0029705396767 0.7062327655505478 38.23119552454014 16.0 0.0 0.0 16.0 
304.0006550075869 0.9650884328080312 63.19961952566064 18.0 0.0 0.0 16.0 
305.00104175310537 0.9958463726122574 63.19961952566064 17.0 0.0 0.0 16.0 
306.00163464756054 1.034416956381797 63.19961952566064 18.0 0.0 0.0 16.0 
307.0003864474156 1.0192681790942317 63.19961952566064 16.0 0.0 0.0 16.0 
308.0007784460305 1.0128994735052677 62.27791137620545 17.0 0.0 0.0 17.0 
309.00073531499044 1.3515655582757118 69.71554585627109 17.0 0.0 0.0 17.0 
310.0007579881137 1.2674856479412628 69.71554585627109 17.0 0.0 0.0 16.0 
311.0010388209281 1.1093583982302666 68.22369833386585 18.0 0.0 0.0 15.0 
312.0003864474156 1.2715495634940976 72.2909035896929 17.0 0.0 0.0 14.0 
313.00164187534955 1.2024515710511616 72.2909035896929 17.0 0.0 0.0 14.0 
314.0003595004903 1.7612570770530898 79.613313372319 17.0 0.0 0.0 14.0 
315.0000187845282 1.540553732621546 74.5866034108808 17.0 0.0 0.0 14.0 
316.00107799937143 1.5508293539839773 74.5866034108808 17.0 0.0 0.0 14.0 
317.0003864474156 1.694628520385127 74.5866034108808 17.0 0.0 0.0 14.0 
318.0029705396767 1.5359609994448558 74.5866034108808 17.0 0.0 0.0 15.0 
319.00076255214475 1.9605849884406674 81.8507519041774 16.0 0.0 0.0 14.0 
320.00016303879664 1.9801823121605837 81.8507519041774 16.0 0.010492335140011898 5.246167570005952 14.0 
321.00163464756054 1.9840986227993027 81.889864393413 16.0 0.010492335140011898 5.246167570005952 14.0 
322.0003864474156 2.011209534028709 81.889864393413 15.0 0.010492335140011898 5.246167570005952 14.0 
323.0003552408751 2.1318203502586255 81.889864393413 16.0 0.010492335140011898 5.246167570005952 14.0 
324.00076255214475 2.2724000557864033 89.63587027818187 16.0 0.0 0.0 15.0 
325.00104175310537 2.7081028709286596 89.63587027818187 15.0 0.0 0.0 15.0 
326.0013909767617 2.47892991051103 89.63587027818187 15.0 0.0 0.0 15.0 
327.0003864474156 1.9647100970802178 74.28177606032654 16.0 0.0 0.0 15.0 
328.0020822388622 2.1662629439793055 74.87529701243085 16.0 0.0 0.0 15.0 
329.00076255214475 2.056991922272224 85.41394705153107 16.0 0.0 0.0 14.0 
330.00104175310537 2.571028841606623 89.0617541491655 16.0 0.0 0.0 14.0 
331.00163464756054 2.3724292490092025 85.41394705153107 18.0 0.0 0.0 14.0 
332.0003864474156 2.4855763563263444 89.0617541491655 17.0 0.0 0.0 14.0 
333.0029705396767 2.4690834777717545 89.61950421388906 17.0 0.0 0.0 15.0 
334.00076255214475 1.9898033965085777 81.10488276176369 17.0 0.0 0.0 16.0 
335.00104175310537 2.2304727440891496 81.10488276176369 17.0 0.0 0.0 16.0 
336.00163464756054 2.314143602711978 81.10488276176369 17.0 0.0 0.0 16.0 
337.0000694796498 2.4748741732100656 83.79701337085436 17.0 0.0 0.0 16.0 
338.00094210109825 2.5187073860748543 100.23145282014434 18.0 0.0 0.0 16.0 
339.00076255214475 2.7286441146583624 95.81310956593182 18.0 0.0 0.0 16.0 
340.00104175310537 2.6309102032179377 95.81310956593182 18.0 0.0 0.0 16.0 
341.00132943931993 2.5763386924520915 95.81310956593182 17.0 0.0 0.0 17.0 
342.0003864474156 2.420544642154867 95.81310956593182 17.0 0.0 0.0 17.0 
343.00066264807856 2.471288321820052 103.15988041727917 18.0 0.0 0.0 17.0 
344.00076255214475 2.5760126538212336 71.58121457074571 18.0 0.0 0.0 17.0 
345.00001318204914 2.6628360360233296 71.58121457074571 18.0 0.0 0.0 18.0 
346.00163464756054 2.7972046958236554 79.65267965604903 19.0 0.0 0.0 20.0 
347.0003864474156 2.8146265680385123 85.77914525768324 18.0 0.0 0.0 20.0 
348.00017880723914 3.0218332760296263 108.96353360266716 18.0 0.0 0.0 19.0 
349.00076255214475 3.296418810317807 116.08005140761588 18.0 0.0 0.0 19.0 
350.0002775597278 3.8031036682310346 116.08005140761588 18.0 0.0 0.0 19.0 
351.00060916591974 4.346703526528803 138.1858263531468 20.0 0.0 0.0 20.0 
352.0003864474156 4.428977220337214 139.69070917073572 20.0 0.0 0.0 20.0 
353.0001315557769 4.393357133430777 141.31459785405656 21.0 0.0 0.0 20.0 
354.00076255214475 5.067954827268783 145.33937120938128 20.0 0.0 0.0 20.0 
355.00104175310537 5.1213502909479445 149.86119669861102 18.0 0.0 0.0 19.0 
356.00163464756054 5.235463416373428 148.37416004820403 18.0 0.0 0.0 20.0 
357.0003864474156 5.517450699130116 151.73745969494456 17.0 0.0 0.0 20.0 
358.002849142889 4.751530677754651 149.86119669861102 18.0 0.0 0.0 21.0 
359.00025196014207 5.340846971805395 161.2144056923201 18.0 0.0 0.0 21.0 
360.0010258050796 6.119193861216743 161.2144056923201 18.0 0.0 0.0 21.0 
361.00163464756054 6.092271700416982 160.71959463829847 19.0 0.0 0.0 21.0 
362.0003864474156 3.482945423210975 162.66500663348995 19.0 0.0 0.0 21.0 
363.0003180250195 0.37320142569691295 76.32869533066076 19.0 0.0 0.0 21.0 
364.00046014746334 0.14530488746120837 72.18378196845248 18.0 0.0 0.0 21.0 
365.00104175310537 0.22057409680244738 59.942997202594086 18.0 0.0 0.0 21.0 
366.0002905495119 0.0106296715538593 5.3148357769296695 18.0 0.0 0.0 21.0 
367.0003864474156 0.0 0.0 18.0 0.0 0.0 21.0 
368.0008486975823 0.01200958367289734 6.004791836448703 18.0 0.0 0.0 21.0 
369.00076255214475 0.02147983724788731 5.955828226143268 18.0 0.0 0.0 20.0 
370.00104175310537 0.02147983724788731 5.955828226143268 19.0 0.0 0.0 21.0 
371.00096694660607 0.02147983724788731 5.955828226143268 19.0 0.0 0.0 20.0 
372.0003864474156 0.04766087878341779 13.09052076776527 19.0 0.0 0.0 20.0 
373.0022770283457 0.009147848416734874 4.573924208367458 19.0 0.0 0.0 20.0 
374.00012240003474 0.052690664541823626 12.91894848488755 19.0 0.0 0.0 20.0 
375.00104175310537 0.09121269447271771 12.91894848488755 19.0 0.0 0.0 20.0 
376.00027915914353 0.09673070143531678 12.91894848488755 19.0 0.0 0.0 19.0 
377.0003864474156 0.09673070143531678 12.91894848488755 19.0 0.0 0.0 19.0 
378.0029705396767 0.11522752299288344 13.059459773808555 18.0 0.0 0.0 19.0 
379.00076255214475 0.14160093913080113 16.404033357594358 19.0 0.0 0.0 19.0 
380.00104175310537 0.15923725581879 16.404033357594358 18.0 0.0 0.0 18.0 
381.00163464756054 0.1512932706407399 14.912328782381508 18.0 0.0 0.0 18.0 
382.0002936430105 0.43003704005693943 57.04987363667976 18.0 0.0 0.0 18.0 
383.0029705396767 0.3734192138562226 57.04987363667976 17.0 0.0 0.0 17.0 
384.00076255214475 0.35357865979379266 63.31571669806863 17.0 0.0 0.0 16.0 
385.00054037852686 0.16817474677899277 23.62079931061055 16.0 0.0 0.0 16.0 
386.00163464756054 0.007463780717969967 1.9486203204378967 16.0 0.0 0.0 16.0 
387.0003864474156 0.007463780717969967 1.9486203204378967 16.0 0.0 0.0 16.0 
388.000537024715 0.005717777829158679 1.9486203204378967 16.0 0.0 0.0 17.0 
389.00076255214475 0.055665747493967896 9.40519409590172 16.0 0.0 0.0 17.0 
390.0003002044186 0.032683018163631235 7.973343657419662 16.0 0.0 0.0 17.0 
391.00163464756054 0.030486222151688544 7.973343657419662 16.0 0.0 0.0 17.0 
392.0000810495733 0.03469706899329098 7.973343657419662 16.0 0.0 0.0 17.0 
393.0026860197137 0.048407802603591066 14.828710462569688 16.0 0.0 0.0 17.0 
394.0002757043047 0.1989126420130287 33.138443235171536 16.0 0.0 0.0 16.0 
395.0007281596154 0.1409338547868634 21.957136132622935 16.0 0.0 0.0 16.0 
396.0002556060896 0.4220151307936003 35.91399084784027 16.0 0.010442051017547582 5.221025508773806 16.0 
397.0003864474156 0.36031347773825856 35.462673602989526 16.0 0.0 0.0 16.0 
398.00144834574763 0.5313805444345161 44.98791242306024 16.0 0.0 0.0 16.0 
399.00076255214475 0.5358861333440949 46.254844247921596 16.0 0.0010182868692541016 0.5091434346270489 16.0 
400.00104175310537 0.6282984296917653 46.254844247921596 16.0 0.0 0.0 16.0 
401.00163464756054 0.6720402288958327 46.254844247921596 16.0 0.0 0.0 16.0 
402.0003864474156 0.671524336882542 46.254844247921596 16.0 0.0 0.0 16.0 
403.0003875876061 0.6079516761904434 45.08334147084446 17.0 0.0 0.0 18.0 
404.00076255214475 0.7507264262442379 52.20926806357477 17.0 0.0 0.0 18.0 
405.00104175310537 0.8043991331571987 50.20010633038092 17.0 0.0 0.0 18.0 
406.0013979411028 0.8284130083488213 50.20010633038092 17.0 0.0 0.0 18.0 
407.0003864474156 0.8495840426163104 50.20010633038092 17.0 0.0 0.0 18.0 
408.0003561054321 0.8125880830209504 58.05717333907296 17.0 0.0 0.0 18.0 
409.00076255214475 0.7654737964519909 50.70099716595726 17.0 0.0 0.0 18.0 
410.00104175310537 0.6030472293224919 49.909661539272946 17.0 0.0 0.0 19.0 
411.0002212602217 0.61098347086965 50.70099716595726 17.0 0.0 0.0 19.0 
412.0003864474156 0.596688128755228 43.868973736491 18.0 0.0 0.0 19.0 
413.0021142615308 0.5952983562282003 43.868973736491 18.0 0.0 0.0 19.0 
414.00076255214475 0.5418329779197341 49.71831310429812 18.0 0.0 0.0 19.0 
415.00104175310537 0.4859226212780456 49.71831310429812 20.0 0.0 0.0 19.0 
416.00163464756054 0.4061244819715039 55.02934949364288 20.0 0.0 0.0 19.0 
417.0003864474156 0.5048300920433998 55.02934949364288 22.0 0.0 0.0 19.0 
418.00117695710406 0.1645272691520827 34.48262206013911 22.0 0.0 0.0 19.0 
419.00017034389464 0.19726812004081518 40.77391530073396 22.0 0.0 0.0 19.0 
420.00104175310537 0.1858546870063247 40.77391530073396 20.0 0.0 0.0 19.0 
421.001466668068 0.12154522474549127 36.342324821339105 20.0 0.0 0.0 19.0 
422.0003864474156 0.11908477512798209 38.89098358882009 20.0 0.0 0.0 19.0 
423.0029705396767 0.15554213202002629 38.89098358882009 20.0 0.0 0.0 19.0 
424.0005195279461 0.11140221302384451 14.927257130066351 20.0 0.0 0.0 20.0 
425.00104175310537 0.0566234051933273 14.927257130066351 20.0 0.0 0.0 20.0 
426.00163464756054 0.11790562531551739 14.927257130066351 19.0 0.0 0.0 19.0 
427.0003864474156 0.10661669913839798 14.927257130066351 19.0 0.0 0.0 19.0 
428.00054829125764 0.12062062590650853 19.682859830945347 18.0 0.0 0.0 19.0 
429.00076255214475 0.046544318292803144 12.629692283474412 18.0 0.0 0.0 19.0 
430.00104175310537 0.021284933725854133 5.768486951344272 18.0 0.0 0.0 19.0 
431.001388239186 0.022079504835392325 5.768486951344272 18.0 0.0 0.0 19.0 
432.0003864474156 0.02678360367066829 13.391801835334178 18.0 0.0 0.0 19.0 
433.000594840643 0.03540235424995008 12.429911658623155 18.0 0.0 0.0 19.0 
434.00076255214475 0.0 0.0 17.0 0.0 0.0 19.0 
435.00104175310537 0.0 0.0 17.0 0.0 0.0 19.0 
436.00163464756054 0.0 0.0 17.0 0.0 0.0 19.0 
437.0003864474156 0.0 0.0 17.0 0.0 0.0 19.0 
438.0006788369275 0.0 0.0 17.0 0.0 0.0 18.0 
439.00076255214475 0.0 0.0 16.0 0.0 0.0 18.0 
440.00002838492173 0.0 0.0 16.0 0.0 0.0 17.0 
441.0016087186172 0.0 0.0 16.0 0.0 0.0 17.0 
442.0003864474156 0.0 0.0 16.0 0.0 0.0 17.0 
443.0027358588919 0.0 0.0 16.0 0.0 0.0 17.0 
444.00076255214475 0.0 0.0 16.0 0.0 0.0 17.0 
445.00049186024364 0.02225031633519166 11.125158167595828 16.0 0.0 0.0 17.0 
446.00163464756054 0.06187841157773642 19.81404762127235 16.0 0.0 0.0 17.0 
447.0003864474156 0.06187841157773642 19.81404762127235 16.0 0.0 0.0 16.0 
448.0002481453876 0.01053851087988175 5.269255439940878 15.0 0.0 0.0 16.0 
449.00076255214475 0.0 0.0 15.0 0.0 0.0 16.0 
450.00104175310537 0.0 0.0 16.0 0.0 0.0 17.0 
451.00087880863964 0.0 0.0 16.0 0.0 0.0 17.0 
452.0003864474156 0.0 0.0 16.0 0.0 0.0 17.0 
453.0020021701613 0.0 0.0 16.0 0.0 0.0 17.0 
454.0002006735332 0.00590807844163438 2.9540392208171795 17.0 0.0 0.0 19.0 
455.00104175310537 0.016533640782454714 5.3127811704101475 17.0 0.0 0.0 17.0 
456.00163464756054 0.010625562340820323 5.3127811704101475 17.0 0.0 0.0 17.0 
457.0000780624958 0.00590807844163438 2.9540392208171795 16.0 0.0 0.0 17.0 
458.00051985485453 0.011769993219309667 5.3127811704101475 16.0 0.0 0.0 17.0 
459.00076255214475 0.0 0.0 16.0 0.0 0.0 17.0 
460.0002948850788 0.0 0.0 16.0 0.0 0.0 16.0 
461.00163464756054 0.0 0.0 16.0 0.0 0.0 16.0 
462.0003864474156 0.0 0.0 16.0 0.0 0.0 15.0 
463.001019084255 0.0 0.0 17.0 0.0 0.0 15.0 
464.00044821306955 0.0 0.0 17.0 0.0 0.0 16.0 
465.00104175310537 0.008401915979762954 4.200957989881516 17.0 0.0 0.0 16.0 
466.0002902795324 0.019385341209776533 8.8400275339975 17.0 0.0 0.0 15.0 
467.0002310685505 0.035448854971511096 8.8400275339975 17.0 0.0 0.0 15.0 
468.0029705396767 0.035448854971511096 8.8400275339975 18.0 0.0 0.0 16.0 
469.00076255214475 0.04576572983660098 8.8400275339975 18.0 0.0 0.0 17.0 
470.0000874970012 0.044022139933665286 12.572862297379714 18.0 0.0 0.0 17.0 
471.00086191780156 0.10125912570241083 18.88065920329504 17.0 0.0 0.0 17.0 
472.0003864474156 0.0844259106984038 18.88065920329504 18.0 0.0 0.0 17.0 
473.000114980636 0.07649813314481495 18.88065920329504 19.0 0.0 0.0 17.0 
474.0004267983018 0.08386784483589796 24.288774948351545 20.0 0.0 0.0 17.0 
475.0004084320094 0.09665594136423879 24.288774948351545 20.0 0.0 0.0 17.0 
476.00163464756054 0.12416250128326752 29.095206379714 20.0 0.0 0.0 17.0 
477.0003864474156 0.03153831610599693 8.38803110616405 20.0 0.0 0.0 15.0 
478.00061257132427 0.05819041275942838 29.095206379714 20.0 0.0 0.0 15.0 
479.00076255214475 0.0 0.0 20.0 0.0 0.0 15.0 
480.00025276484604 0.009963688443571582 4.981844221785764 20.0 0.0 0.0 15.0 
481.00163464756054 0.009945687146156129 4.972843573078052 20.0 0.0 0.0 15.0 
482.0003864474156 0.002043401392400532 1.02170069620027 20.0 0.0 0.0 15.0 
483.0012526655201 0.023197356055191676 6.625834454517815 20.0 0.0 0.0 16.0 
484.00076255214475 0.03516691350372186 11.5833273453039 20.0 0.0 0.0 16.0 
485.00104175310537 0.03690957003145233 13.261626403903477 19.0 0.0 0.0 16.0 
486.00163464756054 0.06222952930712713 14.744102595954246 20.0 0.0 0.0 16.0 
487.0003864474156 0.04065552890899422 14.744102595954246 19.0 0.0 0.0 16.0 
488.0011411216284 0.05716319211164739 14.744102595954246 19.0 0.0 0.0 16.0 
489.0007429036555 0.08956358066668242 20.636110091336775 19.0 0.0 0.0 16.0 
490.00104175310537 0.01242680726793018 6.2134036339651 19.0 0.0 0.0 16.0 
491.00129412313515 6.830294130970719E-4 0.3415147065485371 19.0 0.0 0.0 17.0 
492.0003864474156 6.830294130970719E-4 0.3415147065485371 19.0 0.0 0.0 17.0 
493.0007660890872 6.830294130970719E-4 0.3415147065485371 19.0 0.0 0.0 17.0 
494.00076255214475 0.01574439020143773 6.412829363174353 19.0 0.0 0.0 17.0 
495.00104175310537 0.01574439020143773 6.412829363174353 18.0 0.0 0.0 17.0 
496.00163464756054 0.004022382723677487 1.4593657375445162 19.0 0.0 0.0 17.0 
497.0003864474156 0.0073900357611730695 1.683826518747793 19.0 0.0 0.0 17.0 
498.0029705396767 0.01890462958263035 7.2166626482731715 19.0 0.0 0.0 17.0 
499.00076255214475 0.05923151790302959 13.99304618730963 19.0 0.0 0.0 17.0 
500.00104175310537 0.04757810347778465 13.99304618730963 19.0 0.0 0.0 17.0 
501.0002355413804 0.048540487814230295 13.99304618730963 20.0 0.0 0.0 17.0 
502.0003864474156 0.05903954774479319 14.11413792784424 20.0 0.0 0.0 17.0 
503.001103544121 0.0706973468512652 19.8219457405456 20.0 0.0 0.0 17.0 
504.00076255214475 0.09766968097450457 20.938059813710794 20.0 0.0 0.0 17.0 
505.00104175310537 0.19209212881809487 40.32471871908905 20.0 0.0 0.0 17.0 
506.00115523497146 0.1388353132518854 43.85709348010877 20.0 0.0 0.0 17.0 
507.0000258676062 0.09695919362446465 43.85709348010877 20.0 0.0 0.0 16.0 
508.00017728736225 0.09239822492244627 43.85709348010877 20.0 0.0 0.0 16.0 
509.00076255214475 0.12432133122596749 43.85709348010877 20.0 0.0 0.0 16.0 
510.0003474877491 0.04364420165491435 9.384237651504378 20.0 0.0 0.0 16.0 
511.0007105218448 0.09029059066089014 33.86443073557331 21.0 0.0 0.0 16.0 
512.0003864474156 0.022561729189743945 8.123541047245368 21.0 0.0 0.0 16.0 
513.0003449482278 0.006314647095253141 3.157323547626561 20.0 0.0 0.0 17.0 
514.0007625521448 0.0 0.0 20.0 0.0 0.0 17.0 
515.000662872932 0.019545374876265596 9.772687438132749 20.0 0.0 0.0 17.0 
516.0016346475605 0.008308455021293704 4.154227510646848 20.0 0.0 0.0 18.0 
517.0003864474156 0.008308455021293704 4.154227510646848 20.0 0.0 0.0 17.0 
518.0002923184426 0.008308455021293704 4.154227510646848 20.0 0.0 0.0 17.0 
519.0000523810193 0.021491929642440948 10.74596482122044 20.0 0.0 0.0 17.0 
520.0010417531054 0.023426652086248275 10.74596482122044 20.0 0.0 0.0 17.0 
521.0008241196927 0.023797425951109414 6.85014495306865 20.0 0.0 0.0 17.0 
522.0003864474156 0.010097136044972052 5.048568022486052 20.0 0.0 0.0 17.0 
523.0014625330558 0.010097136044972052 5.048568022486052 19.0 0.0 0.0 17.0 
524.0007625521448 0.023233425122200054 11.616712561100002 20.0 0.0 0.0 17.0 
525.0001300641997 0.03293930050675036 11.616712561100002 20.0 0.0 0.0 16.0 
526.0003579466239 0.023312068339010485 5.951545641533414 20.0 0.0 0.0 16.0 
527.0003864474156 0.013606192954460023 5.951545641533414 19.0 0.0 0.0 16.0 
528.0029705396767 0.011903091283066857 5.951545641533414 19.0 0.0 0.0 17.0 
529.0007625521448 0.05947585436537365 17.130744720323293 19.0 0.02407183088464356 7.099701421309703 17.0 
530.0010417531054 0.026871636896436173 12.607182462363568 19.0 0.02407183088464356 7.099701421309703 17.0 
531.0016346475605 0.02421123818944287 6.97418101640713 19.0 0.0 0.0 17.0 
532.0003864474156 0.02421123818944287 6.97418101640713 19.0 0.016566570712493664 8.283285356246779 17.0 
533.0017897311019 0.015605634004523224 6.97418101640713 20.0 0.0 0.0 17.0 
534.0007625521448 0.057203373332575094 13.606218544347229 20.0 0.0 0.0 17.0 
535.0010417531054 0.042308837964791 13.606218544347229 20.0 0.0 0.0 17.0 
536.0015343865548 0.031336839303244254 8.120219213573819 20.0 0.0 0.0 17.0 
537.0000681810649 0.018129689432494548 8.120219213573819 20.0 0.0 0.0 17.0 
538.0003381347105 0.016792350504253522 8.120219213573819 20.0 0.0 0.0 17.0 
539.0005681543737 0.028294581198088507 13.871334560491277 20.0 0.0 0.0 18.0 
540.0010417531054 0.043358540388554245 13.871334560491277 20.0 0.0 0.0 18.0 
541.0016346475605 0.031567456839012395 8.366489039532382 20.0 0.0 0.0 18.0 
542.0003864474156 0.026510228600603664 8.366489039532382 20.0 0.0 0.0 18.0 
543.0029705396767 0.018472431310941933 8.366489039532382 20.0 0.0 0.0 18.0 
544.0001777867816 0.02402383541292301 11.671268853145989 20.0 0.0 0.0 18.0 
545.000380800761 0.023342537706291893 11.671268853145989 20.0 0.0 0.0 18.0 
546.0003007461361 0.015728575071761206 6.593747046946817 20.0 0.0 0.0 18.0 
547.0001465249802 0.01318749409389365 6.593747046946817 20.0 0.0 0.0 18.0 
548.0011319034533 0.01318749409389365 6.593747046946817 20.0 0.0 0.0 18.0 
549.0007625521448 0.04216565338644341 9.669955180771069 20.0 0.0 0.0 18.0 
550.0001444260716 0.047697834604696135 9.121807441753646 20.0 0.0 0.0 18.0 
551.0016346475605 0.14474984309935685 45.1386627654808 19.0 0.0 0.0 18.0 
552.0003864474156 0.12065374697470121 45.1386627654808 19.0 0.0 0.0 18.0 
553.0015829071466 0.12769246354398922 45.1386627654808 19.0 0.0 0.0 18.0 
554.0007625521448 0.1920676544871366 48.743446441135944 19.0 0.0 0.0 18.0 
555.0002990910081 0.12943168800685292 13.045818252395549 19.0 0.0 0.0 18.0 
556.0001689778369 0.12500269899164554 13.045818252395549 19.0 0.0 0.0 18.0 
557.0003864474156 0.09557268545792552 13.045818252395549 19.0 0.0 0.0 18.0 
558.0002197329347 0.07925481051552004 12.988763991781724 19.0 0.0 0.0 17.0 
559.0007625521448 0.14886433431204707 22.34379324143046 19.0 0.0 0.0 17.0 
560.0010417531054 0.0902219911210884 19.34696891395251 19.0 0.0 0.0 16.0 
561.0000245692173 0.1385160269823789 20.52953268781596 19.0 0.0 0.0 16.0 
562.0003864474156 0.09745696160674694 19.34696891395251 19.0 0.0 0.0 16.0 
563.0029705396767 0.10717349240700924 24.205234314083896 19.0 0.0 0.0 16.0 
564.0007625521448 0.17417825942250204 30.572481766963676 19.0 0.0 0.0 15.0 
565.0001784042785 0.15897835187927628 30.572481766963676 19.0 0.0 0.0 15.0 
566.0016346475605 0.1464060806860552 30.572481766963676 18.0 0.0 0.0 15.0 
567.0003864474156 0.11383703549760511 30.572481766963676 19.0 0.0 0.0 15.0 
568.0000054829068 0.12354013862994666 35.67280584436196 19.0 0.0 0.0 15.0 
569.0007625521448 0.1636500386985761 42.085542777965145 19.0 0.0 0.0 15.0 
570.0002925372585 0.18782291926127498 42.085542777965145 19.0 0.0 0.0 15.0 
571.0003482343933 0.17058183748565336 42.085542777965145 18.0 0.0 0.0 15.0 
572.0003864474156 0.08634196823551527 13.394980933057127 19.0 0.0 0.0 15.0 
573.0014708979527 0.1560131507060222 22.46392367837629 18.0 0.0 0.0 15.0 
574.0007625521448 0.20549576665867011 31.46032718230387 19.0 0.0 0.0 15.0 
575.0001390609733 0.38666685679975277 31.46032718230387 19.0 0.0 0.0 15.0 
576.0000593010185 0.4105876610833369 31.46032718230387 19.0 0.0 0.0 15.0 
577.0003864474156 0.4870634782442267 35.91794795050038 19.0 0.0 0.0 15.0 
578.0004922758345 0.5074145086294546 35.91794795050038 19.0 0.0 0.0 15.0 
579.0007625521448 0.5435195445252574 41.284336411974635 19.0 0.0 0.0 15.0 
580.0010417531054 0.6756064850553187 42.723207148473705 19.0 0.0 0.0 14.0 
581.0016346475605 0.5857776238880613 42.723207148473705 19.0 0.0 0.0 14.0 
582.0003864474156 0.5942199082712818 42.723207148473705 19.0 0.0 0.0 14.0 
583.0003066140383 0.5602834211767811 42.723207148473705 20.0 0.0039020566388497852 1.0841248497864342 15.0 
584.0002125760851 0.7687616077935178 62.87410116790073 20.0 0.017943030640165468 7.887390470296282 15.0 
585.0010417531054 0.9078178726854177 71.65143331775124 20.0 0.016854944425021647 7.887390470296282 15.0 
586.001604214046 1.1704912223227073 74.01796241727561 20.0 0.015774780940592537 7.887390470296282 15.0 
587.0003864474156 1.171416027799761 74.01796241727561 21.0 0.015774780940592537 7.887390470296282 16.0 
588.0029705396767 1.1829979082683388 74.01796241727561 21.0 0.0 0.0 17.0 
589.0007625521448 1.3377379434594678 76.14605186796535 21.0 0.0016202947586813822 0.810147379340691 17.0 
590.0002682393366 1.5081960785308555 76.14605186796535 21.0 0.0 0.0 17.0 
591.0016346475605 1.5407869711699527 76.14605186796535 21.0 0.0 0.0 17.0 
592.0003864474156 1.6829425201810437 76.14605186796535 21.0 0.0 0.0 17.0 
593.0022384273803 1.7025392314654217 76.14605186796535 21.0 0.0016249343809963696 0.8124671904981824 17.0 
594.0007625521448 2.0553586884648993 81.61304128085573 21.0 0.0 0.0 16.0 
595.0010417531054 2.2089680679519126 86.84440122517736 21.0 0.019378645740298316 7.892403413432959 16.0 
596.0016346475605 2.129746653549786 86.84440122517736 22.0 0.019378645740298316 7.892403413432959 16.0 
597.0003864474156 2.1614665585733968 86.84440122517736 22.0 0.019378645740298316 7.892403413432959 16.0 
598.0006790269852 2.41845975513876 90.47532649785796 22.0 0.017979488153948824 8.989744076974404 16.0 
599.0003030585019 2.439778214706014 86.84440122517736 22.0 0.03324723130475022 8.989744076974404 16.0 
600.0010417531054 2.587272128228939 101.6410298738221 22.0 0.01526774315080159 7.633871575400775 16.0 
#####################################################################
# End of data export. Simulation finished at: 2019-02-25T20:34+0000 #
#####################################################################
