#####################################################################
# Alchemist log file - simulation started at: 2019-02-25T20:14+0000 #
#####################################################################
# seed = 78.0
#
# The columns have the following meaning: 
# time distance-rep[Mean] distance-rep[Max] leader-rep[CountDistinct] distance-share[Mean] distance-share[Max] leader-share[CountDistinct] 
0.0 NaN NaN NaN NaN NaN NaN 
1.003378216872969 0.0 0.0 498.0 0.0 0.0 85.0 
2.0016875353801575 0.0 0.0 129.0 0.0 0.0 78.0 
3.0009869141998315 0.0 0.0 112.0 0.0 0.0 67.0 
4.000676350317802 0.0 0.0 111.0 0.0 0.0 61.0 
5.001233128844152 0.0 0.0 101.0 0.0 0.0 55.0 
6.001973237503858 0.0 0.0 99.0 0.0 0.0 51.0 
7.001277340475953 0.0 0.0 98.0 0.0 0.0 45.0 
8.000867925602837 0.0 0.0 90.0 0.0 0.0 41.0 
9.002575242749879 0.0 0.0 82.0 0.0 0.0 36.0 
10.002298457468761 0.0 0.0 81.0 0.0 0.0 35.0 
11.000869907264594 0.0 0.0 77.0 0.0 0.0 35.0 
12.000191785025452 0.0 0.0 75.0 0.0 0.0 33.0 
13.00227606124954 0.0 0.0 71.0 0.0 0.0 31.0 
14.004087474360302 0.0 0.0 69.0 0.0 0.0 32.0 
15.000055183538569 0.0 0.0 66.0 0.0 0.0 32.0 
16.000662619955868 0.0 0.0 62.0 0.0 0.0 31.0 
17.000371159554085 0.0 0.0 62.0 0.009993049509651112 4.996524754825572 28.0 
18.001608758539167 0.0 0.0 57.0 0.0 0.0 30.0 
19.00074944230583 0.0 0.0 55.0 0.0 0.0 27.0 
20.0003112303014 0.0 0.0 55.0 0.0 0.0 24.0 
21.00124724750092 0.0 0.0 47.0 0.0 0.0 22.0 
22.001687535380157 0.0 0.0 50.0 0.0 0.0 22.0 
23.000154564396627 0.0 0.0 48.0 0.0 0.0 20.0 
24.00267100074695 0.0 0.0 45.0 0.0 0.0 18.0 
25.005000372071425 0.0 0.0 47.0 0.0 0.0 19.0 
26.000894573327272 0.0 0.0 45.0 0.0 0.0 18.0 
27.000808608459693 0.0 0.0 43.0 0.0 0.0 18.0 
28.0016164718209 0.0 0.0 43.0 0.0 0.0 18.0 
29.000164357612928 0.0 0.0 42.0 0.0 0.0 18.0 
30.001285842668516 0.0 0.0 44.0 0.0 0.0 18.0 
31.000119893784827 0.0 0.0 42.0 0.0 0.0 18.0 
32.00168753538016 0.0 0.0 42.0 0.0 0.0 18.0 
33.002778570771724 0.0 0.0 37.0 0.0 0.0 19.0 
34.000613849972716 0.0 0.0 38.0 0.0 0.0 19.0 
35.00444410283043 0.0 0.0 38.0 0.0 0.0 19.0 
36.00608092293035 0.0 0.0 37.0 0.0 0.0 19.0 
37.00004098282513 0.0 0.0 37.0 0.0 0.0 18.0 
38.000033491508574 0.0 0.0 37.0 0.0 0.0 19.0 
39.00817551170219 0.0 0.0 37.0 0.0 0.0 18.0 
40.00162475829522 0.0 0.0 37.0 0.022188596387115893 7.581540453576281 17.0 
41.008394157053885 0.0 0.0 37.0 0.007025515479963493 3.512757739981737 18.0 
42.00168753538016 0.0 0.0 37.0 0.0 0.0 17.0 
43.00502533258531 0.0 0.0 37.0 0.0 0.0 17.0 
44.00023159755348 0.0 0.0 36.0 0.0 0.0 19.0 
45.00122393971638 0.0 0.0 36.0 0.0 0.0 18.0 
46.00184528866824 0.0 0.0 38.0 0.0 0.0 17.0 
47.00168753538016 0.0 0.0 39.0 0.0 0.0 17.0 
48.00242699858605 0.0 0.0 38.0 0.0 0.0 16.0 
49.000349950260066 0.011646522870640108 5.823261435320035 37.0 0.0 0.0 17.0 
50.002039171977195 0.0 0.0 42.0 0.0 0.0 17.0 
51.00132969144417 0.0 0.0 38.0 0.0 0.0 17.0 
52.0012593856995 0.0 0.0 35.0 0.0 0.0 17.0 
53.00228923444536 0.0 0.0 34.0 0.0 0.0 17.0 
54.00180546785856 0.0 0.0 33.0 0.0 0.0 17.0 
55.003244718797305 0.0 0.0 31.0 0.0 0.0 17.0 
56.000116218548364 0.0 0.0 34.0 0.0 0.0 17.0 
57.00168753538016 0.0 0.0 33.0 0.0 0.0 17.0 
58.007016729421835 0.0 0.0 32.0 0.009861349920951046 4.930674960475528 17.0 
59.00067294762301 0.0 0.0 31.0 0.0 0.0 18.0 
60.000706106513015 0.0 0.0 29.0 0.0 0.0 18.0 
61.001119465666704 0.0 0.0 29.0 0.0 0.0 18.0 
62.00168171045785 0.0 0.0 28.0 0.0 0.0 17.0 
63.00360607927759 0.0 0.0 28.0 0.0 0.0 17.0 
64.00666995273765 0.0 0.0 28.0 0.0 0.0 17.0 
65.00158952125787 0.0 0.0 28.0 0.0 0.0 17.0 
66.00360467366717 0.0 0.0 28.0 0.0 0.0 17.0 
67.0015693623448 0.0 0.0 29.0 0.0 0.0 17.0 
68.00352027358534 0.0 0.0 28.0 0.0 0.0 17.0 
69.00136022414401 0.0045998944544904715 2.299947227245241 28.0 0.0 0.0 17.0 
70.00034421730868 0.0 0.0 27.0 0.0 0.0 17.0 
71.00107576821559 0.0086703626261368 4.335181313068404 27.0 0.0 0.0 17.0 
72.00168753538016 0.0086703626261368 4.335181313068404 25.0 0.0 0.0 17.0 
73.00024368636844 0.014957908229453464 4.335181313068404 25.0 0.0 0.0 17.0 
74.00084557813878 0.008747565655394366 3.143772801658315 24.0 0.0 0.0 17.0 
75.00088074774384 0.006287545603316598 3.143772801658315 25.0 0.0 0.0 17.0 
76.00306175625158 0.018313637278193517 7.988832995231917 24.0 0.0 0.0 17.0 
77.00112386869638 0.018313637278193517 7.988832995231917 24.0 0.0 0.0 17.0 
78.00592238687913 0.002335971287729757 1.1679856438648812 23.0 0.0 0.0 17.0 
79.00074040450586 0.005564376016415797 1.614202364343015 23.0 0.0 0.0 17.0 
80.00082145712605 0.04374854210833719 11.674267859226404 23.0 0.0 0.0 17.0 
81.00204925694248 0.0734205841564483 19.0924790651425 23.0 0.0 0.0 17.0 
82.00102084448902 0.020302686809399017 9.032017551077388 22.0 0.0 0.0 17.0 
83.00101984467045 0.058487644939684266 19.0924790651425 22.0 0.0 0.0 17.0 
84.00624679070262 0.04355368316179747 11.625498176199244 22.0 0.0 0.0 19.0 
85.00571416386731 0.07365884926145132 19.07872359602723 20.0 0.0 0.0 22.0 
86.00050657977826 0.10347152044922056 24.084663224468187 21.0 0.0 0.0 21.0 
87.00168753538016 0.0404668330780161 19.07872359602723 21.0 0.0 0.0 21.0 
88.00124336109799 0.002309385885961558 1.1546929429807733 21.0 0.0 0.0 22.0 
89.00003563869646 0.0 0.0 21.0 0.0 0.0 22.0 
90.0000235346868 0.0 0.0 23.0 0.0 0.0 21.0 
91.00026814481272 0.0 0.0 23.0 0.0 0.0 21.0 
92.00007172666801 0.0 0.0 23.0 0.0 0.0 21.0 
93.00024727577997 0.0 0.0 23.0 0.0041137546020880295 2.056877301044011 21.0 
94.00058724974701 0.0 0.0 24.0 0.011849557747713294 5.9247788738566385 18.0 
95.00885471272079 0.0 0.0 25.0 0.011849557747713294 5.9247788738566385 18.0 
96.00028332737253 0.0 0.0 25.0 0.011849557747713294 5.9247788738566385 18.0 
97.00076872599412 0.0 0.0 24.0 0.0 0.0 18.0 
98.00030035979889 0.0 0.0 24.0 0.0 0.0 18.0 
99.00416237857533 0.0 0.0 24.0 0.0 0.0 18.0 
100.00066754062243 0.0 0.0 24.0 0.0 0.0 18.0 
101.00613828931677 0.0 0.0 25.0 0.0 0.0 18.0 
102.00168753538016 0.0 0.0 25.0 0.0 0.0 18.0 
103.00114427106303 0.0 0.0 26.0 0.0 0.0 18.0 
104.0007357308129 0.0 0.0 25.0 0.0 0.0 18.0 
105.00194978385916 0.0 0.0 25.0 0.0 0.0 18.0 
106.00184031535676 0.005665895015731647 2.832947507865839 24.0 0.0 0.0 18.0 
107.00168753538016 0.005665895015731647 2.832947507865839 23.0 0.0 0.0 18.0 
108.00159247204704 0.005665895015731647 2.832947507865839 23.0 0.0 0.0 19.0 
109.00817551170219 0.005665895015731647 2.832947507865839 23.0 0.0 0.0 19.0 
110.00043542801028 0.0 0.0 24.0 0.0 0.0 19.0 
111.00136085174005 0.013137738357688077 2.7183304493763387 24.0 0.0 0.0 18.0 
112.00168753538016 0.08000431036997852 19.95476726352632 24.0 0.0 0.0 18.0 
113.00255096199925 0.08000431036997852 19.95476726352632 23.0 0.0 0.0 18.0 
114.00179257281393 0.03843302867431789 15.515898412472495 22.0 0.0 0.0 17.0 
115.0007212771219 0.1289889030192365 29.469202828892037 22.0 0.0 0.0 18.0 
116.00023895376225 0.12986149494314067 20.05874945056462 22.0 0.0 0.0 18.0 
117.00108705791928 0.18892195542302526 29.530230239942313 22.0 0.0 0.0 17.0 
118.00194733229247 0.18892195542302526 29.530230239942313 21.0 0.0 0.0 17.0 
119.00120002821456 0.17903145938102938 29.530230239942313 21.0 0.0 0.0 16.0 
120.00086141576297 0.10801033101153884 20.05874945056462 21.0 0.0 0.0 16.0 
121.00253822819369 0.19252932002392703 29.62055969457907 21.0 0.0 0.0 16.0 
122.00168753538016 0.21258652079884835 29.62055969457907 21.0 0.0 0.0 16.0 
123.0030109528292 0.2239639899675661 29.62055969457907 21.0 0.0 0.0 16.0 
124.00354621597867 0.2239639899675661 29.62055969457907 20.0 0.0 0.0 17.0 
125.00077632968272 0.15900137443281073 29.62055969457907 20.0 0.0 0.0 17.0 
126.00121345937154 0.2340743158303531 37.12382655691877 20.0 0.0 0.0 17.0 
127.00168753538016 0.20437054471440647 29.77681012080717 20.0 0.0 0.0 17.0 
128.00353910050552 0.25301992421654945 29.77681012080717 20.0 0.0 0.0 16.0 
129.00225843120117 0.30188471875874956 29.77681012080717 20.0 0.0 0.0 17.0 
130.00113780560642 0.33619066234392403 29.77681012080717 19.0 0.0 0.0 18.0 
131.00033150558852 0.6055353046852213 37.283410109916474 19.0 0.0 0.0 17.0 
132.00027551232156 0.6191149402252809 32.56995985930351 19.0 0.0 0.0 16.0 
133.002109905696 0.6082061734129359 32.56995985930351 19.0 0.0 0.0 17.0 
134.0042536070381 0.4802878186271575 32.69127834865043 20.0 0.0 0.0 17.0 
135.00134212608796 0.5091364335217572 32.69127834865043 20.0 0.0 0.0 16.0 
136.0034586040793 0.7231400110180795 40.05264215827364 20.0 0.0 0.0 16.0 
137.00003108341457 0.72270868173368 40.02472667636553 19.0 0.0 0.0 16.0 
138.00216035160133 0.803853178189952 40.57224822813669 20.0 0.0 0.0 16.0 
139.00482780106415 0.687679792470298 40.02472667636553 19.0 0.0 0.0 16.0 
140.0009639907282 0.6641953212704728 40.744549210322845 19.0 0.0 0.0 16.0 
141.0001406373906 0.7666156784768111 47.68551524340438 19.0 0.0 0.0 16.0 
142.00106695988978 0.797122580794315 48.1441850992704 18.0 0.0 0.0 16.0 
143.00012194234034 0.720668285893486 48.1441850992704 19.0 0.0 0.0 16.0 
144.0010688826832 0.8983396288562192 48.1441850992704 18.0 0.0 0.0 16.0 
145.00014736081906 0.7525361706881835 49.231625395307105 19.0 0.0 0.0 17.0 
146.0011390191281 1.0071019130615935 67.85956312113376 19.0 0.0 0.0 17.0 
147.0007456987866 0.8833690453739187 55.94547382749337 20.0 0.0 0.0 17.0 
148.0004332903829 1.11945716154067 56.52301351354612 20.0 0.0 0.0 17.0 
149.00065707097053 1.1594686358482795 65.69148684933492 22.0 0.0 0.0 18.0 
150.0009637864149 1.410099483703329 60.54641826849087 22.0 0.03665401209999669 18.32700604999829 18.0 
151.00314902835615 1.3694991645156365 60.34207967553829 21.0 0.03665401209999669 18.32700604999829 18.0 
152.00168753538014 1.177135402291003 60.34207967553829 22.0 0.03665401209999669 18.32700604999829 18.0 
153.00284541873782 1.0875559822606717 60.34207967553829 22.0 0.05111117380534791 25.55558690267398 18.0 
154.00282403519222 1.0726002217140014 60.34207967553829 21.0 0.05111117380534791 25.55558690267398 19.0 
155.0003089006035 0.9983565637416224 58.00237404224754 21.0 0.04430982606117272 22.154913030586442 20.0 
156.00259023757874 1.0338034402770606 56.84162162370171 21.0 0.04430982606117272 22.154913030586442 21.0 
157.00100576811954 1.0573752728464645 55.882828694414684 21.0 0.0 0.0 20.0 
158.00145149098537 1.1618172978516401 55.882828694414684 21.0 0.0 0.0 20.0 
159.00088476676208 1.1168458911680312 55.882828694414684 21.0 0.0 0.0 19.0 
160.0002510328008 1.0994663644002995 55.882828694414684 21.0 0.0 0.0 19.0 
161.00323505262108 1.0132753481105579 56.95734110634396 21.0 0.0 0.0 19.0 
162.00168753538014 1.1502571029969553 64.7774339977243 21.0 0.0 0.0 19.0 
163.00059277440633 1.2198691294687973 57.33638092370961 21.0 0.0 0.0 19.0 
164.0021774106334 1.1199693407946598 57.33638092370961 21.0 0.0 0.0 18.0 
165.00376124225866 1.0487963247600964 57.33638092370961 21.0 0.0 0.0 18.0 
166.0013936147414 1.0586796630588478 57.692138860116756 21.0 0.0 0.0 18.0 
167.00069137397298 1.1088307046316792 57.692138860116756 21.0 0.0 0.0 18.0 
168.00202378265521 1.119243064666937 56.119527093855936 21.0 0.0 0.0 18.0 
169.00129186327248 1.105495807083975 56.119527093855936 21.0 0.0 0.0 18.0 
170.00219367944453 1.1867170308771398 63.2398830450108 21.0 0.0 0.0 18.0 
171.00050452744136 1.0611299364023679 57.188878515814395 21.0 0.0 0.0 18.0 
172.00044256370745 1.2565644492800825 56.237922078477425 21.0 0.0 0.0 18.0 
173.00125151368707 1.3048171686737589 56.237922078477425 21.0 0.0 0.0 18.0 
174.00415159742457 1.2751302458636589 56.237922078477425 21.0 9.647803125437287E-4 0.48239015627186177 18.0 
175.00129040448937 1.0280080025282434 59.12053759997565 22.0 0.005527432328119033 2.281326007787669 20.0 
176.00007637707105 1.0006456770658456 59.77220419105731 22.0 0.0 0.0 20.0 
177.00168753538014 0.8747516851316786 57.24669411195566 22.0 0.0 0.0 20.0 
178.00158887392627 0.9914167052193674 56.48232171179177 22.0 0.0 0.0 20.0 
179.00467596098292 1.2173480018051583 59.77220419105731 22.0 0.0 0.0 20.0 
180.00008424308032 1.1938904286020113 56.48232171179177 23.0 0.0 0.0 19.0 
181.00153230753227 1.161526378980836 57.547740127186785 23.0 0.0 0.0 19.0 
182.00120304059715 1.0963558808129188 55.676616583792224 23.0 0.0 0.0 18.0 
183.00134585297627 1.15845496532649 55.676616583792224 24.0 0.0 0.0 19.0 
184.00797436977965 1.2699921313167095 71.81870131515683 25.0 0.0 0.0 19.0 
185.0051548081436 1.2397817641289617 71.81870131515683 25.0 0.0 0.0 19.0 
186.00204862807684 1.2913070059586322 72.94306383926732 25.0 0.0 0.0 19.0 
187.00168753538014 1.3514656101192142 74.73708331610868 24.0 0.0 0.0 19.0 
188.00274118606248 1.2890688504450283 74.73708331610868 24.0 0.0 0.0 19.0 
189.005129555884 1.2740803479739837 74.73708331610868 23.0 0.0 0.0 18.0 
190.00121475639364 1.390173887102931 95.36095728639833 23.0 0.0 0.0 18.0 
191.00252623987635 1.1580515013660535 96.58284347955652 23.0 0.0 0.0 18.0 
192.00168753538014 1.0511035828797486 96.58284347955652 23.0 0.0 0.0 18.0 
193.0002388743778 0.6440790778450419 89.52652911986473 22.0 0.0 0.0 18.0 
194.0028575995945 0.8082899055027447 89.52652911986473 23.0 0.0 0.0 18.0 
195.00126094640768 0.4143869061188727 89.52652911986473 22.0 0.0 0.0 18.0 
196.0006019396523 0.48013130953028604 37.494767703743435 22.0 0.0 0.0 18.0 
197.0001144947118 0.4990228786127561 37.494767703743435 22.0 0.0 0.0 18.0 
198.0008372877383 0.43848065823741217 35.60486941033679 22.0 0.0 0.0 18.0 
199.00000666230486 0.42806467858620956 35.60486941033679 21.0 0.0 0.0 18.0 
200.00463284135665 0.4849022019581868 35.60486941033679 21.0 0.0 0.0 18.0 
201.00201394945526 0.7037002880431504 42.945201904488414 21.0 0.0 0.0 18.0 
202.00019680882212 0.5800249048896591 42.945201904488414 21.0 0.0 0.0 18.0 
203.00068861807281 0.5385885202390113 35.09483169011625 22.0 0.0 0.0 19.0 
204.0024815021427 0.5902613135240039 45.387893309462214 22.0 0.0 0.0 20.0 
205.0016223422857 0.6450852663054207 45.387893309462214 21.0 0.0 0.0 19.0 
206.00043497650515 0.8501745478267374 52.72775364784226 21.0 0.0 0.0 20.0 
207.00168753538014 0.9630424195235265 57.59609356462704 21.0 0.0 0.0 21.0 
208.01150328527427 0.8338702143329515 45.52157819328082 21.0 0.0 0.0 21.0 
209.00113281627904 0.8536566960466097 45.52157819328082 21.0 0.0 0.0 22.0 
210.0006068393336 0.8557765396150273 45.52157819328082 21.0 0.0 0.0 21.0 
211.0005948803009 1.0906853140297958 55.988091447757 21.0 0.0 0.0 21.0 
212.00014030499918 1.0738834904699575 55.988091447757 21.0 0.0 0.0 21.0 
213.0081493288818 1.0616756868175414 55.988091447757 20.0 0.0 0.0 19.0 
214.00235180977793 0.9818753116809419 55.988091447757 21.0 0.0 0.0 19.0 
215.00105917671064 0.9313360512261059 55.988091447757 21.0 0.0 0.0 19.0 
216.0014517346514 1.2261889741343204 70.67098161631168 21.0 0.0 0.0 19.0 
217.00103667772547 1.314703313630281 70.67098161631168 21.0 0.0 0.0 18.0 
218.00313468003236 1.129998411841526 70.67098161631168 21.0 0.0 0.0 17.0 
219.00104794121546 1.240920897564611 70.67098161631168 21.0 0.0 0.0 17.0 
220.00003592782457 1.0370524117414004 70.67098161631168 21.0 0.0 0.0 17.0 
221.00375314363905 1.204603070067674 55.75231575737672 21.0 0.0 0.0 17.0 
222.0007217386902 1.4031731942519703 80.58745034070432 21.0 0.0 0.0 17.0 
223.00073641442086 1.3325387925801784 80.58745034070432 21.0 0.0 0.0 17.0 
224.00005113386007 1.291771075635333 80.58745034070432 21.0 0.0 0.0 17.0 
225.0006143376942 1.2130254879895077 80.58745034070432 21.0 0.0 0.0 17.0 
226.00238810472777 1.7368853913820541 80.70028228406409 21.0 0.0 0.0 17.0 
227.00168753538014 1.7855494307497455 80.70028228406409 21.0 0.0 0.0 17.0 
228.00075198894538 1.5358092527320686 80.70028228406409 20.0 0.0 0.0 18.0 
229.00141922046166 1.457950639066928 80.70028228406409 21.0 0.0 0.0 19.0 
230.00270698679984 1.7152916222246717 91.40310081600597 20.0 0.0 0.0 19.0 
231.00082182337002 2.0350437286968446 98.82005490779784 20.0 0.0 0.0 19.0 
232.00168753538014 1.6523019049062333 85.08917161627136 19.0 0.0 0.0 18.0 
233.00221213344525 2.012536411978444 98.82005490779784 19.0 0.0 0.0 18.0 
234.00269881013244 2.2393477708012735 99.27835004376647 19.0 0.0 0.0 17.0 
235.00176610322922 2.384846123703529 99.27835004376647 19.0 0.0 0.0 16.0 
236.00047150264578 2.6972860673643475 105.79338153388824 19.0 0.0 0.0 16.0 
237.00168753538014 2.903141488033941 111.13293776175908 19.0 0.0 0.0 16.0 
238.00369140451534 2.9000920431419663 111.13293776175908 18.0 0.0 0.0 16.0 
239.00030238422036 2.6683867041535416 98.9183379691878 18.0 0.0 0.0 16.0 
240.00060197654508 2.870943856944372 111.13293776175908 19.0 0.0 0.0 17.0 
241.00023478877378 2.5545344689873155 105.70731487085175 18.0 0.0 0.0 19.0 
242.00168753538014 2.377793755945641 106.97477802890728 18.0 0.0 0.0 18.0 
243.00072969081697 1.7709456722994845 80.01752235529204 19.0 0.0 0.0 18.0 
244.00211580073662 1.754249077795538 80.01752235529204 20.0 0.0 0.0 17.0 
245.0004509639738 1.6159674855473105 80.01752235529204 20.0 0.0 0.0 17.0 
246.0010094560086 1.400473254231413 81.5083456227884 20.0 0.0 0.0 17.0 
247.00168753538014 1.5162523945849355 80.39752608722569 20.0 0.0 0.0 17.0 
248.0001782495359 1.5399186817537396 80.39752608722569 21.0 0.0 0.0 17.0 
249.00450483296504 1.378344311625143 76.73007790100269 21.0 0.0 0.0 17.0 
250.00640522438306 1.2023451606962063 76.36880842707586 22.0 0.0 0.0 17.0 
251.00106324191404 1.206727602668482 79.67279776649178 20.0 0.0 0.0 17.0 
252.00142924804138 1.1626233845155636 53.79475573100848 21.0 0.0 0.0 17.0 
253.004393763346 1.1642114877003658 79.69100421194133 21.0 0.0 0.0 17.0 
254.00311028815324 1.1781593435720534 76.30190261394404 21.0 0.0 0.0 18.0 
255.0024899126703 1.153956657511908 81.47063349063734 21.0 0.0 0.0 17.0 
256.0042671638974 1.4494701558535512 67.12687629858067 23.0 0.0 0.0 18.0 
257.00168753538014 1.3493338267383492 67.12687629858067 23.0 0.0 0.0 18.0 
258.0009206404906 1.543093303158939 86.04027597969156 23.0 0.0 0.0 20.0 
259.0002608184114 1.3824175737790203 86.04027597969156 22.0 0.0 0.0 19.0 
260.000711078218 1.2413268381825207 67.12687629858067 21.0 0.0 0.0 18.0 
261.0031350102547 1.3910532961384854 75.0283485220184 20.0 0.0 0.0 18.0 
262.00103673365186 1.3608104130854677 75.0283485220184 21.0 0.0 0.0 18.0 
263.00364811242036 1.4022162548107748 75.0283485220184 20.0 0.0 0.0 18.0 
264.0001390598206 1.3031405114205123 75.0283485220184 20.0 0.0 0.0 18.0 
265.00670851701017 1.49800641644586 85.8266456607742 19.0 0.0 0.0 18.0 
266.0016630246764 1.5884762269481845 86.4657168809814 19.0 0.0 0.0 18.0 
267.0009635487834 1.9045910637446841 86.61547205782222 19.0 0.0 0.0 18.0 
268.00222976294737 2.1093545290003224 86.95370430751126 19.0 0.0 0.0 17.0 
269.00071283887394 1.9227053004108843 87.22098008743558 18.0 0.0 0.0 17.0 
270.00019650971996 1.682262513159129 87.22098008743558 18.0 0.0 0.0 17.0 
271.00215764603996 1.7360307730500895 87.92639482758551 18.0 0.0 0.0 17.0 
272.00002103879694 1.577565562533415 87.92639482758551 18.0 0.0 0.0 17.0 
273.0020715373616 1.2315435081135424 78.0507577971918 19.0 0.0 0.0 18.0 
274.0062954602988 1.4029822806207704 88.38176699325481 20.0 0.0 0.0 18.0 
275.00068706420285 0.4733535996749982 88.64976466497001 21.0 0.0 0.0 18.0 
276.0040562171214 0.0 0.0 19.0 0.0 0.0 18.0 
277.0006585823967 0.0 0.0 21.0 0.0 0.0 19.0 
278.0022912979285 0.0 0.0 20.0 0.0 0.0 19.0 
279.0036653868462 0.028021137353985752 8.442148502584757 20.0 0.0 0.0 18.0 
280.0009736537225 0.04654075369272889 14.828228343779614 20.0 0.0 0.0 18.0 
281.00183538678226 0.057677594041544974 14.828228343779614 20.0 0.0 0.0 19.0 
282.00012750793627 0.05247544448717774 12.647839085974198 20.0 0.0 0.0 20.0 
283.0021566349548 0.12113600476648574 21.972429014384403 19.0 0.0 0.0 20.0 
284.0026497532485 0.10187992166577031 15.543477956475016 19.0 0.0 0.0 19.0 
285.0002718867151 0.19265843116471945 18.894646648241633 20.0 0.0 0.0 18.0 
286.00669116335564 0.22054354490317446 41.95273583968023 21.0 0.0 0.0 18.0 
287.00168753538014 0.236774121427206 41.95273583968023 22.0 0.0 0.0 19.0 
288.00000661114683 0.09304345826429326 11.910667871204396 21.0 0.0 0.0 18.0 
289.0020718524658 0.10146191890822023 18.341726133151525 21.0 0.0 0.0 18.0 
290.0078125891046 0.11110361726889922 18.341726133151525 21.0 0.0 0.0 18.0 
291.00534567568326 0.1237272208413055 18.341726133151525 21.0 0.0 0.0 18.0 
292.00168753538014 0.11862840879237248 18.341726133151525 21.0 0.0 0.0 18.0 
293.00093800429704 0.07590320717629719 11.198293650036476 21.0 0.0 0.0 17.0 
294.0007705331854 0.09275662695767156 14.044964051781875 21.0 0.0 0.0 17.0 
295.00187503510614 0.05943433042632509 12.084259528301288 21.0 0.0 0.0 17.0 
296.0001109747846 0.017040267474061947 8.520133737031017 21.0 0.0 0.0 17.0 
297.0009051058943 0.03187334037345534 8.520133737031017 21.0 0.0 0.0 17.0 
298.0027248214615 0.03187334037345534 8.520133737031017 21.0 0.0 0.0 15.0 
299.0023880171487 0.08407955434127806 14.066752529307195 21.0 0.0 0.0 17.0 
300.0022009943013 0.07906163598640345 11.51626818694129 21.0 0.0 0.0 15.0 
301.00616541760314 0.07518710211224149 11.51626818694129 21.0 0.0 0.0 15.0 
302.000429905654 0.07128719506507379 11.51626818694129 21.0 0.0 0.0 15.0 
303.0012769721822 0.07128719506507379 11.51626818694129 21.0 0.0 0.0 15.0 
304.0003768053742 0.16309759794519618 18.322625903909056 20.0 0.0 0.0 15.0 
305.0016501354652 0.1651163783867891 18.322625903909056 20.0 0.0 0.0 15.0 
306.00152454417577 0.16701297850254276 16.19152997835357 20.0 0.0 0.0 15.0 
307.0005236032307 0.18197421864078833 16.19152997835357 20.0 0.0 0.0 15.0 
308.00056048541126 0.16761828748007898 16.19152997835357 20.0 0.0 0.0 14.0 
309.001247692969 0.2565524528059793 21.370386053636082 19.0 0.0 0.0 14.0 
310.0019527663811 0.3016286518960409 23.17793936156724 19.0 0.0 0.0 14.0 
311.0005954155634 0.3034466174312857 22.829381340474924 18.0 0.0 0.0 14.0 
312.0010790874925 0.2889949987994897 22.829381340474924 18.0 0.0 0.0 14.0 
313.0000101159821 0.30398527165767475 25.220176123854117 18.0 0.0 0.0 14.0 
314.00245936416474 0.4278687000473201 30.305826917303364 18.0 0.0 0.0 15.0 
315.0020289952751 0.41058644117924187 30.305826917303364 18.0 0.0 0.0 15.0 
316.0012205451145 0.41364631952762376 31.84805386810868 18.0 0.0 0.0 15.0 
317.00168753538014 0.4286623740683025 35.249110197948 18.0 0.0 0.0 15.0 
318.0002741388538 0.4121070512668115 35.249110197948 19.0 0.0 0.0 16.0 
319.00000605194236 0.41277040990074654 35.0114455406096 18.0 0.0 0.0 16.0 
320.0004910974093 0.497868579053727 39.253892383102226 18.0 0.0 0.0 16.0 
321.0089170735407 0.4256757791204176 39.253892383102226 18.0 0.0 0.0 16.0 
322.0008821830428 0.27993428555213246 35.0114455406096 18.0 0.0 0.0 16.0 
323.00028688931275 0.283066632612925 42.531375358386214 18.0 0.0 0.0 16.0 
324.00099950919 0.3481005714782088 42.531375358386214 18.0 0.0 0.0 16.0 
325.00230988703754 0.37181875268797304 42.598231035855264 18.0 0.0 0.0 18.0 
326.0009928373661 0.37544022534935784 42.598231035855264 18.0 0.0 0.0 18.0 
327.00168753538014 0.2763926604860998 39.63869826988349 18.0 0.0 0.0 18.0 
328.0026995445674 0.27852035803035785 39.63869826988349 18.0 0.0 0.0 18.0 
329.0008794593635 0.32768469610458095 46.91504666313759 18.0 0.0 0.0 18.0 
330.00308221098555 0.45789662808170983 50.165254176491175 17.0 0.0 0.0 17.0 
331.00213863827804 0.3832870368451735 46.35549970491712 17.0 0.0 0.0 17.0 
332.0004754067311 0.42715180205056874 46.35549970491712 17.0 0.0 0.0 17.0 
333.00220964942406 0.4224392912145988 46.35549970491712 17.0 0.0 0.0 17.0 
334.00063475630844 0.5727142737059032 46.35549970491712 17.0 0.0 0.0 17.0 
335.0006625021677 0.5850974579729568 53.85120144326413 17.0 0.0 0.0 17.0 
336.00022827922226 0.40109633832377795 25.615816950616818 17.0 0.0 0.0 18.0 
337.0015696529652 0.4244011108851704 25.615816950616818 17.0 0.0 0.0 17.0 
338.00303452061655 0.6133418581015873 34.33514586693252 17.0 0.0 0.0 17.0 
339.0013943921308 0.7197431245669298 37.94490058654668 17.0 0.0 0.0 18.0 
340.00056401807814 0.9737247066115822 47.03746208461203 17.0 0.0 0.0 18.0 
341.00044710075366 0.9933731321542711 46.44004008929349 17.0 0.0 0.0 18.0 
342.00168753538014 0.8826615008947272 37.94490058654668 17.0 0.0 0.0 18.0 
343.00230150452546 0.7753468483687807 32.28387372889631 17.0 0.0 0.0 18.0 
344.0033353354409 0.6729364244903632 39.06718848351133 18.0 0.0 0.0 18.0 
345.0004777941741 0.7989365274580845 39.06718848351133 18.0 0.0 0.0 18.0 
346.0007148736896 0.7378237403087174 43.29348339468112 18.0 0.0 0.0 18.0 
347.0003043723964 0.6860088064359117 36.939622157073075 18.0 0.0 0.0 18.0 
348.00109682671666 0.6032492881428746 35.81139008719251 18.0 0.0 0.0 19.0 
349.000040138509 0.5903216658739562 31.31038567197095 18.0 0.0 0.0 20.0 
350.00082577444556 0.5042504020063198 24.65362497339592 20.0 0.0 0.0 20.0 
351.00482075907 0.4313145623557127 32.10787518452659 20.0 0.0 0.0 19.0 
352.00168753538014 0.4974396638100141 32.10787518452659 20.0 0.0 0.0 19.0 
353.00023322016085 0.4503478130199251 32.10787518452659 20.0 0.0 0.0 19.0 
354.0003125191373 0.5657478276037975 30.158348544504776 21.0 0.0 0.0 19.0 
355.0009742511335 0.49996931779377324 32.87031799680341 21.0 0.0 0.0 19.0 
356.00035500257303 0.39778172380646487 32.87031799680341 20.0 0.0 0.0 19.0 
357.00168753538014 0.13079915192918642 24.317769776828158 21.0 0.0 0.0 18.0 
358.0000025041489 0.164310415997517 32.87031799680341 21.0 0.0 0.0 18.0 
359.00078394897406 0.14202449913212556 26.32696476691575 21.0 0.0 0.0 18.0 
360.00543840235457 0.050211463375194 19.48265585563658 20.0 0.0 0.0 18.0 
361.0019858464375 0.08454194725325197 19.48265585563658 21.0 0.0 0.0 18.0 
362.00168753538014 0.04423673554690525 19.48265585563658 21.0 0.0 0.0 18.0 
363.0016211137696 0.07255265165986181 19.48265585563658 19.0 0.0 0.0 18.0 
364.0081755117022 0.06200706388339256 12.674654991362559 19.0 0.0 0.0 18.0 
365.00095988949823 0.1880142294407632 21.418587587364527 19.0 0.0 0.0 18.0 
366.00062589578624 0.12019748176719149 17.366914384553723 19.0 0.0 0.0 18.0 
367.00168753538014 0.12019748176719149 17.366914384553723 19.0 0.0 0.0 18.0 
368.0040164139216 0.12394334496092609 15.012355994198202 19.0 0.0 0.0 19.0 
369.00129854275025 0.12443725444225122 15.709411624498102 19.0 0.0 0.0 18.0 
370.0045518499793 0.15580474911995207 15.910415009969284 19.0 0.0 0.0 18.0 
371.00218086343483 0.2658648869734488 56.47717915869549 21.0 0.0 0.0 18.0 
372.00168753538014 0.0 0.0 22.0 0.0 0.0 18.0 
373.0013558615491 0.0 0.0 22.0 0.0 0.0 18.0 
374.0009311185188 0.0 0.0 21.0 0.0 0.0 18.0 
375.0005486968222 0.0 0.0 22.0 0.0 0.0 18.0 
376.0039468961095 0.0 0.0 23.0 0.0 0.0 18.0 
377.0000216057393 0.0 0.0 21.0 0.0 0.0 18.0 
378.0007577346498 0.0 0.0 21.0 0.0 0.0 18.0 
379.00060353406775 0.0 0.0 21.0 0.0 0.0 18.0 
380.0001464138454 0.0 0.0 21.0 0.0 0.0 18.0 
381.0031955133518 0.0 0.0 21.0 0.0 0.0 18.0 
382.0011246387032 0.0 0.0 20.0 0.0 0.0 18.0 
383.00303856918754 0.0 0.0 21.0 0.0 0.0 21.0 
384.0004711131827 0.0 0.0 22.0 0.0 0.0 22.0 
385.0009949688509 0.0 0.0 22.0 0.0 0.0 22.0 
386.0003389530306 0.0 0.0 21.0 0.0 0.0 19.0 
387.0010580577924 0.0 0.0 21.0 0.0 0.0 19.0 
388.0026157745576 0.0 0.0 22.0 0.0 0.0 20.0 
389.0002447122934 0.0 0.0 22.0 0.0 0.0 20.0 
390.0055214814212 0.0 0.0 23.0 0.0 0.0 21.0 
391.00222076670167 0.011616107699580795 5.8080538497904115 23.0 0.0 0.0 21.0 
392.00047881104274 0.011616107699580795 5.8080538497904115 22.0 0.0 0.0 20.0 
393.0010667923248 0.011616107699580795 5.8080538497904115 22.0 0.0 0.0 20.0 
394.0025973607966 0.0 0.0 22.0 0.0 0.0 20.0 
395.0003339005599 0.0 0.0 21.0 0.0 0.0 20.0 
396.0009583164427 0.0 0.0 21.0 0.0 0.0 20.0 
397.00168753538014 0.0 0.0 21.0 0.0 0.0 20.0 
398.0008534191143 0.0 0.0 21.0 0.0 0.0 21.0 
399.00103116764177 0.0 0.0 21.0 0.0 0.0 24.0 
400.00101638326475 0.0 0.0 21.0 0.0 0.0 23.0 
401.00125045342253 0.017997292797680836 6.887572870690491 21.0 0.0 0.0 23.0 
402.00168753538014 0.017997292797680836 6.887572870690491 22.0 0.0 0.0 22.0 
403.00062600346774 0.032591808757517764 7.30725988269711 22.0 0.0 0.0 21.0 
404.00167818831 0.032591808757517764 7.30725988269711 21.0 0.0 0.0 22.0 
405.00062237662786 0.11419443325548867 21.637726682929582 20.0 0.0 0.0 23.0 
406.006764656428 0.1884097839223336 25.921955638041197 20.0 0.0 0.0 23.0 
407.0006769146532 0.2021966455453137 25.921955638041197 21.0 0.0 0.0 22.0 
408.00392796263867 0.23708008483220663 25.921955638041197 21.0 0.0 0.0 22.0 
409.0006415822394 0.23834925217566771 25.921955638041197 20.0 0.0 0.0 22.0 
410.0047119607887 0.4085219609783714 36.366810865476225 19.0 0.0 0.0 22.0 
411.0026339714747 0.5727862576765129 44.72571861129572 19.0 0.0 0.0 22.0 
412.0014237894286 0.45103500939211866 36.366810865476225 20.0 0.0 0.0 22.0 
413.00067004335943 0.5464296798603349 37.478495767888376 19.0 0.0 0.0 22.0 
414.00216511036666 0.5766376574513261 37.478495767888376 19.0 0.0 0.0 24.0 
415.00391916210947 0.7453053523460892 51.02980165740075 19.0 0.0 0.0 23.0 
416.0024471486992 0.839977855714327 51.02980165740075 19.0 0.0 0.0 24.0 
417.00018303220554 0.8453953971996517 51.02980165740075 19.0 0.0 0.0 25.0 
418.0004586977148 0.8514190693262536 51.489520164346885 19.0 0.0 0.0 23.0 
419.0011513438225 0.8768893702641597 51.489520164346885 19.0 0.0 0.0 24.0 
420.00375911437504 0.7761502539221861 43.027803614166714 19.0 0.0 0.0 23.0 
421.00013929390553 0.9242790416159826 43.66762490896218 19.0 0.0 0.0 22.0 
422.0004816566371 0.9466069292098663 58.821890936656075 19.0 0.0 0.0 21.0 
423.0061235421593 0.9545229296187642 43.66762490896218 19.0 0.0 0.0 21.0 
424.00544033198014 0.9191045883743345 43.66762490896218 19.0 0.0 0.0 21.0 
425.00157534772484 1.1512663022899055 50.707758249367515 19.0 0.0 0.0 21.0 
426.0030782788523 1.2854351712295968 53.534870318896196 19.0 0.0 0.0 20.0 
427.0013474110058 1.2995410722940668 53.534870318896196 19.0 0.0 0.0 20.0 
428.00429442218234 1.252176812664678 53.534870318896196 19.0 0.0 0.0 19.0 
429.0026907208638 1.3285470932522572 53.534870318896196 19.0 0.0 0.0 19.0 
430.0006528152856 1.3515047471479125 60.55584127808214 19.0 0.0 0.0 19.0 
431.0014876823894 1.507600754235767 59.31965992466985 19.0 0.0 0.0 19.0 
432.00017879533857 1.509190937270153 59.31965992466985 19.0 0.0 0.0 18.0 
433.0019380833031 1.517172429767096 59.31965992466985 19.0 0.0 0.0 18.0 
434.00119854280604 1.5093701779699662 59.68865231727028 19.0 0.0 0.0 18.0 
435.00186741024004 1.670336024146729 66.99248275647966 19.0 0.0 0.0 18.0 
436.0021495083339 1.8440857906707515 66.99248275647966 19.0 0.0 0.0 18.0 
437.0003254160849 1.8510550372955572 71.63165034586291 19.0 0.0 0.0 18.0 
438.0004257966569 1.9818506366806394 71.63165034586291 19.0 0.0 0.0 18.0 
439.0021279915997 2.0322023952313706 71.63165034586291 19.0 0.0 0.0 18.0 
440.00007188988445 2.401952000681907 81.20152652200119 20.0 0.0 0.0 18.0 
441.0003585620721 2.6833553105830874 81.20152652200119 20.0 0.0 0.0 18.0 
442.00001500528947 2.2871137201834175 81.20152652200119 21.0 0.0 0.0 18.0 
443.0009996327688 1.3514340623352632 81.20152652200119 21.0 0.0 0.0 18.0 
444.001330361503 1.4843471804617476 81.20152652200119 22.0 0.0 0.0 18.0 
445.0020265419205 1.8266046580565436 87.9110168568867 22.0 0.0 0.0 18.0 
446.00059317111186 2.0072601170537285 87.9110168568867 21.0 0.0 0.0 18.0 
447.00079497230195 2.1154579456531333 81.3476541648999 21.0 0.0 0.0 18.0 
448.00004952475757 2.0508144534611636 81.3476541648999 21.0 0.0 0.0 19.0 
449.0003124704373 2.4017238684731548 100.98860727918287 21.0 0.0 0.0 19.0 
450.000575416117 2.9266069673155006 108.40440518359105 21.0 0.0 0.0 19.0 
451.0008383617967 3.2044908139406125 108.40440518359105 21.0 0.0 0.0 19.0 
452.0007747898401 3.3808728142931033 121.60931431463291 22.0 0.0 0.0 19.0 
453.00084209085446 3.1408871508254 101.21155926580298 22.0 0.0 0.0 19.0 
454.000630171198 3.3874977818682432 101.21155926580298 22.0 0.0 0.0 19.0 
455.0018901445155 3.7943072284330985 107.91037350659076 22.0 0.0 0.0 18.0 
456.00215309019524 3.895066989609762 107.91037350659076 23.0 0.0 0.0 18.0 
457.00168753538014 4.233213675366292 121.07472193443192 23.0 0.0 0.0 18.0 
458.0002147831018 3.9027417189196454 113.84852505855861 23.0 0.0 0.0 18.0 
459.0001650144126 4.049971842754674 113.84852505855861 22.0 0.0 0.0 18.0 
460.0008547973903 4.422133256869433 121.14679076346852 22.0 0.0 0.0 18.0 
461.00098956555433 4.635793877773638 121.14679076346852 22.0 0.0 0.0 18.0 
462.00069644544016 4.59916332127247 121.14679076346852 22.0 0.0 0.0 17.0 
463.0001634858737 4.54259108362197 117.19610007873729 21.0 0.0 0.0 18.0 
464.0033006437511 4.708560184834589 117.19610007873729 21.0 0.0 0.0 18.0 
465.0011113857841 4.564229735103696 121.3140023615498 21.0 0.0 0.0 18.0 
466.0016507942358 4.211678452003688 124.02209971691116 21.0 0.0 0.0 18.0 
467.0004420897009 4.075909318734111 124.02209971691116 21.0 0.0 0.0 18.0 
468.00169881874797 4.165336484004097 124.02209971691116 20.0 0.0 0.0 18.0 
469.00033404581984 3.910221191118728 114.15083335172164 20.0 0.0 0.0 18.0 
470.00229005005656 4.1077061121889455 121.56833249099344 20.0 0.0 0.0 18.0 
471.0001515527945 4.057181942916329 121.56833249099344 20.0 0.0 0.0 18.0 
472.00168753538014 3.7816565995437004 121.56833249099344 20.0 0.0 0.0 18.0 
473.00124201676545 3.8783017508804214 119.77934353511546 20.0 0.0 0.0 17.0 
474.00132723694975 3.9142783495285407 119.77934353511546 20.0 0.0 0.0 17.0 
475.0011894135395 3.8800247632808187 121.32815841357171 20.0 0.0 0.0 17.0 
476.0022195769309 4.16048498720798 136.91204583016895 19.0 0.0 0.0 17.0 
477.00168753538014 3.7262246457910546 133.97770264493084 19.0 0.0 0.0 17.0 
478.004510661441 3.359528488127474 114.15331938144618 19.0 0.0 0.0 17.0 
479.00084015957225 3.8040171788094925 129.71277274204937 19.0 0.0 0.0 17.0 
480.0017419978018 3.452690129316926 134.1022448192013 18.0 0.0 0.0 17.0 
481.001243141443 4.10561106595847 134.1022448192013 18.0 0.0 0.0 17.0 
482.00143909591463 3.485329683909634 122.56711132794447 18.0 0.0 0.0 17.0 
483.0010355666465 3.530736092018754 122.56711132794447 18.0 0.0 0.0 17.0 
484.0006646142588 3.993527788294005 126.93921188682657 18.0 0.0 0.0 17.0 
485.00374588547623 4.323702125940182 130.02242638651995 18.0 0.0 0.0 17.0 
486.00021122347664 4.213168464368062 137.27268771518976 18.0 0.0 0.0 17.0 
487.0004837515907 4.507484266455022 137.27268771518976 18.0 0.0 0.0 15.0 
488.00279627561514 4.435854883866958 137.27268771518976 17.0 0.0 0.0 14.0 
489.0052957090825 4.761454427858159 137.27268771518976 17.0 0.0 0.0 14.0 
490.00238301076166 4.979648287724149 144.67428060523412 17.0 0.0 0.0 14.0 
491.0031288943566 5.248605593602189 139.92391119403862 17.0 0.0 0.0 14.0 
492.0005082497547 5.308684925599895 147.17777487143138 17.0 0.0 0.0 14.0 
493.00061954933096 4.859909547861106 127.77379702755081 16.0 0.0 0.0 13.0 
494.0021074665553 5.553598883345038 147.0837227243331 16.0 0.0 0.0 13.0 
495.00377180469565 5.332222122066856 142.36756060614698 18.0 0.0 0.0 13.0 
496.0030398101008 5.485417054243652 142.36756060614698 17.0 0.0 0.0 13.0 
497.0015596086315 5.761414279617386 154.44569013392254 16.0 0.0 0.0 13.0 
498.002046496548 5.598437955502836 142.36756060614698 17.0 0.0 0.0 15.0 
499.00685058846744 5.89278132202925 149.65311312823036 17.0 0.0 0.0 16.0 
500.00040598423044 6.162514111869523 151.05180441691846 17.0 0.0 0.0 17.0 
501.00310550926633 6.56033899752106 157.0548010400624 17.0 0.0 0.0 17.0 
502.00166548260034 6.5747367204092155 157.0548010400624 17.0 0.0 0.0 17.0 
503.0103879668845 6.3265820430941515 157.0548010400624 17.0 0.0 0.0 16.0 
504.0019909467091 6.615407563305093 158.33996963337876 17.0 0.0 0.0 16.0 
505.0026152066669 7.302349416656705 165.8354944334136 17.0 0.0 0.0 15.0 
506.0022784328796 6.041715089932705 165.8354944334136 17.0 0.0 0.0 15.0 
507.00168753538014 5.398978311450059 153.3121238568665 17.0 0.0 0.0 15.0 
508.00808578256374 5.047938238196336 103.98506130994997 16.0 0.0 0.0 15.0 
509.0010388919235 4.429274292143896 103.98506130994997 16.0 0.0 0.0 15.0 
510.0021394704725 3.803649445019936 85.67762957368205 16.0 0.0 0.0 15.0 
511.00189687081416 3.961992120937784 85.67762957368205 16.0 0.0 0.0 15.0 
512.0016875353801 3.9063312134171158 93.06186900473108 16.0 0.0 0.0 15.0 
513.0051981833979 4.04016528493192 93.06186900473108 16.0 0.0 0.0 15.0 
514.0002428931801 3.606545392451824 85.64817781362541 16.0 0.0 0.0 15.0 
515.0005214530893 2.909660482050283 85.64817781362541 16.0 0.0 0.0 15.0 
516.0062161534767 3.0252749371799137 85.64817781362541 16.0 0.0 0.0 15.0 
517.0005352617476 2.9513341262902224 102.0047446064595 16.0 0.0 0.0 15.0 
518.001396522512 2.723857414890833 78.23754499718672 16.0 0.0 0.0 16.0 
519.0001914423814 2.459228191192458 85.6778990796218 16.0 0.0 0.0 17.0 
520.0031494519658 2.254171925539334 70.83049895553296 16.0 0.0 0.0 17.0 
521.0002140358581 2.212310024264189 79.66879285196575 16.0 0.0 0.0 17.0 
522.001162839817 2.126459373216064 79.66879285196575 17.0 0.009541164684679105 2.9208910111017587 17.0 
523.0016469964789 2.300433690149061 79.70007794814387 17.0 0.0036993826624755395 1.8496913312377785 17.0 
524.0040138140527 1.830037980881469 73.25484998120572 17.0 0.0036993826624755395 1.8496913312377785 17.0 
525.0025295553612 1.9577546487902964 73.25484998120572 16.0 0.00497102275607186 2.4855113780359375 17.0 
526.000765449512 2.465081327680395 73.25484998120572 16.0 0.00497102275607186 2.4855113780359375 17.0 
527.0016875353801 2.357414590091834 73.25484998120572 15.0 0.04478955793511327 8.688721216479308 17.0 
528.0049342736187 2.305341148206747 74.02940764045121 15.0 0.06932314812954894 8.688721216479308 17.0 
529.0007955826682 1.952524720511572 74.09383574253553 15.0 0.07220579882093701 9.047088329300038 16.0 
530.0026724982919 2.101842967254842 74.09383574253553 15.0 0.08540195680310117 15.119742243853779 17.0 
531.0004276437796 2.127763596974174 74.09383574253553 15.0 0.07308046018697145 15.119742243853779 20.0 
532.0016875353801 2.0151393274614073 74.09383574253553 17.0 0.0 0.0 20.0 
533.0014431539704 1.5451375238878786 75.37261741587503 17.0 0.0 0.0 20.0 
534.0003443012265 1.2829916863303625 74.78958626315676 17.0 0.0 0.0 20.0 
535.0021225362877 1.318226849802863 75.00452134484135 16.0 0.0 0.0 20.0 
536.0013557956264 1.4859534702135249 107.64500504221894 16.0 0.0 0.0 20.0 
537.0002544928195 1.540029033463886 107.64500504221894 16.0 0.0 0.0 18.0 
538.0002256045397 2.1074061627622616 109.0588947237863 17.0 0.0 0.0 18.0 
539.0004869535117 1.994724981740894 114.29529109428347 17.0 0.0 0.0 18.0 
540.0002568998663 2.2527510087979072 114.29529109428347 17.0 0.0 0.0 19.0 
541.0024499111084 2.499622275928045 114.29529109428347 17.0 0.0 0.0 18.0 
542.0007906815641 2.4720854915814083 114.29529109428347 17.0 0.0 0.0 18.0 
543.0003853074171 2.5705335138446888 115.86794817998731 17.0 0.0 0.0 18.0 
544.0014616896485 2.584143928004447 115.86794817998731 17.0 0.0 0.0 18.0 
545.0023701016272 2.7079863040911984 108.4006961235873 16.0 0.0 0.0 18.0 
546.0011056934351 2.56495931122051 108.4006961235873 16.0 0.0 0.0 18.0 
547.0016875353801 2.575017243810702 108.4006961235873 17.0 0.0 0.0 18.0 
548.0008254186699 2.8090354702399765 110.16176417214848 17.0 0.0 0.0 18.0 
549.0025210895783 2.8633739675678562 110.16176417214848 17.0 0.0 0.0 18.0 
550.002906664956 3.0605938436639137 124.49584525206859 17.0 0.0 0.0 18.0 
551.0010271565776 3.1964643042424528 124.49584525206859 17.0 0.0 0.0 19.0 
552.0016875353801 3.2421716161553413 124.49584525206859 17.0 0.0 0.0 19.0 
553.0015985413595 3.446914174358355 126.37589971182405 17.0 0.0 0.0 19.0 
554.0008943908144 3.4562580345816247 118.95210923053043 17.0 0.0 0.0 19.0 
555.0001014493325 3.578756518019154 129.48126959091815 17.0 0.0 0.0 18.0 
556.0063661487487 3.3575528382800055 118.95210923053043 16.0 0.0 0.0 18.0 
557.000079479097 3.798155190927512 129.48126959091815 16.0 0.0 0.0 18.0 
558.0045943326205 3.781961364558036 120.94561976995737 16.0 0.0 0.0 18.0 
559.0012859996853 3.749561887408816 124.11041489725761 17.0 0.0 0.0 19.0 
560.0056222434102 3.852804371907985 124.11041489725761 17.0 0.0 0.0 18.0 
561.0003385799483 3.8695082041003452 124.11041489725761 17.0 0.0 0.0 18.0 
562.0016875353801 3.9236029768491907 126.39413572568367 17.0 0.0 0.0 18.0 
563.0007166624245 4.415626768666129 126.39413572568367 17.0 0.0 0.0 18.0 
564.0019922925388 4.398915129799919 126.39413572568367 17.0 0.0 0.0 17.0 
565.0001014470774 4.391355087668186 119.03367882000498 17.0 0.0 0.0 17.0 
566.0010290731789 4.791090953409196 119.03367882000498 17.0 0.0 0.0 17.0 
567.0000357660412 5.0188248340095685 119.03367882000498 17.0 0.0 0.0 17.0 
568.0103179518067 5.187563108837733 121.50652692400098 18.0 0.0 0.0 17.0 
569.0013141715988 5.132941178538686 114.20969487171999 19.0 0.0 0.0 17.0 
570.0016427769433 5.095739161392061 114.20969487171999 21.0 0.0 0.0 17.0 
571.0015908966787 5.350490144089504 131.826926074842 21.0 0.0 0.0 17.0 
572.0016875353801 4.810994276821622 131.826926074842 19.0 0.0 0.0 16.0 
573.0050616117969 4.430737723171478 116.80001149106687 20.0 0.0 0.0 16.0 
574.0003996570189 4.910637292631839 134.32742086511206 19.0 0.0 0.0 16.0 
575.0018702237923 4.41911247291701 112.19113437534594 19.0 0.0 0.0 17.0 
576.000033406887 4.46566532626748 127.03566335258654 19.0 0.0 0.0 17.0 
577.0014371974642 4.679891301640895 129.79497537380047 19.0 0.0 0.0 17.0 
578.0005213875554 4.784127404299198 129.79497537380047 19.0 0.0 0.0 16.0 
579.0041914444141 4.603900143270895 129.79497537380047 19.0 0.0 0.0 17.0 
580.0002648840473 4.374351418627736 122.24654584514576 19.0 0.0 0.0 16.0 
581.0025419625931 4.1471943064018655 122.5702388037322 19.0 0.0 0.0 16.0 
582.0016875353801 4.206016071097852 125.19658506781371 19.0 0.0 0.0 16.0 
583.0001787546166 4.209251387990115 120.0397120791772 19.0 0.0 0.0 16.0 
584.0000336618227 4.203672704082953 125.51637940350508 19.0 0.0 0.0 17.0 
585.002057758508 3.974586065500358 103.44038913219998 19.0 0.0 0.0 18.0 
586.000109460697 3.987928586142503 118.34675240546909 19.0 0.0 0.0 16.0 
587.0016875353801 4.222878373597758 118.34675240546909 19.0 0.0 0.0 16.0 
588.0020701904346 4.341519039389526 121.40861882897241 19.0 0.0 0.0 16.0 
589.0028104029332 4.126217715315379 121.40861882897241 19.0 0.0 0.0 16.0 
590.0030708666143 4.350112832332378 121.40861882897241 19.0 0.0 0.0 16.0 
591.0014679473281 4.322392558798674 114.30108404290928 19.0 0.0 0.0 16.0 
592.0016875353801 4.236918049705593 117.09780194653257 19.0 0.0 0.0 15.0 
593.0008968178868 4.460601789061835 117.62851402116786 19.0 0.0 0.0 15.0 
594.0027596503755 4.582633861756999 117.62851402116786 19.0 8.801362900467757E-4 0.440068145023389 15.0 
595.0007462946692 4.524543579540395 117.62851402116786 20.0 0.0 0.0 15.0 
596.0014215351961 4.501551722542677 110.5904897629564 19.0 0.0 0.0 15.0 
597.0001802704173 4.807081467813449 116.86444202589155 19.0 0.0 0.0 15.0 
598.0005941027757 4.3193851093508355 116.86444202589155 19.0 0.0 0.0 16.0 
599.0061160126951 4.763147748518842 118.58550381355525 19.0 0.0 0.0 17.0 
600.0013774429187 4.515093926675661 118.58550381355525 19.0 0.0 0.0 17.0 
#####################################################################
# End of data export. Simulation finished at: 2019-02-25T20:17+0000 #
#####################################################################
