#####################################################################
# Alchemist log file - simulation started at: 2019-02-25T20:11+0000 #
#####################################################################
# seed = 67.0
#
# The columns have the following meaning: 
# time distance-rep[Mean] distance-rep[Max] leader-rep[CountDistinct] distance-share[Mean] distance-share[Max] leader-share[CountDistinct] 
0.0 NaN NaN NaN NaN NaN NaN 
1.0069089272592446 0.0 0.0 498.0 0.0 0.0 68.0 
2.0005358734933 0.0 0.0 111.0 0.0 0.0 63.0 
3.001307688055815 0.0 0.0 106.0 0.0 0.0 56.0 
4.001202181537338 0.0 0.0 99.0 0.0 0.0 52.0 
5.001375281467085 0.0 0.0 91.0 0.0 0.0 48.0 
6.000476923590689 0.0 0.0 87.0 0.0 0.0 47.0 
7.000490420038695 0.0 0.0 83.0 0.0 0.0 43.0 
8.000212113912248 0.0 0.0 78.0 0.0 0.0 37.0 
9.004887660816344 0.0 0.0 73.0 0.0 0.0 33.0 
10.001482361299562 0.0 0.0 70.0 0.0 0.0 31.0 
11.006908927259245 0.0 0.0 67.0 0.0 0.0 32.0 
12.002457490825977 0.0 0.0 66.0 0.0 0.0 31.0 
13.003980773733344 0.0 0.0 66.0 0.0 0.0 32.0 
14.001824654899046 0.0 0.0 68.0 0.0 0.0 36.0 
15.000099712071428 0.0 0.0 65.0 0.0 0.0 30.0 
16.000448854509088 0.0 0.0 63.0 0.018004597936461066 9.00229896823052 29.0 
17.003286130191217 0.0 0.0 62.0 0.032395037290407186 16.19751864520356 28.0 
18.000334435295976 0.0 0.0 60.0 0.03384161437495186 16.920807187475873 27.0 
19.002949882483804 0.0 0.0 62.0 0.0 0.0 29.0 
20.000799849564025 0.0 0.0 60.0 0.0 0.0 30.0 
21.001762542952218 0.0 0.0 56.0 0.0 0.0 28.0 
22.00239858628482 0.0 0.0 58.0 0.0 0.0 28.0 
23.000749673270963 0.0 0.0 57.0 0.0 0.0 24.0 
24.00424264646196 0.0 0.0 54.0 0.0 0.0 23.0 
25.001339480078443 0.0 0.0 51.0 0.0 0.0 20.0 
26.00037416737372 0.0 0.0 47.0 0.0 0.0 20.0 
27.000726809749278 0.0 0.0 48.0 0.0 0.0 19.0 
28.000191622679772 0.0 0.0 45.0 0.0 0.0 19.0 
29.00001622776222 0.0 0.0 45.0 0.0 0.0 19.0 
30.000600019863953 0.0 0.0 44.0 0.0 0.0 20.0 
31.000105317545753 0.0 0.0 44.0 0.0 0.0 19.0 
32.00780996355854 0.0 0.0 43.0 0.0 0.0 18.0 
33.005050183520645 0.0 0.0 44.0 0.0 0.0 20.0 
34.00202776844421 0.0 0.0 46.0 0.0 0.0 19.0 
35.001388790278874 0.0 0.0 46.0 0.0 0.0 19.0 
36.001299399418826 0.0 0.0 44.0 0.0 0.0 19.0 
37.00537468728237 0.0 0.0 43.0 0.0 0.0 19.0 
38.005348000000026 0.0 0.0 43.0 0.0 0.0 20.0 
39.000313652180516 0.0 0.0 41.0 0.0 0.0 21.0 
40.00108085629427 0.0 0.0 42.0 0.0 0.0 21.0 
41.002837785189996 0.0 0.0 42.0 0.0 0.0 20.0 
42.00436373912246 0.0 0.0 40.0 0.0 0.0 20.0 
43.00102664309025 0.0 0.0 39.0 0.0 0.0 19.0 
44.00108813903208 0.0 0.0 36.0 0.0 0.0 19.0 
45.00201606989316 0.0 0.0 38.0 0.0 0.0 19.0 
46.00131769928632 0.0 0.0 38.0 0.0 0.0 20.0 
47.00156378267906 0.0 0.0 37.0 0.0 0.0 20.0 
48.00191433983578 0.0 0.0 34.0 0.0 0.0 19.0 
49.00492194843712 0.0 0.0 35.0 0.0 0.0 19.0 
50.00027905720339 0.0 0.0 35.0 0.0 0.0 19.0 
51.00152196859555 0.0 0.0 35.0 0.0 0.0 19.0 
52.001369844627796 0.0 0.0 35.0 0.0 0.0 18.0 
53.00665917190561 0.0 0.0 36.0 0.0 0.0 18.0 
54.00254654595822 0.0 0.0 37.0 0.0 0.0 18.0 
55.00201606989316 0.0 0.0 37.0 0.0 0.0 18.0 
56.00107295484822 0.0 0.0 35.0 0.0 0.0 18.0 
57.00401238651299 0.0 0.0 33.0 0.0 0.0 18.0 
58.00149704829427 0.0 0.0 32.0 0.0 0.0 18.0 
59.00002710625784 0.0 0.0 33.0 0.0 0.0 18.0 
60.00201606989316 0.0 0.0 31.0 0.0 0.0 18.0 
61.00082848809781 0.0 0.0 31.0 0.0 0.0 18.0 
62.00044926209015 0.0 0.0 30.0 0.0 0.0 18.0 
63.0002163590498 0.0 0.0 32.0 0.0 0.0 18.0 
64.00055991988528 0.0 0.0 29.0 0.0 0.0 18.0 
65.00137467344094 0.0 0.0 27.0 0.0 0.0 18.0 
66.00018643977786 0.0 0.0 26.0 0.0 0.0 18.0 
67.0039316757591 0.0 0.0 25.0 0.0 0.0 18.0 
68.00164193145231 0.0 0.0 25.0 0.0 0.0 18.0 
69.00287757097486 0.0 0.0 24.0 0.0 0.0 18.0 
70.00201606989316 0.0 0.0 24.0 0.0 0.0 18.0 
71.00113748982743 0.0 0.0 24.0 0.0 0.0 18.0 
72.00039534158792 0.0 0.0 24.0 0.0 0.0 17.0 
73.00138668269916 0.0 0.0 25.0 0.0 0.0 17.0 
74.00046512625057 0.0 0.0 25.0 0.0 0.0 17.0 
75.0013725170824 0.0 0.0 21.0 0.0 0.0 16.0 
76.00087403197887 0.0 0.0 21.0 0.0 0.0 16.0 
77.00056364803962 0.0 0.0 21.0 0.0 0.0 16.0 
78.00021696833673 0.0 0.0 19.0 0.0 0.0 17.0 
79.00275434381997 0.0 0.0 22.0 0.0 0.0 18.0 
80.00062399730086 0.0 0.0 21.0 0.007314218267316466 3.338935575277418 18.0 
81.00004589272935 0.0 0.0 22.0 0.007314218267316466 3.338935575277418 17.0 
82.0005038847104 0.0 0.0 20.0 6.363471167616146E-4 0.3181735583808063 17.0 
83.00075070080055 0.0 0.0 20.0 0.0 0.0 18.0 
84.00217082013027 0.0 0.0 20.0 0.0 0.0 18.0 
85.00201606989316 0.0 0.0 19.0 0.0 0.0 19.0 
86.00280421408812 0.0 0.0 19.0 0.0 0.0 19.0 
87.00234215657937 0.0 0.0 20.0 0.0 0.0 19.0 
88.00033279394124 0.0 0.0 20.0 0.0 0.0 19.0 
89.00519381907453 0.0 0.0 20.0 0.0 0.0 19.0 
90.00201606989316 0.0 0.0 20.0 0.0 0.0 19.0 
91.00690892725925 0.0 0.0 21.0 0.0 0.0 20.0 
92.003529338671 0.009562551470478364 4.78127573523912 21.0 0.0 0.0 20.0 
93.0041689171345 0.0 0.0 21.0 0.0 0.0 20.0 
94.00314483023172 0.0 0.0 21.0 0.0 0.0 20.0 
95.00003613742025 0.0 0.0 22.0 0.0 0.0 20.0 
96.00194535146595 0.0 0.0 22.0 0.0 0.0 20.0 
97.00221969995107 0.0 0.0 21.0 0.0 0.0 20.0 
98.00010451282574 0.0 0.0 21.0 0.0 0.0 20.0 
99.00116593524805 0.0 0.0 22.0 0.0 0.0 20.0 
100.00201606989316 0.0 0.0 23.0 0.0 0.0 20.0 
101.00017976919904 0.0 0.0 23.0 0.0 0.0 21.0 
102.00194214007975 0.0 0.0 22.0 0.0 0.0 20.0 
103.00508815152378 0.0 0.0 22.0 0.0 0.0 20.0 
104.00552459508651 0.0 0.0 22.0 0.0 0.0 20.0 
105.00201606989316 0.0 0.0 23.0 0.0 0.0 19.0 
106.00147000837202 0.0 0.0 23.0 0.0 0.0 19.0 
107.00135868603932 0.0 0.0 24.0 0.0 0.0 19.0 
108.00608110269286 0.0 0.0 23.0 0.0 0.0 20.0 
109.00090960317296 0.0 0.0 23.0 0.0 0.0 21.0 
110.00201606989316 0.0 0.0 22.0 0.0 0.0 20.0 
111.00127280430424 0.0 0.0 23.0 0.0 0.0 20.0 
112.00011666863452 0.0 0.0 22.0 0.0 0.0 18.0 
113.00026302022496 0.0 0.0 21.0 0.0 0.0 18.0 
114.00088189847025 0.0 0.0 20.0 0.0 0.0 18.0 
115.00070496453023 0.0 0.0 20.0 0.0 0.0 18.0 
116.0035698991994 0.0 0.0 20.0 0.0 0.0 18.0 
117.00108729782511 0.0 0.0 19.0 0.0 0.0 18.0 
118.00010221479246 0.0 0.0 19.0 0.0 0.0 18.0 
119.00119231179615 0.0 0.0 19.0 0.026879941949120356 13.439970974560225 18.0 
120.00108514252194 0.0 0.0 19.0 0.0 0.0 21.0 
121.00048061481215 0.008563450769508672 4.28172538475431 19.0 0.0 0.0 20.0 
122.00078570114377 0.0 0.0 19.0 0.0 0.0 20.0 
123.00093618531677 0.023375573619224432 11.687786809612277 19.0 0.0 0.0 20.0 
124.0012680625124 0.0 0.0 19.0 0.0 0.0 20.0 
125.00201606989316 0.0 0.0 19.0 0.0 0.0 20.0 
126.00043161714564 0.017255074543430032 8.627537271715084 19.0 0.0 0.0 20.0 
127.00472935735337 0.017255074543430032 8.627537271715084 19.0 0.0 0.0 19.0 
128.0017560183521 0.03250470928804084 16.25235464402047 20.0 0.0 0.0 20.0 
129.00304637112706 0.017255074543430032 8.627537271715084 20.0 0.0 0.0 19.0 
130.00098213173976 0.0023047122169395696 1.1523561084697747 20.0 0.0 0.0 19.0 
131.00180426216338 0.007387338021352494 3.693669010676274 20.0 0.0 0.0 19.0 
132.00559022505124 0.007387338021352494 3.693669010676274 20.0 0.0 0.0 19.0 
133.00083054042977 0.007387338021352494 3.693669010676274 20.0 0.0 0.0 19.0 
134.00106139295175 0.007387338021352494 3.693669010676274 20.0 0.0 0.0 19.0 
135.00131542571404 0.0 0.0 20.0 0.0 0.0 19.0 
136.00105899809517 0.0 0.0 20.0 0.0 0.0 19.0 
137.00263536810704 0.002173071619267685 1.0865358096338298 20.0 0.0 0.0 19.0 
138.00035274272705 0.002173071619267685 1.0865358096338298 19.0 0.0 0.0 18.0 
139.00020125646324 0.002173071619267685 1.0865358096338298 20.0 0.0 0.0 18.0 
140.00131193895925 0.002173071619267685 1.0865358096338298 21.0 0.0 0.0 18.0 
141.00074355601166 0.00695778189299313 3.4788909464965627 20.0 0.0 0.0 18.0 
142.0015291272727 0.01885744398827991 6.932851724270364 20.0 0.0 0.0 18.0 
143.0021231717473 0.014167002201176063 6.932851724270364 20.0 0.0 0.0 18.0 
144.0005464194128 0.004991740539739121 2.345220893551897 20.0 0.0 0.0 18.0 
145.00201606989316 0.013865703448540696 6.932851724270364 20.0 0.0 0.0 18.0 
146.00041745828167 0.0 0.0 20.0 0.0 0.0 17.0 
147.00065603313087 0.013554444997804536 6.777222498902205 20.0 0.0 0.0 17.0 
148.00201759254537 0.013554444997804536 6.777222498902205 20.0 0.0 0.0 17.0 
149.00478499249337 0.013554444997804536 6.777222498902205 20.0 0.0 0.0 17.0 
150.00078463454264 0.058211747710059554 20.13310687612409 20.0 0.0 0.0 17.0 
151.00053446538345 0.0748707747985698 20.13310687612409 20.0 0.0 0.0 17.0 
152.00000646009346 0.1354049019477875 23.885900155873713 20.0 0.0 0.0 17.0 
153.00009905694696 0.09706941776017027 18.8843277482695 20.0 0.0 0.0 17.0 
154.00044664338773 0.08381230338400972 18.8843277482695 20.0 0.0 0.0 17.0 
155.0006491580834 0.1462524564546119 31.220076535301047 20.0 0.0 0.0 18.0 
156.00362768885103 0.20220629026063544 31.220076535301047 20.0 0.0 0.0 18.0 
157.00332474063973 0.3519167283001599 50.422105305933115 20.0 0.0 0.0 18.0 
158.00241552288682 0.40987381440325676 50.422105305933115 19.0 0.0 0.0 18.0 
159.0012593972836 0.2989277920047699 42.41257287049672 19.0 0.0 0.0 18.0 
160.0014946488443 0.39212678390951744 57.101062682637064 19.0 0.0 0.0 18.0 
161.00240217598824 0.46766569502014926 57.101062682637064 19.0 0.0 0.0 18.0 
162.00240349952188 0.6310813370659574 57.101062682637064 20.0 0.0 0.0 17.0 
163.00181074878208 0.9531168678506453 90.39782209866792 20.0 0.0 0.0 17.0 
164.00252564677 0.9042414106568768 90.39782209866792 18.0 0.0 0.0 17.0 
165.0008881534023 1.2425398053393486 93.72098759958419 17.0 0.0 0.0 17.0 
166.00110678416272 1.455427531863407 93.72098759958419 17.0 0.0010366355433050639 0.5183177716525336 17.0 
167.00090683008062 1.579214328829694 97.47616130936677 17.0 0.0010366355433050639 0.5183177716525336 16.0 
168.00208155448283 1.5780517604369146 97.47616130936677 17.0 0.0010366355433050639 0.5183177716525336 18.0 
169.0004346184665 1.867450047483561 97.47616130936677 18.0 0.0010366355433050639 0.5183177716525336 18.0 
170.00201606989316 1.7750507575095853 95.71261046807552 18.0 0.0 0.0 19.0 
171.00194549702962 1.8106136217306128 95.71261046807552 17.0 0.0 0.0 18.0 
172.0018778761233 2.0419301606509443 90.75184282756783 16.0 0.0 0.0 18.0 
173.00176598130483 2.2762147957832553 94.6409824193234 16.0 0.0 0.0 18.0 
174.00363931492058 2.2739316105274834 94.6409824193234 16.0 0.0 0.0 18.0 
175.00201606989316 2.2011722318771825 92.90759466459258 16.0 0.0 0.0 18.0 
176.00029313749963 2.194941306643329 92.90759466459258 16.0 0.0 0.0 18.0 
177.00016912196924 2.4282002847010693 92.19958831843559 16.0 0.0 0.0 19.0 
178.0014225708971 2.635854291661317 92.19958831843559 16.0 0.0 0.0 19.0 
179.00142726527255 2.645384112543449 91.97674613868185 17.0 0.0 0.0 19.0 
180.00201606989316 2.6692078627187374 90.49882330083034 17.0 0.0 0.0 19.0 
181.00335153997858 2.7964461266242187 90.57235073175048 17.0 0.0 0.0 19.0 
182.00368242874575 2.8675729989755143 96.49800104450344 17.0 0.0 0.0 19.0 
183.00394391672341 2.8488248673143524 96.49800104450344 17.0 0.0 0.0 19.0 
184.00076604342777 2.882720941312051 96.49800104450344 17.0 0.0 0.0 19.0 
185.00193755210182 3.0879608640055882 107.98326615309583 18.0 0.0 0.0 20.0 
186.0053360956354 3.218542384081033 107.98326615309583 18.0 0.0 0.0 20.0 
187.00236053934492 3.463180896703665 112.0491570809873 19.0 0.0 0.0 21.0 
188.00030160280804 3.541649062672657 112.0491570809873 19.0 0.0 0.0 21.0 
189.00323984346113 3.5799240078415124 112.0491570809873 19.0 0.006323906146316172 1.9859712749569098 21.0 
190.0020116786296 3.3999539820371 107.01032390908762 19.0 0.006323906146316172 1.9859712749569098 21.0 
191.00570416789088 3.5314570266047363 107.01032390908762 19.0 0.0 0.0 21.0 
192.00119595460973 4.003075310567951 119.28094361021056 20.0 0.0 0.0 21.0 
193.00080047700035 4.121257022683205 119.28094361021056 20.0 0.0 0.0 22.0 
194.00105213095222 4.393929865604792 124.59901562165732 20.0 0.0 0.0 21.0 
195.00201606989316 4.354414529795662 124.59901562165732 20.0 0.0 0.0 20.0 
196.00519181485106 4.164924487956728 119.28094361021056 20.0 0.0 0.0 20.0 
197.0007286514828 4.607257239161131 129.021204123953 20.0 0.0 0.0 20.0 
198.00198438337918 4.757197656373545 128.51710195236683 20.0 0.0 0.0 20.0 
199.00147536739578 4.652293817683854 128.51710195236683 20.0 0.0 0.0 20.0 
200.00038973143577 4.476596700002439 128.51710195236683 20.0 0.0 0.0 20.0 
201.00483075924393 4.469839475794224 128.51710195236683 20.0 0.0 0.0 20.0 
202.00181959437728 4.45436418318446 127.29292104832922 19.0 0.0 0.0 20.0 
203.0033333156012 4.848355460585059 139.35771426434763 19.0 0.0 0.0 20.0 
204.00273233699696 4.826976379360117 139.35771426434763 19.0 0.0 0.0 20.0 
205.00065539028452 4.814306296853402 139.35771426434763 19.0 0.0 0.0 20.0 
206.00209110066763 4.8339332785551985 139.35771426434763 19.0 0.0 0.0 20.0 
207.00246902115137 5.084814371252532 143.9238243400913 18.0 0.0 0.0 20.0 
208.0052394125125 5.586577998253526 151.31210879505636 18.0 0.0 0.0 20.0 
209.00164361736776 4.990627548909732 139.03507720688492 18.0 0.0 0.0 20.0 
210.00201606989316 5.1645495829258445 149.95656054881186 18.0 0.0 0.0 19.0 
211.0010204748904 5.289318225637617 149.95656054881186 19.0 0.0 0.0 20.0 
212.00244996378066 5.322970350217353 150.132834238748 19.0 0.0 0.0 20.0 
213.00045589848477 1.1139096122860828 106.66377306880997 19.0 0.0 0.0 20.0 
214.00173908179224 0.00487475287553836 1.356844823583998 19.0 0.0 0.0 20.0 
215.00201606989316 0.0 0.0 20.0 0.0 0.0 20.0 
216.00132733497554 0.0 0.0 20.0 0.0 0.0 18.0 
217.00255660424526 0.0 0.0 20.0 0.0 0.0 18.0 
218.00894320966864 0.009553010413859704 4.776505206929841 19.0 0.0 0.0 18.0 
219.0002013601204 0.009553010413859704 4.776505206929841 19.0 0.0 0.0 18.0 
220.00201606989316 0.015609492361913186 4.776505206929841 19.0 0.0 0.0 18.0 
221.00164160082747 0.017614173941383704 5.42132427415396 20.0 0.0 0.0 19.0 
222.00048687429964 0.008091933844623459 3.6884451998006114 19.0 0.0 0.0 19.0 
223.00129942328837 0.017202882147851387 4.555474151613936 19.0 0.0 0.0 19.0 
224.00148287586393 0.008091933844623459 3.6884451998006114 19.0 0.0 0.0 19.0 
225.00026992302216 0.04975393732049881 12.696236016695451 19.0 0.0 0.0 19.0 
226.00010240452835 0.07140476480790399 23.521649760398276 19.0 0.0 0.0 18.0 
227.00169682350406 0.0 0.0 19.0 0.0 0.0 17.0 
228.00168121488545 0.06754545665604475 24.57215462091105 19.0 0.0 0.0 17.0 
229.00023091863824 0.19884641854948482 28.230697702410737 19.0 0.0 0.0 17.0 
230.00007975287085 0.17926037822718324 28.230697702410737 19.0 0.0 0.0 17.0 
231.00402015159585 0.1900247095017632 33.12390518234983 18.0 0.0 0.0 16.0 
232.00238794384964 0.2395446086707318 33.12390518234983 18.0 0.0 0.0 16.0 
233.00175501012944 0.2236128168278031 34.23186798467373 18.0 0.0 0.0 16.0 
234.00042728509425 0.31595068846750163 34.23186798467373 18.0 0.0 0.0 16.0 
235.00201606989316 0.2144786442282504 34.23186798467373 18.0 0.0 0.0 16.0 
236.0035794589365 0.30642602543592157 38.32892785200028 18.0 0.0 0.0 15.0 
237.00206279862957 0.30829960952822555 38.32892785200028 18.0 0.0 0.0 15.0 
238.01037395837585 0.3231461948021978 38.32892785200028 17.0 0.0 0.0 15.0 
239.0006997131741 0.5951463040531283 38.32892785200028 17.0 0.0 0.0 15.0 
240.0000524393039 0.549773428516095 44.64497362298695 17.0 0.0 0.0 16.0 
241.00187945667892 0.7582220154323593 51.990230689266355 17.0 0.0 0.0 16.0 
242.00023109583557 1.0533653348503895 51.990230689266355 17.0 0.0 0.0 16.0 
243.0046576842568 1.1730889683789618 51.990230689266355 18.0 0.0 0.0 16.0 
244.00131964838369 1.3809415513892633 46.70105487713491 20.0 0.0 0.0 17.0 
245.00201606989316 1.448029809392656 46.70105487713491 20.0 0.0 0.0 18.0 
246.00043902469545 1.416050241235361 52.25822774590176 19.0 0.0 0.0 18.0 
247.00188460231504 1.5714576014482726 54.80505105041851 19.0 0.0 0.0 18.0 
248.00121619775544 1.4819562456190114 60.94860393549271 19.0 0.0 0.0 18.0 
249.00304822366115 1.7247886000142105 60.94860393549271 19.0 0.0 0.0 18.0 
250.00201606989316 1.5001336578185849 60.94860393549271 19.0 0.0 0.0 18.0 
251.00156136878968 1.663024987797185 62.05724184393097 19.0 0.0 0.0 18.0 
252.00153791538054 1.4153577099205665 68.27132871136592 19.0 0.0 0.0 18.0 
253.00025999704573 1.5383331150038724 64.31874668478173 19.0 0.0 0.0 18.0 
254.00065072381065 1.4390855921321406 61.32304853527438 19.0 0.0 0.0 18.0 
255.00131373597645 1.6207188862345734 64.31874668478173 19.0 0.0 0.0 17.0 
256.0039506093025 1.541015460469191 65.04344988164456 19.0 0.0 0.0 18.0 
257.001613301663 1.73590812659027 68.73977880957483 19.0 0.0 0.0 18.0 
258.00145904418696 1.5870072948397569 71.56799853667195 19.0 0.0 0.0 18.0 
259.00229932010905 1.6319020877159125 71.56799853667195 19.0 0.0016761932368207812 0.8380966184103897 18.0 
260.001539187781 1.562393525712134 71.56799853667195 19.0 0.0 0.0 18.0 
261.0023940017451 1.7652904006655894 89.50624540141814 19.0 0.005187662289578498 1.755734526378859 18.0 
262.0062047557497 1.9736423995362633 89.50624540141814 19.0 0.003511469052757707 1.755734526378859 17.0 
263.0010217774921 1.9428714276736168 89.50624540141814 18.0 0.003511469052757707 1.755734526378859 17.0 
264.00303999510834 2.013523312675172 89.50624540141814 18.0 0.0 0.0 17.0 
265.0004839660967 2.3524015422893148 89.50624540141814 18.0 0.0 0.0 17.0 
266.00070330259194 2.5353578425165275 89.50624540141814 19.0 0.0 0.0 17.0 
267.0026533445462 2.5298499079239805 92.97839808619989 19.0 0.0 0.0 17.0 
268.0033732162515 2.3666596040950387 92.97839808619989 18.0 0.0 0.0 17.0 
269.0018781946156 2.8140875697609586 101.44650982385275 19.0 0.0 0.0 17.0 
270.00201606989316 2.5452588913322076 101.44650982385275 16.0 0.0 0.0 17.0 
271.0020109335202 2.517460291679509 91.75859935285712 16.0 0.0 0.0 16.0 
272.0003587341331 3.0038455741491425 108.8638826511006 16.0 0.0 0.0 16.0 
273.0024927986128 3.1260620693751324 110.27215047994736 16.0 0.0 0.0 16.0 
274.00561346023807 3.371821040934693 110.27215047994736 17.0 0.0 0.0 17.0 
275.0016770694689 3.055395702332209 101.68356377736569 17.0 0.0 0.0 17.0 
276.00072380094775 3.3891648650964985 109.10052907848302 17.0 0.0 0.0 17.0 
277.0039826896441 4.143607949866576 118.9257902070616 17.0 0.0 0.0 17.0 
278.0057260726464 4.113930935891607 111.78058948850588 16.0 0.0 0.0 17.0 
279.0006531472303 4.460516844124071 129.7039372636333 16.0 0.0 0.0 17.0 
280.0013819233891 5.03439914268545 159.3439860355296 16.0 0.0 0.0 17.0 
281.0000109837725 5.028423546666805 133.65165812471417 17.0 0.0 0.0 16.0 
282.00088869229404 6.27046863357517 168.58770836095488 18.0 0.0 0.0 16.0 
283.000269763999 6.56434993667248 168.58770836095488 17.0 0.0 0.0 18.0 
284.0013716871201 6.618069845207813 174.1424427578471 18.0 0.0 0.0 18.0 
285.0001830172158 6.037599575295071 167.82084311640057 18.0 0.0 0.0 18.0 
286.00166910042475 5.609239749367111 168.75637030345445 18.0 0.0 0.0 18.0 
287.0040271892579 6.187734565125111 171.0094379192431 17.0 0.0 0.0 17.0 
288.00067318883225 6.410122439822566 171.0094379192431 16.0 0.0 0.0 19.0 
289.0003269896899 6.827812579780991 171.0094379192431 15.0 0.0 0.0 20.0 
290.0010702428987 6.809338601171485 169.85771004789717 16.0 0.0 0.0 18.0 
291.00383671389613 7.5124400060952015 177.21184797456408 15.0 0.0 0.0 17.0 
292.00078860152126 7.6311035757870265 177.21184797456408 14.0 0.0 0.0 17.0 
293.00058843556627 7.684759550980435 177.21184797456408 14.0 0.0 0.0 16.0 
294.00145951270815 7.705589371299089 177.21184797456408 14.0 0.0 0.0 17.0 
295.0000173524818 7.897786387349554 177.21184797456408 14.0 0.0 0.0 17.0 
296.00212894465227 8.733907243473386 185.33839341013567 14.0 0.0 0.0 17.0 
297.00021041153406 9.23891256922858 185.33839341013567 14.0 0.0 0.0 16.0 
298.0025563665583 9.172103894143184 185.33839341013567 14.0 0.0 0.0 16.0 
299.00207182753974 9.200693231965325 185.33839341013567 14.0 0.0 0.0 16.0 
300.00201606989316 9.749281159657873 185.33839341013567 14.0 0.0 0.0 16.0 
301.0016775867701 9.97621506270031 195.10796494942946 14.0 0.0 0.0 16.0 
302.0015234543384 10.448993154414323 198.26956798345503 14.0 0.0 0.0 16.0 
303.0008402066564 11.16182773144082 198.26956798345503 14.0 0.0 0.0 16.0 
304.000446090721 9.437791622764438 198.26956798345503 14.0 0.0 0.0 15.0 
305.0004973181702 9.997829010385399 195.49622463523883 14.0 0.0 0.0 16.0 
306.0012573460598 10.316805641053689 202.89669234415265 14.0 0.0 0.0 16.0 
307.00075758217463 11.269316617816903 202.89669234415265 14.0 0.0 0.0 15.0 
308.003677672359 10.985258811870764 202.89669234415265 14.0 0.0 0.0 15.0 
309.0024611609878 10.738710763245475 202.89669234415265 14.0 0.0 0.0 15.0 
310.00192678296963 11.588247656226518 202.89669234415265 14.0 0.0 0.0 17.0 
311.00496135382366 11.757162409348057 205.80766132205957 14.0 0.0 0.0 17.0 
312.009328504021 12.096875988912798 207.21700048754047 13.0 0.0 0.0 17.0 
313.00035781068567 12.092247840371467 207.21700048754047 13.0 0.0 0.0 16.0 
314.0011852407025 11.711339399105137 207.21700048754047 13.0 0.0 0.0 16.0 
315.00201606989316 12.086775195260063 206.66354986760325 13.0 0.0 0.0 16.0 
316.00131571382406 12.802096529404409 207.44440951778898 13.0 0.0 0.0 16.0 
317.00352271441443 12.098771084839756 207.44440951778898 13.0 0.0 0.0 16.0 
318.00509910095894 12.275115963962957 207.44440951778898 13.0 0.0 0.0 15.0 
319.0071007416063 11.637268077940531 157.76881097298656 13.0 0.0 0.0 15.0 
320.00021394132267 12.143869526043149 157.76881097298656 13.0 0.0 0.0 16.0 
321.0000411374517 11.979923806277538 165.638854587987 13.0 0.0 0.0 16.0 
322.0015026722564 12.634204282735448 165.638854587987 13.0 0.0 0.0 16.0 
323.0001775064617 12.293752892493712 167.98830019005504 14.0 0.0 0.0 17.0 
324.0015633320793 10.302542994425114 158.69372206853694 14.0 0.0 0.0 17.0 
325.000452725853 7.191563288873297 154.35445747182143 14.0 0.0 0.0 16.0 
326.00116866895405 7.4919945522610565 126.22832395175516 14.0 0.0 0.0 16.0 
327.00533699510123 8.13442410353828 126.22832395175516 14.0 0.0 0.0 15.0 
328.0122023907845 7.72688892618901 122.48928373278306 14.0 0.0 0.0 14.0 
329.00018730189544 7.7768741388533105 122.45800553218982 13.0 0.0 0.0 14.0 
330.00201606989316 7.664576427966733 122.45800553218982 13.0 0.0 0.0 14.0 
331.00086514387283 8.344966606537279 129.89809663156706 13.0 0.0 0.0 14.0 
332.0042682730242 8.87723250104747 129.89809663156706 13.0 0.0 0.0 14.0 
333.0045239479533 9.175519012164017 126.04732097537584 13.0 0.0 0.0 14.0 
334.0047620660072 9.16456815076924 129.83580371872563 13.0 0.0 0.0 14.0 
335.0003270376655 9.650242433774128 129.83580371872563 13.0 0.0 0.0 14.0 
336.002219265507 10.065832671431565 131.9791596847055 13.0 0.0 0.0 14.0 
337.00152239431225 11.744660699668504 137.27807357169854 13.0 0.0 0.0 14.0 
338.0024418158509 12.090013774121552 137.43432254293288 12.0 0.0 0.0 15.0 
339.00006714222275 12.139942621064735 141.27942997304848 12.0 0.0 0.0 14.0 
340.00201606989316 11.783122239054402 141.27942997304848 12.0 0.0 0.0 14.0 
341.00498678577617 12.211926798930369 148.43608420905304 12.0 0.0 0.0 14.0 
342.00065870275415 12.100854471821409 154.23819829316113 12.0 0.0 0.0 14.0 
343.00285321819257 11.26399753225397 154.74033337754565 12.0 0.0 0.0 14.0 
344.00254324815813 11.388680052156968 154.74033337754565 11.0 0.0 0.0 14.0 
345.00201606989316 10.988051055786011 154.74033337754565 12.0 0.0 0.0 14.0 
346.00180161762177 11.667520172416145 161.60145321657632 12.0 0.0 0.0 14.0 
347.0008368594533 12.15046957136323 161.86764936745965 12.0 0.0 0.0 14.0 
348.0010403571722 11.41263242475343 157.70429229124994 13.0 0.0 0.0 14.0 
349.00188020311066 11.73681355755487 169.30075898426747 13.0 0.0 0.0 15.0 
350.0008336399593 11.552159251156748 161.86764936745965 14.0 0.0 0.0 15.0 
351.0000816675909 11.852015419209744 183.64744775823067 14.0 0.0 0.0 15.0 
352.00004502572614 11.909884213494115 169.0466251939818 14.0 0.0 0.0 15.0 
353.0003022073927 10.995778120671647 176.48629242960948 14.0 0.0 0.0 15.0 
354.0016104518748 10.80091915259777 183.64744775823067 14.0 0.0 0.0 14.0 
355.00201606989316 10.594004405007889 176.38217036828263 14.0 0.0 0.0 14.0 
356.0026284506554 9.979930089326725 183.77283171828213 15.0 0.0 0.0 14.0 
357.00051687560136 10.772972473603728 183.77283171828213 15.0 0.0 0.0 14.0 
358.00216191898056 9.597247185558146 186.10138386971153 15.0 0.0 0.0 14.0 
359.0020928776228 9.44960654131977 183.77283171828213 15.0 0.0 0.0 14.0 
360.00180508554735 9.386604525556022 186.99497495258896 15.0 0.0 0.0 14.0 
361.00131209131615 9.343473286913648 183.85044838748848 16.0 0.0 0.0 14.0 
362.0001101331023 9.393648298622953 183.85044838748848 16.0 0.0 0.0 14.0 
363.00074819361635 9.259222460271365 183.85044838748848 16.0 0.0 0.0 14.0 
364.00009901268913 9.069152088581141 183.85044838748848 16.0 0.0 0.0 16.0 
365.00201606989316 8.303412731853257 157.4453154630162 16.0 0.0 0.0 16.0 
366.00115821230924 8.235417647585848 164.22782094183123 16.0 0.0 0.0 16.0 
367.00048690973546 8.043500320807011 155.46203988534114 16.0 0.0 0.0 16.0 
368.00298729680287 7.7360503856723595 160.42604764387778 15.0 0.0 0.0 16.0 
369.0018899635712 6.9208496809611635 160.42604764387778 15.0 0.0 0.0 16.0 
370.00201606989316 6.505598704157321 160.42604764387778 15.0 0.0 0.0 16.0 
371.0014188153991 5.3541201198512995 157.47559291634855 15.0 0.0 0.0 16.0 
372.00046405637823 4.74416135881192 157.57280370649818 15.0 0.0 0.0 17.0 
373.0002758299313 5.272857528869039 157.57280370649818 15.0 0.0 0.0 18.0 
374.0014490882474 4.860574058477675 157.57280370649818 15.0 0.0 0.0 16.0 
375.0000495757278 3.806715587421904 157.57280370649818 15.0 0.0 0.0 16.0 
376.0000824469938 3.066461094196695 159.80933668691557 15.0 0.0 0.0 16.0 
377.0017629270573 2.024622113291558 159.7661106361324 15.0 0.0 0.0 15.0 
378.00098238887136 1.218956399568788 95.3243015324133 15.0 0.0 0.0 15.0 
379.00416454117527 0.6940449094812295 95.3243015324133 14.0 0.0 0.0 15.0 
380.0001570924226 0.8805444548029118 95.3243015324133 15.0 0.0 0.0 15.0 
381.00146644479213 0.3811121097699106 99.1619499905409 14.0 0.0 0.0 15.0 
382.0000421548292 0.0 0.0 13.0 0.0 0.0 15.0 
383.00014526050415 0.20062243119594922 100.31121559797441 14.0 0.0 0.0 15.0 
384.00160863003634 0.0 0.0 13.0 0.0 0.0 15.0 
385.0019177032446 0.0 0.0 13.0 0.0 0.0 15.0 
386.00532992387616 0.0 0.0 13.0 0.0 0.0 15.0 
387.0063768390912 0.0 0.0 13.0 0.0 0.0 15.0 
388.0018472830045 0.0 0.0 13.0 0.0 0.0 15.0 
389.0000362909957 0.0 0.0 13.0 0.0 0.0 16.0 
390.0000110512916 0.0 0.0 13.0 0.0 0.0 17.0 
391.00399833032174 0.0 0.0 13.0 0.0 0.0 16.0 
392.00150777013374 0.02483313167019384 12.416565835096947 13.0 0.0 0.0 17.0 
393.00310086237664 0.0 0.0 14.0 0.0 0.0 18.0 
394.0001556511616 0.0 0.0 14.0 0.0 0.0 18.0 
395.0005638219418 0.0 0.0 14.0 0.0 0.0 17.0 
396.00032895098735 0.0 0.0 14.0 0.0 0.0 17.0 
397.00024557211907 0.0 0.0 14.0 0.0 0.0 16.0 
398.0003896749176 0.0 0.0 14.0 0.0 0.0 16.0 
399.0014178016595 0.0 0.0 14.0 0.0 0.0 16.0 
400.0012447130423 0.0 0.0 14.0 0.0 0.0 16.0 
401.0008645547996 0.0 0.0 14.0 0.0 0.0 16.0 
402.00120069380023 0.0 0.0 14.0 0.0 0.0 16.0 
403.000317390811 0.0 0.0 14.0 0.0 0.0 16.0 
404.00425554035814 0.0 0.0 14.0 0.0 0.0 17.0 
405.0007255460485 0.0 0.0 14.0 0.0 0.0 16.0 
406.00002342678107 0.0 0.0 15.0 0.0 0.0 16.0 
407.00248614401323 0.0 0.0 15.0 0.0 0.0 15.0 
408.00076505785546 0.01396094293140291 6.980471465701498 16.0 0.0 0.0 15.0 
409.0003749209232 0.015881436008319035 6.629350419851903 16.0 0.0 0.0 15.0 
410.00025608366496 0.015881436008319035 6.629350419851903 16.0 0.0 0.0 16.0 
411.0017943728621 0.015881436008319035 6.629350419851903 16.0 0.0 0.0 15.0 
412.0018752240824 0.026794147842498794 6.629350419851903 16.0 0.0 0.0 15.0 
413.0006422536172 0.026794147842498794 6.629350419851903 16.0 0.0 0.0 16.0 
414.0004923759057 0.06924262478098304 7.542249378362214 16.0 0.0 0.0 16.0 
415.0010133510831 0.10236139741799508 11.855502800968196 16.0 0.0 0.0 16.0 
416.0022997928003 0.09321877604212395 9.169796402593335 16.0 0.0 0.0 16.0 
417.0008789769857 0.11104531054821284 18.198802041728953 16.0 0.0 0.0 16.0 
418.0036834629529 0.15408071645080754 18.198802041728953 16.0 0.0 0.0 16.0 
419.00294550937826 0.30667799511672517 33.77495000825289 16.0 0.0 0.0 16.0 
420.00201606989316 0.4320875548271784 40.348273966287366 16.0 0.0 0.0 16.0 
421.000133769323 0.4213999961192201 40.348273966287366 16.0 0.0 0.0 16.0 
422.00617877895047 0.41893404970183334 40.348273966287366 17.0 0.0 0.0 16.0 
423.00109809385856 0.4155845049940786 40.348273966287366 17.0 0.0 0.0 16.0 
424.0004861497288 0.5333023958155635 33.09340215810212 17.0 0.0 0.0 17.0 
425.00201606989316 0.7462335587029594 39.875033863615926 17.0 0.0 0.0 17.0 
426.001577488905 0.6958378887570653 39.875033863615926 17.0 0.0 0.0 17.0 
427.0003835607422 0.8962002709887635 51.26955459392053 17.0 0.0 0.0 17.0 
428.00265761132954 0.8280098939389184 46.727094305594676 18.0 0.0 0.0 17.0 
429.000687278857 0.9001514132168735 46.727094305594676 18.0 0.0 0.0 17.0 
430.00201606989316 1.1280286576164147 58.655691547431616 17.0 0.0 0.0 17.0 
431.0010424328391 1.124372136992556 51.31982201011439 18.0 0.0 0.0 18.0 
432.01091170405954 1.1306311681253831 52.60306772921356 18.0 0.0 0.0 18.0 
433.0004417216328 1.106815645777656 52.60306772921356 18.0 0.0 0.0 18.0 
434.0030787392947 1.2274566832634892 58.67465543563321 18.0 0.0 0.0 18.0 
435.00199567049344 1.3125558729179914 59.95902405187161 18.0 0.0 0.0 18.0 
436.00350975315473 1.2847466063115762 59.95902405187161 18.0 0.0 0.0 18.0 
437.0013834952692 1.3053654213221564 67.37191118546957 18.0 0.0 0.0 18.0 
438.0004533874237 1.261594530719376 67.37191118546957 18.0 0.0 0.0 17.0 
439.0071554149554 1.4139620817510614 81.04891773864745 18.0 0.0 0.0 19.0 
440.00201606989316 1.2379094863780082 67.93866643091604 18.0 0.0 0.0 17.0 
441.0019607492433 1.253756408273313 81.04891773864745 19.0 0.0 0.0 18.0 
442.00226895411856 0.8750051613128785 56.108623001480225 19.0 0.0 0.0 18.0 
443.0002253954775 0.8963459898132626 56.108623001480225 19.0 0.0 0.0 18.0 
444.0055943282246 0.826853678251947 71.9250618543004 19.0 0.0 0.0 18.0 
445.0011980084868 0.8326198612826868 71.9250618543004 19.0 0.0 0.0 18.0 
446.005008219726 0.7908631543043281 71.9250618543004 19.0 0.0 0.0 18.0 
447.0014272792508 0.7939738974437718 71.9250618543004 19.0 0.0 0.0 18.0 
448.0006374896122 0.8195563262891115 71.9250618543004 19.0 0.0 0.0 17.0 
449.0030399556373 0.7265771185103147 66.0092752691263 20.0 0.0 0.0 17.0 
450.00201606989316 0.6576564276829039 66.0092752691263 20.0 0.0 0.0 17.0 
451.0012183815268 0.6816291490126287 66.0092752691263 20.0 0.0 0.0 17.0 
452.0013064144148 0.3977854716378222 42.89678790767968 22.0 0.0 0.0 17.0 
453.00144105613487 0.2739138218911301 39.60519158579743 22.0 0.0 0.0 18.0 
454.0004465085499 0.2740434775481885 46.693258227669645 21.0 0.0 0.0 18.0 
455.0003676421956 0.21454517904477385 44.95825583811407 20.0 0.0 0.0 17.0 
456.004133146992 0.062296255403069996 19.902781843113445 20.0 0.0 0.0 16.0 
457.0041368539484 0.09003422646925664 19.902781843113445 20.0 0.0 0.0 16.0 
458.00216576705185 0.018509030282414806 9.254515141207378 19.0 0.0 0.0 16.0 
459.00174977855903 0.019463462625272508 9.731731312636214 20.0 0.0 0.0 15.0 
460.00201606989316 0.023398634643658316 9.731731312636214 19.0 0.0 0.0 15.0 
461.00504121475007 0.0 0.0 18.0 0.0 0.0 15.0 
462.0021692767632 0.0 0.0 18.0 0.0 0.0 15.0 
463.00150676869333 0.0039351720183858725 1.967586009192928 19.0 0.0 0.0 14.0 
464.0015942928895 8.237707572722043E-4 0.4118853786361001 19.0 0.0 0.0 14.0 
465.00201606989316 8.237707572722043E-4 0.4118853786361001 19.0 0.0 0.0 16.0 
466.0013223245261 8.237707572722043E-4 0.4118853786361001 19.0 0.0 0.0 16.0 
467.0000341752941 0.0 0.0 19.0 0.0 0.0 16.0 
468.0012818442076 8.237707572722043E-4 0.4118853786361001 19.0 0.0 0.0 16.0 
469.0001373294792 0.0 0.0 19.0 0.0 0.0 16.0 
470.00201606989316 0.0 0.0 19.0 0.0 0.0 16.0 
471.00032065779754 0.0 0.0 19.0 0.0 0.0 16.0 
472.00216353571597 0.0 0.0 19.0 0.0 0.0 16.0 
473.0001905185832 0.0 0.0 19.0 0.0 0.0 16.0 
474.0011593781931 0.0 0.0 20.0 0.0 0.0 16.0 
475.00201606989316 0.005230544843801152 2.6152724219005847 20.0 0.0 0.0 15.0 
476.00191689740245 0.0 0.0 20.0 0.0 0.0 15.0 
477.0000077165458 0.0 0.0 20.0 0.0 0.0 15.0 
478.0007927499414 0.0 0.0 20.0 0.0 0.0 15.0 
479.0057703014025 0.0 0.0 21.0 0.0 0.0 16.0 
480.00020916711344 0.0 0.0 21.0 0.0 0.0 16.0 
481.0010889030782 0.0 0.0 20.0 0.0 0.0 16.0 
482.0005027138311 0.0 0.0 20.0 0.0 0.0 16.0 
483.0007225371559 0.0 0.0 20.0 0.0 0.0 16.0 
484.00006767260504 0.0 0.0 20.0 0.0 0.0 16.0 
485.0001021849444 0.0 0.0 20.0 0.0 0.0 16.0 
486.0010236567502 0.0 0.0 21.0 0.0 0.0 16.0 
487.0030230255095 0.0 0.0 21.0 0.0 0.0 16.0 
488.00260616679515 0.0 0.0 21.0 0.0 0.0 16.0 
489.0003744308148 0.0 0.0 21.0 0.0 0.0 16.0 
490.00201606989316 0.0 0.0 21.0 0.0 0.0 16.0 
491.004949433828 0.0 0.0 22.0 0.0 0.0 16.0 
492.00011877020245 0.0 0.0 22.0 0.0 0.0 16.0 
493.0018061360965 0.0 0.0 22.0 0.0 0.0 16.0 
494.000525965888 0.0 0.0 22.0 0.0 0.0 16.0 
495.00131414570836 0.0 0.0 22.0 0.0 0.0 16.0 
496.00188833405133 0.0 0.0 22.0 0.0 0.0 16.0 
497.00183117475757 0.0 0.0 22.0 0.0 0.0 16.0 
498.00008539591573 0.0 0.0 22.0 0.0 0.0 16.0 
499.0008927013403 0.0 0.0 21.0 0.0 0.0 16.0 
500.0002104049365 0.0 0.0 21.0 0.0 0.0 16.0 
501.0044173008103 0.0 0.0 21.0 0.0 0.0 16.0 
502.0019554082423 0.0 0.0 21.0 0.0 0.0 16.0 
503.0006822409019 0.0 0.0 22.0 0.0 0.0 16.0 
504.0001673142744 0.0 0.0 22.0 0.0 0.0 16.0 
505.00201606989316 0.0 0.0 22.0 0.0 0.0 17.0 
506.00050278298005 0.0 0.0 22.0 0.0 0.0 17.0 
507.00350380671534 0.0 0.0 22.0 0.0 0.0 17.0 
508.01085869369035 0.0 0.0 22.0 0.0 0.0 16.0 
509.00183532108184 0.0 0.0 22.0 0.0 0.0 18.0 
510.00086973787154 0.0 0.0 22.0 0.0 0.0 17.0 
511.0011665838215 0.0 0.0 22.0 0.0 0.0 17.0 
512.0003456468874 0.0 0.0 22.0 0.0 0.0 17.0 
513.0010466406776 0.0 0.0 21.0 0.0 0.0 17.0 
514.0022321140336 0.0 0.0 21.0 0.0 0.0 17.0 
515.0020160698932 0.0 0.0 21.0 0.018838433176723804 7.13497817453441 18.0 
516.0040060356085 0.0 0.0 21.0 0.0 0.0 19.0 
517.0014775003215 0.0 0.0 21.0 0.0 0.0 18.0 
518.0009728033966 0.0 0.0 22.0 0.0 0.0 17.0 
519.0000177950611 0.0 0.0 22.0 0.0 0.0 17.0 
520.0011106533864 0.0 0.0 22.0 0.0 0.0 18.0 
521.0024380597235 0.0 0.0 21.0 0.0 0.0 18.0 
522.0001250501602 0.0 0.0 21.0 0.0 0.0 18.0 
523.0002097676133 0.0 0.0 21.0 0.0 0.0 18.0 
524.0031027667983 0.0 0.0 21.0 0.0 0.0 18.0 
525.0020160698932 0.0 0.0 20.0 0.0 0.0 18.0 
526.0030035004386 0.0 0.0 20.0 0.0 0.0 19.0 
527.0010820919006 0.0 0.0 19.0 0.0 0.0 19.0 
528.0028004544727 0.0 0.0 19.0 0.0 0.0 19.0 
529.0002279710535 0.0 0.0 20.0 0.0 0.0 19.0 
530.0002237423791 0.007548360009591662 3.7741800047958236 20.0 6.012595516344293E-4 0.30062977581721384 20.0 
531.0006899431736 0.007548360009591662 3.7741800047958236 20.0 0.0 0.0 19.0 
532.0005384515847 0.007548360009591662 3.7741800047958236 20.0 0.0 0.0 19.0 
533.0011940134304 0.007548360009591662 3.7741800047958236 20.0 0.0 0.0 18.0 
534.0071063874772 0.007548360009591662 3.7741800047958236 21.0 0.0 0.0 18.0 
535.0020160698932 0.0 0.0 21.0 0.003908254662812382 1.9541273314061982 18.0 
536.002379719808 0.0 0.0 21.0 0.003908254662812382 1.9541273314061982 18.0 
537.0008027438549 0.0 0.0 20.0 0.017553424599659168 6.822584968423399 18.0 
538.000839462664 0.0 0.0 19.0 0.019365826724294193 6.822584968423399 18.0 
539.0003534288999 0.0 0.0 19.0 0.029703580802565487 7.123004370541878 18.0 
540.0012741245279 0.0 0.0 19.0 0.05292505257052801 13.251043522615987 18.0 
541.0001198902214 0.0 0.0 19.0 0.042546153873763704 13.251043522615987 18.0 
542.0033305815874 0.02064578341840485 10.322891709202423 19.0 0.012176956784212326 6.088478392106111 19.0 
543.0023548557101 0.0 0.0 19.0 0.0 0.0 19.0 
544.002242213544 0.0 0.0 19.0 0.0 0.0 19.0 
545.0020160698932 0.0 0.0 19.0 0.0 0.0 19.0 
546.0016763663674 0.0 0.0 19.0 0.0 0.0 19.0 
547.0024133642245 1.2994943901679725E-4 0.06497471950839895 19.0 0.0 0.0 19.0 
548.0007287917159 1.2994943901679725E-4 0.06497471950839895 19.0 0.0 0.0 19.0 
549.0001192988235 1.2994943901679725E-4 0.06497471950839895 19.0 0.0 0.0 23.0 
550.0020160698932 0.011417371786705847 5.708685893352907 19.0 0.0 0.0 23.0 
551.0005325002095 0.011417371786705847 5.708685893352907 19.0 0.0 0.0 22.0 
552.001596500208 0.020218371781242056 10.109185890621035 18.0 0.0 0.0 21.0 
553.0051280550978 0.020218371781242056 10.109185890621035 18.0 0.0 0.0 21.0 
554.0050174674899 0.020218371781242056 10.109185890621035 19.0 0.0 0.0 23.0 
555.0009354011802 0.011457019806992255 5.72850990349616 19.0 0.0 0.0 22.0 
556.000879352477 0.011457019806992255 5.72850990349616 19.0 0.0 0.0 21.0 
557.0016544877782 0.02041258192707306 10.206290963536532 19.0 0.0 0.0 21.0 
558.0008612126354 0.0 0.0 19.0 0.0 0.0 21.0 
559.0007267511693 0.0 0.0 19.0 0.0 0.0 22.0 
560.0020160698932 0.0 0.0 18.0 0.0 0.0 22.0 
561.0069089272592 0.0 0.0 17.0 0.0 0.0 22.0 
562.0066427886928 0.0 0.0 17.0 0.0 0.0 22.0 
563.001430196005 0.0 0.0 17.0 0.0 0.0 22.0 
564.0008097390147 0.0 0.0 17.0 0.0 0.0 21.0 
565.000771704888 0.0 0.0 17.0 0.0 0.0 21.0 
566.0013861898783 0.0 0.0 17.0 0.0 0.0 21.0 
567.0018672339372 0.0 0.0 17.0 0.0 0.0 21.0 
568.002883339778 0.0 0.0 17.0 0.0 0.0 21.0 
569.0015857768002 0.0 0.0 17.0 0.0 0.0 20.0 
570.0020160698932 0.0 0.0 17.0 0.0 0.0 20.0 
571.0048039682247 0.0 0.0 17.0 0.0 0.0 19.0 
572.0026028474285 0.0 0.0 17.0 0.0 0.0 19.0 
573.0002650553895 0.0 0.0 17.0 0.0 0.0 18.0 
574.0000948417409 0.0 0.0 18.0 0.0 0.0 18.0 
575.001760065988 0.0010183071126705241 0.5091535563352636 18.0 0.0 0.0 18.0 
576.0047030355422 0.01186623989239554 5.933119946197792 17.0 0.0 0.0 20.0 
577.0010606087922 0.01186623989239554 5.933119946197792 18.0 0.0 0.0 19.0 
578.0005630479437 0.0 0.0 17.0 0.0 0.0 19.0 
579.0008512792245 0.0 0.0 16.0 0.0 0.0 19.0 
580.0020160698932 0.0 0.0 16.0 0.0 0.0 19.0 
581.0013160558883 0.00901603440381522 4.50801720190762 16.0 0.0 0.0 19.0 
582.0043292293055 0.0 0.0 16.0 0.0 0.0 19.0 
583.0030037224188 0.015475103072241559 7.518131363284397 16.0 0.0 0.0 19.0 
584.0005162050506 7.687769367933559E-4 0.2194201728364078 16.0 0.0 0.0 19.0 
585.0010854280047 3.299365911205415E-4 0.16496829556027137 15.0 0.0 0.0 19.0 
586.0003067355833 0.005780796229346529 2.7254298191130033 15.0 0.0 0.0 19.0 
587.0027911964854 0.015683347408490287 7.8416737042451246 15.0 0.0 0.0 19.0 
588.0012939648337 0.015411444647077036 7.705722323538538 15.0 0.0 0.0 18.0 
589.0048432603576 0.016182880959161604 7.8416737042451246 15.0 0.0 0.0 18.0 
590.0000477993574 0.009424090144293846 4.462278296811235 15.0 0.0 0.0 18.0 
591.0023240252453 0.025107437552784048 7.8416737042451246 15.0 0.0 0.0 18.0 
592.0000926022445 0.05036410782500792 19.011490031029467 15.0 0.0 0.0 17.0 
593.003574356234 0.11150340462692536 22.778421107378392 15.0 0.011126405698672393 5.5632028493361645 17.0 
594.0027693194733 0.046436117438886336 22.778421107378392 16.0 0.014025807821485596 5.5632028493361645 17.0 
595.0001470781501 0.03890225528618863 19.011490031029467 15.0 0.0028994021228132116 1.4497010614066141 17.0 
596.0015773004694 0.08925762664172235 22.778421107378392 16.0 0.0 0.0 17.0 
597.006319794314 0.0592321651946642 19.20073033751825 16.0 0.0 0.0 18.0 
598.0009719188574 0.07082181168696645 19.20073033751825 16.0 0.01186709825018222 5.933549125091076 18.0 
599.0018800813087 0.06878233846959128 19.20073033751825 16.0 0.015610217233448674 4.648662101122596 18.0 
600.0020160698932 0.09359826115414252 19.20073033751825 16.0 0.021834443829084515 4.648662101122596 17.0 
#####################################################################
# End of data export. Simulation finished at: 2019-02-25T20:14+0000 #
#####################################################################
