#####################################################################
# Alchemist log file - simulation started at: 2019-02-25T20:47+0000 #
#####################################################################
# seed = 193.0
#
# The columns have the following meaning: 
# time distance-rep[Mean] distance-rep[Max] leader-rep[CountDistinct] distance-share[Mean] distance-share[Max] leader-share[CountDistinct] 
0.0 NaN NaN NaN NaN NaN NaN 
1.0013191194744542 0.0 0.0 495.0 0.0 0.0 65.0 
2.000022734961291 0.0 0.0 111.0 0.0 0.0 56.0 
3.0000168530068034 0.0 0.0 107.0 0.0 0.0 51.0 
4.000115525484544 0.0 0.0 98.0 0.0 0.0 48.0 
5.001076957606643 0.0 0.0 95.0 0.0 0.0 44.0 
6.0008986527044 0.0 0.0 88.0 0.0 0.0 41.0 
7.000022734961291 0.0 0.0 82.0 0.0 0.0 34.0 
8.001698318509497 0.0 0.0 80.0 0.0 0.0 33.0 
9.000115525484544 0.0 0.0 76.0 0.0 0.0 34.0 
10.00160968449736 0.0 0.0 72.0 0.0 0.0 34.0 
11.003512950675992 0.0 0.0 68.0 0.0 0.0 32.0 
12.000022734961291 0.0 0.0 68.0 0.0 0.0 33.0 
13.000690944400366 0.0 0.0 67.0 0.0 0.0 32.0 
14.000115525484544 0.0 0.0 67.0 0.04493028997651819 17.68647370647261 28.0 
15.001245103467243 0.0 0.0 63.0 0.07832459042133273 17.68647370647261 27.0 
16.000957292295567 0.0 0.0 59.0 0.1031146342351414 17.68647370647261 27.0 
17.00002273496129 0.0 0.0 58.0 0.019479416110927072 6.5463575946403125 29.0 
18.00323480653495 0.0 0.0 55.0 0.0 0.0 26.0 
19.000115525484546 0.0 0.0 54.0 0.0024700694857614836 1.2350347428807424 25.0 
20.00196307074215 0.0 0.0 49.0 0.0 0.0 23.0 
21.002449547150185 0.0 0.0 50.0 0.0 0.0 22.0 
22.00002273496129 0.0 0.0 50.0 0.0 0.0 20.0 
23.00217548500373 0.0 0.0 48.0 0.0 0.0 21.0 
24.000115525484546 0.0 0.0 47.0 0.0 0.0 19.0 
25.00118412330548 0.0 0.0 47.0 0.0 0.0 19.0 
26.000696624189867 0.0 0.0 43.0 0.0 0.0 17.0 
27.00002273496129 0.0 0.0 42.0 0.0 0.0 17.0 
28.005020036502646 0.0 0.0 43.0 0.0 0.0 16.0 
29.000115525484546 0.0 0.0 42.0 0.0 0.0 15.0 
30.004725922593636 0.0 0.0 37.0 0.0 0.0 15.0 
31.00456891460735 0.0 0.0 38.0 0.0 0.0 15.0 
32.00002273496129 0.0 0.0 37.0 0.0 0.0 15.0 
33.00080581536935 0.0 0.0 35.0 0.0 0.0 15.0 
34.000115525484546 0.0 0.0 35.0 0.0 0.0 15.0 
35.001392998064546 0.0 0.0 35.0 0.0 0.0 15.0 
36.001322281369 0.0 0.0 34.0 0.0 0.0 15.0 
37.00002273496129 0.0 0.0 34.0 0.0 0.0 15.0 
38.001255846217916 0.0 0.0 34.0 0.0 0.0 15.0 
39.000115525484546 0.0 0.0 34.0 0.0 0.0 16.0 
40.00166622760462 0.0 0.0 34.0 0.0 0.0 19.0 
41.00251626897419 0.0 0.0 34.0 0.0 0.0 19.0 
42.00002273496129 0.0 0.0 34.0 0.0 0.0 19.0 
43.00306173457392 0.0 0.0 34.0 0.0 0.0 19.0 
44.000115525484546 0.0 0.0 34.0 0.0 0.0 19.0 
45.00005753033353 0.0 0.0 34.0 0.0 0.0 18.0 
46.00060284812915 0.0 0.0 35.0 0.0 0.0 18.0 
47.00002273496129 0.0 0.0 37.0 0.0 0.0 16.0 
48.00058338711718 0.0 0.0 36.0 0.0 0.0 16.0 
49.000115525484546 0.0 0.0 35.0 0.0 0.0 18.0 
50.00254207339129 0.0 0.0 33.0 0.0 0.0 17.0 
51.00375056645111 0.0 0.0 33.0 0.0 0.0 17.0 
52.00002273496129 0.0 0.0 31.0 0.0 0.0 17.0 
53.001114241521144 0.0 0.0 31.0 0.0 0.0 16.0 
54.000115525484546 0.0 0.0 32.0 0.0 0.0 16.0 
55.000503923938496 0.0 0.0 32.0 0.0 0.0 16.0 
56.000957232701005 0.0 0.0 31.0 0.0 0.0 16.0 
57.00002273496129 0.0 0.0 31.0 0.0 0.0 16.0 
58.00031830661699 0.0 0.0 33.0 0.0 0.0 17.0 
59.000115525484546 0.0 0.0 31.0 0.0 0.0 17.0 
60.00109324460051 0.0 0.0 31.0 0.0 0.0 16.0 
61.00043981872532 0.0 0.0 31.0 0.0 0.0 16.0 
62.00002273496129 0.0 0.0 31.0 0.0 0.0 16.0 
63.001967698556044 0.0 0.0 32.0 0.0 0.0 16.0 
64.00001697679025 0.0 0.0 30.0 0.0 0.0 16.0 
65.00034811857226 0.0 0.0 30.0 0.0 0.0 16.0 
66.00116738868934 0.0 0.0 29.0 0.0 0.0 17.0 
67.00002273496129 0.0 0.0 30.0 0.0 0.0 17.0 
68.00188302131205 0.0 0.0 30.0 0.0 0.0 17.0 
69.00011552548455 0.004484067707191257 2.2420338535956432 29.0 0.0 0.0 17.0 
70.00152144207624 0.004484067707191257 2.2420338535956432 28.0 0.0 0.0 17.0 
71.00170139576328 0.004484067707191257 2.2420338535956432 27.0 0.0 0.0 17.0 
72.00002273496129 0.004484067707191257 2.2420338535956432 25.0 0.0 0.0 18.0 
73.00098360591927 0.0 0.0 24.0 0.0 0.0 19.0 
74.00011552548455 0.0 0.0 25.0 0.0 0.0 19.0 
75.00173739675348 0.0 0.0 25.0 0.0 0.0 19.0 
76.00209065251565 0.0 0.0 24.0 0.0 0.0 19.0 
77.00002273496129 0.0 0.0 23.0 0.0 0.0 19.0 
78.0004249336676 0.0 0.0 22.0 0.0 0.0 19.0 
79.00011552548455 0.0 0.0 22.0 0.0 0.0 19.0 
80.00345750750874 0.0 0.0 22.0 0.0 0.0 18.0 
81.00175219461637 0.0 0.0 22.0 0.0 0.0 19.0 
82.00002273496129 0.0 0.0 22.0 0.0 0.0 19.0 
83.00173276221345 0.0 0.0 21.0 0.0 0.0 19.0 
84.00011552548455 0.0 0.0 21.0 0.0 0.0 18.0 
85.00071796221383 0.0 0.0 21.0 0.0 0.0 19.0 
86.00003240996907 0.0 0.0 20.0 0.0 0.0 19.0 
87.00002273496129 0.0 0.0 20.0 0.0 0.0 19.0 
88.00243772935171 0.01871885972429638 9.359429862148147 20.0 0.0 0.0 18.0 
89.00011552548455 0.01871885972429638 9.359429862148147 20.0 0.0 0.0 18.0 
90.00094604317486 0.0 0.0 19.0 0.0 0.0 18.0 
91.0029937453591 0.0 0.0 19.0 0.0 0.0 18.0 
92.00002273496129 0.01871885972429638 9.359429862148147 19.0 0.0 0.0 18.0 
93.00460827298065 0.04699380395279473 23.49690197639734 19.0 0.0 0.0 18.0 
94.00011552548455 0.04699380395279473 23.49690197639734 19.0 0.0 0.0 18.0 
95.00011416421275 0.04883240756710941 24.416203783554636 18.0 0.0 0.0 17.0 
96.0012336981655 0.0 0.0 18.0 0.0 0.0 17.0 
97.00002273496129 0.08080679542049818 24.416203783554636 17.0 0.0 0.0 16.0 
98.00417498548853 0.05542446945622617 23.46968932832081 16.0 0.0 0.0 16.0 
99.00011552548455 0.05542446945622617 23.46968932832081 16.0 0.0 0.0 16.0 
100.00046677574612 0.04693937865664159 23.46968932832081 16.0 0.0 0.0 16.0 
101.00081101550997 0.04693937865664159 23.46968932832081 16.0 0.0 0.0 16.0 
102.00002273496129 0.04493565366253675 15.961017144521378 16.0 0.0 0.0 16.0 
103.0006037104553 0.05060246277064065 23.379098162109017 16.0 0.0 0.0 17.0 
104.00011552548455 0.05060246277064065 23.379098162109017 16.0 0.0 0.0 17.0 
105.00056544930841 0.06560778809726982 23.379098162109017 16.0 0.0 0.0 17.0 
106.00101218071904 0.07397878398357144 23.379098162109017 16.0 0.0 0.0 17.0 
107.00002273496129 0.05876570988856173 15.871420002474224 16.0 0.0 0.0 17.0 
108.00112916251086 0.0839267424381225 15.469885213586167 16.0 0.0 0.0 17.0 
109.00011552548455 0.10057725653726059 23.418575699240336 17.0 0.0 0.0 17.0 
110.00116058227883 0.0 0.0 15.0 0.0 0.0 17.0 
111.0048284464556 0.022608358312581452 11.3041791562907 16.0 0.0 0.0 17.0 
112.00002273496129 0.04984683599621558 15.469885213586167 17.0 0.0 0.0 17.0 
113.00164677365757 0.0 0.0 16.0 0.0 0.0 17.0 
114.00011552548455 0.0 0.0 18.0 0.0 0.0 17.0 
115.00185366084291 0.038042188360555604 19.021094180277885 18.0 0.0 0.0 17.0 
116.00009388671774 0.0 0.0 17.0 0.0 0.0 17.0 
117.00002273496129 0.0 0.0 17.0 0.0 0.0 17.0 
118.00041733151309 0.0 0.0 17.0 0.0 0.0 16.0 
119.00011552548455 0.0 0.0 17.0 0.0 0.0 16.0 
120.00279784317041 0.0 0.0 16.0 0.0 0.0 16.0 
121.00241065332105 0.0 0.0 16.0 0.0 0.0 16.0 
122.00002273496129 0.0 0.0 16.0 0.0 0.0 16.0 
123.00314638237049 0.0 0.0 16.0 0.0 0.0 15.0 
124.00011552548455 0.0 0.0 16.0 0.0 0.0 15.0 
125.00021176719223 0.0 0.0 16.0 0.0 0.0 15.0 
126.0004618985623 0.0 0.0 16.0 0.0 0.0 15.0 
127.00002273496129 0.0 0.0 16.0 0.0 0.0 15.0 
128.00108097523741 0.0 0.0 16.0 0.0 0.0 15.0 
129.00010457143472 0.0 0.0 16.0 0.0 0.0 15.0 
130.00097753340538 0.0 0.0 16.0 0.0 0.0 15.0 
131.00187160513792 0.0 0.0 16.0 0.0 0.0 15.0 
132.0000227349613 0.0 0.0 16.0 0.0 0.0 15.0 
133.00350247064844 0.0 0.0 16.0 0.0 0.0 15.0 
134.00011552548455 0.0 0.0 16.0 0.0 0.0 16.0 
135.00005925714268 0.0 0.0 16.0 0.0 0.0 16.0 
136.00381290673957 0.0 0.0 16.0 0.0 0.0 16.0 
137.0000227349613 0.0024680334288807878 1.2340167144404006 16.0 0.0 0.0 16.0 
138.0006602073591 0.010813491278674434 5.406745639337203 16.0 0.0 0.0 16.0 
139.00011552548455 0.0 0.0 16.0 0.0 0.0 16.0 
140.00472592259365 0.015083526877734333 4.6542090748727105 16.0 0.0 0.0 16.0 
141.00146311025154 0.0057751087279888005 2.0176384354311097 16.0 0.0 0.0 16.0 
142.0000227349613 0.03312534230504963 7.578205809750045 16.0 0.0 0.0 16.0 
143.00066883241962 0.029913735875726124 7.578205809750045 16.0 0.0 0.0 16.0 
144.00001074642316 0.015156411619499986 7.578205809750045 16.0 0.0 0.0 16.0 
145.00091153319966 0.0 0.0 17.0 0.0 0.0 18.0 
146.00079457002875 0.0017827136727366904 0.8913568363683453 17.0 0.0 0.0 18.0 
147.0000227349613 0.0 0.0 17.0 0.0 0.0 18.0 
148.00036603203588 0.0047692823788365035 2.384641189418261 17.0 0.0 0.0 18.0 
149.00008261334827 0.03487015251926743 17.435076259633576 17.0 0.0 0.0 18.0 
150.0015919039322 0.0 0.0 17.0 0.0 0.0 18.0 
151.00506522898465 0.0 0.0 17.0 0.0 0.0 18.0 
152.0000227349613 0.0 0.0 16.0 0.0 0.0 18.0 
153.00004296827757 0.06467055922149192 32.335279610746085 17.0 0.0 0.0 18.0 
154.00011552548455 0.0 0.0 16.0 0.0 0.0 18.0 
155.00017806421275 0.06467055922149192 32.335279610746085 16.0 0.0 0.0 18.0 
156.0047169652752 0.0 0.0 16.0 0.0 0.0 18.0 
157.0000227349613 0.0 0.0 16.0 0.0 0.0 18.0 
158.0050175821503 0.0 0.0 16.0 0.0 0.0 18.0 
159.00011552548455 0.0 0.0 16.0 0.0 0.0 18.0 
160.00472592259365 0.0 0.0 16.0 0.0 0.0 18.0 
161.00136999573337 0.0 0.0 16.0 0.0 0.0 18.0 
162.0000227349613 0.0 0.0 16.0 0.0 0.0 18.0 
163.0000526654083 0.0 0.0 16.0 0.0 0.0 18.0 
164.00011552548455 0.0 0.0 16.0 0.0 0.0 18.0 
165.00150366190752 0.0 0.0 15.0 0.0 0.0 18.0 
166.00009358090523 0.0 0.0 15.0 0.0 0.0 18.0 
167.0000227349613 0.0 0.0 15.0 0.0 0.0 18.0 
168.00028534872658 0.0 0.0 15.0 0.0 0.0 18.0 
169.00011552548455 0.0 0.0 15.0 0.0 0.0 18.0 
170.0020029503474 0.0 0.0 15.0 0.0 0.0 19.0 
171.00074738089484 0.0 0.0 15.0 0.0 0.0 21.0 
172.0000227349613 0.0 0.0 15.0 0.0 0.0 21.0 
173.00041641435612 0.0 0.0 15.0 0.005801104507936573 2.4565235801939025 21.0 
174.00011552548455 0.0 0.0 16.0 0.006617732015526614 2.864837333988902 22.0 
175.00206264015722 0.0 0.0 16.0 0.03369862322693787 5.529350384739814 22.0 
176.00037035501884 9.630773541554777E-4 0.48153867707773657 17.0 0.03369862322693787 5.529350384739814 21.0 
177.0000227349613 0.013354598282432089 6.677299141216054 17.0 0.02263992245745836 4.272069795210342 22.0 
178.0042656488161 0.0 0.0 17.0 0.0 0.0 22.0 
179.00011552548455 0.013354598282432089 6.677299141216054 17.0 0.0 0.0 22.0 
180.00032858855815 0.0 0.0 17.0 0.0 0.0 21.0 
181.00065311371407 0.0 0.0 18.0 0.0 0.0 21.0 
182.0000227349613 0.0033269434925291053 1.6634717462645483 18.0 0.0 0.0 21.0 
183.00096488708525 0.0 0.0 19.0 0.0 0.0 22.0 
184.00011552548455 0.0 0.0 19.0 0.0 0.0 25.0 
185.00035039915437 0.0 0.0 19.0 0.0 0.0 24.0 
186.00299002816257 0.0 0.0 19.0 0.0 0.0 23.0 
187.0000227349613 0.0 0.0 19.0 0.0 0.0 21.0 
188.0026328959844 0.0 0.0 19.0 0.0 0.0 21.0 
189.00011552548455 0.0 0.0 19.0 0.0 0.0 21.0 
190.0003963246484 0.0 0.0 19.0 0.0 0.0 21.0 
191.00285674159738 0.0 0.0 19.0 0.0 0.0 21.0 
192.0000227349613 0.0 0.0 19.0 0.0 0.0 21.0 
193.00196809954664 0.009717592605307006 4.858796302653531 20.0 0.0 0.0 23.0 
194.00011552548455 0.010050301523405874 4.858796302653531 21.0 0.0 0.0 23.0 
195.0022664237465 0.011801942849016596 4.858796302653531 22.0 0.0 0.0 23.0 
196.00802719667334 0.041411029260483956 7.664295360185292 22.0 0.0 0.0 23.0 
197.0000227349613 0.06335080561982602 8.367707238848226 24.0 0.0 0.0 23.0 
198.000367797111 0.05262112485299742 8.140061301496331 23.0 0.0 0.0 23.0 
199.00011552548455 0.036341002250004806 4.36614464125816 23.0 0.0 0.0 22.0 
200.0010892451369 0.06700427837016394 8.140061301496331 23.0 0.0 0.0 22.0 
201.00100834438612 0.1664508783552837 15.637357961725286 23.0 0.0 0.0 22.0 
202.0000227349613 0.1664508783552837 15.637357961725286 23.0 0.0 0.0 22.0 
203.00040311226292 0.16647227035884682 14.896764183675373 23.0 0.0 0.0 22.0 
204.00011552548455 0.20192177202068756 15.995013224350345 23.0 0.0 0.0 22.0 
205.002418893437 0.1788780374191496 17.186460598657817 23.0 0.0 0.0 22.0 
206.00022524925936 0.15869943772755687 23.55100661718143 23.0 0.0 0.0 22.0 
207.0000227349613 0.011490506945734703 5.745253472867319 23.0 0.0 0.0 22.0 
208.00041633921137 0.039186423226357486 12.645866131464828 23.0 0.0 0.0 22.0 
209.00011552548455 0.11366130897685679 32.91462692770597 23.0 0.0 0.0 22.0 
210.00089790898002 0.09901332142711304 25.590633152834044 22.0 0.0 0.0 22.0 
211.0060736122922 0.0840806103333102 25.590633152834044 22.0 0.0 0.0 22.0 
212.0000227349613 0.09866702838067315 25.590633152834044 22.0 0.0 0.0 22.0 
213.0012528366841 0.15228202948531738 33.05451790155948 22.0 0.0 0.0 22.0 
214.00011552548455 0.1952933405233113 33.05451790155948 21.0 0.0 0.0 22.0 
215.00472592259365 0.18057648466201 25.696089970908787 21.0 0.0 0.0 22.0 
216.000953671108 0.18057648466201 25.696089970908787 21.0 0.0 0.0 22.0 
217.0000227349613 0.20550493808386647 28.102883497927934 21.0 0.0 0.0 22.0 
218.00192227540097 0.2399892341484547 35.54946402792916 21.0 0.0 0.0 22.0 
219.00011552548455 0.3194770431967369 47.45601231721321 21.0 0.0 0.0 22.0 
220.0000093380856 0.30501588323654333 47.45601231721321 21.0 0.0 0.0 21.0 
221.00223329516717 0.29491736882731884 47.45601231721321 24.0 0.0 0.0 21.0 
222.0000227349613 0.33864782711422614 47.45601231721321 22.0 0.0 0.0 21.0 
223.00203835298592 0.3428797556092837 50.30760668408823 22.0 0.0 0.0 21.0 
224.00011552548455 0.3720203094683778 50.30760668408823 22.0 0.0 0.0 20.0 
225.00279846644452 0.36881510121600364 50.30760668408823 21.0 0.0 0.0 20.0 
226.00452867924716 0.3464784546057611 50.30760668408823 22.0 0.0 0.0 20.0 
227.0000227349613 0.6513599846776782 61.86300163701998 22.0 0.0 0.0 20.0 
228.00171094048616 0.8095213172473764 69.23947832692915 22.0 0.0 0.0 20.0 
229.00011552548455 0.85379142479753 69.23947832692915 22.0 0.0 0.0 18.0 
230.00199609228846 0.7364698307070597 67.00700038785925 20.0 0.0 0.0 17.0 
231.00059895877146 0.8133245621508746 65.1211926946541 19.0 0.0 0.0 17.0 
232.0000227349613 0.8657366733137825 72.19774519771477 20.0 0.0 0.0 18.0 
233.00129291823424 0.817353930458239 69.37090380237998 19.0 0.0 0.0 18.0 
234.00011552548455 1.0057831795259415 79.6072664106178 19.0 0.0 0.0 19.0 
235.00081999847268 0.8303673351259248 69.37090380237998 19.0 0.0 0.0 18.0 
236.0016963718083 0.8016024103254962 62.121074530253054 20.0 0.0 0.0 18.0 
237.0000227349613 0.9844593548458034 80.66594014020643 21.0 0.0 0.0 19.0 
238.00194748886835 1.0885392577991062 88.18090972956577 22.0 0.0 0.0 22.0 
239.00011552548455 0.9650810626557319 72.58381808548802 21.0 0.0 0.0 22.0 
240.0006816955224 0.9506388382466245 72.58381808548802 21.0 0.0 0.0 22.0 
241.00026737940382 0.9331941625481103 72.58381808548802 21.0 0.0 0.0 20.0 
242.0000227349613 1.040944248934894 80.02563124783603 21.0 0.0 0.0 20.0 
243.00021181230122 1.159145935996869 80.02563124783603 21.0 0.0 0.0 20.0 
244.00011552548455 1.2198530514345869 87.47742525773691 21.0 0.0 0.0 20.0 
245.00066949024813 1.2051936107756853 87.47742525773691 21.0 0.0 0.0 20.0 
246.00023353627085 1.2958452976790396 87.47742525773691 21.0 0.0 0.0 20.0 
247.0000227349613 1.408728057023334 85.5402803589119 21.0 0.0 0.0 19.0 
248.00626487016154 1.4567377042134035 72.28327995147413 21.0 0.0 0.0 19.0 
249.00011552548455 1.486690842619411 72.28327995147413 21.0 0.0 0.0 18.0 
250.0001287750371 1.6812082099939525 79.67093011972673 21.0 0.0 0.0 18.0 
251.00172459323375 1.6760190588974415 79.67093011972673 21.0 0.0 0.0 18.0 
252.0000227349613 1.89535880018101 79.67093011972673 20.0 0.0 0.0 18.0 
253.0036782982371 2.219943976165503 85.77443497436457 20.0 0.0 0.0 18.0 
254.00011552548455 2.3916296157636565 93.1113532020716 20.0 0.0 0.0 20.0 
255.00202708728094 2.301658963984864 94.38676244308971 23.0 0.0 0.0 19.0 
256.0005463272959 2.334524894169369 94.38676244308971 22.0 0.0 0.0 18.0 
257.0000227349613 2.5585153435671155 94.38676244308971 22.0 0.0 0.0 18.0 
258.0025211441049 2.682674932068853 94.38676244308971 22.0 0.0 0.0 18.0 
259.0000091836816 2.8611564748903584 101.7275038661711 23.0 0.0 0.0 18.0 
260.00081663775603 3.000430188207132 109.13943867983619 24.0 0.0 0.0 18.0 
261.00085279425394 2.895136496491285 93.06407696349567 23.0 0.0 0.0 17.0 
262.0000227349613 3.1138266469959976 93.06407696349567 23.0 0.0 0.0 17.0 
263.0009368601554 3.5941110783533228 103.61224989474852 22.0 0.0 0.0 17.0 
264.00011552548455 3.86388873852728 103.61224989474852 22.0 0.0 0.0 17.0 
265.0042686847371 3.8074817913624956 105.06569976311948 22.0 0.0 0.0 17.0 
266.0004550596431 3.5487176130841935 105.06569976311948 22.0 0.0 0.0 16.0 
267.0000227349613 4.183064420406434 125.58059171281036 22.0 0.0 0.0 16.0 
268.0005173936525 4.151096354013801 123.65181205497032 22.0 0.0 0.0 16.0 
269.00011552548455 3.87761622488157 112.54409919053256 22.0 0.0 0.0 16.0 
270.0005151865716 3.9721487472857646 111.40665541495645 22.0 0.0 0.0 16.0 
271.00062940602646 3.8877791995366167 111.40665541495645 22.0 0.0 0.0 16.0 
272.0000227349613 4.247071819202188 118.80562861582325 21.0 0.0 0.0 16.0 
273.00403911951526 3.7310486746571625 126.23615362290377 22.0 0.0 0.0 16.0 
274.00011552548455 3.0241246766901395 126.23615362290377 22.0 0.0 0.0 15.0 
275.0000901503987 2.9771874329624866 105.24223725625342 22.0 0.0 0.0 15.0 
276.0004231213527 2.8657648710994006 107.1698970351905 19.0 0.0 0.0 15.0 
277.0000227349613 2.7716366452436496 107.1698970351905 19.0 0.0 0.0 15.0 
278.0016448668255 3.2836708272626134 114.54023154599923 19.0 0.0 0.0 15.0 
279.00011552548455 2.648665780841936 114.54023154599923 20.0 0.0 0.0 15.0 
280.0002500086283 2.6519805766514373 114.54023154599923 20.0 0.0 0.0 15.0 
281.00074076633877 2.682807296015304 121.97741511043273 20.0 0.0 0.0 15.0 
282.0000227349613 3.0939610237972692 137.78378803788786 19.0 0.007554735094727445 3.777367547363724 15.0 
283.00221954555894 3.0753279184000104 129.5035904975632 19.0 0.005517319843208024 2.7586599216040213 15.0 
284.00011552548455 3.0589921050447284 129.5035904975632 18.0 0.0 0.0 17.0 
285.00389249493315 3.081353341120141 129.5035904975632 18.0 0.0 0.0 16.0 
286.0011755193558 3.29714369869302 136.8748114771086 18.0 0.0 0.0 18.0 
287.0000227349613 3.7398961851366592 145.31548827143422 18.0 0.0 0.0 18.0 
288.00444101215066 3.827733490695528 145.31548827143422 18.0 0.0 0.0 18.0 
289.00011552548455 3.7840217777477103 145.31548827143422 18.0 0.0 0.0 16.0 
290.003929681348 3.3654351408421554 137.74827375213067 19.0 0.0 0.0 16.0 
291.0008281278393 3.377647070451096 137.74827375213067 19.0 0.0 0.0 16.0 
292.0000227349613 3.6745133712731057 145.2628181661941 19.0 0.0 0.0 16.0 
293.0014596999109 4.103936479325051 159.33619497321655 19.0 0.0 0.0 16.0 
294.00011552548455 4.272808789568178 159.33619497321655 19.0 0.0 0.0 16.0 
295.0006618776865 3.829287418489179 137.76358345096116 19.0 0.0 0.0 16.0 
296.00270070076317 3.80611988076243 137.76358345096116 19.0 0.0 0.0 16.0 
297.0000227349613 3.9633807853126717 137.76358345096116 19.0 0.0 0.0 16.0 
298.0017029864712 4.312330616373842 145.6456781788366 19.0 0.0 0.0 16.0 
299.00011552548455 4.287608139289138 145.6456781788366 18.0 0.0 0.0 16.0 
300.0004880605848 4.331696154381414 145.6456781788366 19.0 0.0 0.0 16.0 
301.0003092126754 4.343544055939493 145.6456781788366 19.0 0.0 0.0 16.0 
302.0000227349613 4.569547665347481 160.67953560332205 19.0 0.0 0.0 16.0 
303.00129823439806 4.827141686569896 160.67953560332205 19.0 0.0 0.0 16.0 
304.00011552548455 4.8368970954450425 160.67953560332205 18.0 0.0 0.0 16.0 
305.0041347406804 4.8672359267794025 160.67953560332205 18.0 0.0 0.0 16.0 
306.0003094979724 4.848347247780261 160.67953560332205 18.0 0.0 0.0 16.0 
307.0000227349613 5.12297583426757 168.1146441636842 18.0 0.0 0.0 16.0 
308.0029453812322 5.189695469067032 175.52246931521205 18.0 0.0 0.0 16.0 
309.00011552548455 4.819916111790024 154.3915704438666 18.0 0.0 0.0 16.0 
310.0008451398325 4.886785523066663 154.3915704438666 18.0 0.0 0.0 16.0 
311.0012267537987 5.026282964223851 154.3915704438666 18.0 0.0 0.0 16.0 
312.0000227349613 5.32849740925498 149.86639252950198 17.0 0.0 0.0 16.0 
313.00067045650553 5.1655320598671945 157.32228398445756 17.0 0.0 0.0 16.0 
314.00011552548455 5.686661250967118 157.32228398445756 17.0 0.0 0.0 16.0 
315.00142229461 5.731326147016787 157.32228398445756 17.0 0.0 0.0 15.0 
316.0010632027985 5.609144525884858 164.84514925326238 17.0 0.0 0.0 15.0 
317.0000227349613 6.214753742094112 172.3679545132116 17.0 0.0 0.0 15.0 
318.0021567978309 6.768944782828159 172.3679545132116 17.0 0.0 0.0 15.0 
319.00011552548455 6.833464874943883 172.3679545132116 17.0 0.0 0.0 15.0 
320.0008364191987 7.364138951140583 172.3679545132116 17.0 0.0 0.0 15.0 
321.00445417580363 7.0194535066392465 162.99934353459412 17.0 0.0 0.0 15.0 
322.0000227349613 7.69101297158378 162.99934353459412 17.0 0.005252322418189227 2.6261612090945903 15.0 
323.00421146541345 7.685047214410827 170.52926238092897 17.0 0.005252322418189227 2.6261612090945903 15.0 
324.00011552548455 8.519831184797228 179.00292097006843 17.0 0.019286255440790635 9.643127720395285 15.0 
325.0019795801888 8.321268222647014 174.98202349281115 17.0 0.019286255440790635 9.643127720395285 15.0 
326.00626977721913 8.626501861478829 179.00292097006843 17.0 0.0 0.0 15.0 
327.0000227349613 9.754810548931589 186.0778663000783 17.0 0.006223241826303418 3.111620913151711 15.0 
328.00040160625645 9.069920115610858 186.0778663000783 18.0 0.006223241826303418 3.111620913151711 15.0 
329.00011552548455 6.388284256572152 156.36000443959352 20.0 0.02965062899311072 10.41039319468382 16.0 
330.0026086721359 4.677738743334239 149.63863086122558 19.0 0.02965062899311072 10.41039319468382 16.0 
331.0021348660897 3.1569005335167666 149.63863086122558 19.0 0.0 0.0 16.0 
332.0000227349613 3.58592259239273 157.02643486976086 18.0 0.0 0.0 16.0 
333.00045067477754 3.324543068183683 164.50458295025038 18.0 0.0 0.0 16.0 
334.00011552548455 3.115315794623709 164.50458295025038 18.0 0.0 0.0 16.0 
335.00398807324075 3.2389675883476703 164.50458295025038 18.0 0.0 0.0 16.0 
336.00197855120683 2.8171626939815155 164.50458295025038 18.0 0.0 0.0 16.0 
337.0000227349613 3.2721349700941347 179.48928452285185 18.0 0.0 0.0 16.0 
338.0006359291925 3.01741702350453 179.48928452285185 18.0 0.0 0.0 16.0 
339.00011552548455 3.618551998410496 179.48928452285185 17.0 0.0 0.0 15.0 
340.0030015786817 3.505879058217642 179.48928452285185 17.0 0.0 0.0 15.0 
341.0004581059544 3.4925610059767536 179.48928452285185 17.0 0.0 0.0 15.0 
342.0000227349613 3.6009181631756486 186.93722302455905 18.0 0.0 0.0 15.0 
343.00626487016154 3.136107004364116 194.53371650064122 18.0 0.0 0.0 15.0 
344.00011552548455 3.0913560435100074 194.53371650064122 18.0 0.0 0.0 15.0 
345.00472592259365 3.013912140505499 194.53371650064122 18.0 0.0 0.0 15.0 
346.0000874638726 3.1871615807298226 194.53371650064122 18.0 0.0 0.0 15.0 
347.0000227349613 2.9383708543015916 188.0137985940852 18.0 0.0 0.0 15.0 
348.0000626604898 2.718310314579496 185.9840999317069 18.0 0.0 0.0 15.0 
349.00011552548455 3.2774685094388 195.4592293729196 18.0 0.0 0.0 14.0 
350.0014659378484 1.6011405263688958 164.32577218244444 18.0 0.0 0.0 14.0 
351.00038355335266 2.327515239391198 193.37033543024558 19.0 0.0 0.0 14.0 
352.0000227349613 2.232085171334482 202.09830880239576 19.0 0.0 0.0 15.0 
353.00225931380805 1.6951815596989217 163.54140864221364 19.0 0.0 0.0 15.0 
354.00011552548455 1.0708195466839134 95.05478848574222 19.0 0.0 0.0 15.0 
355.0001218831572 1.1064924703412566 100.4229959481882 18.0 0.0 0.0 15.0 
356.00087047497095 0.9548731035617646 78.45640238864871 18.0 0.0 0.0 15.0 
357.0000227349613 0.9785755371296466 78.45640238864871 18.0 0.0 0.0 15.0 
358.00537403193243 0.9785755371296466 78.45640238864871 17.0 0.0 0.0 15.0 
359.00011552548455 0.9137531769761611 78.45640238864871 18.0 0.0 0.0 15.0 
360.0034013395743 0.7714463025124356 64.41409491441249 18.0 0.0 0.0 15.0 
361.00041941677375 1.0317544744859968 79.11242187598845 17.0 0.0 0.0 17.0 
362.0000227349613 0.8115896967779163 67.91289626666526 19.0 0.0 0.0 17.0 
363.0029927972297 1.0219849707633222 79.11242187598845 19.0 0.0 0.0 16.0 
364.00011552548455 0.9756335835419009 79.11242187598845 20.0 0.0 0.0 16.0 
365.0001281830453 0.7813171524693925 67.91289626666526 20.0 0.0 0.0 16.0 
366.0022671096602 0.8695079326919641 78.92038534342214 20.0 0.0 0.0 16.0 
367.0000227349613 0.8740118453865972 78.92038534342214 20.0 0.0 0.0 16.0 
368.0040321326671 0.896996843572149 82.5881837480888 19.0 0.0 0.0 16.0 
369.00011552548455 0.668872285671403 34.94629617450914 20.0 0.0 0.0 16.0 
370.0005462953597 0.6903769447877544 41.2922859046902 19.0 0.0 0.0 16.0 
371.0026128973476 1.0732106636420542 42.419104042468774 19.0 0.0 0.0 16.0 
372.0000227349613 1.0501131915735098 42.419104042468774 18.0 0.0 0.0 16.0 
373.001287854889 0.9911139367415047 42.419104042468774 18.0 0.0 0.0 16.0 
374.00011552548455 0.941325759151672 45.85804494653732 18.0 0.0 0.0 16.0 
375.0015055670475 1.1346569041125507 45.85804494653732 18.0 0.0 0.0 16.0 
376.0061401306611 1.5237019705648647 52.40689553970151 18.0 0.0 0.0 16.0 
377.0000227349613 1.5344158381865525 52.40689553970151 18.0 0.0 0.0 16.0 
378.00070144194876 1.4432136736269199 52.32109661265548 18.0 0.0 0.0 16.0 
379.00011552548455 1.366805194147407 55.677815187919094 19.0 0.0 0.0 17.0 
380.0005517462164 1.4339398774727656 55.677815187919094 20.0 0.0 0.0 17.0 
381.0018866503839 1.9357906812254688 62.28253275279525 21.0 0.0 0.0 17.0 
382.0000227349613 1.8752940046662685 62.28253275279525 21.0 0.0 0.0 16.0 
383.00296145587896 1.9460756758752298 62.28253275279525 21.0 0.0 0.0 16.0 
384.00011552548455 1.9538048490573463 62.28253275279525 21.0 0.0 0.0 16.0 
385.0029514366619 1.9594362727646943 65.59912615890607 20.0 0.0 0.0 16.0 
386.0017420555489 2.7939033361412764 74.0983441536846 20.0 0.0 0.0 16.0 
387.0000227349613 2.7838457072957525 74.0983441536846 19.0 0.0 0.0 16.0 
388.0012433739756 2.614928431650151 74.0983441536846 19.0 0.0 0.0 16.0 
389.00011552548455 2.460180637342763 74.0983441536846 19.0 0.0 0.0 16.0 
390.00472592259365 2.645844964718165 75.66613963179185 19.0 0.0 0.0 16.0 
391.00106155558984 3.0186654520041154 82.18891596818463 19.0 0.0 0.0 16.0 
392.0000227349613 3.2525014275542703 82.18891596818463 17.0 0.0 0.0 16.0 
393.00050804969595 3.230288814427942 82.18891596818463 18.0 0.0 0.0 16.0 
394.00011552548455 3.1178488652364513 85.75467139046117 17.0 0.0 0.0 16.0 
395.0000551327294 3.2038749634209887 85.75467139046117 17.0 0.0 0.0 17.0 
396.0002401241213 4.127727263225881 106.8375398423608 17.0 0.0 0.0 20.0 
397.0000227349613 4.036101483495567 106.8375398423608 19.0 0.0 0.0 17.0 
398.0000065187066 2.8113918740482693 89.21465729671161 20.0 0.0 0.0 16.0 
399.00011552548455 1.980003056124305 79.82096639885555 20.0 0.0 0.0 16.0 
400.0003905259592 1.9808433337293274 89.21465729671161 20.0 0.0 0.0 16.0 
401.0003462494771 2.4210367685267626 96.55172081503031 20.0 0.0 0.0 16.0 
402.0000227349613 2.3994249826496077 96.55172081503031 20.0 0.0 0.0 16.0 
403.00523297741813 2.2197646326556058 88.96149304699884 20.0 0.0 0.0 16.0 
404.00011552548455 2.4090198407271104 98.91708605270048 20.0 0.0 0.0 16.0 
405.00472592259365 2.0166840909792407 93.72548209022983 19.0 0.0 0.0 16.0 
406.00027310407256 2.4682247029764848 101.2169248426311 18.0 0.0 0.0 16.0 
407.0000227349613 2.49758842388879 101.2169248426311 18.0 0.0 0.0 15.0 
408.001814923554 2.677989995217308 101.2169248426311 17.0 0.0 0.0 15.0 
409.00011552548455 2.36635987015515 101.2169248426311 17.0 0.0 0.0 15.0 
410.00048560280015 2.633779994342432 108.68505675752817 17.0 0.0 0.0 17.0 
411.0012494980968 2.931373555186307 116.18185480008617 17.0 0.0 0.0 18.0 
412.0000227349613 3.0729616738116685 116.18185480008617 17.0 0.0 0.0 17.0 
413.0031566336375 3.274267284456598 116.18185480008617 17.0 0.0 0.0 18.0 
414.00003439847967 2.7648989361510603 116.18185480008617 17.0 0.0 0.0 18.0 
415.0037003403619 2.6549698745503156 123.64963952147127 18.0 0.0 0.0 17.0 
416.00141835386 2.731325126426534 126.23825584950754 18.0 0.0 0.0 17.0 
417.0000227349613 2.4310168785625406 126.23825584950754 18.0 0.0 0.0 17.0 
418.00016274169883 2.444688575614204 126.23825584950754 18.0 0.0 0.0 17.0 
419.00011552548455 2.5777592274026415 126.23825584950754 18.0 0.0 0.0 17.0 
420.0000827961173 2.489870501665575 133.6532667373745 17.0 0.0 0.0 17.0 
421.00085737753665 2.6327631001949756 136.05391267650236 17.0 0.0 0.0 17.0 
422.0000227349613 2.641601423198314 136.05391267650236 17.0 0.0 0.0 17.0 
423.00038854338 2.4953858679772822 136.05391267650236 17.0 0.0 0.0 17.0 
424.0000580528879 2.3851064077545834 136.05391267650236 16.0 0.0 0.0 16.0 
425.00062890232175 2.524318661218976 143.2967339426511 17.0 0.0 0.0 16.0 
426.0005654305861 2.3868060245709093 140.9376793345665 17.0 0.0 0.0 16.0 
427.0000227349613 2.5205186943298945 140.9376793345665 16.0 0.0 0.0 18.0 
428.0005453971887 1.7388305004942757 104.46874916495517 16.0 0.0 0.0 19.0 
429.00011552548455 1.7510663312974832 104.46874916495517 18.0 0.0 0.0 18.0 
430.0017472091015 1.634197805199092 104.46874916495517 18.0 0.0 0.0 17.0 
431.0002032608821 1.4436553497713283 102.57266944481466 19.0 0.0 0.0 17.0 
432.0000227349613 0.4099696341761007 51.95130188235649 18.0 0.0 0.0 17.0 
433.000953727202 0.37517875484096097 30.544276188162172 17.0 0.0 0.0 17.0 
434.00011552548455 0.5911819715290411 54.1339518991218 17.0 0.0 0.0 17.0 
435.0012819061857 0.49675324850847286 44.470445302178746 17.0 0.0 0.0 16.0 
436.0010909535473 0.4931429986366824 46.84482221350851 18.0 0.0 0.0 15.0 
437.0000227349613 0.3626842048690778 37.17944482760245 18.0 0.0 0.0 15.0 
438.00036092534793 0.3758167596787196 37.17944482760245 17.0 0.0 0.0 15.0 
439.00011552548455 0.484339815860801 39.727404614442634 17.0 0.0 0.0 15.0 
440.0014554543683 0.45855173237047575 39.727404614442634 17.0 0.0 0.0 17.0 
441.0014961376896 0.3905053786521469 32.67085573024548 17.0 0.0 0.0 17.0 
442.0000227349613 0.3323151765697197 32.67085573024548 17.0 0.0 0.0 17.0 
443.0009749735919 0.24488541312342044 32.67085573024548 17.0 0.0 0.0 17.0 
444.00011552548455 0.2700122424583087 31.892850415430445 17.0 0.0 0.0 16.0 
445.00472592259365 0.17579967257820642 27.36370853742315 16.0 0.0 0.0 16.0 
446.0024651790281 0.12129359590455722 20.35368106329298 15.0 0.0 0.0 16.0 
447.0000227349613 0.12111737345609891 20.35368106329298 16.0 0.0 0.0 16.0 
448.00136327246946 0.11916484172709003 20.35368106329298 15.0 0.0 0.0 16.0 
449.0000889466873 0.1419804644232792 20.35368106329298 15.0 0.0 0.0 16.0 
450.00014257603345 0.16366854312399787 27.305828930926793 16.0 0.0 0.0 16.0 
451.00211477654983 0.12006161915750817 20.3167316341775 16.0 0.0 0.0 16.0 
452.0000227349613 0.12621484248611198 20.3167316341775 16.0 0.0 0.0 14.0 
453.000572943374 0.12124734306561495 20.3167316341775 16.0 0.0 0.0 14.0 
454.00011552548455 0.10444720524606203 20.3167316341775 16.0 0.0 0.0 14.0 
455.0045254966529 0.12234226442311963 27.267349819044114 16.0 0.0 0.0 14.0 
456.00064227341704 0.09696640331370066 20.369215056610415 16.0 0.0 0.0 14.0 
457.0000227349613 0.09560227177699582 20.369215056610415 16.0 0.0 0.0 14.0 
458.00059693331883 0.0761016502302199 20.369215056610415 16.0 0.0 0.0 14.0 
459.00011552548455 0.08986486378675654 20.369215056610415 16.0 0.0 0.0 14.0 
460.00288536733984 0.2298474626401678 34.92381859052827 16.0 0.0 0.0 14.0 
461.0009288463988 0.08287158107433824 20.96079092894496 16.0 0.0 0.0 14.0 
462.0000227349613 0.1422761211712347 26.29353088410403 16.0 0.0 0.0 14.0 
463.0008725611512 0.19789644603625062 27.810162432507894 16.0 0.0 0.0 14.0 
464.00011552548455 0.31021577032815567 29.08917497269934 15.0 6.751259648215746E-4 0.3375629824107875 14.0 
465.00237455972757 0.31770674869302223 32.210813476340746 17.0 0.0 0.0 15.0 
466.00113438724276 0.22463250711001376 25.31225809911632 16.0 0.0 0.0 15.0 
467.0000227349613 0.17465475555660534 25.31225809911632 16.0 0.0 0.0 15.0 
468.00275063331515 0.15460029954181065 20.151641079070117 16.0 0.0 0.0 15.0 
469.00011552548455 0.08162936823662355 15.982704441433071 16.0 0.005188525388316596 2.5942626941582887 14.0 
470.0042161662571 0.06774911327009865 15.982704441433071 16.0 0.005188525388316596 2.5942626941582887 14.0 
471.00037873457484 0.029103943399205745 9.131894529057035 16.0 0.01737339781576854 6.092436213726046 14.0 
472.0000227349613 0.030361600074434086 9.131894529057035 17.0 0.01737339781576854 6.092436213726046 16.0 
473.0004186439092 0.011887729220185467 3.3341038187105596 17.0 0.0 0.0 16.0 
474.00011552548455 0.07016694532377196 14.68662659227462 17.0 0.004660871601702401 2.330435800851177 17.0 
475.00057931654015 0.011887729220185467 3.3341038187105596 17.0 0.027134625670458472 7.138116670001892 17.0 
476.0003569189292 0.0 0.0 17.0 0.038928598612989404 7.138116670001892 17.0 
477.0000227349613 0.004349572275302521 1.3280170900385713 17.0 0.038928598612989404 7.138116670001892 17.0 
478.00109875858163 0.01435272644815133 3.549379648375435 17.0 0.026070206282534602 7.138116670001892 17.0 
479.00011552548455 0.004597932971323381 1.4521974380489837 16.0 0.07090084851584673 14.514988721477721 17.0 
480.00061651530007 0.004349572275302521 1.3280170900385713 16.0 0.041174929512328776 13.2734274374385 17.0 
481.0030563560652 0.0 0.0 16.0 0.02618610744966467 5.779016406106479 17.0 
482.0000227349613 0.0 0.0 16.0 0.02618610744966467 5.779016406106479 17.0 
483.0031550413397 0.0 0.0 16.0 0.0689335264174533 15.530778543816098 17.0 
484.00011552548455 0.0 0.0 16.0 0.1315537889414026 22.917042197006822 17.0 
485.00267640833863 0.0 0.0 16.0 0.10898250228136 22.917042197006822 17.0 
486.00499762934464 0.0 0.0 16.0 0.10898250228136 22.917042197006822 17.0 
487.0000227349613 0.020471556600827973 10.235778300413983 16.0 0.07891677393296449 16.73169452879327 17.0 
488.0039593654729 0.020745160530482348 8.2060687411024 16.0 0.2192087050128023 26.79946964688196 17.0 
489.00011552548455 0.012429661435971158 4.048319193846794 16.0 0.3649415892060654 34.219976984418 16.0 
490.0039247005722 0.0194330376485862 9.71651882429316 16.0 0.3655733054981021 34.219976984418 16.0 
491.00281262637236 0.023196941731096616 11.598470865548279 16.0 0.3505018600289977 34.219976984418 17.0 
492.0000227349613 0.023196941731096616 11.598470865548279 16.0 0.33537783484334077 34.219976984418 18.0 
493.00034993767696 0.04610251105983449 13.334736705624124 16.0 0.2935847267633714 39.09574733030021 18.0 
494.00011552548455 0.026669473411248396 13.334736705624124 16.0 0.26055151133575044 34.00297970823323 18.0 
495.0009856097863 0.045079808387463165 22.53990419373156 16.0 0.2755795804517563 34.00297970823323 17.0 
496.00026038620126 0.08780594763521928 22.96926663710363 16.0 0.2606483110941136 34.00297970823323 17.0 
497.0000227349613 0.0 0.0 16.0 0.20766898658907829 31.74677283487688 17.0 
498.00375059083694 0.045079808387463165 22.53990419373156 16.0 0.18839775307391546 31.38390665562136 17.0 
499.00011552548455 0.0 0.0 16.0 0.2619026956943679 33.818902131296454 17.0 
500.0045261563905 0.0 0.0 16.0 0.2619026956943679 33.818902131296454 16.0 
501.0050220184187 0.0 0.0 16.0 0.24688103270247322 33.818902131296454 16.0 
502.0000227349613 0.0 0.0 16.0 0.3146576125713717 33.818902131296454 16.0 
503.0017599610982 0.0 0.0 16.0 0.3145220624472219 32.43406519003702 16.0 
504.00011552548455 0.0 0.0 15.0 0.42547162974641534 39.414329124650095 16.0 
505.00331239448184 0.0 0.0 16.0 0.35563005579929713 39.414329124650095 16.0 
506.0032566683008 0.0 0.0 15.0 0.3111192645610794 33.61142608836104 16.0 
507.0000227349613 0.003668049431243936 1.8340247156219789 15.0 0.23916866571106365 32.02133920764436 16.0 
508.00158238060357 0.003668049431243936 1.8340247156219789 15.0 0.30648908992327845 32.7815218731003 17.0 
509.00011552548455 0.003668049431243936 1.8340247156219789 16.0 0.46131763105278945 40.18177974054919 17.0 
510.00472592259365 0.003668049431243936 1.8340247156219789 17.0 0.41983175414306095 39.05640978023959 17.0 
511.000379838238 0.003668049431243936 1.8340247156219789 16.0 0.44193572750610194 39.05640978023959 18.0 
512.0000227349612 0.004162741820322105 2.0813709101610414 16.0 0.38351417101279195 33.55289769256814 18.0 
513.004020697364 0.015265633568785466 5.551445874231661 16.0 0.3535901155561379 31.6558357550455 18.0 
514.0001155254845 0.015265633568785466 5.551445874231661 16.0 0.41536358934107487 36.385989772408294 18.0 
515.0013497721907 0.004162741820322105 2.0813709101610414 16.0 0.430695443141365 36.385989772408294 18.0 
516.0033952367958 0.015265633568785466 5.551445874231661 16.0 0.39079941150891084 36.385989772408294 18.0 
517.0000227349612 0.047438727984212635 17.60158506725162 16.0 0.3978369868444351 31.770327891553137 18.0 
518.0038978906338 0.026756861072741316 9.620454375602009 16.0 0.3677253695242991 28.959084725567664 18.0 
519.0001155254845 0.028068149641912715 9.620454375602009 16.0 0.5174401302243715 35.81399312136358 18.0 
520.0038975292263 0.028068149641912715 9.620454375602009 15.0 0.6978290338164548 45.9462821845307 18.0 
521.0003893704641 0.028410793507104876 9.620454375602009 15.0 0.715620631269231 45.9462821845307 18.0 
522.0000227349612 0.10157685209481737 17.068108941366887 15.0 0.6898689954902254 45.9462821845307 18.0 
523.0003146561097 0.1163253869796954 24.442376383805907 15.0 0.19861926932877727 36.63329677242339 18.0 
524.0001155254845 0.13096823944134195 24.442376383805907 15.0 0.0 0.0 20.0 
525.000064376588 0.13096823944134195 24.442376383805907 15.0 0.0 0.0 20.0 
526.0010923738536 0.16166598485367134 24.442376383805907 14.0 0.0 0.0 19.0 
527.0000227349612 0.2361235116784818 31.901021971897563 14.0 0.0 0.0 19.0 
528.0004372720541 0.25082839801696555 39.25346514113929 14.0 0.0 0.0 19.0 
529.0001155254845 0.25082839801696555 39.25346514113929 14.0 0.0 0.0 19.0 
530.0033271713593 0.26371807393474 39.25346514113929 14.0 0.0 0.0 19.0 
531.0020811158296 0.29283277892352744 39.25346514113929 14.0 0.0 0.0 18.0 
532.0000227349612 0.36831945302981395 46.76555607622694 15.0 0.0 0.0 18.0 
533.0008326951112 0.3974920195184477 54.057102213608545 16.0 0.0 0.0 18.0 
534.0001155254845 0.3944725633936166 54.057102213608545 17.0 0.0 0.0 17.0 
535.0000619281254 0.3944725633936166 54.057102213608545 17.0 0.0 0.0 17.0 
536.0093439608155 0.4245500113799977 60.59764217414414 18.0 0.0 0.0 17.0 
537.0000227349612 0.4638099347438125 61.49497514645202 18.0 0.0 0.0 17.0 
538.0000679907408 0.49281217294947766 68.75607207738062 18.0 0.0 0.0 17.0 
539.0001155254845 0.44676844407426 68.75607207738062 20.0 0.0 0.0 17.0 
540.0015434998903 0.44964696031534235 68.75607207738062 20.0 0.0 0.0 17.0 
541.0020463454814 0.4644401232818528 68.75607207738062 19.0 0.0 0.0 17.0 
542.0000227349612 0.529780597850394 76.16648205617321 19.0 0.0 0.0 17.0 
543.0014410815753 0.10325213226820554 51.62606613410273 21.0 0.0 0.0 17.0 
544.0001155254845 0.0 0.0 20.0 0.0 0.0 17.0 
545.0005366886642 0.0 0.0 21.0 0.0 0.0 17.0 
546.0009366155938 0.0 0.0 20.0 0.0 0.0 17.0 
547.0000227349612 0.0 0.0 20.0 0.0 0.0 17.0 
548.0005405964916 0.0 0.0 20.0 0.0 0.0 17.0 
549.0001155254845 0.0 0.0 20.0 0.0 0.0 18.0 
550.0047259225937 0.0 0.0 20.0 0.0 0.0 18.0 
551.0016588974194 0.0 0.0 19.0 0.0 0.0 18.0 
552.0000227349612 0.0 0.0 19.0 0.0 0.0 18.0 
553.002037348415 0.0 0.0 18.0 0.0 0.0 19.0 
554.0001155254845 0.0 0.0 18.0 0.0 0.0 20.0 
555.002065893522 0.0 0.0 18.0 0.0 0.0 21.0 
556.0025558269299 0.0 0.0 17.0 0.0 0.0 21.0 
557.0000227349612 0.0 0.0 17.0 0.0 0.0 21.0 
558.0041519416121 0.0 0.0 17.0 0.0 0.0 21.0 
559.0001155254845 0.0 0.0 17.0 0.0 0.0 21.0 
560.0009342030887 0.0 0.0 17.0 0.0 0.0 18.0 
561.0041933017819 0.0 0.0 17.0 0.0 0.0 18.0 
562.0000227349612 0.0 0.0 18.0 0.0 0.0 17.0 
563.0018069432675 0.0 0.0 18.0 0.0 0.0 17.0 
564.0001155254845 0.0 0.0 18.0 0.0 0.0 17.0 
565.000125973631 0.0 0.0 18.0 0.0 0.0 17.0 
566.0014077390152 0.0 0.0 17.0 0.0 0.0 17.0 
567.0000227349612 0.0 0.0 18.0 0.0 0.0 19.0 
568.0007054303901 0.0 0.0 18.0 0.0 0.0 18.0 
569.0001155254845 0.0 0.0 17.0 0.0 0.0 18.0 
570.000952600669 0.0 0.0 17.0 0.0 0.0 18.0 
571.0003889877354 0.0 0.0 17.0 0.0 0.0 17.0 
572.0000227349612 0.0 0.0 18.0 0.0 0.0 18.0 
573.0006459904175 0.0 0.0 18.0 0.0 0.0 18.0 
574.0001155254845 0.0 0.0 19.0 0.0 0.0 18.0 
575.0002822200263 0.0 0.0 20.0 0.0 0.0 18.0 
576.0001727581871 0.0 0.0 20.0 0.0 0.0 17.0 
577.0000227349612 0.0 0.0 20.0 0.0 0.0 17.0 
578.0008843352554 0.0 0.0 20.0 0.0 0.0 18.0 
579.0001155254845 0.0 0.0 19.0 0.0 0.0 17.0 
580.002528849451 0.0 0.0 19.0 0.0 0.0 17.0 
581.002115986496 0.0 0.0 19.0 0.0 0.0 18.0 
582.0000227349612 0.0 0.0 19.0 0.0 0.0 17.0 
583.001551891152 0.0 0.0 19.0 0.0 0.0 17.0 
584.0001155254845 0.008100375259755753 4.050187629877854 19.0 0.0 0.0 17.0 
585.002968473011 0.008100375259755753 4.050187629877854 19.0 0.0 0.0 17.0 
586.0011020836829 0.018401089912029624 5.0476161269085935 19.0 0.0 0.0 17.0 
587.0000227349612 0.01638809847233125 5.0476161269085935 19.0 0.0 0.0 17.0 
588.0008101185049 0.01638809847233125 5.0476161269085935 19.0 0.0 0.0 17.0 
589.0001155254845 0.09387412521659623 22.255504643681206 19.0 0.0 0.0 17.0 
590.0005434147612 0.15502610911100742 22.255504643681206 19.0 0.0 0.0 17.0 
591.0031654467235 0.24266513722793803 30.301297753672316 18.0 0.0 0.0 17.0 
592.0000227349612 0.23282984665800396 30.301297753672316 18.0 0.0 0.0 17.0 
593.0003212441147 0.19285598046584834 30.301297753672316 20.0 0.0 0.0 17.0 
594.0001155254845 0.17324338747894924 30.301297753672316 20.0 0.0 0.0 17.0 
595.0032207613621 0.18589121497833103 30.301297753672316 20.0 0.0 0.0 17.0 
596.0000643436776 0.21303520900531595 32.86753997421425 21.0 0.0 0.0 18.0 
597.0000227349612 0.2748437200414229 32.86753997421425 21.0 0.0 0.0 17.0 
598.000238166528 0.21868324819400076 32.86753997421425 21.0 0.0 0.0 17.0 
599.0001155254845 0.24716930770431908 32.86753997421425 21.0 0.0 0.0 17.0 
600.0006624408891 0.2550047298285953 32.86753997421425 21.0 0.0 0.0 18.0 
#####################################################################
# End of data export. Simulation finished at: 2019-02-25T20:49+0000 #
#####################################################################
