#####################################################################
# Alchemist log file - simulation started at: 2019-02-25T20:11+0000 #
#####################################################################
# seed = 70.0
#
# The columns have the following meaning: 
# time distance-rep[Mean] distance-rep[Max] leader-rep[CountDistinct] distance-share[Mean] distance-share[Max] leader-share[CountDistinct] 
0.0 NaN NaN NaN NaN NaN NaN 
1.002688820628379 0.0 0.0 499.0 0.0 0.0 57.0 
2.0041853569301336 0.0 0.0 119.0 0.0 0.0 52.0 
3.0091287629600476 0.0 0.0 101.0 0.0 0.0 48.0 
4.001347576710559 0.0 0.0 97.0 0.0 0.0 44.0 
5.00356890667161 0.0 0.0 88.0 0.0 0.0 41.0 
6.002150938037071 0.0 0.0 87.0 0.0 0.0 39.0 
7.000394667328845 0.0 0.0 81.0 0.0 0.0 34.0 
8.002723910628402 0.0 0.0 78.0 0.0 0.0 31.0 
9.00134757671056 0.0 0.0 76.0 0.0 0.0 31.0 
10.001206723226746 0.0 0.0 72.0 0.036034149930636 8.955462742645977 28.0 
11.000858310516001 0.0 0.0 72.0 0.05938206565370899 26.41649404751456 29.0 
12.00120325767031 0.0 0.0 68.0 0.0 0.0 28.0 
13.000310815180786 0.0 0.0 65.0 0.0 0.0 29.0 
14.001287754231058 0.0 0.0 65.0 0.0 0.0 27.0 
15.000230776784369 0.0 0.0 64.0 0.02027691130165932 10.138455650829599 28.0 
16.000436046270035 0.0 0.0 61.0 0.02027691130165932 10.138455650829599 25.0 
17.00014857632371 0.0 0.0 59.0 0.03846784835474513 15.597780809860126 26.0 
18.002439792605838 0.0 0.0 58.0 0.05105314766689298 15.597780809860126 29.0 
19.001347576710558 0.0 0.0 55.0 0.04378086093186822 15.597780809860126 23.0 
20.001670654105 0.0 0.0 53.0 0.01472128596230843 6.292649656073934 24.0 
21.00341721409854 0.0 0.0 48.0 0.005541224074786793 1.7026187123130967 24.0 
22.00159262509782 0.0 0.0 50.0 0.10715665737756115 14.59739137103034 23.0 
23.000515171659305 0.0 0.0 47.0 0.09388747156601411 14.59739137103034 22.0 
24.000156387732034 0.0 0.0 49.0 0.11559241212137225 15.97397542555612 25.0 
25.000269975998364 0.0 0.0 47.0 0.05878697046833039 11.560057134913933 24.0 
26.001995844093337 0.0 0.0 47.0 0.0 0.0 23.0 
27.001165833804176 0.0 0.0 46.0 0.0 0.0 22.0 
28.00138360875485 0.0 0.0 46.0 0.0 0.0 22.0 
29.000663479601425 0.0 0.0 44.0 0.0 0.0 21.0 
30.0003615481214 0.0 0.0 43.0 0.0 0.0 20.0 
31.00644417750408 0.0 0.0 44.0 0.0 0.0 18.0 
32.000450824108725 0.0 0.0 43.0 0.0 0.0 18.0 
33.000867985259156 0.0 0.0 41.0 0.0 0.0 18.0 
34.00022209961871 0.0 0.0 39.0 0.0 0.0 17.0 
35.000546311452595 0.0 0.0 38.0 0.0 0.0 17.0 
36.004293508247265 0.0 0.0 37.0 0.0 0.0 17.0 
37.00230647473188 0.0 0.0 40.0 0.0 0.0 17.0 
38.00092109578873 0.0 0.0 39.0 0.0 0.0 17.0 
39.00134757671056 0.0 0.0 42.0 0.0 0.0 17.0 
40.00298316583982 0.0 0.0 42.0 0.0 0.0 17.0 
41.00055871979262 0.0 0.0 41.0 0.0 0.0 17.0 
42.00108626223174 0.0 0.0 41.0 0.0 0.0 17.0 
43.001349445116404 0.0 0.0 39.0 0.0 0.0 18.0 
44.00134757671056 0.0 0.0 37.0 0.0 0.0 18.0 
45.0043950406391 0.0 0.0 37.0 0.0 0.0 17.0 
46.00107050310941 0.0 0.0 37.0 0.0 0.0 16.0 
47.00289720189683 0.0 0.0 38.0 0.0 0.0 16.0 
48.00100183373607 0.0 0.0 36.0 0.0 0.0 16.0 
49.00068799785766 0.0 0.0 37.0 0.0 0.0 16.0 
50.003477681184734 0.0 0.0 36.0 0.0 0.0 16.0 
51.00328706195325 0.0 0.0 36.0 0.0 0.0 16.0 
52.00180016115075 0.0 0.0 36.0 0.0 0.0 16.0 
53.00178744094418 0.0 0.0 35.0 0.0 0.0 16.0 
54.00134757671056 0.0023435909050892843 1.171795452544643 36.0 0.0 0.0 16.0 
55.00293875483944 0.0023435909050892843 1.171795452544643 38.0 0.0 0.0 16.0 
56.003392719771576 0.0023435909050892843 1.171795452544643 39.0 0.0 0.0 16.0 
57.00118699762073 0.0023435909050892843 1.171795452544643 39.0 0.0 0.0 16.0 
58.00142798587443 0.0 0.0 36.0 0.0 0.0 16.0 
59.00134757671056 0.0 0.0 35.0 0.0 0.0 16.0 
60.00101780183185 0.0 0.0 35.0 0.0 0.0 16.0 
61.00224086129176 0.0 0.0 34.0 0.0 0.0 16.0 
62.00079768919669 0.0 0.0 31.0 0.0 0.0 16.0 
63.00066547476567 0.0 0.0 32.0 0.0 0.0 16.0 
64.00134757671056 0.0 0.0 32.0 0.0 0.0 16.0 
65.00252022381348 0.0 0.0 31.0 0.0 0.0 16.0 
66.00451086682767 0.0 0.0 31.0 0.0 0.0 16.0 
67.0012819662439 0.040900781011406054 17.955965964584294 28.0 0.0 0.0 16.0 
68.0013225326196 0.050632484124112115 17.955965964584294 31.0 0.0 0.0 16.0 
69.00011667918288 0.05004391045564017 17.955965964584294 31.0 0.0 0.0 16.0 
70.0088523945778 0.07528559834518832 23.216533811886677 34.0 0.0 0.0 16.0 
71.00528772714104 0.02460606160712263 7.360276097471711 32.0 0.0 0.0 16.0 
72.00135501512999 0.06682105227085831 28.467771429339848 35.0 0.0 0.0 16.0 
73.00007768486168 0.00988550941217909 4.942754706089573 34.0 0.0 0.0 16.0 
74.00134757671056 0.0 0.0 30.0 0.0 0.0 16.0 
75.00015174717747 0.0 0.0 31.0 0.0 0.0 16.0 
76.00063971008123 0.0 0.0 30.0 0.0 0.0 16.0 
77.0023592683763 0.0 0.0 30.0 0.0 0.0 16.0 
78.00302854909631 0.0 0.0 30.0 0.0 0.0 16.0 
79.00134757671056 0.0 0.0 30.0 0.0 0.0 18.0 
80.00093774854851 0.012643062558675642 6.321531279337819 28.0 0.0 0.0 17.0 
81.00420102539124 0.0 0.0 29.0 0.0 0.0 17.0 
82.00352219210811 0.0 0.0 26.0 0.0 0.0 17.0 
83.00160147319701 0.0 0.0 26.0 0.0 0.0 17.0 
84.00134757671056 0.0 0.0 25.0 0.0 0.0 17.0 
85.00240671886027 0.0 0.0 25.0 0.0 0.0 17.0 
86.00010256401585 0.0 0.0 25.0 0.0 0.0 16.0 
87.00108064802357 0.02888056991762715 14.440284958813521 25.0 0.0 0.0 15.0 
88.0031688857993 0.02888056991762715 14.440284958813521 25.0 0.0 0.0 15.0 
89.00004984428399 0.03694810087972879 14.440284958813521 25.0 0.0 0.0 15.0 
90.00211848721959 0.03827887954975837 14.640399374459179 25.0 0.0 0.0 15.0 
91.00090581409334 0.03827887954975837 14.640399374459179 25.0 0.0 0.0 15.0 
92.00135503259598 0.02355820319797938 7.280061198569683 25.0 0.0 0.0 15.0 
93.00052736596375 0.02355820319797938 7.280061198569683 23.0 0.0 0.0 15.0 
94.0000078690486 0.038394882046103126 11.690036022143317 24.0 0.0 0.0 15.0 
95.00438283422724 0.056586980398614095 12.233892484397956 21.0 0.0 0.0 15.0 
96.00149935172273 0.054606099889117285 12.233892484397956 21.0 0.0 0.0 15.0 
97.00035752795978 0.06614451536099525 12.233892484397956 21.0 0.0 0.0 15.0 
98.00091328350629 0.06614451536099525 12.233892484397956 20.0 0.0 0.0 15.0 
99.0004388794938 0.07525228385979629 14.767291038686636 20.0 0.0 0.0 15.0 
100.00164554272135 0.05556568758786827 14.767291038686636 19.0 0.0 0.0 15.0 
101.00005326249368 0.05556568758786827 14.767291038686636 19.0 0.0 0.0 14.0 
102.00014971507292 0.08498221327959436 14.767291038686636 19.0 0.0 0.0 14.0 
103.00895812507896 0.08498221327959436 14.767291038686636 19.0 0.0 0.0 14.0 
104.00120816880178 0.10519456342039914 23.514998834012147 19.0 0.0 0.0 14.0 
105.00099310293605 0.23795852202881562 56.13564163535028 19.0 0.0 0.0 14.0 
106.00355753748798 0.17077191462403682 23.514998834012147 19.0 0.0 0.0 14.0 
107.00009043965647 0.28304319789473725 56.13564163535028 18.0 0.0 0.0 14.0 
108.00255418429644 0.28304319789473725 56.13564163535028 17.0 0.0 0.0 14.0 
109.00134757671056 0.4337357400260282 63.39784304172338 18.0 0.0 0.0 14.0 
110.00181092133768 0.49507647120981035 63.39784304172338 18.0 0.0 0.0 15.0 
111.00107150288021 0.5499002991128958 63.39784304172338 18.0 0.0 0.0 15.0 
112.00418535693014 0.42310461302944946 52.860894437583 19.0 0.0 0.0 16.0 
113.00486263880353 0.5556273917330495 63.39784304172338 20.0 0.0 0.0 15.0 
114.00058165473162 0.5322821312141799 57.73234239178288 20.0 0.0 0.0 14.0 
115.00246444734339 0.4954463129589945 57.73234239178288 20.0 0.0 0.0 18.0 
116.00220976295665 0.28717807930596645 57.73234239178288 20.0 0.0 0.0 18.0 
117.00119046081036 0.0 0.0 21.0 0.0 0.0 19.0 
118.00418182923643 0.0 0.0 21.0 0.0 0.0 20.0 
119.00058823723256 0.009728354427005165 4.864177213502558 19.0 0.0 0.0 18.0 
120.00086263135225 0.0 0.0 20.0 0.0 0.0 18.0 
121.00176203323248 0.0 0.0 20.0 0.0 0.0 18.0 
122.00024467725306 0.0 0.0 20.0 0.0 0.0 18.0 
123.0007465354788 0.007063749991399203 3.53187499569961 19.0 0.0 0.0 17.0 
124.00134757671056 0.007063749991399203 3.53187499569961 19.0 0.0 0.0 17.0 
125.00128275263928 0.007063749991399203 3.53187499569961 19.0 0.0 0.0 15.0 
126.00426662195926 0.007592653257130768 3.53187499569961 19.0 0.0 0.0 15.0 
127.00134406325293 0.01893490555755118 9.203001145909838 19.0 0.0 0.0 15.0 
128.00363217846999 5.289032657315704E-4 0.26445163286578577 20.0 0.0 0.0 15.0 
129.00134757671054 0.0 0.0 19.0 0.0 0.0 14.0 
130.00105972538617 0.0 0.0 19.0 0.0 0.0 14.0 
131.00325239603634 0.0 0.0 19.0 0.0 0.0 14.0 
132.00015093864346 0.0 0.0 19.0 0.0 0.0 14.0 
133.00063213635622 0.004768371599874588 2.384185799937285 20.0 0.0 0.0 14.0 
134.00134757671054 0.0 0.0 20.0 0.0 0.0 14.0 
135.0026682522391 0.004768371599874588 2.384185799937285 20.0 0.0 0.0 14.0 
136.0031216766684 0.01729007915426431 5.859317733533601 20.0 0.0 0.0 14.0 
137.00066133883715 0.01729007915426436 5.859317733533601 20.0 0.0 0.0 14.0 
138.0030198148957 0.005571443687197096 2.7857218435985374 20.0 0.0 0.0 14.0 
139.00072279626065 0.0 0.0 20.0 0.0 0.0 14.0 
140.0003292664433 0.0 0.0 20.0 0.0 0.0 14.0 
141.00256206056966 0.033228221031279516 6.754190755734527 20.0 0.0 0.0 14.0 
142.00083116594627 0.009813806716727552 3.70857086628979 20.0 0.0 0.0 15.0 
143.00326479835576 0.01117078659126019 3.70857086628979 20.0 0.0 0.0 15.0 
144.00134757671054 0.003753644858680622 1.1983324920739733 20.0 0.0 0.0 15.0 
145.0016235993194 0.0174247296060028 6.835542373661099 20.0 0.0 0.0 16.0 
146.0014697286242 0.0966851662845721 12.45614623482848 20.0 0.0 0.0 16.0 
147.0023611634587 0.06220037814939531 7.845531187209559 20.0 0.0 0.0 16.0 
148.0006722394267 0.0994361468938098 12.45614623482848 19.0 0.0 0.0 16.0 
149.00134757671054 0.03992590746981836 6.835542373661099 19.0 0.0 0.0 16.0 
150.0061352894281 0.06697934485556292 11.806901844594734 19.0 0.0 0.0 16.0 
151.00275883562642 0.1855890354556831 18.703872940840824 19.0 0.0 0.0 17.0 
152.00291728733737 0.1769675841548217 18.703872940840824 19.0 0.0 0.0 17.0 
153.00078298280891 0.11837822074056638 17.791909120918405 20.0 0.0 0.0 17.0 
154.00042400192095 0.07968252297489142 17.791909120918405 19.0 0.0 0.0 17.0 
155.00092534157952 0.05215652016977663 8.859287638988036 20.0 0.0 0.0 17.0 
156.00011632990294 0.12355089063425825 15.93557848601759 20.0 0.0 0.0 17.0 
157.00178931919586 0.11662536944521469 15.93557848601759 20.0 0.0 0.0 17.0 
158.00120663248322 0.11376591436994812 16.63822720507727 20.0 0.0 0.0 17.0 
159.00044956232597 0.11427330775576554 16.63822720507727 20.0 0.0 0.0 17.0 
160.00247838745412 0.0849886241972142 20.597672070576692 20.0 0.0 0.0 17.0 
161.00307883504817 0.11605259539443433 16.92000229460794 20.0 0.0 0.0 17.0 
162.00408220500992 0.11340741743761885 12.693903646433313 21.0 0.0 0.0 17.0 
163.00460918762866 0.09878248683199813 11.826314054130961 21.0 0.0 0.0 17.0 
164.00072032643996 0.08429228514205077 11.826314054130961 22.0 0.0 0.0 17.0 
165.00219676498938 0.0990485874365334 14.86525283925036 22.0 0.0 0.0 17.0 
166.00330884436173 0.21613089955719064 25.075216492921584 22.0 0.0 0.0 17.0 
167.00091165840703 0.21651156633967825 25.075216492921584 22.0 0.0 0.0 17.0 
168.00225783971442 0.16992792914388333 25.075216492921584 21.0 0.0 0.0 17.0 
169.00134757671054 0.15208962061672848 25.205736131478773 21.0 0.0 0.0 18.0 
170.00177660213217 0.04725616947991808 9.605545530506646 20.0 0.0 0.0 18.0 
171.0003838263387 0.0 0.0 21.0 0.0 0.0 18.0 
172.0005146370966 6.647151571568174E-4 0.3323575785784101 21.0 0.0 0.0 18.0 
173.00347162388132 6.647151571568174E-4 0.3323575785784101 20.0 0.0 0.0 18.0 
174.00134757671054 0.008286072932287291 2.919028169039592 20.0 0.0 0.0 18.0 
175.0038190246541 0.00583805633807919 2.919028169039592 20.0 0.0 0.0 18.0 
176.00028652015158 0.019086685451929007 4.4697994689487075 20.0 0.0 0.0 18.0 
177.00161520344724 0.019086685451929007 4.4697994689487075 20.0 0.0 0.0 18.0 
178.0001310689562 0.015915819705380637 5.803394764714028 20.0 0.0 0.0 18.0 
179.00113217652512 0.0074751878287459 3.737593914372951 20.0 0.0 0.0 18.0 
180.00004455833556 0.0074751878287459 3.737593914372951 20.0 0.0 0.0 18.0 
181.0002906760752 0.0074751878287459 3.737593914372951 20.0 0.0 0.0 19.0 
182.0005394848658 0.013223095442231436 6.6115477211156986 20.0 0.0 0.0 19.0 
183.0017174859333 0.009113143946390782 4.556571973195361 20.0 0.0 0.0 19.0 
184.00030381672258 0.009113143946390782 4.556571973195361 20.0 0.0 0.0 19.0 
185.0019401928849 0.009113143946390782 4.556571973195361 20.0 0.0 0.0 19.0 
186.0020228145166 0.009113143946390782 4.556571973195361 21.0 0.0 0.0 19.0 
187.00045455528806 0.009113143946390782 4.556571973195361 20.0 0.0 0.0 19.0 
188.0013023493327 0.014840378063676458 7.420189031838248 20.0 0.0 0.0 20.0 
189.00001583957444 0.010751914853112561 5.375957426556255 20.0 0.0 0.0 21.0 
190.0034431482371 0.010751914853112561 5.375957426556255 20.0 0.0 0.0 21.0 
191.00066380075404 0.010751914853112561 5.375957426556255 21.0 0.0 0.0 21.0 
192.00418535693012 0.0 0.0 21.0 0.0 0.0 22.0 
193.00048169432714 0.0 0.0 21.0 0.0 0.0 20.0 
194.0004557278077 0.0 0.0 21.0 0.0 0.0 20.0 
195.00895974947022 0.0 0.0 21.0 0.0 0.0 20.0 
196.00047827786395 0.0 0.0 22.0 0.0 0.0 20.0 
197.00217333496795 0.0 0.0 21.0 0.0 0.0 20.0 
198.00109987951438 0.007996242304994995 3.6310499427460172 21.0 0.0 0.0 20.0 
199.0004718055119 0.004555723792067569 1.6227243488190481 21.0 0.0 0.0 20.0 
200.00058579938712 0.0067988413551904455 1.6227243488190481 20.0 0.0 0.0 20.0 
201.0002523074746 0.0067988413551904455 1.6227243488190481 20.0 0.0 0.0 20.0 
202.00165199544847 0.01153634752852455 3.0238906338817912 20.0 0.0 0.0 19.0 
203.00071222299567 0.023797003396495466 5.981291928417448 20.0 0.0 0.0 19.0 
204.00134757671054 0.02694574584594122 5.981291928417448 19.0 0.0 0.0 19.0 
205.00084264707925 0.05006768574905652 7.134058954003962 20.0 0.0 0.0 18.0 
206.00033005856392 0.05006768574905652 7.134058954003962 20.0 0.0 0.0 18.0 
207.00022183967562 0.09882908669118373 29.17635145933255 19.0 0.0 0.0 18.0 
208.00236023397508 0.006881964535861449 3.440982267930707 18.0 0.0 0.0 18.0 
209.00134757671054 0.0 0.0 17.0 0.0 0.0 17.0 
210.00090804339942 0.0 0.0 17.0 0.0 0.0 17.0 
211.00533095012966 0.0 0.0 18.0 0.0 0.0 18.0 
212.00097961843446 0.003197314493869876 1.5986572469349483 19.0 0.0 0.0 19.0 
213.00048227309546 0.012063749317243634 6.031874658621803 19.0 0.0 0.0 19.0 
214.00134757671054 0.012063749317243634 6.031874658621803 19.0 0.0 0.0 18.0 
215.00949215749765 0.022996483539216368 11.498241769608228 19.0 0.0 0.0 18.0 
216.00011468339946 0.022996483539216368 11.498241769608228 19.0 0.0 0.0 18.0 
217.00320181571794 0.026122093491630426 11.498241769608228 19.0 0.0 0.0 18.0 
218.00077758747298 0.04605767012078297 18.175337579034135 19.0 0.0 0.0 18.0 
219.00134757671054 0.06472525271487885 18.175337579034135 19.0 0.0 0.0 18.0 
220.0012121101797 0.028374577556810308 9.333791297047725 20.0 0.0 0.0 19.0 
221.00023059630288 0.028374577556810308 9.333791297047725 20.0 0.0 0.0 18.0 
222.00418535693012 0.0217389871928322 9.333791297047725 20.0 0.0 0.0 18.0 
223.00345242984295 0.03389980093143634 13.190395043986598 20.0 0.0 0.0 18.0 
224.00134757671054 0.03389980093143634 13.190395043986598 20.0 0.0 0.0 18.0 
225.0002001009789 0.03389980093143634 13.190395043986598 20.0 0.0 0.0 18.0 
226.00211341440678 0.026380790087973106 13.190395043986598 19.0 0.0 0.0 18.0 
227.00418535693012 0.029514003726625233 13.190395043986598 19.0 0.0 0.0 18.0 
228.00064690275613 0.07593523873041938 23.281547513145995 19.0 0.0 0.0 18.0 
229.00074254654064 0.0715345879732407 23.281547513145995 19.0 0.0 0.0 18.0 
230.00011857763621 0.13313877124562967 54.083639149340286 19.0 0.0 0.0 19.0 
231.00342530172344 0.179701866271922 54.083639149340286 19.0 0.0 0.0 19.0 
232.00418112439394 0.17236176818254942 54.083639149340286 18.0 0.0 0.0 19.0 
233.00371593439252 0.18499297037708384 58.054702740715356 19.0 0.0 0.0 19.0 
234.00064328648614 0.1800693802758862 52.0433791897338 19.0 0.0 0.0 19.0 
235.00139024111607 0.1800693802758862 52.0433791897338 19.0 0.0 0.0 19.0 
236.002064923666 0.18132755217512986 52.0433791897338 19.0 0.0 0.0 19.0 
237.0033066939974 0.207649017865982 52.0433791897338 19.0 0.0 0.0 20.0 
238.00025136378443 0.22317186877765582 52.0433791897338 19.0 0.0 0.0 19.0 
239.00134757671054 0.22772112899728958 50.89573591031558 19.0 0.0 0.0 19.0 
240.00414772427845 0.22772112899728958 50.89573591031558 19.0 0.0 0.0 19.0 
241.002118179085 0.24961266494999804 50.89573591031558 18.0 0.0 0.0 19.0 
242.00418535693012 0.26946885013560046 50.89573591031558 19.0 0.0 0.0 19.0 
243.00189457093404 0.4175469381642981 55.72445829925539 19.0 0.0 0.0 19.0 
244.00134757671054 0.40535170937989096 49.62684390705189 18.0 0.0 0.0 19.0 
245.00237983209715 0.565855927560789 49.62684390705189 19.0 0.0 0.0 19.0 
246.00363469096203 0.5778031462338243 49.62684390705189 18.0 0.0 0.0 20.0 
247.00063778413067 0.7018065157766294 49.62684390705189 19.0 0.0 0.0 20.0 
248.00423172379428 0.7987748724383696 54.505481340247115 18.0 0.0 0.0 19.0 
249.00134757671054 0.8121271819138137 58.13146751671496 18.0 0.0 0.0 19.0 
250.00027397574402 0.8247981448527734 58.13146751671496 18.0 0.0 0.0 19.0 
251.00311007085764 0.6726352915966431 58.13146751671496 18.0 0.0 0.0 19.0 
252.000372442593 0.5429990661224139 46.54219493268678 18.0 0.0 0.0 18.0 
253.00012346009981 0.48932777386401743 50.38862930693307 18.0 0.0 0.0 18.0 
254.0007065508748 0.6090095532003175 61.91250580142139 18.0 0.0 0.0 18.0 
255.00014147238332 0.6683268015274826 61.91250580142139 18.0 0.0 0.0 18.0 
256.00077735509484 0.607600893003136 61.91250580142139 18.0 0.0 0.0 18.0 
257.00023062056556 0.6693764834324936 61.91250580142139 18.0 0.0 0.0 18.0 
258.0014309771322 0.5708299985862761 65.70279838672712 19.0 0.0 0.0 17.0 
259.00134757671054 0.3419472613179682 60.45256033223592 19.0 0.0 0.0 17.0 
260.00021929331416 0.4668166848210854 60.703300132878326 19.0 0.0 0.0 17.0 
261.00246179172876 0.24475482141082844 60.45256033223592 19.0 0.0 0.0 16.0 
262.0037435265273 0.3863326423750285 67.92555165819095 19.0 0.0 0.0 16.0 
263.00197611774246 0.29319189997314704 19.22882829603148 20.0 0.0 0.0 16.0 
264.0002119384076 0.2884601736736943 21.948369109024497 21.0 0.0 0.0 17.0 
265.00359860698404 0.2537945337642048 21.948369109024497 21.0 0.0 0.0 18.0 
266.0007659865626 0.13127383400648168 13.348994020603044 21.0 0.0 0.0 18.0 
267.0014337100253 0.13706806094837148 14.92609989981753 20.0 0.0 0.0 18.0 
268.0002356100154 0.13706806094837148 14.92609989981753 20.0 0.0 0.0 18.0 
269.00134757671054 0.1335656218972296 14.70942213906622 20.0 0.0 0.0 19.0 
270.000623736058 0.16003138449939835 14.70942213906622 19.0 0.0 0.0 19.0 
271.00292041593525 0.22902651760058934 22.034193347334764 21.0 0.0 0.0 19.0 
272.0033575448124 0.2745482496775961 29.20631086634495 20.0 0.0 0.0 19.0 
273.0030946522879 0.3259312807231589 29.20631086634495 20.0 0.0 0.0 19.0 
274.0003762292263 0.31617679337099786 29.20631086634495 20.0 0.0 0.0 19.0 
275.00037927730773 0.3544127428887411 31.053232926698996 20.0 0.0 0.0 19.0 
276.0025702142488 0.20017020403068225 22.35024715077037 22.0 0.0 0.0 20.0 
277.0000807280504 0.21992594875507124 29.350759848985717 21.0 0.0 0.0 19.0 
278.0064443678744 0.2117501880384041 22.12228166433539 22.0 0.0 0.0 19.0 
279.0007720988703 0.23347598817679904 19.059021201584386 23.0 0.0 0.0 18.0 
280.00366174443104 0.2383529024655665 29.099891883671006 20.0 0.0 0.0 18.0 
281.0009365022999 0.24926087559138446 29.099891883671006 21.0 0.0 0.0 18.0 
282.0041853569301 0.3292887979987319 36.54110204718367 21.0 0.0 0.0 19.0 
283.01105418750353 0.2987380085313645 22.660347820546264 20.0 0.0 0.0 19.0 
284.00014122118233 0.3128649440810128 29.869740005293153 20.0 0.0 0.0 19.0 
285.00105923095504 0.2755056106354646 36.54110204718367 20.0 0.0 0.0 19.0 
286.000961752488 0.29006065205191733 29.869740005293153 20.0 0.0 0.0 19.0 
287.0041853569301 0.4037472881245449 37.29546201578057 20.0 0.0 0.0 19.0 
288.00139769887573 0.33222819150649063 23.22439963221825 19.0 0.0 0.0 19.0 
289.00134757671054 0.45275857652348844 37.29546201578057 19.0 0.0 0.0 19.0 
290.0012092152473 0.4382034037342028 30.44426246162743 19.0 0.0 0.0 19.0 
291.0023059236787 0.44993823758269874 30.44426246162743 18.0 0.0 0.0 19.0 
292.00280682947124 0.5418290285929748 37.82418962331505 19.0 0.0 0.0 20.0 
293.0007194268628 0.8004144243545895 37.82418962331505 19.0 0.0 0.0 20.0 
294.0004683505875 0.6595193438008408 37.39746559345855 19.0 0.0 0.0 20.0 
295.00045332646124 0.6608202087432127 37.39746559345855 19.0 0.0 0.0 20.0 
296.0004185040491 0.6393189836285527 34.25637131658215 19.0 0.0 0.0 20.0 
297.0000193805782 0.7577731273157932 41.63776732138365 20.0 0.0 0.0 20.0 
298.001724139216 0.9686221562772126 51.72127920835126 19.0 0.0 0.0 20.0 
299.0004236850091 1.1994390052064805 51.72127920835126 19.0 0.003925540050636795 1.962770025318406 19.0 
300.00068872981495 1.0224627903142873 51.72127920835126 19.0 0.003925540050636795 1.962770025318406 19.0 
301.0006582437558 0.9966823616166008 51.72127920835126 19.0 0.003925540050636795 1.962770025318406 19.0 
302.001226308975 1.202464848295716 56.348962164487034 19.0 0.0 0.0 20.0 
303.0006583329634 1.272159374603215 51.94361782226264 19.0 0.0 0.0 20.0 
304.0003062281115 1.345336353641167 51.94361782226264 19.0 0.0 0.0 20.0 
305.00123542539745 1.3242936218065755 51.94361782226264 19.0 0.0 0.0 20.0 
306.0012434048076 1.4464133001131636 51.94361782226264 19.0 0.0 0.0 20.0 
307.0041853569301 1.5736156553816907 59.39432338855323 20.0 0.0 0.0 22.0 
308.0001662199122 1.6118746004020263 52.97376774417947 22.0 0.0 0.0 22.0 
309.0009889698115 1.6817808250197328 52.97376774417947 21.0 0.0 0.0 22.0 
310.0021538664412 1.3937987767652773 52.49637852451431 21.0 0.0 0.0 22.0 
311.0007109256139 1.287217318535435 53.8928040686784 22.0 0.0 0.0 23.0 
312.0033234604289 1.5172766846675902 61.34236430970407 23.0 0.0 0.0 23.0 
313.0048205428197 1.5436320576642617 65.7612457283891 24.0 0.0 0.0 22.0 
314.00134757671054 1.2591790027623426 61.05312105856149 24.0 0.0 0.0 21.0 
315.0001532104449 1.409513151937842 65.7612457283891 24.0 0.0 0.0 21.0 
316.00269394237046 1.249139610256418 59.4157738103691 23.0 0.0 0.0 21.0 
317.0006333773643 1.166053049476082 57.096836078083356 23.0 0.0 0.0 21.0 
318.0000084666205 1.1838777307928356 64.45706341497367 23.0 0.0 0.0 21.0 
319.00134757671054 1.2688738681182299 63.06616817993728 21.0 0.0 0.0 19.0 
320.0040758901682 1.2053951694388965 63.06616817993728 21.0 0.0 0.0 19.0 
321.00076183601055 1.5205743627048038 65.17684060497504 21.0 0.0 0.0 19.0 
322.0015931149656 1.612821512453544 65.17684060497504 21.0 0.0 0.0 19.0 
323.001127560463 1.6182342992724923 70.60585423530699 21.0 0.0 0.0 19.0 
324.00134757671054 1.6468337629764769 72.59253660385872 21.0 0.0 0.0 19.0 
325.0012775094932 1.4796014676819267 65.4360489956963 21.0 0.0 0.0 19.0 
326.0039312123051 1.7397557738992324 72.59253660385872 21.0 0.0 0.0 19.0 
327.00102912993697 1.345457347199764 67.97599715521648 21.0 0.0 0.0 19.0 
328.0004906181498 1.6928907551255905 74.1695051798863 21.0 0.0 0.0 19.0 
329.00134757671054 1.6195256753379135 67.97599715521648 21.0 0.0 0.0 19.0 
330.0048630332494 1.7627061193166353 76.76763835248772 20.0 0.0 0.0 19.0 
331.00161798807403 1.6575487973793168 66.71349769717182 20.0 0.0 0.0 19.0 
332.00136114672426 1.6580900406509522 78.03850878214098 20.0 0.0 0.0 19.0 
333.00078046236024 2.375250146396005 86.67698347974982 20.0 0.0 0.0 17.0 
334.00017087079794 2.5562389867079056 86.67698347974982 20.0 0.0 0.0 18.0 
335.0054430816396 2.119803078834975 86.67698347974982 21.0 0.0 0.0 20.0 
336.00113078151765 2.2595780575093323 86.67698347974982 21.0 0.0 0.0 20.0 
337.00264845204816 2.4193857823227116 90.03669660327296 20.0 0.0 0.0 20.0 
338.00268024708873 2.7429527551699553 92.2307154224182 20.0 0.0 0.0 20.0 
339.00115384252115 2.763792043730065 80.15699292639846 20.0 0.0 0.0 20.0 
340.0008468896794 2.658470478201996 80.15699292639846 20.0 0.0 0.0 22.0 
341.0007163411481 2.56168852549405 70.91726432966334 20.0 0.0 0.0 22.0 
342.0019089352502 2.369088343105411 70.91726432966334 20.0 0.0 0.0 22.0 
343.0042339145599 2.619399601525644 82.18387466590048 20.0 0.0 0.0 20.0 
344.00100933354275 2.56144995878579 82.18387466590048 20.0 0.0 0.0 21.0 
345.00290300623897 2.22487604658249 116.44982886693043 20.0 0.0 0.0 21.0 
346.00233631398504 2.0586966934790603 116.44982886693043 19.0 0.0 0.0 21.0 
347.0020092803697 2.022533613561925 116.44982886693043 19.0 0.0 0.0 21.0 
348.0040810504145 2.212358301360303 116.44982886693043 19.0 0.0 0.0 21.0 
349.00134757671054 2.1484052832465808 123.94797804179785 19.0 0.0 0.0 21.0 
350.0003431926824 1.9932252875151957 117.33098846143207 19.0 0.0 0.0 21.0 
351.0003438185369 1.8144431271759796 117.33098846143207 19.0 0.0 0.0 21.0 
352.0037685053375 1.4698390331440505 117.33098846143207 19.0 0.0 0.0 21.0 
353.0004659785965 1.5240976651942044 117.33098846143207 19.0 0.0 0.0 21.0 
354.00022948862863 1.3049596799609495 83.30798565890996 19.0 0.0 0.0 21.0 
355.00071420317187 1.2942391506415223 83.30798565890996 19.0 0.0 0.0 21.0 
356.001033098386 1.228497594489605 83.30798565890996 19.0 0.0 0.0 21.0 
357.0041853569301 1.0947803799682505 83.30798565890996 20.0 0.0 0.0 21.0 
358.0010922096038 1.3288019759730845 101.99542746660154 23.0 0.0 0.0 21.0 
359.00122615539095 1.003204497628033 96.42314669366368 22.0 0.0 0.0 21.0 
360.0006465511214 1.2303288671030916 101.99542746660154 23.0 0.0 0.0 20.0 
361.00173222226107 0.9215353146330686 96.42314669366368 23.0 0.0 0.0 20.0 
362.0041853569301 0.8506297195191517 95.15127281960412 23.0 0.0 0.0 20.0 
363.00020741954205 0.8123948965485227 98.74755322244084 23.0 0.0 0.0 20.0 
364.00134757671054 1.0433409045383866 104.57625762523759 22.0 0.0 0.0 19.0 
365.0013326362414 0.7343897759278145 105.4648075443805 22.0 0.0 0.0 19.0 
366.0000473147279 0.9515737877930658 105.4648075443805 22.0 0.0 0.0 20.0 
367.0000286458514 0.6014944626862118 101.56300823221716 23.0 0.0 0.0 20.0 
368.0001934379268 0.25923342961928836 45.08215772695141 20.0 0.0 0.0 20.0 
369.00134757671054 0.22166507147545408 47.95328980788858 21.0 0.0 0.0 20.0 
370.0007197344617 0.25818066846252324 47.95328980788858 20.0 0.0 0.0 20.0 
371.00274920687576 0.09441834555492584 10.55678890429985 19.0 0.0 0.0 20.0 
372.00085741640885 0.162892795062313 11.739099541077252 19.0 0.0 0.0 20.0 
373.0006736350257 0.1579724484391514 16.554970427330204 19.0 0.0 0.0 20.0 
374.00021835772463 0.1409533994422633 18.845775985590535 19.0 0.0 0.0 19.0 
375.0000431734113 0.25483349902970875 35.51038865392556 19.0 0.0 0.0 19.0 
376.00214793664554 0.10441246413168859 18.845775985590535 18.0 0.0 0.0 18.0 
377.0027069651475 0.1488660829188827 18.845775985590535 17.0 0.0 0.0 18.0 
378.0014254746468 0.2296829728706412 28.554392443251828 17.0 0.0 0.0 18.0 
379.00134757671054 0.10521856099456303 24.3697736086188 18.0 0.0 0.0 19.0 
380.0013608221998 0.013378834044079201 6.689417022039606 17.0 0.0 0.0 18.0 
381.00005405979783 0.02522770515617557 11.453835554943481 16.0 0.0 0.0 18.0 
382.0001718986211 0.0379832229155397 17.831594434625686 16.0 0.0 0.0 18.0 
383.0038850877743 0.038583204896708835 17.831594434625686 16.0 0.0 0.0 18.0 
384.0003916391742 0.05707448008684204 17.831594434625686 16.0 0.0 0.0 18.0 
385.0020355870293 0.07201688304859791 17.831594434625686 14.0 0.0 0.0 18.0 
386.0001578211486 0.09283946393042812 17.831594434625686 15.0 0.0 0.0 18.0 
387.0003196111487 0.1302951280380699 28.378361871790503 13.0 0.0 0.0 19.0 
388.0004036926436 0.12082692981366602 28.378361871790503 13.0 0.0 0.0 20.0 
389.00126525578634 0.14921719834002617 28.378361871790503 13.0 0.0 0.0 18.0 
390.00087123573974 0.13605424606706404 28.378361871790503 13.0 0.0 0.0 17.0 
391.0015060561872 0.19606308558673288 28.378361871790503 13.0 0.0 0.0 16.0 
392.0041853569301 0.2726251053602388 38.80524862490873 13.0 0.0 0.0 16.0 
393.0082641474075 0.30070902580021397 38.80524862490873 13.0 0.0 0.0 16.0 
394.00134757671054 0.2777921115094194 38.80524862490873 13.0 0.0 0.0 16.0 
395.00072954020925 0.34208405224771155 38.80524862490873 13.0 0.0 0.0 16.0 
396.0001664335335 0.3444658125765108 38.80524862490873 13.0 0.0 0.0 16.0 
397.0016524064255 0.353136185332945 34.75250973067091 13.0 0.0 0.0 16.0 
398.0007904687298 0.35907666691049095 41.11042763900258 13.0 0.0015847701377143648 0.7923850688571861 15.0 
399.00134757671054 0.3528053598446368 41.11042763900258 13.0 0.0 0.0 16.0 
400.00482375549126 0.394557039432088 41.11042763900258 13.0 0.0 0.0 17.0 
401.009124183627 0.3917233472168417 37.175180488221514 13.0 0.0 0.0 18.0 
402.00417922646415 0.4239599140107374 43.72081310447646 14.0 0.0 0.0 18.0 
403.00160680994617 0.4233788938679702 43.72081310447646 14.0 0.0 0.0 17.0 
404.0011520016681 0.4271704260056437 43.72081310447646 15.0 0.0 0.0 18.0 
405.00091224570684 0.47661333781468135 43.72081310447646 15.0 0.0 0.0 18.0 
406.0030422633458 0.4551472357838718 38.08611837396802 15.0 0.0 0.0 18.0 
407.0022083670178 0.5751619633268106 44.70790960632851 15.0 0.0 0.0 18.0 
408.0071250440802 0.6192243668120492 47.76442072214158 15.0 0.0 0.0 18.0 
409.00134757671054 0.5536341178680569 44.70790960632851 16.0 0.0 0.0 17.0 
410.00078101644414 0.40884112937088457 44.70790960632851 19.0 0.0 0.0 17.0 
411.00025929598286 0.38538132309815304 44.25218817736834 21.0 0.0 0.0 17.0 
412.00101282192026 0.3363525752417321 45.166135080494286 21.0 0.0 0.0 17.0 
413.0023869014812 0.49749301704383875 45.166135080494286 21.0 0.0 0.0 17.0 
414.00134757671054 0.3026521033456374 45.166135080494286 21.0 0.0 0.0 17.0 
415.0011792780652 0.21067535490893094 32.050653026172625 21.0 0.0 0.0 15.0 
416.0002269780841 0.21067535490893094 32.050653026172625 21.0 0.0 0.0 15.0 
417.0013596088597 0.1972528464855585 30.803614917411522 21.0 0.0 0.0 15.0 
418.0020860907743 0.3951663566272747 45.44094560525349 21.0 0.0 0.0 15.0 
419.00073802906445 0.38121725022666436 45.44094560525349 21.0 0.0 0.0 15.0 
420.00342251035227 0.42225947912554646 45.44094560525349 21.0 0.0 0.0 14.0 
421.000424238944 0.436479309266387 45.44094560525349 21.0 0.0 0.0 14.0 
422.0000198229615 0.4280017630652289 51.106018739142456 20.0 0.0 0.0 15.0 
423.0008530903133 0.44124268794113797 51.106018739142456 19.0 0.0 0.0 15.0 
424.00134757671054 0.3251015962938878 43.79995186605461 20.0 0.0 0.0 15.0 
425.0004879242266 0.35691356849893013 50.35701579035833 21.0 0.0 0.0 15.0 
426.00031612970133 0.28423039115880283 41.50134552882179 21.0 0.0 0.0 15.0 
427.00192615440875 0.33330000941446775 51.01816073851026 20.0 0.0 0.0 15.0 
428.00269205315357 0.3515017002960148 51.01816073851026 20.0 0.0 0.0 15.0 
429.00134757671054 0.3493736377128313 51.01816073851026 20.0 0.0 0.0 15.0 
430.0040822823932 0.3660402918040189 51.01816073851026 20.0 0.0 0.0 15.0 
431.0000321156336 0.3973056642435433 51.01816073851026 20.0 0.0 0.0 15.0 
432.0041853569301 0.3132314376089335 46.76719858064192 20.0 0.0 0.0 15.0 
433.00012548313094 0.30029304697718184 43.96621646826978 20.0 0.0 0.0 15.0 
434.00134757671054 0.3199968344398523 43.96621646826978 19.0 0.0 0.0 14.0 
435.0016252083052 0.3540576599970585 43.96621646826978 19.0 0.0 0.0 14.0 
436.0013776041196 0.40853777795067847 50.54196929613602 19.0 0.0 0.0 14.0 
437.0001581246759 0.4201599174888354 53.88137649649792 19.0 0.0 0.0 14.0 
438.0001140122746 0.3995181077774105 53.88137649649792 19.0 0.0 0.0 14.0 
439.00134757671054 0.4531044374456256 53.88137649649792 19.0 0.0 0.0 14.0 
440.00039269471154 0.30468383960314566 53.88137649649792 19.0 0.0 0.0 14.0 
441.0054226739217 0.27148337933550254 60.41232151478869 19.0 0.0 0.0 14.0 
442.0002112102349 0.2805684084704223 64.04968561815463 19.0 0.0 0.0 14.0 
443.00061328222097 0.1705935982913932 36.837297148496816 19.0 0.0 0.0 14.0 
444.00070823558434 0.20158505159158893 64.04968561815463 19.0 0.0 0.0 14.0 
445.0007116341232 0.08806924266639075 21.781448844250463 19.0 0.0 0.0 14.0 
446.0016381875659 0.13223263747097747 23.545877173090787 19.0 0.0 0.0 14.0 
447.0037092417797 0.13223263747097747 23.545877173090787 19.0 0.0 0.0 14.0 
448.0000216819535 0.13322627522751282 23.545877173090787 19.0 0.0 0.0 14.0 
449.00134757671054 0.14588391173335108 23.545877173090787 19.0 0.0 0.0 14.0 
450.00499819027954 0.14321505049235417 23.545877173090787 20.0 0.0 0.0 14.0 
451.00004988565746 0.22527027518219164 30.428296314519827 20.0 0.0 0.0 14.0 
452.0028546133992 0.2277965301932082 26.12255637696731 20.0 0.0 0.0 14.0 
453.00216499785245 0.22259168177427485 28.893778473079692 20.0 0.008786775329679657 4.3933876648398495 14.0 
454.00134757671054 0.42574336414450226 96.57223896123065 20.0 0.03811922309193303 11.033436790902329 14.0 
455.00005940090176 0.2541971349711035 33.09163635728916 20.0 0.052920522493288935 11.033436790902329 14.0 
456.00052520138 0.4598019590794802 55.04481294850052 20.0 0.08684912656860189 16.96430203765641 14.0 
457.0028245987463 0.6124786122225792 56.906826526380314 20.0 0.07159542876582202 11.033436790902329 14.0 
458.0021631012816 0.7221907179738433 100.82651019850306 20.0 0.08794836145279859 11.79407495488087 14.0 
459.00134757671054 0.4950679547600003 55.04481294850052 20.0 0.06666132092640221 12.183991482584986 14.0 
460.0075857852129 0.3884365253007558 55.04481294850052 20.0 0.04381756716900276 12.183991482584986 15.0 
461.0001796707385 0.45468008763582246 56.073532837312484 21.0 0.04381756716900276 12.183991482584986 16.0 
462.00259944118216 0.3149112443994232 56.073532837312484 22.0 0.00430155149493485 2.1507757474674065 17.0 
463.00032947140596 0.655725397821871 57.726852304184774 24.0 0.0 0.0 17.0 
464.001298468425 0.48460319356373927 57.726852304184774 23.0 0.0 0.0 15.0 
465.0011181856918 0.43439071764600773 56.073532837312484 23.0 0.0 0.0 14.0 
466.00001545110666 0.307839147867896 29.48756929175309 23.0 0.0 0.0 14.0 
467.0041853569301 0.368883839697359 30.925231752998855 22.0 0.0 0.0 16.0 
468.0004874662599 0.4734889721484319 31.535808036671398 21.0 0.0 0.0 16.0 
469.00133180547255 0.4719612129279111 31.535808036671398 20.0 0.0 0.0 15.0 
470.0070367037969 0.4719612129279111 31.535808036671398 21.0 0.0 0.0 15.0 
471.0023589035935 0.7788040637983671 71.55825224185025 20.0 0.0 0.0 15.0 
472.0017487375728 0.8330700435648754 77.45448266486687 19.0 0.0 0.0 15.0 
473.001184660178 1.0262708164967036 77.45448266486687 19.0 0.0 0.0 18.0 
474.00134757671054 1.0173162942230973 71.93466595812578 19.0 0.0 0.0 18.0 
475.00408052514234 0.7491132323210188 71.93466595812578 20.0 0.006053948269094845 3.02697413454743 18.0 
476.00501530636984 0.6974138371604834 71.93466595812578 20.0 0.0 0.0 19.0 
477.0029249862651 0.5428494007652324 55.552965510323304 20.0 0.0 0.0 18.0 
478.0001583445567 0.7672834571921686 50.42355943716893 20.0 0.0 0.0 17.0 
479.00134757671054 0.6948607961479067 55.00279439899208 20.0 0.0 0.0 17.0 
480.0004722882661 0.7580244451972697 55.00279439899208 20.0 0.0 0.0 17.0 
481.00090120330304 0.7098175310366412 50.42355943716893 20.0 0.0 0.0 18.0 
482.00238510565697 0.6773980060890689 41.83466665227908 20.0 0.0 0.0 18.0 
483.002662626501 0.8041812837938294 41.83466665227908 20.0 0.0 0.0 18.0 
484.00119149917595 0.7891373672872732 42.055914925432404 20.0 0.0 0.0 18.0 
485.00201471892547 0.8096828430912201 42.055914925432404 18.0 0.0 0.0 18.0 
486.0000454564028 0.7801613483065538 42.055914925432404 18.0 0.0 0.0 18.0 
487.0008279454163 0.9367131201780227 45.18059043296438 18.0 0.0 0.0 18.0 
488.0066948233446 1.0745832328906302 51.20355678143383 18.0 0.0 0.0 18.0 
489.00134757671054 1.0766260409892296 51.43115029636803 18.0 0.0 0.0 18.0 
490.0034622804245 0.7904791619767506 38.18663212665999 18.0 0.0 0.0 18.0 
491.0019939290921 1.0509206903322708 51.20355678143383 18.0 0.0 0.0 18.0 
492.00411582703015 1.1481129305197475 51.43115029636803 18.0 0.0 0.0 18.0 
493.00052572405417 1.2085650867673463 54.83226263188459 18.0 0.0 0.0 18.0 
494.0006229931071 1.1221195444710919 47.74659685032981 18.0 0.0 0.0 18.0 
495.00442280125907 1.1295199100285098 47.74659685032981 19.0 0.0 0.0 18.0 
496.00354881512305 0.9478453799346832 42.778984647235006 19.0 0.0 0.0 18.0 
497.000475652747 1.2085809594935382 46.36566881096775 20.0 0.0 0.0 18.0 
498.0025538591055 1.2658899367831964 54.17430101854029 19.0 0.0 0.0 18.0 
499.00134757671054 1.1640291096506388 46.06505940793656 19.0 0.0 0.0 18.0 
500.00177457026564 1.1369597045933801 46.06505940793656 19.0 0.0 0.0 18.0 
501.0027870163613 1.252432291705676 43.57227101085019 21.0 0.0 0.0 16.0 
502.0021609489409 1.3004383348290178 44.046359068192174 21.0 0.0 0.0 16.0 
503.000117416445 1.2798531828518833 51.77383652305335 22.0 0.0 0.0 16.0 
504.00134757671054 1.205645358148583 51.77383652305335 20.0 0.0 0.0 16.0 
505.00006508132867 1.1986606191426783 52.175464321513545 21.0 0.0 0.0 16.0 
506.00079907156515 1.1816550613080492 52.175464321513545 21.0 0.0 0.0 19.0 
507.0011814408741 1.1612245784543305 55.352661968165165 20.0 0.0 0.0 17.0 
508.00038635346374 1.2252468501390301 60.85447978378937 19.0 0.0 0.0 17.0 
509.00134757671054 1.1043135239561208 58.20890201907645 19.0 0.0 0.0 17.0 
510.0023566503949 0.857504279849441 48.34769871426741 19.0 0.0 0.0 17.0 
511.0004477467738 0.8801117754760375 55.48973757478936 19.0 0.0 0.0 19.0 
512.0001669675652 0.7653428438704811 44.64707395663365 19.0 0.0 0.0 20.0 
513.0040630196039 0.6737841966696676 44.227288399475526 20.0 0.0 0.0 21.0 
514.0013475767105 0.6722692168071853 44.227288399475526 21.0 0.0 0.0 19.0 
515.0004212367694 0.6814024411509536 44.227288399475526 20.0 0.0 0.0 19.0 
516.0014108320411 0.7114514207790069 44.227288399475526 19.0 0.0 0.0 19.0 
517.0041853569301 0.6248553733578176 39.37622485447275 19.0 0.0 0.0 18.0 
518.0020645651077 0.6607574496294385 39.37622485447275 19.0 0.0 0.0 18.0 
519.0000950660856 0.6806851999853945 39.37622485447275 19.0 0.0 0.0 17.0 
520.0051677294609 0.6879955692791038 39.37622485447275 19.0 0.0 0.0 17.0 
521.0006526562963 0.6912796075153826 41.585899406980474 19.0 0.0 0.0 17.0 
522.0003050385062 0.7279140581590849 41.585899406980474 20.0 0.0 0.0 17.0 
523.0024499581248 0.8147898535020701 44.93336683978231 23.0 0.0 0.0 17.0 
524.0013475767105 0.8636587595366993 44.93336683978231 22.0 0.0 0.0 17.0 
525.0011050544805 0.7740034705927333 40.44285188870131 23.0 0.0 0.0 17.0 
526.0003611784999 0.7909797462664981 40.44285188870131 21.0 0.0 0.0 17.0 
527.0009604669856 0.9026395958363589 44.36168139445974 21.0 0.0 0.0 16.0 
528.0003832334003 0.9320941684704914 44.36168139445974 20.0 0.0 0.0 17.0 
529.0013475767105 1.0345626988019125 49.7017209741615 20.0 0.0 0.0 17.0 
530.0023488070434 1.0334678563055701 49.7017209741615 20.0 0.0 0.0 17.0 
531.0016837469487 1.1645350746618572 55.84957456965432 20.0 0.0 0.0 17.0 
532.0034416821163 1.1240885973821038 55.84957456965432 20.0 0.0 0.0 17.0 
533.0057366260579 1.2593001693006638 58.742505837894726 20.0 0.0 0.0 17.0 
534.0013475767105 1.1156204121863773 59.589670798348436 20.0 0.0 0.0 17.0 
535.0000142178151 0.8915228537757748 59.589670798348436 20.0 0.0 0.0 17.0 
536.0000414674829 0.9506029464433348 59.589670798348436 19.0 0.0 0.0 18.0 
537.0041853569301 0.9595679710632955 61.12481652984428 19.0 0.0 0.0 18.0 
538.0006661588319 1.0292429669728682 64.35028780788389 19.0 0.0 0.0 18.0 
539.0013475767105 0.8815483147029426 68.75815606500498 19.0 0.0 0.0 18.0 
540.0022352991539 0.6790447060847148 69.65175691500133 19.0 0.0 0.0 18.0 
541.002102083417 0.5430449550193486 69.65175691500133 19.0 0.0 0.0 18.0 
542.0025183898262 0.43711982454901427 74.51758417827699 19.0 0.0 0.0 18.0 
543.0013785486019 0.4134951904692578 74.51758417827699 19.0 0.0 0.0 18.0 
544.0013475767105 0.10755650507102996 16.782362173128007 20.0 0.0 0.0 18.0 
545.0003069817324 0.12804234710765358 16.782362173128007 20.0 0.0 0.0 18.0 
546.0037992952953 0.11782880351706464 16.782362173128007 21.0 0.0 0.0 18.0 
547.0008754645395 0.096592455783342 13.313542903989827 21.0 0.0 0.0 17.0 
548.0003925587102 0.13326603113347057 20.61480525493701 20.0 0.0 0.0 16.0 
549.0001452298775 0.14127133751448737 20.61480525493701 19.0 0.0 0.0 16.0 
550.0018953753336 0.10274951403799827 16.630395470546375 19.0 0.0 0.0 16.0 
551.0017305504174 0.10274951403799827 16.630395470546375 19.0 0.0 0.0 16.0 
552.0041853569301 0.1961218170880259 35.639328646300726 18.0 0.0 0.0 17.0 
553.0009412261777 0.176459735758213 16.57323207832613 18.0 0.0 0.0 16.0 
554.0011687644198 0.19382904529097353 16.57323207832613 18.0 0.0 0.0 16.0 
555.0006590185931 0.193994217658657 16.57323207832613 18.0 0.0 0.0 17.0 
556.0011455352612 0.1976324134489366 16.57323207832613 18.0 0.0 0.0 17.0 
557.0013961379194 0.20943053223410993 18.545179857907414 18.0 0.0 0.0 16.0 
558.0006287770575 0.26216353450077823 20.51468984831024 18.0 0.0 0.0 15.0 
559.0011041609157 0.27473791988544044 22.882402783010207 18.0 0.0 0.0 15.0 
560.0005499537497 0.2453687006479706 22.882402783010207 18.0 0.0 0.0 16.0 
561.0011579136933 0.21118632124240275 27.918745101700978 18.0 0.0 0.0 16.0 
562.0019046367665 0.2181771961281959 30.39076013700796 18.0 0.0 0.0 16.0 
563.0002344761897 0.19388824014564138 30.39076013700796 18.0 0.0 0.0 16.0 
564.0013475767105 0.22299422114074183 35.42548825363383 18.0 0.0 0.0 16.0 
565.0019111665589 0.10742170236134825 18.011695164016032 18.0 0.0 0.0 16.0 
566.001757126939 0.12406637023604648 18.011695164016032 18.0 0.0 0.0 16.0 
567.0031766607486 0.0 0.0 18.0 0.0 0.0 16.0 
568.0006609241932 0.00465441934805363 1.3554033495104818 18.0 0.0 0.0 16.0 
569.0013475767105 0.00465441934805363 1.3554033495104818 18.0 0.00788035304857438 3.94017652428721 16.0 
570.002325423907 0.014955356095373028 6.505871723170202 18.0 0.00788035304857438 3.94017652428721 16.0 
571.0007056088925 0.0338954125005595 9.47002820259317 18.0 0.017856547031608137 4.988096991516841 16.0 
572.0002630891823 0.050972530598884715 13.415604139686053 18.0 0.020490398490316496 10.245199245158204 16.0 
573.0001287429203 0.005201265914326434 1.492298380342561 18.0 0.0 0.0 16.0 
574.0013475767105 0.046851220003664235 20.824977044668998 18.0 0.0 0.0 16.0 
575.0036127073964 0.05723581268868364 20.824977044668998 18.0 0.0 0.0 16.0 
576.0009611767987 0.05203454677435705 20.824977044668998 18.0 0.0 0.0 16.0 
577.0020349875875 0.02528317623531804 12.641588117658983 18.0 0.0 0.0 16.0 
578.0023460210306 0.030804875673334082 12.641588117658983 18.0 0.0 0.0 16.0 
579.0013475767105 0.030804875673334082 12.641588117658983 18.0 0.0 0.0 16.0 
580.0001040996082 0.07065390319243368 12.641588117658983 18.0 0.0 0.0 16.0 
581.0017265540806 0.03981106113543388 6.525993407679238 18.0 0.0 0.0 16.0 
582.0026940572471 0.09248844626351801 20.02592327261786 18.0 0.0 0.0 16.0 
583.0013362513956 0.1808504876420136 31.883449161376603 18.0 0.0 0.0 17.0 
584.0013475767105 0.15808514667606172 27.474965518194125 18.0 0.0 0.0 17.0 
585.0015700154432 0.2777750680281894 39.0271893061726 17.0 0.0 0.0 17.0 
586.0044660817355 0.1490615736139911 18.553123353971984 17.0 0.0 0.0 16.0 
587.0000996807736 0.2179016988424022 31.709386771826047 17.0 0.0 0.0 16.0 
588.0005885828774 0.18907021079702535 25.84238302888116 17.0 0.0 0.0 16.0 
589.0001727915869 0.23334407165169763 31.329080175703382 18.0 0.0 0.0 17.0 
590.0019485273973 0.2735399883891645 33.252550038495144 17.0 0.0 0.0 16.0 
591.0014868565107 0.35582087013819774 33.252550038495144 17.0 0.0 0.0 15.0 
592.0009146718189 0.3140630851222909 39.26475419668827 17.0 0.0 0.0 15.0 
593.0035600204692 0.25288742975560374 31.976895777251002 16.0 0.0 0.0 15.0 
594.0013475767105 0.38842436124024216 31.976895777251002 16.0 0.0 0.0 14.0 
595.0009513249449 0.37004058568242604 46.63243776449835 16.0 0.0 0.0 14.0 
596.0027536979449 0.40135066152272053 48.432228274664084 16.0 0.0 0.0 14.0 
597.0000022204748 0.3962520298210663 48.432228274664084 16.0 0.0 0.0 14.0 
598.0006381402109 0.3189368301987852 43.80365595329437 16.0 0.0 0.0 14.0 
599.000225062413 0.30852356545095616 43.80365595329437 16.0 0.0 0.0 14.0 
600.0002181485476 0.423864299912242 55.74925488292649 16.0 0.0 0.0 14.0 
#####################################################################
# End of data export. Simulation finished at: 2019-02-25T20:14+0000 #
#####################################################################
