#####################################################################
# Alchemist log file - simulation started at: 2019-02-25T20:17+0000 #
#####################################################################
# seed = 93.0
#
# The columns have the following meaning: 
# time distance-rep[Mean] distance-rep[Max] leader-rep[CountDistinct] distance-share[Mean] distance-share[Max] leader-share[CountDistinct] 
0.0 NaN NaN NaN NaN NaN NaN 
1.002403220373232 0.0 0.0 496.0 0.0 0.0 85.0 
2.009240833508931 0.0 0.0 112.0 0.0 0.0 74.0 
3.0068807824608488 0.0 0.0 100.0 0.0 0.0 65.0 
4.00049394210028 0.0 0.0 100.0 0.0 0.0 59.0 
5.004467471212858 0.0 0.0 92.0 0.0 0.0 51.0 
6.003964269727689 0.0 0.0 88.0 0.0 0.0 46.0 
7.001757766921783 0.0 0.0 82.0 0.0 0.0 42.0 
8.000127010844418 0.0 0.0 79.0 0.0 0.0 40.0 
9.002692941204316 0.0 0.0 75.0 0.0 0.0 36.0 
10.000823831802709 0.0 0.0 71.0 0.0 0.0 35.0 
11.001136993569949 0.0 0.0 66.0 0.0 0.0 33.0 
12.000332017484716 0.0 0.0 65.0 0.0 0.0 30.0 
13.001322806742488 0.0 0.0 62.0 0.0 0.0 37.0 
14.004597494522189 0.0 0.0 60.0 0.0 0.0 39.0 
15.002294080190191 0.0 0.0 61.0 0.02506299332189689 12.531496660948449 35.0 
16.00200295468113 0.0 0.0 60.0 0.04626882757110683 19.975212342267127 32.0 
17.00045787886391 0.0 0.0 59.0 0.0 0.0 34.0 
18.003002701926608 0.0 0.0 56.0 0.0 0.0 34.0 
19.00490570049704 0.0 0.0 55.0 0.0 0.0 27.0 
20.00339340629769 0.0 0.0 50.0 0.0 0.0 26.0 
21.00378098945754 0.0 0.0 50.0 0.0 0.0 22.0 
22.001823136634712 0.0 0.0 49.0 0.0 0.0 22.0 
23.00180838348507 0.0 0.0 48.0 0.0 0.0 21.0 
24.00165438686764 0.0 0.0 48.0 0.005671496932851628 2.8357484664258266 21.0 
25.001388834856304 0.0 0.0 46.0 0.0 0.0 20.0 
26.00067788063869 0.0 0.0 47.0 0.0 0.0 20.0 
27.00229593393251 0.0 0.0 46.0 0.0 0.0 19.0 
28.00052978087813 0.0 0.0 47.0 0.0 0.0 18.0 
29.00163776363276 0.0 0.0 44.0 0.0 0.0 17.0 
30.001152016766266 0.0 0.0 45.0 0.0 0.0 17.0 
31.00311561136297 0.0 0.0 44.0 0.0 0.0 17.0 
32.00078796762611 0.0 0.0 43.0 0.0 0.0 17.0 
33.00143531348343 0.0 0.0 43.0 0.0 0.0 18.0 
34.00078500549851 0.0 0.0 44.0 0.0 0.0 18.0 
35.00366332866911 0.0 0.0 44.0 0.0 0.0 18.0 
36.00011022752833 0.0 0.0 43.0 0.0 0.0 18.0 
37.00012759929066 0.0 0.0 42.0 0.0 0.0 18.0 
38.00028853168977 0.0 0.0 43.0 0.0 0.0 20.0 
39.00251189060242 0.0 0.0 42.0 0.0 0.0 20.0 
40.0052263358909 0.0 0.0 42.0 0.0 0.0 20.0 
41.00194418441281 0.0 0.0 42.0 0.0 0.0 19.0 
42.010136432172956 0.0 0.0 42.0 0.0 0.0 19.0 
43.00185429775156 0.0 0.0 42.0 0.0 0.0 21.0 
44.00125791097863 0.0 0.0 41.0 0.0 0.0 21.0 
45.00108398220799 0.0 0.0 42.0 0.0 0.0 20.0 
46.000395629931255 0.0 0.0 41.0 0.0 0.0 20.0 
47.000814680311905 0.0 0.0 38.0 0.0 0.0 21.0 
48.00377482337783 0.0 0.0 39.0 0.0 0.0 21.0 
49.000103873306735 0.0 0.0 39.0 0.0 0.0 21.0 
50.003484970992204 0.0 0.0 36.0 0.0 0.0 21.0 
51.002026958650845 0.0 0.0 36.0 0.0 0.0 21.0 
52.00051542839857 0.0 0.0 35.0 0.0 0.0 21.0 
53.00058470575557 0.0 0.0 38.0 0.0 0.0 22.0 
54.00319275680902 0.0 0.0 38.0 0.0 0.0 22.0 
55.0064210772586 0.0 0.0 38.0 0.0 0.0 22.0 
56.00104266293636 0.0 0.0 38.0 0.0 0.0 23.0 
57.00665931399621 0.0 0.0 38.0 0.0 0.0 22.0 
58.00080073808371 0.0 0.0 37.0 0.0 0.0 21.0 
59.002130728157034 0.0 0.0 38.0 0.0 0.0 20.0 
60.003793095037516 0.0 0.0 37.0 0.0 0.0 20.0 
61.00284306306015 0.0 0.0 35.0 0.0 0.0 20.0 
62.00141780865359 0.0 0.0 31.0 0.0 0.0 20.0 
63.00005817205767 0.0 0.0 28.0 0.0 0.0 20.0 
64.00033493738802 0.0 0.0 28.0 0.0 0.0 20.0 
65.00198323609285 0.0 0.0 27.0 0.0 0.0 20.0 
66.00257522227048 0.0 0.0 26.0 0.0 0.0 20.0 
67.00377256864824 0.0 0.0 27.0 0.0 0.0 20.0 
68.00033375512567 0.0 0.0 26.0 0.0 0.0 20.0 
69.00695413457402 0.0 0.0 26.0 0.0 0.0 20.0 
70.00313373213254 0.008922062930282592 4.461031465141275 26.0 0.0 0.0 20.0 
71.00034944161523 0.008922062930282592 4.461031465141275 26.0 0.0 0.0 20.0 
72.00208103151178 0.016817606254343524 4.461031465141275 26.0 0.0 0.0 20.0 
73.00027074366284 0.01084418033991879 4.461031465141275 26.0 0.0 0.0 20.0 
74.00052001884168 0.0 0.0 26.0 0.0 0.0 19.0 
75.00103305258861 0.011179260564062444 4.62857157721308 26.0 0.0 0.0 19.0 
76.0006348164534 0.009257143154426254 4.62857157721308 26.0 0.0 0.0 19.0 
77.00301606107708 0.009257143154426254 4.62857157721308 26.0 0.0 0.0 19.0 
78.00322398580576 0.01121206095781314 4.62857157721308 25.0 0.0 0.0 19.0 
79.00091807514212 0.04468441515122931 6.522819144935909 26.0 0.0 0.0 18.0 
80.00727833645378 0.073659493646316 6.839390105784702 25.0 0.0 0.0 18.0 
81.00043232708404 0.07130717348796711 6.839390105784702 24.0 0.0 0.0 18.0 
82.00147879891172 0.08366228819857571 6.839390105784702 24.0 0.0 0.0 18.0 
83.0022533243902 0.08035762498453372 6.839390105784702 24.0 0.0 0.0 18.0 
84.00066464877524 0.17261687896172997 14.426487693291648 23.0 0.0 0.0 17.0 
85.00008464808256 0.1975833926009653 21.301404377698873 23.0 0.0 0.0 17.0 
86.00066553379774 0.1906547831522916 21.301404377698873 24.0 0.0 0.0 17.0 
87.00033553337178 0.19484476811445947 21.301404377698873 22.0 0.0 0.0 17.0 
88.00031006213881 0.19489350001317604 21.301404377698873 23.0 0.0 0.0 17.0 
89.00369501435065 0.28542391774392184 28.817412839792098 22.0 0.0 0.0 18.0 
90.0012249597636 0.33000036023768076 35.980417170611275 20.0 0.0 0.0 17.0 
91.00578932390397 0.33000036023768076 35.980417170611275 20.0 0.0 0.0 17.0 
92.00053770189456 0.21286311529857835 35.980417170611275 20.0 0.0 0.0 17.0 
93.00233925104155 0.17228607218426156 35.980417170611275 20.0 0.0 0.0 17.0 
94.0037100196734 0.20722355227346656 35.980417170611275 19.0 0.0 0.0 17.0 
95.00303277851565 0.2511197710798247 50.48968281199893 18.0 0.0 0.0 16.0 
96.00053133999054 0.2511197710798247 50.48968281199893 18.0 0.0 0.0 16.0 
97.00084610496053 0.3256723472010397 55.36809876528838 18.0 0.0 0.0 16.0 
98.00122482267231 0.11043333809316959 31.596503238110046 18.0 0.0 0.0 16.0 
99.00297495533904 0.12627723495847282 37.87834156868138 17.0 0.0 0.0 16.0 
100.00057025429562 0.05052055182110999 24.680407885781705 17.0 0.0 0.0 16.0 
101.00155065303439 0.05052055182110999 24.680407885781705 17.0 0.0 0.0 16.0 
102.00921104015545 0.0653271729606885 32.083718455571216 16.0 0.0 0.0 16.0 
103.00548083371069 0.06416743691114271 32.083718455571216 16.0 0.0 0.0 16.0 
104.00096137243818 0.06633755802367301 33.16877901183639 16.0 0.0 0.0 16.0 
105.00208534395942 0.06633755802367301 33.16877901183639 16.0 0.0 0.0 16.0 
106.00263024603203 0.06633755802367301 33.16877901183639 16.0 0.0 0.0 16.0 
107.00307157671071 0.0652846501571062 32.642325078553256 16.0 0.0 0.0 16.0 
108.00380558006857 0.0652846501571062 32.642325078553256 15.0 0.0 0.0 17.0 
109.00011871807767 0.0652846501571062 32.642325078553256 15.0 0.0 0.0 18.0 
110.00020687148852 0.06752109913806356 33.76054956903167 15.0 0.0 0.0 17.0 
111.00072824839177 0.06752109913806356 33.76054956903167 15.0 0.0 0.0 17.0 
112.00024031841615 0.14523906259521144 40.332436180018505 15.0 0.0 0.0 18.0 
113.00577030417895 0.15026305923902458 40.332436180018505 16.0 0.0 0.0 18.0 
114.00010819336765 0.15931593306719163 41.839863893043855 16.0 0.0 0.0 18.0 
115.00040137894936 0.15931593306719163 41.839863893043855 16.0 0.0 0.0 18.0 
116.00454743254768 0.15931593306719163 41.839863893043855 16.0 0.0 0.0 18.0 
117.00138415726921 0.14216208834410243 34.63162938056857 16.0 0.0 0.0 19.0 
118.00223148735368 0.09219546594521189 34.63162938056857 16.0 0.0 0.0 19.0 
119.00285480668101 0.09631915671539715 34.63162938056857 16.0 0.0 0.0 19.0 
120.00025178283965 0.10225266895023394 36.43444215524593 16.0 0.0 0.0 19.0 
121.00300342892041 0.11030636196207523 36.43444215524593 16.0 0.0 0.0 19.0 
122.0010106358088 0.09598400693528775 29.273264641852478 16.0 0.0 0.0 18.0 
123.0040100751168 0.1098368113133133 29.273264641852478 16.0 0.0 0.0 18.0 
124.000928774136 0.13582314627286401 31.211506727780943 16.0 0.0 0.0 18.0 
125.00098296764695 0.1403951708172108 31.211506727780943 16.0 0.0 0.0 18.0 
126.00302578347141 0.15407954207317542 31.211506727780943 16.0 0.0 0.0 18.0 
127.0007918300861 0.14300549456168055 24.18941114254224 16.0 0.0 0.0 18.0 
128.00307576229258 0.17072896368648824 29.494225802818846 16.0 0.0 0.0 18.0 
129.00258347723528 0.1952141739587126 31.759088440601147 16.0 0.0 0.0 18.0 
130.00328478836758 0.1952141739587126 31.759088440601147 16.0 0.0 0.0 19.0 
131.00238636556068 0.20863231965963666 31.759088440601147 16.0 0.0 0.0 19.0 
132.0035400619029 0.2218638840078906 31.759088440601147 16.0 0.0 0.0 19.0 
133.00028603278167 0.15819681428177118 26.217000405161855 16.0 0.0 0.0 19.0 
134.00141830241384 0.17899918783967184 28.712773013665668 16.0 0.0 0.0 19.0 
135.00372296089807 0.19368107842806173 31.631803923999286 17.0 0.0 0.0 20.0 
136.00022291157097 0.19242392750472212 31.631803923999286 17.0 0.0 0.0 20.0 
137.00138611316854 0.06326360784799862 31.631803923999286 17.0 0.0 0.0 20.0 
138.00108054294589 0.07618518687021116 31.631803923999286 17.0 0.0 0.0 19.0 
139.00125524477767 0.012921579022212274 6.460789511106185 17.0 0.003774658456424221 1.88732922821211 19.0 
140.00110316843995 0.016696237478636633 6.460789511106185 17.0 0.003774658456424221 1.88732922821211 19.0 
141.00472919862784 0.04287028717428771 13.249852606598864 16.0 0.0 0.0 19.0 
142.0074554573079 0.016370581961089738 8.18529098054492 15.0 0.0 0.0 19.0 
143.002519213709 0.013960371752199047 6.980185876099512 17.0 0.0 0.0 20.0 
144.00181997468724 0.04174344447975926 13.891536363780006 17.0 0.0 0.0 20.0 
145.00020788098064 0.04174344447975926 13.891536363780006 17.0 0.0 0.0 20.0 
146.00154150016309 0.040722779100573786 20.36138955028676 17.0 0.0 0.0 20.0 
147.0001366528407 0.040722779100573786 20.36138955028676 17.0 0.0 0.0 20.0 
148.0008548871008 0.054569417325377755 20.36138955028676 17.0 0.0 0.0 21.0 
149.0032221677176 0.042757921841825704 14.455641808510649 18.0 0.0 0.0 20.0 
150.00075352404968 0.042757921841825704 14.455641808510649 19.0 0.0032427893160852724 1.6213946580426466 19.0 
151.00236755595176 0.04182334739016685 20.911673695083493 20.0 0.0032427893160852724 1.6213946580426466 19.0 
152.00110295980147 0.04182334739016685 20.911673695083493 19.0 0.0032427893160852724 1.6213946580426466 21.0 
153.00191303908167 0.05563540353497397 20.911673695083493 19.0 0.009901324753868282 4.950662376934162 23.0 
154.00224603984435 0.043836309496843875 15.01212667601817 19.0 0.0 0.0 22.0 
155.00107150350027 0.043836309496843875 15.01212667601817 19.0 0.0 0.0 21.0 
156.00151550434668 0.0 0.0 22.0 0.0 0.0 21.0 
157.0001793958342 0.0 0.0 20.0 0.0 0.0 20.0 
158.0009393325927 0.0 0.0 21.0 0.0 0.0 20.0 
159.00306799515283 0.0 0.0 20.0 0.0 0.0 20.0 
160.00012866572612 0.0 0.0 20.0 0.0 0.0 19.0 
161.0020911012364 0.0 0.0 19.0 0.0 0.0 19.0 
162.00038220830717 0.0 0.0 19.0 0.0 0.0 19.0 
163.00100874526393 0.0 0.0 18.0 0.0 0.0 19.0 
164.00268321268072 0.0 0.0 18.0 0.0 0.0 19.0 
165.00156562913915 0.0 0.0 18.0 0.0 0.0 19.0 
166.0000080119567 0.005061329888770433 2.5306649443852223 18.0 0.0 0.0 20.0 
167.00038098147576 0.013986575492509111 6.993287746254509 18.0 0.0 0.0 19.0 
168.00089714872135 0.013986575492509111 6.993287746254509 18.0 0.0 0.0 19.0 
169.00120449003526 0.019971403819397437 6.993287746254509 18.0 0.0 0.0 19.0 
170.00170861883538 0.019971403819397437 6.993287746254509 18.0 0.0127711502351552 6.385575117577616 19.0 
171.0007815663839 0.04817389725466247 11.654986283474955 18.0 0.0127711502351552 6.385575117577616 18.0 
172.00028247526438 0.057106340712598444 16.121208012442708 18.0 0.0127711502351552 6.385575117577616 18.0 
173.00048667378613 0.057106340712598444 16.121208012442708 18.0 0.028962450745972305 8.095650255408515 18.0 
174.0018069273044 0.06572446935571359 16.121208012442708 18.0 0.044131168160986424 13.969933825084667 18.0 
175.0003756610438 0.06572446935571359 16.121208012442708 20.0 0.0 0.0 18.0 
176.00069686407952 0.10603319267976873 20.8748780170269 20.0 0.0 0.0 18.0 
177.00015337859892 0.11500115252473718 25.358857939511125 20.0 0.016717358263066133 8.35867913153308 18.0 
178.00242675001869 0.07554071788980321 17.016351956232683 20.0 0.019653663061823565 8.35867913153308 18.0 
179.00071041783877 0.0841841741317073 21.338080077184912 20.0 0.02595301465900431 11.50835493012346 18.0 
180.00778272702058 0.0841841741317073 21.338080077184912 20.0 0.032220859131623536 11.50835493012346 18.0 
181.00108449629633 0.18317400573806772 30.122945927022016 20.0 0.032220859131623536 11.50835493012346 18.0 
182.00053087996199 0.13243757331171652 26.241457225955855 20.0 0.017434050521615244 4.602074635688268 18.0 
183.00085798104092 0.1476004445111813 26.241457225955855 20.0 0.05523884522721513 11.996117058364774 18.0 
184.00104642329921 0.10572200750966604 23.335630902353586 22.0 0.031183585680812052 11.755272271652075 20.0 
185.00208792525643 0.1668677534332705 30.572872961802318 22.0 0.0 0.0 20.0 
186.00563285675904 0.20521240902322682 35.358800019339185 21.0 0.0 0.0 20.0 
187.00384721948893 0.18054007839607022 35.358800019339185 20.0 0.0 0.0 20.0 
188.00057464461418 0.18812913030034517 35.358800019339185 19.0 0.0 0.0 20.0 
189.00133542898968 0.13560387491000087 35.358800019339185 20.0 0.0 0.0 21.0 
190.0030370736233 0.06488627487132274 32.44313743566153 20.0 0.0 0.0 22.0 
191.00317692408785 0.0 0.0 20.0 0.0 0.0 22.0 
192.00459025343912 0.0 0.0 20.0 0.0 0.0 22.0 
193.00157317059154 0.0 0.0 20.0 0.0015689523719111774 0.7844761859555831 22.0 
194.00044079458715 0.0 0.0 20.0 0.013085990971081724 5.758519299585288 22.0 
195.00016865998788 0.0 0.0 20.0 0.028124592814718446 6.318552837517558 21.0 
196.0003388824737 0.0 0.0 20.0 0.0 0.0 22.0 
197.00164497150837 0.0041526257181820105 2.0763128590910185 19.0 0.0 0.0 20.0 
198.00410387192852 0.0 0.0 19.0 0.0 0.0 21.0 
199.0027472035423 0.031054070096987445 11.206246058058184 19.0 0.0 0.0 21.0 
200.001435345487 0.035285080599083585 9.598669129681525 19.0 0.0 0.0 21.0 
201.0022324304626 0.07922026435591624 16.923038724195123 19.0 0.0 0.0 21.0 
202.00210321676767 0.09386557505370023 16.923038724195123 19.0 0.0 0.0 21.0 
203.00295454780613 0.10880552678006102 24.393014587375575 19.0 0.0 0.0 21.0 
204.00145929617008 0.10891857112536825 24.393014587375575 18.0 0.0 0.0 21.0 
205.0003981589475 0.09398048450062753 24.393014587375575 18.0 0.0 0.0 21.0 
206.0034794405735 0.1521996138531573 31.673981246792863 18.0 0.0 0.0 21.0 
207.0003405458286 0.1521996138531573 31.673981246792863 18.0 0.0 0.0 20.0 
208.0001634267958 0.25614227232493 51.971329235886344 18.0 0.0 0.0 19.0 
209.00153364634403 0.2712317908478604 51.971329235886344 18.0 0.0 0.0 19.0 
210.00529975148925 0.25640300999679144 51.971329235886344 19.0 0.0 0.0 20.0 
211.00062226804806 0.31487868625430604 51.83288428814262 21.0 0.0 0.0 20.0 
212.00398102781486 0.31487868625430604 51.83288428814262 23.0 0.0 0.0 20.0 
213.00033588385688 0.31487868625430604 51.83288428814262 23.0 0.0 0.0 20.0 
214.00444798378538 0.33011224301111386 54.05398819187303 23.0 0.0 0.0 20.0 
215.00032662619705 0.31516645081856404 54.05398819187303 22.0 0.0 0.0 20.0 
216.00080504619095 0.39261057037034647 61.43163414541573 21.0 0.0 0.0 20.0 
217.00630936702328 0.38565034893297045 61.43163414541573 22.0 0.0 0.0 20.0 
218.00050534046537 0.3936772255005305 61.43163414541573 21.0 0.0 0.0 20.0 
219.00314747417002 0.2387947663742603 52.09246746778746 19.0 0.0 0.0 20.0 
220.00186557150195 0.13650748972002447 51.664972380104274 21.0 0.0 0.0 21.0 
221.00013068232678 0.23959461712264196 51.51090101125834 20.0 0.0 0.0 21.0 
222.0015156763901 0.2970206690245386 51.51090101125834 19.0 0.0 0.0 20.0 
223.00058781872218 0.2829050158428012 51.51090101125834 19.0 0.0 0.0 20.0 
224.00195227811963 0.2855859141315649 51.51090101125834 19.0 0.0 0.0 20.0 
225.0034838782971 0.2684934721348735 51.51090101125834 19.0 0.0 0.0 20.0 
226.00140865197736 0.46314135869459117 51.52941421547183 19.0 0.0 0.0 20.0 
227.00109976423235 0.4819263845980608 51.52941421547183 19.0 0.0 0.0 19.0 
228.00618147417492 0.5125301604847317 51.52941421547183 19.0 0.0 0.0 19.0 
229.00614876402847 0.44941987454248755 51.52941421547183 19.0 0.0 0.0 19.0 
230.0011700262424 0.501253794337733 51.52941421547183 19.0 0.0 0.0 20.0 
231.0026672843962 0.6990415842645527 51.511145017309104 19.0 0.0 0.0 21.0 
232.00154763827626 0.7126712362865107 51.511145017309104 20.0 0.0 0.0 21.0 
233.000532753017 0.7326817972192119 51.511145017309104 20.0 0.0 0.0 21.0 
234.00077555606384 0.7416616597484288 51.511145017309104 20.0 0.0 0.0 20.0 
235.00129596286138 0.7570940934142707 51.511145017309104 20.0 0.0 0.0 20.0 
236.00973261334752 0.9601067954463741 51.550921489409205 20.0 0.0 0.0 20.0 
237.00094516729578 0.9735740226872833 51.550921489409205 20.0 0.0 0.0 20.0 
238.00025468477077 0.9789879002221205 51.550921489409205 21.0 0.0 0.0 22.0 
239.0032048403528 1.0149421517004829 52.43253124635311 21.0 0.0 0.0 22.0 
240.00154764240003 1.0278480743046912 52.43253124635311 21.0 0.0 0.0 22.0 
241.0002714937981 1.297079066167971 59.89022151388548 22.0 0.0 0.0 22.0 
242.0021337963546 1.2953780914591428 59.89022151388548 21.0 0.0 0.0 22.0 
243.00384837376706 1.4586203901651524 74.31935362780376 21.0 0.0 0.0 21.0 
244.00048565898078 1.5011708487332214 74.31935362780376 21.0 0.0 0.0 20.0 
245.00279929650068 1.6830378971159694 86.5143342398427 21.0 0.0 0.0 20.0 
246.00175747783257 1.9533428826579124 93.4378665972244 20.0 0.0 0.0 20.0 
247.00294990558663 2.2536477112742976 101.48935558912706 20.0 0.0 0.0 20.0 
248.0019044382877 2.0588118736044936 100.23834661863094 20.0 0.0 0.0 20.0 
249.00815003834282 2.2823469444742215 101.48935558912706 20.0 0.0 0.0 19.0 
250.00048039883794 2.293178354142561 101.48935558912706 20.0 0.0 0.0 21.0 
251.00611211706223 2.877629095872264 111.91023091761218 20.0 0.0 0.0 20.0 
252.00018445490878 2.9158771462150357 114.1044897689726 21.0 0.0 0.0 20.0 
253.00156139128373 2.8595535272523147 114.1044897689726 21.0 0.0 0.0 19.0 
254.00020756334885 3.1291224334048255 143.4246472816858 21.0 0.0 0.0 19.0 
255.0003564896214 3.138240986040437 143.4246472816858 21.0 0.0 0.0 19.0 
256.0020753028759 3.956049249798496 143.4246472816858 21.0 0.0 0.0 19.0 
257.00108253393023 4.193009014110053 150.5392940556094 20.0 0.0 0.0 19.0 
258.00166906223996 3.978818279265705 174.05346924906235 21.0 0.0 0.0 19.0 
259.0005310664791 2.6246361496167463 133.5706398788863 21.0 0.0 0.0 19.0 
260.00168739862704 1.648519539937206 112.42120266244439 21.0 0.0 0.0 19.0 
261.0015938567133 1.560748839272632 112.42120266244439 21.0 0.0 0.0 19.0 
262.0024207276765 1.7190933021407389 119.86527933302403 21.0 0.0 0.0 18.0 
263.00087648351877 1.263299546427636 119.86527933302403 21.0 0.0 0.0 18.0 
264.00096551286373 1.1963938972151387 127.41074188781664 21.0 0.0 0.0 18.0 
265.00020702275566 0.9552447661818378 80.1642081167937 21.0 0.0 0.0 18.0 
266.0018003920982 0.8836028974302828 84.1341045333678 21.0 0.0 0.0 18.0 
267.00190920874974 0.7329270083367567 83.82717260655352 22.0 0.0 0.0 19.0 
268.01038960762315 0.5619316509424362 83.82717260655352 22.0 0.0 0.0 19.0 
269.00098335381824 0.5732007580267388 83.82717260655352 22.0 0.0 0.0 19.0 
270.0078280746488 0.4137024879626263 82.05355088116534 22.0 0.0 0.0 19.0 
271.00265822877145 0.22500845905680067 74.4920743234373 22.0 0.0 0.0 19.0 
272.0006650068195 0.11434918807470189 38.012155204962625 21.0 0.0 0.0 19.0 
273.0002300601353 0.14647450409895277 44.93392544541791 20.0 0.0 0.0 19.0 
274.0013508936976 0.1510110667645067 44.93392544541791 20.0 0.0 0.0 19.0 
275.00066135175007 0.201600218116045 51.63656304901397 20.0 0.0 0.0 19.0 
276.00086089830484 0.16474154564220664 51.63656304901397 21.0 0.0 0.0 19.0 
277.00030059036595 0.21692544547564363 51.63656304901397 21.0 0.0 0.0 19.0 
278.00207443479405 0.2348977212755381 51.63656304901397 19.0 0.0 0.0 19.0 
279.00265933541 0.06629540666485616 13.092620391220208 19.0 0.0 0.0 19.0 
280.0041135352331 0.25367591647124654 58.62951659916524 18.0 0.0 0.0 19.0 
281.0000668847421 0.2910544126593279 65.49082567421277 20.0 0.0 0.0 19.0 
282.00206912939933 0.29859377343146887 65.49082567421277 19.0 0.0 0.0 19.0 
283.00008925510457 0.1681316298327388 26.482555501699807 19.0 0.0 0.0 19.0 
284.0054048143225 0.3432830184819573 72.5452148439536 18.0 0.0 0.0 19.0 
285.00098157202535 0.5573136427772912 79.34158246739764 18.0 0.0 0.0 20.0 
286.0002603775794 0.5356223081038299 79.34158246739764 18.0 0.0 0.0 21.0 
287.00366009358197 0.38191629765117363 33.033555351470255 18.0 0.0 0.0 22.0 
288.00099967911814 0.5410645973750084 79.34158246739764 17.0 0.0 0.0 22.0 
289.0006427233158 0.6643164392530653 86.4482645017041 17.0 0.0 0.0 21.0 
290.00182312348085 0.7116485941809783 39.91312553375104 17.0 0.0 0.0 21.0 
291.00145456893404 0.9613926750356288 93.30401168971139 18.0 0.0 0.0 21.0 
292.0085248753877 1.0115730392408773 93.30401168971139 18.0 0.0 0.0 20.0 
293.0023443381275 0.756978641996021 100.36657276109185 19.0 0.0 0.0 20.0 
294.0050394314186 0.3302751356094379 31.693573286016573 19.0 0.0 0.0 20.0 
295.00207118139514 0.5265463698709598 54.20449390414578 19.0 0.0 0.0 20.0 
296.000022093002 0.5447790898707346 56.61729696772426 18.0 0.0 0.0 20.0 
297.00063689473217 0.53967245146668 56.61729696772426 18.0 0.0 0.0 20.0 
298.0049488533192 0.5828841338634285 56.61729696772426 18.0 0.0 0.0 20.0 
299.0022267601024 0.6965814540883817 63.73347226247955 19.0 0.0 0.0 20.0 
300.0019587159147 0.831950495226536 63.73347226247955 19.0 0.0 0.0 23.0 
301.00463795671794 0.8375052595690204 66.66276681753186 19.0 0.0 0.0 21.0 
302.0044009504825 0.8353107627773616 66.66276681753186 18.0 0.0 0.0 20.0 
303.004848473186 0.9790484635319348 66.66276681753186 18.0 0.0 0.0 20.0 
304.00193258870553 1.2692174292205696 70.22308566291252 18.0 0.0 0.0 20.0 
305.0024597755568 1.5058917098888225 73.14897907167159 18.0 0.0 0.0 20.0 
306.0030420381317 1.4256928523766788 73.14897907167159 18.0 0.0 0.0 20.0 
307.0000560020303 1.6352431255591917 75.1741471965563 19.0 0.0 0.0 20.0 
308.00065802830323 1.5919629440199046 75.1741471965563 19.0 0.0 0.0 20.0 
309.00192938587065 2.03146983976551 87.36304162869675 19.0 0.0 0.0 20.0 
310.0010965244374 2.0632742834462103 93.81206106092208 19.0 0.0 0.0 20.0 
311.0009336811019 1.931070378034402 93.81206106092208 19.0 0.0 0.0 20.0 
312.0010309926572 1.789207690950218 87.28187731164962 20.0 0.0 0.0 19.0 
313.0069424851228 1.8854295604425664 87.28187731164962 20.0 0.0 0.0 19.0 
314.00002804573865 2.0343562302548053 87.28187731164962 20.0 0.0 0.0 19.0 
315.00110749976267 2.4415880017663927 93.84738199678799 20.0 0.0 0.0 19.0 
316.00248706266484 2.48833200152398 93.84738199678799 20.0 0.0 0.0 19.0 
317.00396113487926 2.356192327932643 87.17707207119855 20.0 0.0 0.0 18.0 
318.0017577755165 2.4874341200150085 87.17707207119855 20.0 0.0 0.0 17.0 
319.002389465749 2.646671121921928 97.32234302282819 20.0 0.0 0.0 17.0 
320.0007616510468 3.5016370007217743 131.38059569787356 20.0 0.0 0.0 17.0 
321.00262766246186 3.536449243522858 97.32234302282819 20.0 0.0 0.0 16.0 
322.00109858573154 3.7504389130466396 97.32234302282819 20.0 0.0 0.0 16.0 
323.0002223358615 3.967215601561158 97.32234302282819 20.0 0.0 0.0 16.0 
324.00268148261307 4.206464466420835 109.88691790218923 19.0 0.0 0.0 17.0 
325.00387660475184 4.509514382442416 109.88691790218923 20.0 0.0 0.0 15.0 
326.0004792937865 4.564079198575465 109.88691790218923 19.0 0.0 0.0 15.0 
327.0007334355564 4.596252789040458 109.88691790218923 20.0 0.0 0.0 13.0 
328.0003965472969 4.757393660251396 109.88691790218923 20.0 0.0 0.0 13.0 
329.0031894342987 4.322324279911911 118.54293242161486 20.0 0.0 0.0 13.0 
330.0013810249658 3.57897459021135 118.54293242161486 20.0 0.0 0.0 13.0 
331.0004698002505 3.769729219068237 118.54293242161486 20.0 0.0 0.0 13.0 
332.00022664565506 3.9170530850100107 118.54293242161486 20.0 0.0 0.0 14.0 
333.0015515195601 3.884531320058221 118.54293242161486 20.0 0.0 0.0 14.0 
334.00398268245397 3.81450932459958 125.15142867564947 20.0 0.008280169398764903 4.140084699382442 14.0 
335.00467863871904 4.023853532300255 127.34220200970435 20.0 0.008280169398764903 4.140084699382442 14.0 
336.0026749395182 4.205667697515388 127.34220200970435 20.0 0.008280169398764903 4.140084699382442 14.0 
337.00023734699903 4.303157326533976 127.34220200970435 20.0 0.02129917303610118 10.649586518050597 14.0 
338.001268915823 4.273603491464529 127.34220200970435 20.0 0.02129917303610118 10.649586518050597 14.0 
339.00407559070044 4.320656292042557 134.1022934794326 20.0 0.03135263732958886 15.676318664794337 14.0 
340.0044897894745 4.595245839721953 136.37885110152752 20.0 0.03916244572008819 15.676318664794337 14.0 
341.0003290032323 4.408361115284908 136.37885110152752 20.0 0.0078098083904993565 3.904904195249685 14.0 
342.00069774019323 4.2526518857557845 136.37885110152752 20.0 0.021002593217115464 10.501296608557766 15.0 
343.00004686117046 4.362494124998399 136.37885110152752 20.0 0.0 0.0 15.0 
344.00199330446094 4.382242623205609 136.37885110152752 21.0 0.0 0.0 16.0 
345.00019852496547 4.78683148223986 145.45791035146402 21.0 0.0 0.0 16.0 
346.0009836078606 4.917626665363366 145.45791035146402 20.0 0.0 0.0 16.0 
347.00339976509053 5.006604130595992 145.45791035146402 20.0 0.0 0.0 16.0 
348.0012963202042 4.825950580673532 145.45791035146402 20.0 0.0 0.0 16.0 
349.0008911059433 5.051190813398136 145.45791035146402 20.0 0.0 0.0 16.0 
350.00219841253215 5.117851376521678 154.64037808930397 20.0 0.0 0.0 16.0 
351.00024402051 5.596717315419167 154.64037808930397 19.0 0.0 0.0 16.0 
352.00004570067296 5.429047778595833 154.64037808930397 19.0 0.0 0.0 18.0 
353.00187896493827 5.459809063831599 154.64037808930397 19.0 0.0 0.0 16.0 
354.0081500383428 5.08851741208922 137.0758163420694 19.0 0.0 0.0 16.0 
355.0007963799918 5.318731556110284 144.3719887217528 19.0 0.0 0.0 16.0 
356.00111661269216 5.752221599164858 144.3719887217528 19.0 0.0 0.0 16.0 
357.00276541978735 5.402478961847613 144.3719887217528 20.0 0.0 0.0 17.0 
358.0005045007486 5.5597403670387395 144.3719887217528 20.0 0.0 0.0 17.0 
359.0081500383428 4.945842190643817 144.3719887217528 20.0 0.0 0.0 17.0 
360.00436380592885 5.047098887128697 137.65627471772484 20.0 0.0 0.0 17.0 
361.0090016892559 4.455317046654693 137.65627471772484 20.0 0.0 0.0 17.0 
362.00095777084516 4.005073681502701 137.65627471772484 20.0 0.0 0.0 17.0 
363.0060069787878 4.12410524689036 143.06410992350027 20.0 0.0 0.0 17.0 
364.0029083668801 3.887608617202302 144.1333517816147 20.0 0.0 0.0 17.0 
365.0015899672109 3.582712198084822 134.74080601924607 19.0 0.0 0.0 17.0 
366.00157535999375 2.8304599138780215 131.3951781993032 19.0 0.0 0.0 17.0 
367.00122539933693 2.6235108761966464 131.3951781993032 19.0 0.0 0.0 17.0 
368.0010239559144 1.8882751681477237 125.33852288219117 19.0 0.0 0.0 17.0 
369.00188473006955 1.6687705791736842 121.60535011055941 17.0 0.0 0.0 16.0 
370.0028040536269 1.7850832166282256 127.64832240961715 17.0 0.0 0.0 16.0 
371.0018900861894 1.5608523470697355 78.00670920985141 17.0 0.0 0.0 16.0 
372.0018775304055 1.8408484324312624 129.74531747744754 17.0 0.0 0.0 16.0 
373.0014729708563 1.6253388415471766 83.42256644697994 15.0 0.0 0.0 16.0 
374.001875629838 1.6772732699462178 86.71727542685431 14.0 0.0 0.0 16.0 
375.00126632366744 1.7836068225563444 86.71727542685431 14.0 0.0 0.0 16.0 
376.0019828943013 1.791780589065381 86.71727542685431 14.0 0.0 0.0 16.0 
377.00222912608683 1.888925356883028 86.71727542685431 14.0 0.0 0.0 15.0 
378.00415892804966 1.7010282649488937 92.24893380747613 14.0 0.0 0.0 15.0 
379.0007285274377 1.822402593465774 92.24893380747613 14.0 0.0 0.0 15.0 
380.0031002544092 2.0655329035661896 95.65572987603758 15.0 0.0 0.0 15.0 
381.002376412621 2.110963861302655 95.65572987603758 17.0 0.0 0.0 18.0 
382.00030012011456 1.9329574092682245 95.65572987603758 19.0 0.0 0.0 17.0 
383.00190217326906 1.5177988926463846 76.28941858108402 20.0 0.0 0.0 17.0 
384.0036764682164 1.1399313401497169 80.23804400703392 20.0 0.0 0.0 17.0 
385.0019975277703 1.0093606847343806 83.46487885556292 20.0 0.0 0.0 17.0 
386.00275607116527 0.7968310321548163 83.46487885556292 20.0 0.0 0.0 19.0 
387.0012027718206 0.7611354807879517 83.46487885556292 19.0 0.0 0.0 18.0 
388.0003265230552 0.6005686371520749 33.531376448565425 18.0 0.0 0.0 16.0 
389.000216292375 0.5919667884964758 36.68414669806708 18.0 0.0 0.0 16.0 
390.0009211657948 0.6580406580175907 48.526368906756204 18.0 0.0 0.0 16.0 
391.00014612676415 0.7631882767341944 48.526368906756204 17.0 0.0 0.0 15.0 
392.00449549579594 0.7941094252903352 48.526368906756204 17.0 0.0 0.0 15.0 
393.00309701023 0.7790196921758339 48.526368906756204 16.0 0.0 0.0 15.0 
394.0003583429269 0.8003381100392767 56.00814125732171 16.0 0.0 0.0 16.0 
395.0014517487596 0.9494355231747748 63.35509783673882 16.0 0.0 0.0 16.0 
396.0022466706492 1.1913322245723883 63.35509783673882 16.0 0.0 0.0 16.0 
397.00019353003063 1.2202523465512225 63.35509783673882 16.0 0.0 0.0 16.0 
398.004673070531 1.282241977389484 63.35509783673882 16.0 0.0 0.0 16.0 
399.0045902397272 1.3180463969813117 70.83639961771644 16.0 0.005796354986488207 2.8981774932441056 16.0 
400.00020303076656 1.207007488293416 66.44378578387023 16.0 0.005796354986488207 2.8981774932441056 16.0 
401.00101130491583 1.5085422518920508 77.79548171050789 16.0 0.017353040171765897 5.778342592638836 16.0 
402.00229686088215 1.4357005431237784 77.79548171050789 16.0 0.03236033798160165 10.401826398162001 16.0 
403.001872242013 1.3271739140723995 77.79548171050789 16.0 0.0 0.0 16.0 
404.00224820151936 1.4976560620523514 85.27517504878836 17.0 0.011556685185277624 5.778342592638836 16.0 
405.0069524677689 1.6279289719898362 92.12147307986186 17.0 0.011556685185277624 5.778342592638836 16.0 
406.0015203597201 1.8774697287516597 92.12147307986186 18.0 0.02645490616986493 13.227453084932591 15.0 
407.00058817554213 1.8220695256176669 92.12147307986186 18.0 0.0 0.0 15.0 
408.0050132001945 1.3623008458942298 95.14626214270953 18.0 0.0 0.0 17.0 
409.0003778193362 1.2328579940753315 92.12147307986186 19.0 0.0 0.0 16.0 
410.00003104088415 1.0959224475515401 102.02222404573939 19.0 0.0 0.0 17.0 
411.0123151973267 1.0263393721298009 52.02714568490626 19.0 0.0 0.0 17.0 
412.00693847053 1.24763848493104 101.22090271040253 19.0 0.0 0.0 17.0 
413.00101092074976 1.042261789528309 52.02714568490626 19.0 0.0 0.0 17.0 
414.0012639972503 1.0513794740706643 52.02714568490626 19.0 0.0 0.0 17.0 
415.0025436633225 0.9223960129281357 52.02714568490626 19.0 0.0 0.0 17.0 
416.0024218981656 0.8627445312662743 49.434889590023175 19.0 1.312351873241373E-4 0.06561759366206843 17.0 
417.0021849315443 0.6761120744457261 46.34667798949715 19.0 0.014866778678964786 7.433389339482403 17.0 
418.000864931108 0.6892230650942175 46.34667798949715 18.0 0.0 0.0 18.0 
419.00103532095073 0.530861136888918 46.34667798949715 18.0 0.0 0.0 18.0 
420.0034431489023 0.4575974104886403 53.809423209266214 18.0 0.0 0.0 18.0 
421.0008539073235 0.4680548456146652 57.544712443268 19.0 0.0 0.0 18.0 
422.0016525744495 0.5856085381345699 57.544712443268 19.0 0.0 0.0 18.0 
423.0010709163313 0.34840773891661697 38.119503864226715 21.0 0.0 0.0 18.0 
424.00009406544257 0.1775341578691069 38.119503864226715 20.0 0.0 0.0 18.0 
425.00003595564567 0.17152855699488934 37.881975821205685 20.0 0.0 0.0 18.0 
426.00306539544596 0.3369453777739621 37.950007461236396 20.0 0.0 0.0 18.0 
427.00012356677865 0.13283563427282802 32.488676891485795 20.0 0.0 0.0 18.0 
428.0008697366001 0.1412829806369135 32.437161917680754 21.0 0.0 0.0 18.0 
429.0016082177639 0.20616564330370035 32.441331333393094 20.0 0.0 0.0 18.0 
430.0007803538137 0.07622794030733769 32.3512774496034 20.0 0.0 0.0 18.0 
431.00074180593424 0.07622794030733769 32.3512774496034 21.0 0.0 0.0 19.0 
432.00097776108885 0.0643454064512855 16.22379459419679 21.0 0.0 0.0 19.0 
433.00150361707824 0.03789860830016205 16.22379459419679 21.0 0.0 0.0 19.0 
434.00418342515684 0.0643454064512855 16.22379459419679 21.0 0.0 0.0 19.0 
435.00302343218243 0.047661801513401235 13.22339907556173 21.0 0.0 0.0 18.0 
436.0005672067997 0.07944439888260145 17.931632841651577 21.0 0.0 0.0 18.0 
437.00154661242277 0.09948174058653841 14.923373815895985 21.0 0.0 0.0 18.0 
438.0005348895198 0.11442291034171471 22.393958693484166 21.0 0.0 0.0 18.0 
439.00017420295535 0.06963499295474641 11.882285262090079 21.0 0.0 0.0 18.0 
440.00441985635143 0.07792919840644714 11.882285262090079 21.0 0.0 0.0 18.0 
441.0017367018913 0.10656004967682911 13.781096456837702 21.0 0.0 0.0 18.0 
442.0044337081672 0.11590452291951717 21.252319692050833 21.0 0.0 0.0 18.0 
443.00271592392 0.1331866171324123 21.252319692050833 21.0 0.0 0.0 18.0 
444.0003877101319 0.09068197774831097 13.649634954923016 21.0 0.0 0.0 18.0 
445.00145283952924 0.10483174940171015 15.846077347946192 21.0 0.0 0.0 18.0 
446.00143845557176 0.15805930486375316 15.846077347946192 21.0 0.0 0.0 18.0 
447.00115925719444 0.1591454771246635 16.421649611017386 21.0 0.0 0.0 18.0 
448.0003139726422 0.12526090494209052 16.421649611017386 21.0 0.0 0.0 18.0 
449.0026231050829 0.1316234408266312 16.421649611017386 21.0 0.0 0.0 19.0 
450.0002332471488 0.07542996827346288 14.012907510059904 23.0 0.0 0.0 20.0 
451.00150403297624 0.13317431028778984 14.582102678811651 22.0 0.0 0.0 20.0 
452.0003638833804 0.16187332351114594 19.808289186428482 22.0 0.0 0.0 20.0 
453.00132597556126 0.06821099220704951 7.1826142580355565 22.0 0.0 0.0 21.0 
454.00469914508767 0.06821099220704951 7.1826142580355565 22.0 0.0 0.0 21.0 
455.005618703414 0.2792174277524933 21.887095303380846 22.0 0.0 0.0 20.0 
456.00154607149386 0.3683490219164781 26.697393709574527 22.0 0.0 0.0 20.0 
457.00053107892427 0.2931932831137525 26.697393709574527 23.0 0.0 0.0 20.0 
458.0022462099359 0.33353948399610533 31.414421253394863 23.0 0.0 0.0 20.0 
459.00021957076206 0.2598272883507408 31.875972226473266 26.0 0.0 0.0 20.0 
460.0061183966295 0.3447720705836638 36.82305284118581 27.0 0.0 0.0 20.0 
461.0019441899222 0.23168128771131197 36.82305284118581 28.0 0.0 0.0 20.0 
462.0035011314979 0.19445230360948282 36.82305284118581 28.0 0.0 0.0 20.0 
463.0020925734611 0.1715997915915368 36.82305284118581 26.0 0.0 0.0 20.0 
464.0006246095674 0.18705140020333585 30.136156198901148 27.0 0.0 0.0 20.0 
465.0014314893757 0.24703004787397162 37.65889482956183 26.0 0.0 0.0 20.0 
466.00031916108617 0.22129933512527813 23.785447982344266 26.0 0.0 0.0 20.0 
467.00342889974894 0.19053728257823602 23.785447982344266 27.0 0.0 0.0 20.0 
468.0022793667927 0.20533201008285343 23.785447982344266 27.0 0.0 0.0 20.0 
469.0002365950824 0.18531079155975125 23.785447982344266 29.0 0.0 0.0 20.0 
470.0056323290765 0.25639260963041866 38.76879474589924 31.0 0.0 0.0 20.0 
471.0012688270961 0.3765702085032711 38.76879474589924 29.0 0.0 0.0 23.0 
472.0008821935514 0.30540997587697544 38.76879474589924 30.0 0.0 0.0 22.0 
473.00059389200555 0.0995598835267392 26.18987567685116 31.0 0.0 0.0 21.0 
474.0032809479061 0.13013785907236494 34.02051971242426 32.0 0.0 0.0 21.0 
475.00286709206677 0.1259539494704351 33.589342832550244 32.0 0.0 0.0 21.0 
476.0016493487469 0.017207679312981942 7.138355519225058 32.0 0.0 0.0 21.0 
477.006780877156 0.017207679312981942 7.138355519225058 32.0 0.0 0.0 21.0 
478.0014729795142 0.017207679312981942 7.138355519225058 32.0 0.0 0.0 22.0 
479.00167755363293 0.017207679312981942 7.138355519225058 31.0 0.0 0.0 22.0 
480.0074751874252 0.026827349981311612 7.138355519225058 31.0 0.0 0.0 21.0 
481.00023440803295 0.06073278087608039 13.732282841592252 30.0 0.0 0.0 21.0 
482.00347533358496 0.07624783045612592 13.732282841592252 29.0 0.0 0.0 21.0 
483.00390660268994 0.09409041429944479 13.732282841592252 29.0 0.0 0.0 21.0 
484.00379216123025 0.037212403328309225 8.921291921659218 28.0 0.0 0.0 21.0 
485.00111247590246 0.14605418018540356 21.256282820495983 27.0 0.0 0.0 20.0 
486.0005463603859 0.01784704073834142 7.574644124697301 27.0 0.0 0.0 23.0 
487.0019334818025 0.0746366953496739 16.211034532545995 28.0 0.0 0.0 23.0 
488.004882473277 0.12591987300481636 20.03165536904146 28.0 0.0 0.0 22.0 
489.00114299749043 0.14865736482879227 24.101807198652637 28.0 0.0 0.0 23.0 
490.00065670432724 0.25185542823868434 38.880410739718144 30.0 0.0 0.0 23.0 
491.0016153179381 0.45859126859216526 61.654671995368346 30.0 0.0 0.0 23.0 
492.000149688407 0.4100371622834506 61.654671995368346 30.0 0.0 0.0 23.0 
493.0012984003547 0.41010679476827205 61.654671995368346 31.0 0.0 0.0 22.0 
494.00027057646616 0.3854032326875796 54.23568386373336 29.0 0.0 0.0 22.0 
495.0041211501448 0.3854032326875796 54.23568386373336 31.0 0.0 0.0 23.0 
496.0029776969135 0.6362649851293403 67.97522709160245 31.0 0.0 0.0 24.0 
497.0012068675252 0.636377080587886 75.22767905188965 31.0 0.0 0.0 26.0 
498.0015255757774 0.6215263793844614 75.22767905188965 30.0 0.0 0.0 25.0 
499.00033040598856 0.6369779655079131 75.22767905188965 30.0 0.0 0.0 24.0 
500.00071847441376 0.607418749780415 68.33849271573075 29.0 0.0 0.0 23.0 
501.0007652553172 0.7395638524120158 75.68877285445251 29.0 0.0 0.0 24.0 
502.0008556446858 0.640419597800283 75.68877285445251 29.0 0.0 0.0 24.0 
503.0008127420559 0.014369356517126026 7.184678258563025 30.0 0.0 0.0 23.0 
504.00165627190484 0.0 0.0 29.0 0.0 0.0 23.0 
505.0013528757858 0.0 0.0 28.0 0.0 0.0 23.0 
506.00138104357643 0.0 0.0 28.0 0.0 0.0 23.0 
507.0001255584373 0.0 0.0 28.0 0.0 0.0 23.0 
508.00071631135893 0.0 0.0 28.0 0.0 0.0 24.0 
509.00012200586593 0.0 0.0 28.0 0.0 0.0 24.0 
510.0004152133607 0.0 0.0 27.0 0.0 0.0 25.0 
511.00047679258074 0.0 0.0 27.0 0.0 0.0 25.0 
512.0040821452844 0.0 0.0 27.0 0.0 0.0 25.0 
513.0021145686718 0.0 0.0 28.0 0.0 0.0 27.0 
514.0014324705791 0.0 0.0 26.0 0.0 0.0 26.0 
515.0024698660574 0.0 0.0 27.0 0.0 0.0 26.0 
516.0013957310657 0.0 0.0 26.0 0.0 0.0 25.0 
517.0011617961071 0.0 0.0 25.0 0.0 0.0 23.0 
518.0021442909273 0.0 0.0 25.0 0.0 0.0 23.0 
519.0012842858175 0.0 0.0 24.0 0.0 0.0 23.0 
520.0001908825252 0.0 0.0 24.0 0.0 0.0 23.0 
521.0030452098819 0.0 0.0 23.0 0.0 0.0 23.0 
522.0002917918043 0.0 0.0 23.0 0.0 0.0 23.0 
523.0025257500857 0.0 0.0 23.0 0.0 0.0 23.0 
524.0001168047148 0.0 0.0 23.0 0.0 0.0 24.0 
525.0009244863209 0.0 0.0 23.0 0.0 0.0 24.0 
526.0002507008473 0.0 0.0 23.0 0.0 0.0 24.0 
527.0025627736068 0.0 0.0 23.0 0.0 0.0 24.0 
528.0005224888083 0.0 0.0 24.0 0.0 0.0 26.0 
529.0032525131415 0.0 0.0 25.0 0.0 0.0 26.0 
530.003262640642 0.0 0.0 26.0 0.0 0.0 26.0 
531.0052041112184 0.0 0.0 26.0 0.0 0.0 26.0 
532.0025631323116 0.0 0.0 26.0 0.0 0.0 26.0 
533.0006089828139 0.0 0.0 25.0 0.0 0.0 26.0 
534.0006742974371 0.0 0.0 25.0 0.0 0.0 26.0 
535.0016200720213 0.0 0.0 24.0 0.0 0.0 26.0 
536.0001382995133 0.0 0.0 24.0 0.0 0.0 25.0 
537.0007361213021 0.0 0.0 23.0 0.0 0.0 24.0 
538.0007548624908 0.0 0.0 24.0 0.0 0.0 24.0 
539.0019078684348 0.0 0.0 24.0 0.0 0.0 24.0 
540.001708663372 0.011566226045334298 5.783113022667095 24.0 0.0 0.0 23.0 
541.0039797636528 0.011566226045334298 5.783113022667095 24.0 0.0 0.0 23.0 
542.0018314360497 0.0 0.0 24.0 0.0 0.0 22.0 
543.0019544643758 0.013746329538712685 4.007442485129474 24.0 0.0 0.0 21.0 
544.0027059190404 0.024961063415736034 5.607366938511603 24.0 0.0 0.0 20.0 
545.0023440961038 0.024961063415736034 5.607366938511603 24.0 0.0 0.0 20.0 
546.0010622448052 0.030941152452345834 5.607366938511603 24.0 0.0 0.0 20.0 
547.0035100453857 0.013994974006868935 3.5033834262671917 23.0 0.0 0.0 20.0 
548.0007463641645 0.04000235236699629 10.00676478408559 24.0 0.0 0.0 20.0 
549.0005216861714 0.08442607665304652 17.107557107646983 25.0 0.0 0.0 20.0 
550.0000775752269 0.03337118582377898 10.530226396780137 25.0 0.0 0.0 20.0 
551.0022551154459 0.02915050964419169 8.419888306986365 26.0 0.013924207503861344 6.962103751930698 19.0 
552.0017541007992 0.0017211938644605999 0.860596932230294 26.0 0.013924207503861344 6.962103751930698 19.0 
553.0041819397679 0.06489473606332377 10.96634160239492 25.0 0.0 0.0 19.0 
554.0006439333089 0.06274006660918326 10.96634160239492 23.0 0.09514337397125307 28.901713576309078 19.0 
555.0008658814183 0.06274006660918326 10.96634160239492 23.0 0.03733994681863493 10.344557845505364 17.0 
556.0009654165616 0.056711720187140185 9.626618097099794 23.0 0.0 0.0 18.0 
557.0006254101263 0.015989027086530314 7.994513543265214 23.0 0.0 0.0 17.0 
558.0020484484814 0.04689004557786043 9.631291830657972 23.0 0.0 0.0 17.0 
559.0013136536895 0.0 0.0 23.0 0.0 0.0 17.0 
560.0078536354156 0.006425244213652093 3.2126221068260463 23.0 0.0 0.0 17.0 
561.0001462294018 0.0 0.0 22.0 0.0 0.0 16.0 
562.0008937304582 0.0 0.0 22.0 0.0 0.0 16.0 
563.000888502327 0.0 0.0 23.0 0.0 0.0 16.0 
564.0009000681467 0.0 0.0 24.0 0.0 0.0 15.0 
565.0036474934583 0.0 0.0 24.0 0.0 0.0 16.0 
566.0000819385704 0.0 0.0 24.0 0.0 0.0 18.0 
567.0064030896078 0.0 0.0 24.0 0.0 0.0 19.0 
568.0015404107407 0.0 0.0 24.0 0.0 0.0 18.0 
569.0023703394277 0.0 0.0 24.0 0.0 0.0 18.0 
570.0005442341677 0.0 0.0 24.0 0.0 0.0 18.0 
571.000599952538 0.0 0.0 24.0 0.0 0.0 18.0 
572.0024014200396 0.0 0.0 24.0 0.0 0.0 18.0 
573.0032600606067 0.0 0.0 24.0 0.0 0.0 19.0 
574.0019080338805 0.0 0.0 24.0 0.0 0.0 19.0 
575.0053752966345 0.0 0.0 25.0 0.0 0.0 19.0 
576.0008231151061 0.0 0.0 26.0 0.0 0.0 19.0 
577.0009629742672 0.0 0.0 27.0 0.0 0.0 19.0 
578.0044338991047 0.0 0.0 27.0 0.0 0.0 19.0 
579.0024186434014 0.0 0.0 27.0 0.0 0.0 19.0 
580.0008440549514 0.0 0.0 27.0 0.0 0.0 19.0 
581.0037623535899 0.0 0.0 27.0 0.0 0.0 20.0 
582.0008397526575 0.0 0.0 26.0 0.0 0.0 18.0 
583.0028388042963 0.0 0.0 26.0 0.0 0.0 18.0 
584.0001926246811 0.0 0.0 27.0 0.0 0.0 18.0 
585.0022880301447 0.0 0.0 27.0 0.0 0.0 18.0 
586.0050622869006 0.0 0.0 25.0 0.0 0.0 18.0 
587.0036449236011 0.0 0.0 25.0 0.0 0.0 19.0 
588.0045158130836 0.0 0.0 27.0 0.0 0.0 17.0 
589.0001179935811 0.0 0.0 27.0 0.0 0.0 17.0 
590.0068995854978 0.0 0.0 28.0 0.0 0.0 17.0 
591.0002231991807 0.0 0.0 26.0 0.0 0.0 17.0 
592.0018485029617 0.0 0.0 26.0 0.0 0.0 17.0 
593.0001382038607 0.03101871176027447 8.314950324087675 27.0 0.0 0.0 18.0 
594.0030769832874 0.023006706486708967 8.314950324087675 27.0 0.0 0.0 18.0 
595.0013318344575 0.006376805838533811 3.1884029192669345 27.0 0.0 0.0 17.0 
596.0030264548999 0.0 0.0 26.0 0.007063447904218495 1.2883609491870516 17.0 
597.0003152419808 0.0 0.0 26.0 0.007063447904218495 1.2883609491870516 17.0 
598.0063337478608 0.021169790055368554 5.333083904904726 24.0 0.0 0.0 18.0 
599.0002375102856 0.004903997500940119 2.451998750470068 24.0 0.0 0.0 19.0 
600.0005359261997 0.005950390664655992 2.9751953323280134 25.0 0.0 0.0 19.0 
#####################################################################
# End of data export. Simulation finished at: 2019-02-25T20:21+0000 #
#####################################################################
