#####################################################################
# Alchemist log file - simulation started at: 2019-02-25T20:40+0000 #
#####################################################################
# seed = 168.0
#
# The columns have the following meaning: 
# time distance-rep[Mean] distance-rep[Max] leader-rep[CountDistinct] distance-share[Mean] distance-share[Max] leader-share[CountDistinct] 
0.0 NaN NaN NaN NaN NaN NaN 
1.001407394985614 0.0 0.0 498.0 0.0 0.0 75.0 
2.000401565985561 0.0 0.0 119.0 0.0 0.0 68.0 
3.0028073402465116 0.0 0.0 112.0 0.0 0.0 61.0 
4.000132652495372 0.0 0.0 105.0 0.0 0.0 55.0 
5.003133654309556 0.0 0.0 96.0 0.0 0.0 48.0 
6.00086153928335 0.0 0.0 94.0 0.0 0.0 41.0 
7.0021261282661165 0.0 0.0 94.0 0.0 0.0 36.0 
8.00308340511694 0.0 0.0 83.0 0.0 0.0 37.0 
9.001023721594086 0.0 0.0 83.0 0.0 0.0 37.0 
10.00033041518935 0.0 0.0 77.0 0.0 0.0 36.0 
11.005123128343762 0.0 0.0 72.0 0.0 0.0 33.0 
12.00166875349053 0.0 0.0 72.0 0.0 0.0 30.0 
13.000553475401198 0.0 0.0 71.0 0.0 0.0 30.0 
14.002253422702605 0.0 0.0 62.0 0.0 0.0 30.0 
15.000487073627149 0.0 0.0 61.0 0.0 0.0 29.0 
16.002940200337036 0.0 0.0 61.0 0.0 0.0 28.0 
17.00067960752414 0.0 0.0 59.0 0.0 0.0 31.0 
18.000313818793565 0.0 0.0 57.0 0.0 0.0 33.0 
19.000789132216184 0.0 0.0 54.0 0.03250319330771505 16.25159665385749 31.0 
20.00181963879593 0.0 0.0 53.0 0.0 0.0 29.0 
21.00146351010437 0.0 0.0 52.0 0.0 0.0 26.0 
22.0006201574551 0.0 0.0 48.0 0.0 0.0 26.0 
23.001025208307535 0.0 0.0 48.0 0.0 0.0 27.0 
24.00307121936096 0.0 0.0 44.0 0.0 0.0 25.0 
25.003451186085282 0.0 0.0 43.0 0.0 0.0 25.0 
26.002547314860863 0.0 0.0 41.0 0.0 0.0 24.0 
27.000626009906 0.0 0.0 40.0 0.0 0.0 25.0 
28.00014161305277 9.193170631499412E-4 0.4596585315749735 39.0 0.0 0.0 24.0 
29.001407056411235 9.193170631499412E-4 0.4596585315749735 40.0 0.0 0.0 23.0 
30.001484273069316 0.036725990884727513 17.903336910788823 39.0 0.0 0.0 22.0 
31.003172412266586 0.0 0.0 42.0 0.0 0.0 23.0 
32.00212612826611 0.0 0.0 42.0 0.0 0.0 23.0 
33.00872458834232 0.0 0.0 42.0 0.0 0.0 20.0 
34.00639179403364 0.0 0.0 40.0 0.0 0.0 19.0 
35.00327984471948 0.0 0.0 38.0 0.0 0.0 20.0 
36.00836696957592 0.0 0.0 38.0 0.0 0.0 21.0 
37.000324467614774 0.0 0.0 38.0 0.0 0.0 21.0 
38.00051905936968 0.0 0.0 36.0 0.0 0.0 21.0 
39.00617847258734 0.0 0.0 36.0 0.0 0.0 22.0 
40.00213420835236 0.0 0.0 35.0 0.0 0.0 20.0 
41.00190316997063 0.0 0.0 35.0 0.0 0.0 19.0 
42.00212612826611 0.0 0.0 34.0 0.0 0.0 20.0 
43.00220050972217 0.0 0.0 34.0 0.0 0.0 17.0 
44.00011374322576 0.0 0.0 31.0 0.0 0.0 17.0 
45.00417575026707 0.0 0.0 30.0 0.0 0.0 16.0 
46.00079376642447 0.0 0.0 32.0 0.0 0.0 16.0 
47.000669671236345 0.0 0.0 32.0 0.0 0.0 16.0 
48.00173336769768 0.0 0.0 31.0 0.0 0.0 16.0 
49.004567818417854 0.0 0.0 31.0 0.0 0.0 16.0 
50.001957984606435 0.0 0.0 30.0 0.0 0.0 20.0 
51.006624084317416 0.0 0.0 29.0 0.0 0.0 20.0 
52.000537387279316 0.0 0.0 30.0 0.0 0.0 20.0 
53.00103254379924 0.013160860932990608 6.580430466495329 27.0 0.0 0.0 20.0 
54.000699934213856 0.013160860932990608 6.580430466495329 28.0 0.0 0.0 19.0 
55.000445027537715 0.022828531623731017 11.414265811865562 28.0 0.0 0.0 19.0 
56.000434911635686 0.022828531623731017 11.414265811865562 25.0 0.0 0.0 19.0 
57.00212612826611 0.0 0.0 28.0 0.0 0.0 19.0 
58.00030515392359 0.0024216570843074952 1.2108285421537346 27.0 0.0 0.0 19.0 
59.00755782251114 0.0024216570843074952 1.2108285421537346 27.0 0.0 0.0 18.0 
60.002201913002395 0.0 0.0 26.0 0.0 0.0 19.0 
61.0025318506203 0.0 0.0 25.0 0.0 0.0 19.0 
62.00038342036646 0.0 0.0 23.0 0.0 0.0 19.0 
63.00131140742816 0.0 0.0 24.0 0.0 0.0 19.0 
64.00112278434929 0.0 0.0 25.0 0.0 0.0 19.0 
65.00056014494808 0.0 0.0 25.0 0.0 0.0 19.0 
66.00233845638627 0.0 0.0 25.0 0.0 0.0 19.0 
67.00048049573834 0.0 0.0 24.0 0.0 0.0 19.0 
68.0051343143978 0.0 0.0 24.0 0.0 0.0 19.0 
69.003014698337 0.0 0.0 24.0 0.0 0.0 19.0 
70.00030863688762 0.0 0.0 24.0 0.0 0.0 19.0 
71.00145693617145 0.0 0.0 24.0 0.0 0.0 19.0 
72.00007140953173 0.0 0.0 24.0 0.0 0.0 18.0 
73.00066056801371 0.0 0.0 24.0 0.0 0.0 18.0 
74.0020410002428 0.0 0.0 24.0 0.0 0.0 18.0 
75.00159786172676 0.0 0.0 24.0 0.0 0.0 18.0 
76.00468229962895 0.0 0.0 24.0 0.0 0.0 18.0 
77.00212612826611 0.0 0.0 24.0 0.0 0.0 18.0 
78.00091731059929 0.0 0.0 25.0 0.0 0.0 20.0 
79.00089857986966 0.0 0.0 26.0 0.0 0.0 19.0 
80.00044209063985 0.0 0.0 28.0 0.0 0.0 19.0 
81.0009194936754 0.0 0.0 27.0 0.0 0.0 20.0 
82.00208021153418 0.0 0.0 27.0 0.0 0.0 20.0 
83.0044572717427 0.0 0.0 24.0 0.0 0.0 20.0 
84.00748562233868 0.0 0.0 24.0 0.0 0.0 20.0 
85.00055507999157 0.0 0.0 23.0 0.0 0.0 20.0 
86.00063752954021 0.0 0.0 22.0 0.0 0.0 20.0 
87.00208323267594 0.0 0.0 22.0 0.0 0.0 20.0 
88.0018909951384 0.0 0.0 21.0 0.0 0.0 20.0 
89.00114123840338 0.0 0.0 21.0 0.0 0.0 20.0 
90.00625212439812 0.0 0.0 21.0 0.0 0.0 20.0 
91.00197784558986 0.0 0.0 20.0 0.0 0.0 20.0 
92.00038487001356 0.0 0.0 20.0 0.0 0.0 20.0 
93.00238643836119 0.0 0.0 20.0 0.0 0.0 20.0 
94.00040840920943 0.0 0.0 20.0 0.0 0.0 20.0 
95.00214257080987 0.0 0.0 19.0 0.0 0.0 19.0 
96.00114382502176 0.0 0.0 19.0 0.0 0.0 19.0 
97.00212612826611 0.0 0.0 20.0 0.0 0.0 19.0 
98.00133734508111 0.0 0.0 20.0 0.0 0.0 18.0 
99.00298274418952 0.0 0.0 20.0 0.0 0.0 18.0 
100.00419259905516 0.0 0.0 19.0 0.0 0.0 18.0 
101.00108063952067 0.0 0.0 19.0 0.0 0.0 18.0 
102.00185180667118 0.0 0.0 19.0 0.0 0.0 18.0 
103.0010831253459 0.0 0.0 19.0 0.0 0.0 17.0 
104.00032022092235 0.0 0.0 19.0 0.0 0.0 17.0 
105.00294824217393 0.0 0.0 21.0 0.0 0.0 18.0 
106.00039688309155 0.0 0.0 21.0 0.0 0.0 18.0 
107.00212612826611 0.0 0.0 21.0 0.0 0.0 18.0 
108.00159442097802 0.0 0.0 20.0 0.0 0.0 18.0 
109.00066570385994 0.0 0.0 21.0 0.0 0.0 19.0 
110.00153308324735 0.0 0.0 20.0 0.0 0.0 19.0 
111.00074745277298 0.0 0.0 20.0 0.0 0.0 19.0 
112.00073259065364 0.0 0.0 20.0 0.0 0.0 18.0 
113.00259495918488 0.0 0.0 20.0 0.0 0.0 18.0 
114.0021000450435 0.0 0.0 20.0 0.0 0.0 18.0 
115.00135873624592 0.0 0.0 20.0 0.0 0.0 18.0 
116.0015887177898 0.0 0.0 21.0 0.0 0.0 18.0 
117.00209295948079 0.0 0.0 21.0 0.0 0.0 18.0 
118.00302423406114 0.0 0.0 21.0 0.0 0.0 18.0 
119.0008410161345 0.0 0.0 21.0 0.0 0.0 18.0 
120.00263093601367 0.0 0.0 21.0 0.0 0.0 18.0 
121.00023596495315 0.0 0.0 21.0 0.0 0.0 18.0 
122.00146398693792 0.0 0.0 20.0 0.0 0.0 18.0 
123.00063348210537 0.0 0.0 20.0 0.0 0.0 18.0 
124.00044114497857 0.0 0.0 20.0 0.0 0.0 18.0 
125.00019983060814 0.0 0.0 20.0 0.0 0.0 18.0 
126.00386727782723 0.0 0.0 20.0 3.169465601312145E-4 0.15847328006560701 19.0 
127.00124421354916 0.0 0.0 20.0 0.011669373677197328 5.834686838598685 19.0 
128.00083460556027 0.0 0.0 20.0 0.0 0.0 20.0 
129.00260881704403 0.0 0.0 20.0 0.0 0.0 20.0 
130.00023095593167 0.0 0.0 19.0 0.0 0.0 20.0 
131.00209156333892 0.0 0.0 19.0 0.0 0.0 20.0 
132.00212612826613 0.0 0.0 19.0 0.0 0.0 20.0 
133.00253508163058 0.0 0.0 19.0 0.0 0.0 20.0 
134.00063085925717 0.0 0.0 19.0 0.0 0.0 20.0 
135.00153480796527 0.0 0.0 19.0 0.0 0.0 19.0 
136.0012473340755 0.0 0.0 18.0 0.0 0.0 18.0 
137.00078244057755 0.0 0.0 18.0 0.0 0.0 18.0 
138.00021570778947 0.0 0.0 18.0 0.0 0.0 18.0 
139.0024576712168 0.0 0.0 18.0 0.0 0.0 18.0 
140.00095755283206 0.0 0.0 18.0 0.0 0.0 18.0 
141.00021396147685 0.0 0.0 18.0 0.0 0.0 18.0 
142.00065312577942 0.0 0.0 18.0 0.0 0.0 18.0 
143.0004643150632 0.0 0.0 17.0 0.0 0.0 18.0 
144.00092744681297 0.0 0.0 17.0 0.0 0.0 17.0 
145.00011197650758 0.0 0.0 17.0 0.0 0.0 17.0 
146.0017049201306 0.0 0.0 18.0 0.0 0.0 18.0 
147.00212612826613 0.0 0.0 18.0 0.0 0.0 17.0 
148.00082204239186 0.0 0.0 18.0 0.0 0.0 19.0 
149.00187635877765 0.0 0.0 18.0 0.0 0.0 20.0 
150.00298424833534 0.0 0.0 18.0 0.0 0.0 19.0 
151.00371446378654 0.0 0.0 18.0 0.0 0.0 19.0 
152.001251185165 0.0 0.0 18.0 0.0 0.0 19.0 
153.002612061821 0.0 0.0 18.0 0.0 0.0 19.0 
154.00001050776146 0.0 0.0 18.0 0.0 0.0 22.0 
155.00004939192686 0.0 0.0 17.0 0.0 0.0 20.0 
156.0018390467775 0.013667336321685326 6.833668160842649 18.0 0.0 0.0 20.0 
157.00212612826613 0.1269848553361149 26.15183160303792 20.0 0.0 0.0 20.0 
158.00170107579717 0.11014510425091283 30.31498092103172 20.0 0.0 0.0 19.0 
159.0046086555692 0.0 0.0 20.0 0.0 0.0 19.0 
160.00191414449338 3.44458861914631E-5 0.01722294309573158 20.0 0.0 0.0 19.0 
161.00062614735305 0.014970218497655643 7.485109248827797 20.0 0.0 0.0 19.0 
162.0003737357364 2.6751375524025915E-4 0.07026024193555713 21.0 0.0 0.0 20.0 
163.0073446193462 2.6751375524025915E-4 0.07026024193555713 22.0 0.0 0.0 20.0 
164.0010975318338 0.05112498597220139 18.140711669496284 22.0 0.0 0.0 22.0 
165.0010759651151 0.1372709236496425 24.268845076525707 22.0 0.0 0.0 21.0 
166.0018598078714 0.15971617941898028 20.039777620400912 22.0 0.0 0.0 20.0 
167.00212612826613 0.26346239432692176 31.447726796334933 22.0 0.0 0.0 20.0 
168.00126597551272 0.3162055854623536 31.447726796334933 20.0 0.0 0.0 20.0 
169.0001608630072 0.327165553048862 31.447726796334933 20.0 0.0 0.0 22.0 
170.00014772138343 0.3507783859328182 28.943563396472143 20.0 0.0 0.0 22.0 
171.0074378538803 0.34711191146864356 28.943563396472143 20.0 0.0 0.0 21.0 
172.00166008190047 0.44756870806896737 33.69864196399388 20.0 0.0 0.0 20.0 
173.00111245914732 0.5101766176808729 36.21065693481182 20.0 0.0 0.0 19.0 
174.00204352434935 0.5809121598221247 45.18651465671721 20.0 0.0 0.0 19.0 
175.0005013660456 0.4943941511727878 36.21065693481182 21.0 0.0 0.0 19.0 
176.0037424304209 0.5689339584549423 36.01461556912892 21.0 0.0 0.0 19.0 
177.00212612826613 0.750158326401068 43.30097084044738 21.0 0.0 0.0 20.0 
178.00082408645198 0.831809391591297 44.216692962224215 22.0 0.0 0.0 20.0 
179.00028911134123 0.7312410964337346 44.216692962224215 21.0 0.0 0.0 19.0 
180.00301842925995 0.7358642995016889 45.77502012960747 21.0 0.0 0.0 19.0 
181.00034518295297 0.69804529793742 45.77502012960747 20.0 0.0 0.0 19.0 
182.00201098530434 0.7742559579463814 51.49710572713241 20.0 0.0 0.0 19.0 
183.00018747267416 0.9589302890772565 53.01817487630083 20.0 0.0 0.0 20.0 
184.00364514223506 0.9356080316125266 53.01817487630083 20.0 0.0 0.0 20.0 
185.00015883918098 0.9317674655357447 45.42493389187209 19.0 0.0 0.0 20.0 
186.0007351379108 0.9773640101731367 52.84943632143472 19.0 0.0 0.0 18.0 
187.0006824989985 1.13857735773322 51.96444000272834 19.0 0.0 0.0 18.0 
188.00580602910702 1.2660781613611913 51.96444000272834 19.0 0.0 0.0 18.0 
189.00003216615153 1.4261638493708015 59.263215447170694 19.0 0.0 0.0 18.0 
190.002623724357 1.3298850400877054 52.52058493337438 18.0 0.0 0.0 18.0 
191.00343775047062 1.3732935021437531 56.91980205006763 19.0 0.0 0.0 18.0 
192.00212612826613 1.3141166892319034 55.60764033421802 19.0 0.0 0.0 18.0 
193.00269739066425 1.3742357490216148 56.628042910356385 20.0 0.0 0.0 18.0 
194.00045933167496 1.2796131153298589 55.60764033421802 20.0 0.0 0.0 18.0 
195.00216511212454 1.604286543016445 57.219250697888526 19.0 0.0 0.0 18.0 
196.0069517840546 1.1994826343226301 55.067882005753745 19.0 0.0 0.0 18.0 
197.0002299497568 1.0823499751954935 52.87878730402366 18.0 0.0 0.0 18.0 
198.00031084702445 1.0333521054750838 52.87878730402366 18.0 0.0 0.0 18.0 
199.0012987288372 1.0486117891274003 52.87878730402366 18.0 0.0 0.0 18.0 
200.00397991394132 1.0198344657561258 52.87878730402366 17.0 0.0 0.0 18.0 
201.00451001831223 1.0443849128882816 53.64073317439559 17.0 0.0 0.0 18.0 
202.000580944489 1.0047497946712598 53.64073317439559 17.0 0.0 0.0 18.0 
203.00014738353 1.0496336443791197 54.00459906978119 18.0 0.0 0.0 18.0 
204.00066056880866 1.1048822096624566 54.00459906978119 20.0 0.0 0.0 18.0 
205.0010838463512 1.0347208907400993 59.18286898351107 19.0 0.005705425278253194 2.852712639126622 18.0 
206.00012277869214 1.0532933409594756 59.18286898351107 19.0 0.0 0.0 19.0 
207.00212612826613 0.9914206875026282 49.9408111890877 19.0 0.0 0.0 19.0 
208.00044473238475 1.1533418346131699 59.76478328494852 19.0 0.0 0.0 19.0 
209.00202325244092 1.3259752385372308 62.828464272773545 19.0 0.0 0.0 17.0 
210.0040898311872 1.2033513674392606 62.828464272773545 19.0 0.0 0.0 17.0 
211.00553916740918 1.1748677425711342 57.30235151090784 19.0 0.0 0.0 17.0 
212.00006402184968 1.2358041878618138 57.93875589243362 19.0 0.0 0.0 17.0 
213.00083004493092 1.2919238783844733 57.93875589243362 19.0 0.0 0.0 17.0 
214.0000950186241 1.21411274680417 57.93875589243362 20.0 0.0 0.0 17.0 
215.00323052252878 1.2252360699545002 56.15946590850922 20.0 0.0 0.0 17.0 
216.00163054071425 1.1959358097099875 56.15946590850922 20.0 0.0 0.0 17.0 
217.00212612826613 1.2777067345939275 56.96042780356754 21.0 0.0 0.0 17.0 
218.0014762052214 1.3226079243340467 62.57207947949564 21.0 0.0 0.0 17.0 
219.00028278478717 1.3558256034926872 62.57207947949564 19.0 0.0 0.0 17.0 
220.00637724118872 1.3370621150166582 62.57207947949564 19.0 0.0 0.0 17.0 
221.0005813106637 1.4115850837126958 62.57207947949564 18.0 0.0 0.0 17.0 
222.00084338944407 1.4041030736608389 62.57207947949564 18.0 0.0 0.0 17.0 
223.00194842471535 1.433439265699283 63.72569427005692 18.0 0.0 0.0 17.0 
224.0081995159142 1.3791731701861847 69.5913561864798 17.0 0.0 0.0 17.0 
225.00110162399878 1.2881595241235866 66.02024240321623 17.0 0.0 0.0 18.0 
226.00105320930888 1.3324361463688874 66.02024240321623 17.0 0.0 0.0 18.0 
227.00212612826613 1.667981360447303 71.07903363421372 17.0 0.0 0.0 18.0 
228.0013717101662 1.618108226755857 69.0872492809471 17.0 0.0 0.0 18.0 
229.0044412796599 1.2904940401647897 69.20719147000909 17.0 0.0 0.0 18.0 
230.00480101743412 1.4393002928442693 69.20719147000909 17.0 0.0 0.0 18.0 
231.00263652875168 1.2062085405913379 67.30160819671391 17.0 0.0 0.0 18.0 
232.00132360659802 1.0937477821987565 67.30160819671391 16.0 0.0 0.0 17.0 
233.00210324107005 0.9112716536411307 52.287623278729455 16.0 0.0 0.0 18.0 
234.0018006907106 0.951615299359896 49.85019900961629 16.0 0.0 0.0 18.0 
235.00063201502198 0.7511862165769305 53.855823940891895 16.0 0.0 0.0 18.0 
236.0014468866905 0.8534951422074882 44.172241348064546 17.0 0.0 0.0 18.0 
237.00212612826613 0.8868986226240649 55.76863555304868 17.0 0.0 0.0 18.0 
238.00454499428974 0.4383453322369699 38.95533293591589 19.0 0.0 0.0 18.0 
239.00007902652533 0.007908045116549356 3.7282522716510016 19.0 0.0 0.0 18.0 
240.00032312030132 0.06565120989650303 22.566862747231795 19.0 0.0 0.0 18.0 
241.00077143029574 0.037014499861103015 7.50090089863852 19.0 0.0 0.0 18.0 
242.00212612826613 0.11124515501601805 29.77501603140729 20.0 0.0 0.0 19.0 
243.0042258762104 0.12565668711777253 29.77501603140729 20.0 0.0 0.0 20.0 
244.00006808902512 0.1480475699128585 33.3822105309867 20.0 0.0 0.0 20.0 
245.00117843197833 0.1623392418493536 33.3822105309867 20.0 0.0 0.0 20.0 
246.00015567774088 0.1078379426716882 17.26709505448315 20.0 0.0 0.0 19.0 
247.00114475192814 0.18126084022817532 40.549120438952485 20.0 0.0 0.0 19.0 
248.00696707466398 0.22931519928416358 44.376750539489166 20.0 0.0 0.0 19.0 
249.0012199319272 0.2416858297463921 44.376750539489166 20.0 0.0 0.0 19.0 
250.00234185996902 0.17092811799985397 51.55399825327984 22.0 0.0 0.0 19.0 
251.0034101644641 0.19458204899693426 51.55399825327984 21.0 0.0 0.0 19.0 
252.00025592518918 0.0810079697176397 10.28983599417694 22.0 0.0 0.0 19.0 
253.00143716412433 0.07489369634373826 10.28983599417694 22.0 0.0 0.0 19.0 
254.00919306790186 0.0833010834629162 10.28983599417694 21.0 0.0 0.0 19.0 
255.0027270122082 0.0833010834629162 10.28983599417694 21.0 0.0 0.0 19.0 
256.0001109299874 0.14722521839147515 15.166062083857383 20.0 0.0 0.0 18.0 
257.0016890161702 0.10325225025173672 12.819774353942137 20.0 0.0 0.0 18.0 
258.00018057804994 0.10114601185209902 15.67221268593866 20.0 0.0 0.0 18.0 
259.0032302162055 0.12185371959754288 15.67221268593866 20.0 0.0 0.0 18.0 
260.000033953571 0.1151458269684593 18.55612960309793 19.0 0.0 0.0 18.0 
261.00035035865574 0.13898677208524488 18.55612960309793 19.0 0.02649171602184267 13.245858010921353 18.0 
262.0000187051554 0.18946772483791469 22.325878312328598 19.0 0.0 0.0 17.0 
263.0006720884427 0.16292750890331315 22.325878312328598 19.0 0.0 0.0 17.0 
264.0010575813553 0.21728125093410752 23.99554829885517 19.0 0.0 0.0 16.0 
265.0001511094743 0.21335675937344886 23.99554829885517 19.0 0.0 0.0 16.0 
266.0048063386363 0.23826988257238874 27.352354074495537 19.0 0.0 0.0 16.0 
267.0021261282661 0.12835611030540645 21.40407206946449 19.0 0.0 0.0 16.0 
268.0004861260087 0.1418912450124694 21.40407206946449 17.0 0.0 0.0 16.0 
269.00209513673224 0.09909149912717546 21.40407206946449 18.0 0.0 0.0 16.0 
270.00312106549563 0.10247871888091632 22.4945788403154 17.0 0.0 0.0 16.0 
271.00219284233935 0.1076459182154623 21.217230752070037 17.0 0.006527481994591554 3.26374099729577 17.0 
272.0021261282661 0.14960293534585378 21.344052128936596 17.0 0.011701928623245069 5.85096431162259 16.0 
273.00270111767503 0.14960293534585378 21.344052128936596 17.0 0.0 0.0 16.0 
274.0000298495948 0.21258347909457853 22.435411285049497 17.0 0.0 0.0 16.0 
275.0021605707329 0.19508927194146408 27.271138969131755 17.0 0.006902480616972715 3.451240308486348 16.0 
276.0001733621874 0.34862242416661837 31.08918800595447 17.0 0.018900714217173986 4.3932728268083 16.0 
277.0003779284894 0.36763294039397626 28.36554030946732 17.0 0.023589051075625055 5.795408737711853 16.0 
278.00022181804115 0.3667241681752636 28.36554030946732 17.0 0.014802505422008479 5.795408737711853 17.0 
279.00246665131937 0.4324624312563142 30.74596755657663 20.0 0.0 0.0 18.0 
280.00250786818265 0.41031731642804614 29.988702945414076 20.0 0.0 0.0 18.0 
281.00176800136654 0.5405375305243862 34.58283270320791 20.0 0.0 0.0 18.0 
282.0021261282661 0.5346254424038202 34.394200772742636 20.0 0.0 0.0 18.0 
283.00877390519025 0.6014108017855061 34.394200772742636 19.0 0.0 0.0 18.0 
284.00029946953356 0.5454399224306087 32.059048214281034 19.0 0.0 0.0 18.0 
285.00146513647235 0.5568390781198935 41.415480070028764 19.0 0.0 0.0 18.0 
286.0014146663515 0.8694234004574746 41.415480070028764 19.0 0.0 0.0 18.0 
287.0003152764928 0.6557272240072465 39.955752546773596 19.0 0.0 0.0 18.0 
288.00504208390873 0.8363205744647526 40.802461428884214 19.0 0.0 0.0 18.0 
289.0008453683266 0.7527777283297795 40.802461428884214 19.0 0.0 0.0 17.0 
290.00080477224253 0.5373307928089595 39.955752546773596 20.0 0.0 0.0 18.0 
291.0000275590076 0.6417117095451103 47.023813628197814 20.0 0.0 0.0 17.0 
292.000131729289 0.4164749268298671 37.090941487961885 19.0 0.0 0.0 17.0 
293.00045920817905 0.6671393583529358 50.359801759165265 21.0 0.0 0.0 17.0 
294.00020489047193 0.3164465180385229 39.274517541081764 21.0 0.0 0.0 17.0 
295.00169165163936 0.2379122364571315 43.8545619328782 20.0 0.0 0.0 17.0 
296.00042316578333 0.27620576300439664 51.028896734435904 20.0 0.0 0.0 17.0 
297.0021261282661 0.23454434499580146 45.13967778606707 20.0 0.0 0.0 17.0 
298.0111611372863 0.23712317448143438 46.42909252888444 20.0 0.0 0.0 17.0 
299.00305795781975 0.16299285493408688 54.81064068242716 20.0 0.0 0.0 17.0 
300.0000514903042 0.05247212018308707 14.583368272250311 20.0 0.0 0.0 17.0 
301.00209680046834 0.05247212018308707 14.583368272250311 20.0 0.0 0.0 17.0 
302.0021261282661 0.1336717119682752 24.856846758737845 20.0 0.0 0.0 18.0 
303.0008250192653 0.10793481676772257 24.856846758737845 19.0 0.0 0.0 18.0 
304.00233599453884 0.11978665044751952 27.72247902177972 20.0 0.0 0.0 17.0 
305.0014527474043 0.16674381744129024 27.72247902177972 19.0 0.0 0.0 17.0 
306.00088898886565 0.16674381744129024 27.72247902177972 19.0 0.0 0.0 17.0 
307.001124894613 0.2283467069603829 34.48034327858704 19.0 0.0 0.0 17.0 
308.00550518438797 0.4562732613437623 55.203367819201816 18.0 0.0 0.0 17.0 
309.0007131474455 0.35176421586078205 55.203367819201816 19.0 0.0 0.0 17.0 
310.00458132116154 0.16881827660254456 40.883033130446535 18.0 0.0 0.0 17.0 
311.00110686802213 0.32884690195191146 50.22966883926753 19.0 0.0 0.0 17.0 
312.00155479138795 0.34816995764431424 56.894879028518574 19.0 0.0 0.0 18.0 
313.00203986749887 0.2539009381904589 51.29682396685621 20.0 0.0 0.0 17.0 
314.0007631556723 0.09044401345200705 13.417929489920283 20.0 0.004877836251827219 2.4389181259136024 16.0 
315.0032450360669 0.09527756674673717 17.00702750576835 20.0 0.004877836251827219 2.4389181259136024 16.0 
316.0002962620658 0.0884273079367931 16.884104380032568 20.0 0.004877836251827219 2.4389181259136024 16.0 
317.00189263114953 0.10869105411422589 16.884104380032568 20.0 0.004877836251827219 2.4389181259136024 16.0 
318.0006352363678 0.061562952747770794 16.884104380032568 19.0 0.0 0.0 16.0 
319.0012681803875 0.06078082472062962 12.101104131001136 19.0 0.0 0.0 17.0 
320.0000518147587 0.05316219867604375 12.101104131001136 19.0 0.0 0.0 17.0 
321.00211327242164 0.03070380236485663 12.101104131001136 19.0 0.0 0.0 20.0 
322.0000488602517 0.009396511508825105 4.698255754412514 19.0 0.0 0.0 19.0 
323.00153910137726 0.009396511508825105 4.698255754412514 20.0 0.0 0.0 19.0 
324.00025652137 0.0 0.0 20.0 0.0 0.0 19.0 
325.00012593525275 0.0 0.0 20.0 0.0 0.0 19.0 
326.0029937098111 0.0 0.0 20.0 0.0 0.0 20.0 
327.00040930704733 0.008299312321595084 4.149656160797576 20.0 0.0 0.0 19.0 
328.00062703740565 0.008299312321595084 4.149656160797576 20.0 0.0 0.0 19.0 
329.0008877744789 0.008299312321595084 4.149656160797576 20.0 0.0 0.0 18.0 
330.00215550974195 0.0 0.0 19.0 0.0 0.0 18.0 
331.00053773995637 0.0 0.0 19.0 0.0 0.0 18.0 
332.00029585349296 0.0022111080664687314 1.1055540332343696 19.0 0.0 0.0 18.0 
333.0007222094276 0.0 0.0 19.0 0.0 0.0 17.0 
334.0044871633471 0.0 0.0 19.0 0.0 0.0 17.0 
335.0005298888568 0.0 0.0 19.0 0.0 0.0 16.0 
336.00186662853287 0.0 0.0 19.0 0.0 0.0 16.0 
337.00161335046687 0.0 0.0 19.0 0.0 0.0 16.0 
338.0019620485171 0.0 0.0 19.0 0.0 0.0 16.0 
339.0036952175279 0.0 0.0 19.0 0.0 0.0 16.0 
340.0000768329382 0.0 0.0 17.0 0.0 0.0 15.0 
341.00048050517904 0.0 0.0 17.0 0.0 0.0 15.0 
342.0021261282661 0.0 0.0 17.0 0.0 0.0 15.0 
343.0027247708565 0.0 0.0 17.0 0.0 0.0 15.0 
344.0005196242203 0.0 0.0 17.0 0.0 0.0 15.0 
345.00282564567294 0.0020014216369559734 1.0007108184779838 17.0 0.0 0.0 15.0 
346.00372212109653 0.0010124517586531316 0.5062258793265642 17.0 0.0 0.0 15.0 
347.0008609090128 0.015937088491708513 7.968544245854218 18.0 0.0 0.0 15.0 
348.00566083271184 0.0 0.0 18.0 0.0 0.0 15.0 
349.0018175313512 0.016926045477303142 8.463022738651631 18.0 0.0 0.0 15.0 
350.00056154414204 0.0 0.0 18.0 0.0 0.0 15.0 
351.00163192050485 0.0 0.0 18.0 0.0 0.0 15.0 
352.00077211788613 0.0 0.0 17.0 0.0 0.0 16.0 
353.00014029056234 0.0 0.0 17.0 0.0 0.0 16.0 
354.0013725228223 0.0 0.0 17.0 0.0 0.0 16.0 
355.00446635083483 0.0 0.0 18.0 0.0 0.0 17.0 
356.0010737667395 0.0 0.0 18.0 0.0 0.0 17.0 
357.0005896372466 0.0 0.0 19.0 0.0 0.0 18.0 
358.00250915281225 0.0 0.0 19.0 0.0 0.0 18.0 
359.0012758644896 0.0 0.0 21.0 0.0 0.0 18.0 
360.0074175612558 0.0 0.0 21.0 0.0 0.0 18.0 
361.0019628171748 0.0 0.0 21.0 0.0 0.0 18.0 
362.000598589823 0.0 0.0 19.0 0.0 0.0 18.0 
363.003355387747 0.0 0.0 19.0 0.0 0.0 18.0 
364.00006079609363 0.0 0.0 19.0 0.0 0.0 18.0 
365.00580143530567 0.0 0.0 19.0 0.0 0.0 18.0 
366.0009322502139 0.0 0.0 19.0 0.0 0.0 19.0 
367.0013048040563 0.036714538104845325 18.35726905242251 19.0 0.0 0.0 19.0 
368.00158914597836 0.036714538104845325 18.35726905242251 19.0 0.0 0.0 19.0 
369.0001557638134 0.036714538104845325 18.35726905242251 19.0 0.0 0.0 19.0 
370.0056693311749 0.05024652784585567 25.12326392292789 19.0 0.0 0.0 20.0 
371.00384614092513 0.056020839945672224 26.650037742068236 20.0 0.0 0.0 21.0 
372.0012578706536 0.05330007548413618 26.650037742068236 21.0 0.0 0.0 20.0 
373.0000968132778 0.05330007548413618 26.650037742068236 21.0 0.0 0.0 20.0 
374.00008556176266 0.05330007548413618 26.650037742068236 20.0 0.0 0.0 20.0 
375.00779826744355 0.07220679315531209 33.25514955637843 20.0 0.0 0.0 20.0 
376.0009259637924 0.07552513463069642 34.914320294070706 20.0 0.0 0.0 20.0 
377.0021261282661 0.08461102284872783 34.914320294070706 20.0 0.0 0.0 20.0 
378.0031314611994 0.08461102284872783 34.914320294070706 20.0 0.0 0.0 19.0 
379.0040528839992 0.08461102284872783 34.914320294070706 20.0 0.0 0.0 19.0 
380.00314894953516 0.003225397901981225 1.6126989509906196 20.0 0.0 0.0 19.0 
381.00012721684675 0.013110126771978755 6.555063385989399 20.0 0.0 0.0 19.0 
382.0021261282661 0.013110126771978755 6.555063385989399 20.0 0.0 0.0 19.0 
383.01073967812613 0.013110126771978755 6.555063385989399 21.0 0.0 0.0 19.0 
384.0018030515601 0.10048166562059099 43.685769424306244 21.0 0.0 0.0 19.0 
385.008141659126 0.001090909345491183 0.545454672745592 21.0 0.0 0.0 19.0 
386.0001414428677 0.001090909345491183 0.545454672745592 21.0 0.0 0.0 19.0 
387.0014926108296 0.011446514677435883 5.723257338717957 21.0 0.0 0.0 19.0 
388.00207483011417 0.011446514677435883 5.723257338717957 21.0 0.0 0.0 19.0 
389.00132701210475 0.015470391036315466 5.723257338717957 22.0 0.0 0.0 20.0 
390.00128099590887 0.10366047494302394 46.45227567239564 22.0 0.0 0.0 19.0 
391.00274644885855 0.03555111844647949 7.10027741213662 21.0 0.0 0.0 19.0 
392.0016089509344 0.0554736667847731 7.10027741213662 21.0 0.0 0.0 19.0 
393.00076379496534 0.0554736667847731 7.10027741213662 21.0 0.0 0.0 19.0 
394.0026695828987 0.07223926029475308 11.599554758603006 21.0 0.0 0.0 19.0 
395.0035512666383 0.0739138565397659 12.83340018130508 20.0 0.0 0.0 18.0 
396.00169761964116 0.23381314056774824 45.91010537620943 20.0 0.0 0.0 18.0 
397.001002042501 0.2510703359082302 45.91010537620943 20.0 0.0 0.0 18.0 
398.0030854522174 0.31898488226221544 45.91010537620943 20.0 0.0 0.0 19.0 
399.0000769665336 0.3099737099847241 45.91010537620943 20.0 0.0 0.0 17.0 
400.00023747254323 0.3350178780866506 39.65507428983426 20.0 0.0 0.0 17.0 
401.0010415210809 0.43423324894590076 43.1248558746876 20.0 0.0 0.0 17.0 
402.0008556503745 0.5243816998998883 43.1248558746876 20.0 0.0 0.0 17.0 
403.00067189673615 0.42827105156589734 43.1248558746876 20.0 0.0 0.0 17.0 
404.0000641856623 0.5868702397715136 43.1248558746876 20.0 0.0 0.0 17.0 
405.00001522064616 0.5392980533685361 37.07873779074734 21.0 0.0 0.0 17.0 
406.00332043053515 0.5836811668510136 42.09384222499585 20.0 0.0 0.0 17.0 
407.0010149222924 0.5992936741422357 40.84711807452163 20.0 0.0 0.0 17.0 
408.0030929752703 0.5792534527247691 40.84711807452163 20.0 0.0 0.0 17.0 
409.00149842795724 0.6953768841632699 40.84711807452163 20.0 0.0 0.0 17.0 
410.00040394309883 0.7048498047917411 41.45214234874925 20.0 0.0 0.0 16.0 
411.00177193770634 0.8038097451248432 45.375361684288094 19.0 0.0 0.0 15.0 
412.0014887663348 0.9130109028612703 45.375361684288094 19.0 0.0 0.0 16.0 
413.0015742131893 0.9963384827524432 45.96398793348223 19.0 0.0 0.0 15.0 
414.0003116090164 0.7031113979771869 45.375361684288094 20.0 0.0 0.0 15.0 
415.0001719954351 0.7234137954244864 45.96398793348223 20.0 0.0 0.0 16.0 
416.0008595782776 0.8057118049221167 51.90090969858872 19.0 0.0 0.0 16.0 
417.00041133287027 0.7554821683323116 45.342598746732705 20.0 0.0 0.0 17.0 
418.0028717217333 0.8023069081119476 51.90090969858872 19.0 0.0 0.0 17.0 
419.00038876068277 0.8919711318541537 45.342598746732705 19.0 0.0 0.0 17.0 
420.0003427780772 0.7181813788610694 45.342598746732705 19.0 0.0 0.0 17.0 
421.00110069233625 0.7746538500256477 50.27162750685491 19.0 0.0 0.0 17.0 
422.0021261282661 0.9948503971727622 57.85543304157159 20.0 0.0 0.0 17.0 
423.0018849286146 0.9439448568586104 65.17696400231972 19.0 0.0 0.0 18.0 
424.0003996591493 1.0909019020657034 71.98742375057299 19.0 0.0 0.0 18.0 
425.0007398530673 1.0479377809378345 72.99532927773657 18.0 0.0 0.0 18.0 
426.0033420344968 1.0499709885507504 72.99532927773657 18.0 0.0 0.0 18.0 
427.00067554770027 1.5570902426603113 88.18368112571471 18.0 0.0 0.0 18.0 
428.00246300012645 1.6066768561224927 88.18368112571471 18.0 0.0 0.0 18.0 
429.0013422391536 1.423260518667724 84.02921106803353 18.0 0.0 0.0 17.0 
430.0035227415945 1.6094280760956563 89.2030538903976 18.0 0.0 0.0 17.0 
431.0013031997609 1.99064453974246 89.2030538903976 18.0 0.0 0.0 17.0 
432.00104085272477 1.8846644618696655 96.52378032512672 18.0 0.0 0.0 18.0 
433.0037001110099 1.8389187822595323 96.52378032512672 19.0 0.0 0.0 19.0 
434.0010381232623 1.8391974608695363 96.52378032512672 19.0 0.0 0.0 20.0 
435.00200903955067 1.7153558550569727 94.60397096955552 20.0 4.8531399230313286E-4 0.24265699615156677 20.0 
436.00331153251904 1.931819885894538 99.34008928737029 20.0 4.8531399230313286E-4 0.24265699615156677 20.0 
437.00032586045864 2.2113865998871125 106.67100961762475 19.0 4.8531399230313286E-4 0.24265699615156677 20.0 
438.00141824558233 2.2893291166890126 106.67100961762475 19.0 0.0 0.0 21.0 
439.0045552869616 2.212994925114421 106.67100961762475 19.0 0.0 0.0 21.0 
440.0007066473407 2.2501413576132654 111.24241513799387 19.0 0.0 0.0 21.0 
441.000448252213 2.3208585524053196 111.24241513799387 19.0 0.0 0.0 21.0 
442.00061708660365 2.2532543749309064 111.77380328918088 21.0 0.0 0.0 22.0 
443.0037359166303 2.5485818369217847 118.66084027704466 21.0 0.0 0.0 21.0 
444.00221331362684 2.4923424817366495 118.66084027704466 21.0 0.0 0.0 21.0 
445.0016257717679 2.4046855934289204 118.66084027704466 21.0 0.0 0.0 21.0 
446.0009838137132 2.0918741374378746 116.73385046809233 19.0 0.0 0.0 21.0 
447.00134875305395 2.417921295086237 124.0670888281469 22.0 0.0 0.0 21.0 
448.00160294180296 2.181792548540719 124.0670888281469 20.0 0.0 0.0 21.0 
449.00729834247755 2.3825794177657107 124.0670888281469 20.0 0.0 0.0 21.0 
450.00357718228383 2.9238735114780225 138.1986661534429 20.0 0.0 0.0 21.0 
451.0022877670417 2.6354755708698256 125.92326407091764 20.0 0.0 0.0 21.0 
452.00102203158445 2.821963959036717 133.30326713740692 19.0 0.0 0.0 20.0 
453.00287279416636 3.246488500444377 138.32036763941215 20.0 0.0 0.0 20.0 
454.00029983755417 3.2647289663300643 138.32036763941215 22.0 0.0 0.0 20.0 
455.00021934766795 3.565025182850078 138.32036763941215 21.0 0.013839905189466099 6.919952594733104 19.0 
456.0004577035675 3.5139780849388322 139.20636218981605 21.0 0.013839905189466099 6.919952594733104 19.0 
457.0017848592486 3.7955869702748823 146.5877693832894 21.0 0.0 0.0 19.0 
458.00155423711095 3.7916379043737956 146.5877693832894 20.0 0.0 0.0 19.0 
459.00154863629626 3.7223329701755015 146.5877693832894 21.0 0.0 0.0 19.0 
460.00245366829296 3.759831446853885 146.5877693832894 21.0 8.671395187036567E-6 0.004335697593518262 19.0 
461.00014677324265 3.40682875472672 140.32922973743268 20.0 8.671395187036567E-6 0.004335697593518262 19.0 
462.0021261282661 3.6460660659888227 148.550751408714 21.0 8.671395187036567E-6 0.004335697593518262 19.0 
463.0020639919911 3.657107972379627 148.550751408714 20.0 8.671395187036567E-6 0.004335697593518262 18.0 
464.0028274234233 3.998406903613104 161.33238783754462 20.0 0.0 0.0 19.0 
465.0022918097514 3.6947828566594723 149.7092054930331 19.0 0.0 0.0 20.0 
466.00174439734405 3.4191793332643976 149.7092054930331 19.0 0.0 0.0 19.0 
467.00150930265187 3.6571915627249365 156.8881060389656 20.0 0.0 0.0 19.0 
468.00783283805066 3.3485153580039984 155.370390594573 20.0 0.0 0.0 19.0 
469.00373784090266 3.833020652116629 157.9443482753586 21.0 0.0 0.0 19.0 
470.00042375992217 3.436367303919588 181.79961831531824 20.0 0.0 0.0 21.0 
471.000706067607 3.554628572116332 157.9443482753586 20.0 0.0 0.0 21.0 
472.0021261282661 4.162313593381725 190.78773909105763 20.0 0.0 0.0 20.0 
473.00407798868446 3.108854928249409 160.9295810777603 20.0 0.0 0.0 20.0 
474.0037251848521 3.9947258681173956 186.0162604325356 20.0 0.0 0.0 20.0 
475.00115410038774 4.371217650488312 187.53115034669008 21.0 0.0 0.0 19.0 
476.00178498902915 3.3152658038454494 163.63532773933616 21.0 0.0 0.0 19.0 
477.0015965980599 3.880128810278723 193.20005021413857 21.0 0.0 0.0 19.0 
478.00075288311115 3.624940055513149 171.89345941853992 21.0 0.0 0.0 19.0 
479.0010049320052 4.190260147669423 194.69687805309326 21.0 0.0 0.0 19.0 
480.0008316166818 3.6441836874010067 171.89345941853992 21.0 0.0 0.0 19.0 
481.0015274505716 4.434299783737609 191.87321348101437 21.0 0.0 0.0 19.0 
482.0021261282661 4.484756484423336 190.43671817587824 22.0 0.0 0.0 18.0 
483.0015282069674 4.64148091064687 198.9552306133367 22.0 0.0 0.0 17.0 
484.0002894198595 4.661089938712272 198.9552306133367 22.0 0.0 0.0 17.0 
485.001278791622 4.264221195430467 191.8645199003771 22.0 0.0 0.0 17.0 
486.0005461846299 5.025585691509628 195.41894117564152 21.0 0.0 0.0 17.0 
487.0021261282661 5.092230333509012 188.444510231641 21.0 0.0 0.0 17.0 
488.0031772349771 4.80506491272647 188.444510231641 21.0 0.0 0.0 17.0 
489.00095048796896 4.864037440422486 188.444510231641 21.0 0.0 0.0 18.0 
490.00043645546793 4.8407296717028325 181.24425373180662 21.0 0.0 0.0 18.0 
491.0002822291322 4.9222620605612155 181.24425373180662 21.0 0.0 0.0 18.0 
492.0021261282661 5.327702159280661 177.70266906599284 21.0 0.0 0.0 18.0 
493.0012296281372 4.352270038447385 173.8891939824225 21.0 0.0 0.0 18.0 
494.00095396676 4.756519972820318 173.8891939824225 21.0 0.0 0.0 18.0 
495.00045240746095 4.772743368261749 169.89006056785666 21.0 0.0 0.0 19.0 
496.0002392387983 4.4336486574240075 166.75030610850246 20.0 0.0 0.0 19.0 
497.00007912681684 4.9553883066225355 172.0789052707085 20.0 0.0 0.0 19.0 
498.00191455100185 4.977468451754014 165.05872895460163 20.0 0.0 0.0 19.0 
499.00059861700436 4.762250153295039 165.05872895460163 20.0 0.0 0.0 19.0 
500.0007672494138 4.794441462776418 170.8512216949909 20.0 0.0 0.0 19.0 
501.0041644960316 4.810692461964135 170.8512216949909 20.0 0.006192003136121039 3.096001568060501 19.0 
502.00054009310924 4.331150108341225 154.69716087060482 19.0 0.0 0.0 18.0 
503.00228857713813 4.663416135621225 163.74384314882366 21.0 0.0 0.0 19.0 
504.0037302940565 4.307673257351916 163.74384314882366 21.0 0.0 0.0 19.0 
505.0016201234808 4.336987171802049 169.49491658757324 20.0 0.0 0.0 18.0 
506.00260840632103 4.006470463182972 161.81699285148875 21.0 0.0 0.0 18.0 
507.0021261282661 3.7980778934602717 154.523510057031 21.0 0.0 0.0 18.0 
508.004056707277 3.793852415847138 154.523510057031 21.0 0.0 0.0 18.0 
509.00215392767456 3.281163127669653 154.523510057031 21.0 0.0 0.0 18.0 
510.00024505485356 3.01278843824544 160.9980535400785 21.0 0.0 0.0 18.0 
511.0011291274096 3.3075826796997942 160.9980535400785 21.0 0.0 0.0 18.0 
512.0021261282661 2.8647602253475712 153.7453717878608 21.0 0.0 0.0 19.0 
513.0000139487988 1.5528075544270779 137.164312273551 21.0 0.0 0.0 19.0 
514.0010909899456 2.615411764246219 153.7453717878608 21.0 0.0 0.0 19.0 
515.0005561391308 1.6181910360078249 153.7453717878608 21.0 0.0 0.0 19.0 
516.002400077183 2.138281108005527 156.7758094598076 21.0 0.0 0.0 19.0 
517.0004914345106 0.7634098665733101 136.98492465393963 21.0 0.0 0.0 19.0 
518.0002291466069 0.7308598325767599 123.3384971370848 21.0 0.0 0.0 19.0 
519.0030170653473 0.241424853705648 119.24223211663133 20.0 0.0 0.0 19.0 
520.0028815280124 1.009502802015924 136.98492465393963 19.0 0.0 0.0 19.0 
521.0024995454113 0.2568356768707138 121.64842781777082 19.0 0.0 0.0 19.0 
522.0021261282661 0.22664285522206423 113.32142761103182 19.0 0.0 0.0 18.0 
523.0001217728089 0.23237047444834547 116.18523722417262 19.0 0.0 0.0 18.0 
524.0021492776193 0.01353882123517095 6.769410617585493 18.0 0.0 0.0 17.0 
525.0022463159265 0.266506570629605 126.86453857180197 19.0 0.0 0.0 17.0 
526.0004978967119 0.012777493486001585 6.388746743000809 18.0 0.0 0.0 17.0 
527.0021261282661 0.012777493486001585 6.388746743000809 18.0 0.0 0.0 17.0 
528.0010454566084 0.04905003154761657 11.876932379826627 18.0 0.0 0.0 17.0 
529.0015012280945 0.06421976778960536 11.876932379826627 19.0 0.0 0.0 17.0 
530.0019774234175 0.06624666629529999 19.21688762987 19.0 0.0 0.0 17.0 
531.0018829105148 0.05086182660211114 19.21688762987 19.0 0.0 0.0 15.0 
532.0004822792819 0.05086182660211114 19.21688762987 18.0 0.0 0.0 16.0 
533.0016938847094 0.05252294805140248 11.759610693877846 19.0 0.0 0.0 16.0 
534.0012886280373 0.06535704677923451 19.110623144944668 18.0 0.0 0.0 16.0 
535.001504858904 0.08696883635688044 19.110623144944668 18.0 0.0 0.0 15.0 
536.0014103460013 0.07336274843608888 19.110623144944668 17.0 0.0 0.0 15.0 
537.0013158330986 0.07094174011681276 19.110623144944668 17.0 0.0 0.0 15.0 
538.0012213201959 0.16571863211748086 28.72754838407738 17.0 0.0 0.0 15.0 
539.0002841769649 0.1410761325798244 28.72754838407738 17.0 0.0 0.0 16.0 
540.0002195807315 0.16810520730269662 27.490551738722132 17.0 0.0 0.0 15.0 
541.0009377814878 0.15417359588664556 20.524746030697003 17.0 0.0 0.0 15.0 
542.0008432685851 0.09892944802988934 18.95869980927762 17.0 0.0 0.0 15.0 
543.0007487556824 0.18622117340635136 26.589121450387267 17.0 0.0 0.0 15.0 
544.0006542427797 0.25631495052022574 29.401289135538605 17.0 0.0 0.0 15.0 
545.000559729877 0.35334441373632836 60.1116604813393 17.0 0.0 0.0 16.0 
546.0004652169742 0.33674660020213737 44.233005557244326 17.0 0.0 0.0 16.0 
547.0003707040715 0.4954394834148378 53.570652483447816 17.0 0.0 0.0 16.0 
548.0002761911688 0.2770328515018034 36.92488441326768 16.0 0.0 0.0 16.0 
549.0001816782661 0.30363526715167444 36.7865915720285 16.0 0.0 0.0 16.0 
550.0000871653634 0.5262836360256645 59.50434317555266 16.0 0.0 0.0 16.0 
551.0001888681111 0.4168274056753903 59.50434317555266 17.0 0.0 0.0 16.0 
552.0021261282661 0.3550299519823125 53.00932684682047 16.0 0.0 0.0 16.0 
553.000525509146 0.4997223022462592 59.090145514314145 18.0 0.0 0.0 16.0 
554.0020495414103 0.5172446331413002 59.090145514314145 18.0 0.0 0.0 16.0 
555.0008573515635 0.4395158048582653 59.090145514314145 16.0 0.0 0.0 16.0 
556.0062578248429 0.43929289088546425 59.090145514314145 16.0 0.0 0.0 15.0 
557.0000174466526 0.3916838777098106 52.648045716649676 16.0 0.0 0.0 15.0 
558.0007296866085 0.5388111453416206 58.71953117981326 16.0 0.0 0.0 15.0 
559.0010671674098 0.6055898159529529 58.71953117981326 16.0 0.004891293032557615 2.4456465162787993 14.0 
560.0011713137208 0.6384859793641805 58.71953117981326 16.0 0.0 0.0 14.0 
561.0001906280719 0.624897253276623 58.71953117981326 16.0 0.0 0.0 14.0 
562.0004500206389 0.6232992249942534 52.48838528144631 16.0 0.0 0.0 14.0 
563.00285567315 0.7698069365226796 58.56064682847796 16.0 0.0 0.0 14.0 
564.0002426730176 0.8522494061909894 58.56064682847796 16.0 0.0 0.0 15.0 
565.0009941735876 0.8586931305180747 58.56064682847796 17.0 0.0 0.0 15.0 
566.0017284158853 0.8214146659983805 58.56064682847796 17.0 0.0 0.0 15.0 
567.0019566651542 0.7407047586576291 53.040030181093016 17.0 0.0 0.0 15.0 
568.0016642345071 0.7166788195248818 59.59804248452116 17.0 0.0 0.0 15.0 
569.0027895881449 0.6068569524766458 59.59804248452116 18.0 0.0 0.0 15.0 
570.0011284555079 0.238775739203757 47.38437450492211 19.0 0.0 0.0 15.0 
571.0054261684322 0.0035615242001998003 1.2096189451205532 19.0 0.0 0.0 15.0 
572.0021261282661 0.0 0.0 19.0 0.0 0.0 15.0 
573.0057946098732 0.0 0.0 18.0 0.0 0.0 15.0 
574.0015344325687 0.0 0.0 19.0 0.0 0.0 16.0 
575.0024573594211 0.0 0.0 19.0 0.0 0.0 16.0 
576.0018433431973 0.0 0.0 18.0 0.0 0.0 15.0 
577.0008996269801 0.005055403273820452 2.5277016369102228 18.0 0.0 0.0 15.0 
578.006548352433 0.0 0.0 19.0 0.0 0.0 15.0 
579.0018718542882 0.0 0.0 19.0 0.0 0.0 15.0 
580.0007306626329 0.0 0.0 19.0 0.0 0.0 15.0 
581.0000559701401 0.0 0.0 20.0 0.0 0.0 16.0 
582.0021261282661 0.0 0.0 20.0 0.0 0.0 16.0 
583.0020210059565 0.0 0.0 20.0 0.0 0.0 16.0 
584.0015355278238 0.0 0.0 20.0 0.0 0.0 16.0 
585.0000198437201 0.0 0.0 20.0 0.0 0.0 16.0 
586.0003065829188 0.0 0.0 20.0 0.0 0.0 16.0 
587.0021261282661 4.734414474658E-4 0.2367207237329012 21.0 0.0 0.0 16.0 
588.0018537247684 0.0 0.0 21.0 0.0 0.0 16.0 
589.0001854995257 0.0 0.0 21.0 0.0 0.0 17.0 
590.0009754864434 0.0 0.0 21.0 0.0 0.0 17.0 
591.0013512928704 0.0 0.0 21.0 0.0 0.0 17.0 
592.0021261282661 0.0 0.0 21.0 0.0 0.0 18.0 
593.0011659500713 0.0 0.0 21.0 0.0 0.0 18.0 
594.0035218912788 0.0 0.0 21.0 0.0 0.0 18.0 
595.0018184338197 0.0 0.0 21.0 0.0 0.0 18.0 
596.0011187555433 0.0 0.0 21.0 0.0 0.0 18.0 
597.0005032512811 0.0 0.0 22.0 0.0 0.0 19.0 
598.0023894613809 0.0 0.0 22.0 0.0 0.0 19.0 
599.0020981093181 0.0 0.0 22.0 0.0 0.0 19.0 
600.0001012379773 0.0 0.0 22.0 0.0 0.0 19.0 
#####################################################################
# End of data export. Simulation finished at: 2019-02-25T20:43+0000 #
#####################################################################
