#####################################################################
# Alchemist log file - simulation started at: 2019-02-25T20:30+0000 #
#####################################################################
# seed = 133.0
#
# The columns have the following meaning: 
# time distance-rep[Mean] distance-rep[Max] leader-rep[CountDistinct] distance-share[Mean] distance-share[Max] leader-share[CountDistinct] 
0.0 NaN NaN NaN NaN NaN NaN 
1.0025222963162252 0.0 0.0 496.0 0.0 0.0 84.0 
2.002670272454221 0.0 0.0 100.0 0.0 0.0 76.0 
3.0008242611563434 0.0 0.0 91.0 0.0 0.0 65.0 
4.0100654863491485 0.0 0.0 89.0 0.0 0.0 54.0 
5.006108045014987 0.0 0.0 84.0 0.0 0.0 48.0 
6.002139313628431 0.0 0.0 77.0 0.0 0.0 41.0 
7.000017403932029 0.0 0.0 73.0 0.0 0.0 40.0 
8.001140397478892 0.0 0.0 69.0 0.0 0.0 39.0 
9.000524900150603 0.0 0.0 67.0 0.0 0.0 38.0 
10.001607222021017 0.0 0.0 62.0 0.0 0.0 36.0 
11.004092330424898 0.0 0.0 59.0 0.0 0.0 36.0 
12.005578166926632 0.0 0.0 59.0 0.0 0.0 34.0 
13.000992335582222 0.0 0.0 58.0 0.0 0.0 30.0 
14.002909984226294 0.0 0.0 54.0 0.0 0.0 29.0 
15.000403737151373 0.0 0.0 53.0 0.0 0.0 28.0 
16.000024037156138 0.0 0.0 51.0 0.0 0.0 28.0 
17.000998243377925 0.0 0.0 50.0 0.0 0.0 28.0 
18.002479732811317 0.0 0.0 48.0 0.0 0.0 25.0 
19.001832730683674 0.0 0.0 47.0 0.0 0.0 26.0 
20.00074106447371 0.0 0.0 47.0 0.0 0.0 28.0 
21.00091355647818 0.0 0.0 47.0 0.00800192523497039 4.000962617485186 27.0 
22.00567710870435 0.0 0.0 46.0 0.0 0.0 26.0 
23.00205391007716 0.0 0.0 44.0 0.0 0.0 26.0 
24.00082595505276 0.0 0.0 46.0 0.0 0.0 24.0 
25.007185222577945 0.0 0.0 46.0 0.007737260267667756 3.8686301338339035 24.0 
26.004877730686516 0.0 0.0 45.0 0.0 0.0 23.0 
27.000244189303753 0.0 0.0 46.0 0.010328116262182649 3.356964131004048 22.0 
28.00175387317939 0.0 0.0 45.0 0.006920835139291676 3.356964131004048 22.0 
29.003260212034668 0.0 0.0 47.0 0.006920835139291676 3.356964131004048 20.0 
30.0004941361123 0.0 0.0 46.0 0.006713928262008079 3.356964131004048 20.0 
31.000750228053903 0.0 0.0 45.0 0.0 0.0 20.0 
32.00040029765782 0.0 0.0 44.0 0.008447237573197196 2.9126718835147187 19.0 
33.001115407916586 0.0 0.0 44.0 0.005825343767029456 2.9126718835147187 19.0 
34.00021825201718 0.0 0.0 44.0 0.0 0.0 19.0 
35.006139490992695 0.0 0.0 44.0 0.0 0.0 18.0 
36.00107273013386 0.0 0.0 41.0 0.0 0.0 19.0 
37.001751069236974 0.0 0.0 40.0 0.0 0.0 19.0 
38.00409124324641 0.0 0.0 40.0 0.0 0.0 18.0 
39.00290402240213 0.0 0.0 38.0 0.0 0.0 20.0 
40.0040694460723 0.0 0.0 37.0 0.0 0.0 20.0 
41.00120705613827 0.0 0.0 37.0 0.0 0.0 20.0 
42.00050760160653 0.0 0.0 37.0 0.0 0.0 18.0 
43.00409124324641 0.0 0.0 36.0 0.0 0.0 18.0 
44.0005354829188 0.0 0.0 37.0 0.0 0.0 17.0 
45.00231016469822 0.0 0.0 37.0 0.0 0.0 16.0 
46.000487297514994 0.0 0.0 36.0 0.0 0.0 16.0 
47.00167343181088 0.0 0.0 36.0 0.0 0.0 15.0 
48.00098167233978 0.0 0.0 38.0 0.0 0.0 15.0 
49.00061157407434 0.0 0.0 39.0 0.0 0.0 15.0 
50.00024335865653 0.0 0.0 39.0 0.0 0.0 15.0 
51.00505023167103 0.0 0.0 36.0 0.0 0.0 15.0 
52.001490970092235 0.0 0.0 34.0 0.0 0.0 16.0 
53.000915433946695 0.0 0.0 33.0 0.0 0.0 18.0 
54.00032370286285 0.0 0.0 34.0 0.0 0.0 18.0 
55.00097409544102 0.03176712514116462 15.88356257058237 32.0 0.0 0.0 18.0 
56.00299074110627 0.0 0.0 31.0 0.0 0.0 19.0 
57.00006389598576 0.0688172194727174 18.006219423186906 31.0 0.0 0.0 19.0 
58.000920937561794 0.036012438846373784 18.006219423186906 29.0 0.0 0.0 16.0 
59.00005274342321 0.0 0.0 27.0 0.0 0.0 16.0 
60.001444849742484 0.04210267361262042 21.05133680631039 27.0 0.0 0.0 16.0 
61.00354009859154 0.08013595842591927 21.05133680631039 26.0 0.0 0.0 16.0 
62.001695163639056 0.04480888822527582 21.05133680631039 26.0 0.0 0.0 16.0 
63.004061142202325 0.039023541199055815 19.511770599527864 28.0 0.0 0.0 16.0 
64.00386612771953 0.018507384349197836 7.900584868271352 28.0 0.0 0.0 17.0 
65.00001421684588 0.08088465145687097 24.050369997417818 28.0 0.0 0.0 18.0 
66.00033430923742 0.0 0.0 27.0 0.0 0.0 18.0 
67.0036119482057 0.19762978419820304 24.050369997417818 28.0 0.0 0.0 17.0 
68.00086486878836 0.044988233603863004 22.49411680193157 28.0 0.0 0.0 17.0 
69.0029433091852 0.13721899366094575 25.613299683468966 27.0 0.0 0.0 17.0 
70.01045113640451 0.09976751019549207 27.239988183926215 27.0 0.0 0.0 17.0 
71.00060584243155 0.1169159582522203 31.21799094218406 27.0 0.0 0.0 17.0 
72.00106625953435 0.13721104701947864 27.239988183926215 26.0 0.0 0.0 17.0 
73.00092644261231 0.08402519223725902 26.235723733059075 28.0 0.0 0.0 17.0 
74.00028157287926 0.1432365787398499 30.252754044111526 27.0 0.0 0.0 17.0 
75.00023403107448 0.2700881370637276 34.17334791451569 26.0 0.0 0.0 17.0 
76.00324170836426 0.2692316413356872 34.17334791451569 26.0 0.0 0.0 16.0 
77.00020643961146 0.24347032982918898 30.252754044111526 24.0 0.0 0.0 16.0 
78.00032665556535 0.3166156649164284 34.17334791451569 25.0 0.0 0.0 16.0 
79.00152886851242 0.32076571484406563 33.51647615909343 23.0 0.0 0.0 15.0 
80.00055370153687 0.3596874467156373 37.19606323007508 24.0 0.0 0.0 15.0 
81.00189417340654 0.3746738274907232 37.19606323007508 23.0 0.0 0.0 15.0 
82.00048476734491 0.3599449453214995 37.19606323007508 23.0 0.0 0.0 15.0 
83.00038142875299 0.36059729256573864 37.19606323007508 23.0 0.0 0.0 15.0 
84.00159901246248 0.40366711376755393 44.78462795042731 23.0 0.0 0.0 15.0 
85.0004374227782 0.36865253915974516 40.172189605902304 22.0 0.0 0.0 16.0 
86.0027419079074 0.3835807614015414 40.172189605902304 22.0 0.0 0.0 17.0 
87.00055718467547 0.45850759982507305 44.78462795042731 22.0 0.0 0.0 16.0 
88.00189120210639 0.4505138612679659 44.78462795042731 22.0 0.0 0.0 16.0 
89.00178671334233 0.39742076172805996 40.172189605902304 22.0 0.0 0.0 16.0 
90.00054379208396 0.3577089992130133 43.141505230534676 21.0 0.0 0.0 16.0 
91.00307757675652 0.3577089992130133 43.141505230534676 21.0 0.0 0.0 16.0 
92.00226782047494 0.35830218574573836 43.141505230534676 21.0 0.0 0.0 16.0 
93.00097774136768 0.37916410064589223 46.7825154110765 21.0 0.0 0.0 16.0 
94.00286828186832 0.5047587145115423 51.348690542337664 21.0 0.0 0.0 16.0 
95.00047510486394 0.4468425802696106 50.8224863323978 21.0 0.0 0.0 16.0 
96.00041204280745 0.4585398457217192 50.8224863323978 21.0 0.0 0.0 16.0 
97.0006089022562 0.44704005540779723 50.8224863323978 21.0 0.0 0.0 15.0 
98.0008457868047 0.4537191497945422 50.8224863323978 21.0 0.0 0.0 15.0 
99.0004412052059 0.30573737330222805 49.5838609389329 21.0 0.0 0.0 15.0 
100.00741478968678 0.4211384917611666 52.101805784866315 21.0 0.0 0.0 15.0 
101.0053021419174 0.2294670817596842 52.101805784866315 21.0 0.0 0.0 15.0 
102.00072438173363 0.3014469249062631 52.101805784866315 21.0 0.0 0.0 15.0 
103.00006513039308 0.2298750268318879 52.101805784866315 20.0 0.0 0.0 15.0 
104.00026305782112 0.2600640020839869 56.78492357645479 20.0 0.0 0.0 15.0 
105.00233522011001 0.00885751156144908 4.4287557807245435 20.0 0.0 0.0 15.0 
106.00637159177928 0.03412617402309119 10.256069982348862 20.0 0.0 0.0 15.0 
107.00028488876194 0.03297531959687186 8.972827567243087 20.0 0.0 0.0 15.0 
108.00040329704095 0.015029664462385618 3.6000208436539367 20.0 0.010892814721699852 5.446407360849946 15.0 
109.00091538466808 0.025278150328474903 9.089088755428094 20.0 0.028597864332956965 12.921277160901809 15.0 
110.00078075507538 0.01959380791484838 9.089088755428094 21.0 0.028597864332956965 12.921277160901809 15.0 
111.00061673290948 0.046662271706467306 14.001784302778987 21.0 0.028597864332956965 12.921277160901809 15.0 
112.00206219437452 0.03962063556461464 14.001784302778987 20.0 0.028597864332956965 12.921277160901809 15.0 
113.00041360201516 0.056473982825392066 14.001784302778987 20.0 0.0 0.0 17.0 
114.00118735223536 0.06270462781393059 19.853402850287807 20.0 0.0 0.0 17.0 
115.00588259192483 0.06723095094450439 19.853402850287807 20.0 0.0 0.0 17.0 
116.00018088308823 0.09436321761396417 24.799616197103944 20.0 0.0 0.0 16.0 
117.00128440930712 0.004526323130573764 2.263161565286879 20.0 0.0 0.0 16.0 
118.0014417722425 0.015201383550663578 7.600691775331768 20.0 0.0 0.0 15.0 
119.00335278337624 0.015201383550663578 7.600691775331768 20.0 0.0 0.0 15.0 
120.0000516787167 0.015201383550663578 7.600691775331768 21.0 0.0 0.0 16.0 
121.0003841142505 0.048267657023360604 13.06745285050269 21.0 0.0 0.0 16.0 
122.00115057346984 0.0 0.0 21.0 0.0 0.0 16.0 
123.00020812769816 0.0 0.0 21.0 0.0 0.0 16.0 
124.00124443861523 0.0 0.0 21.0 0.0 0.0 16.0 
125.0008357594144 0.0 0.0 21.0 0.0 0.0 15.0 
126.00171381556977 0.013908190694165648 3.1512264404678376 21.0 0.0 0.0 15.0 
127.00012999337167 0.013908190694165648 3.1512264404678376 21.0 0.0 0.0 15.0 
128.00049478208757 0.006302452880935678 3.1512264404678376 20.0 0.0 0.0 15.0 
129.00386297517957 0.0 0.0 20.0 0.0 0.0 15.0 
130.0009094739183 0.00526568218362456 2.6328410918122813 20.0 0.0 0.0 14.0 
131.00044880055341 0.01952774087743397 7.009666820766796 19.0 0.0 0.0 14.0 
132.00110304718163 0.007497502295313076 2.7542036179502247 18.0 0.0 0.0 14.0 
133.00371755345935 0.021516835936846723 7.009666820766796 17.0 0.0 0.0 15.0 
134.00112737919014 0.015202857546954898 3.8526776258208884 17.0 0.0 0.0 15.0 
135.00212407147495 0.06406979403352459 10.439794907703629 17.0 0.0 0.0 15.0 
136.0026481423131 0.13610751329295898 15.498238696177822 17.0 0.0 0.0 15.0 
137.00062976922806 0.11189747967287683 15.498238696177822 17.0 0.0 0.0 15.0 
138.00307982178697 0.11712202353033051 15.498238696177822 17.0 0.0 0.0 17.0 
139.00326125790374 0.08064377637621893 10.578305638900531 17.0 0.0 0.0 17.0 
140.00075213324834 0.12662347605496233 21.940332614710513 18.0 0.0 0.0 16.0 
141.00199262759367 0.0 0.0 18.0 0.0 0.0 16.0 
142.0014108766888 0.0 0.0 17.0 0.0 0.0 15.0 
143.00297206175645 0.0 0.0 17.0 0.0 0.0 15.0 
144.0014126946085 0.0 0.0 17.0 0.0 0.0 15.0 
145.00112771667037 0.0 0.0 17.0 0.006857833134119365 3.428916567059673 14.0 
146.00227902632227 0.0 0.0 17.0 0.006857833134119365 3.428916567059673 14.0 
147.00025936506702 0.0 0.0 17.0 0.057916625525361295 12.971268571392272 14.0 
148.00409124324642 0.0 0.0 17.0 0.021845462734278006 10.922731367138937 14.0 
149.00270551538796 0.0 0.0 17.0 0.0 0.0 14.0 
150.0031495413526 0.0 0.0 18.0 0.0 0.0 14.0 
151.00251872483844 0.0 0.0 18.0 0.011600363855315514 5.800181927657775 14.0 
152.00570105049565 0.0 0.0 18.0 0.011600363855315514 5.800181927657775 15.0 
153.00102406354054 0.0 0.0 18.0 0.0 0.0 15.0 
154.00197022884646 0.0 0.0 18.0 0.0 0.0 15.0 
155.00377094288072 0.002274504115940388 1.137252057970187 18.0 0.0 0.0 15.0 
156.00114827069453 0.0 0.0 18.0 0.0 0.0 15.0 
157.00025181772284 0.0 0.0 18.0 0.0 0.0 15.0 
158.00106510443203 0.0 0.0 18.0 0.0 0.0 15.0 
159.00006918554516 0.0 0.0 18.0 0.0 0.0 15.0 
160.00107039567106 0.0 0.0 18.0 0.0 0.0 18.0 
161.00001313020428 0.007272319108464514 3.6361595542322505 18.0 0.0 0.0 18.0 
162.00329488740965 0.11445220684133917 36.16340067105273 18.0 0.0 0.0 17.0 
163.00089703171508 0.16900745725271854 36.16340067105273 18.0 0.0 0.0 18.0 
164.00943806406724 0.18241584721969925 36.16340067105273 18.0 0.0 0.0 18.0 
165.00353649795855 0.19685191874725555 36.16340067105273 18.0 0.0 0.0 18.0 
166.0029034214471 0.15482087978698672 34.43025518907905 17.0 0.0 0.0 18.0 
167.00005934389384 0.23481882194938003 40.05960970575049 17.0 0.0 0.0 19.0 
168.00082552891158 0.22197104847776525 40.05960970575049 17.0 0.0 0.0 20.0 
169.00220706744423 0.2456848055036944 40.05960970575049 17.0 0.0 0.0 20.0 
170.00020254094252 0.22656591018324504 36.06498917167548 17.0 0.0 0.0 20.0 
171.00108571128243 0.28223502036995074 36.06498917167548 17.0 0.0 0.0 19.0 
172.00139688751213 0.38630739004915643 42.99266463992754 17.0 0.0 0.0 18.0 
173.00409124324642 0.2265601579146597 23.143510162944295 17.0 0.0 0.0 17.0 
174.0019273464417 0.40303452305890974 42.99266463992754 17.0 0.0 0.0 17.0 
175.00365910982228 0.5146287582747248 42.99266463992754 17.0 0.0 0.0 17.0 
176.00121543380132 0.4811111844937652 37.909764631174994 17.0 0.0 0.0 17.0 
177.00783678631123 0.4341652965809452 37.909764631174994 17.0 0.0 0.0 18.0 
178.00136128248357 0.609468327793933 47.48583095359618 17.0 0.0 0.0 19.0 
179.0010399936529 0.6867616310607279 47.48583095359618 17.0 0.0 0.0 19.0 
180.00089606185347 0.7303380192271454 86.78841282117554 16.0 0.0 0.0 20.0 
181.00019138335227 0.9118079718992718 86.78841282117554 16.0 0.0 0.0 19.0 
182.00155591507283 0.8946977560153608 52.85716697931801 16.0 0.0 0.0 19.0 
183.0039229211377 0.7886980505301204 52.85716697931801 18.0 0.0 0.0 19.0 
184.00107680045747 0.8620782740735498 52.85716697931801 18.0 0.0 0.0 19.0 
185.00070358996788 0.9718037273575887 67.76973397920625 17.0 0.0 0.0 19.0 
186.00186326788975 1.1589057590072855 67.76973397920625 18.0 0.0 0.0 19.0 
187.00376733949463 1.1839536968847613 67.76973397920625 18.0 0.0 0.0 19.0 
188.00130847093303 1.2299153737401332 67.76973397920625 16.0 0.0 0.0 19.0 
189.00310930596876 0.9732061532351016 67.76973397920625 16.0 0.0 0.0 19.0 
190.00072780866154 1.0184563851163593 54.26867972480434 16.0 0.0 0.0 19.0 
191.00215915217385 1.4304036401247024 79.09574468787935 16.0 0.0 0.0 19.0 
192.0016350976129 1.8999441119305893 79.09574468787935 16.0 0.0 0.0 19.0 
193.00151279916406 2.1506118188753045 83.69061594382208 16.0 0.0 0.0 19.0 
194.00221015594332 1.9851538908441804 79.09574468787935 16.0 0.0 0.0 19.0 
195.0003588477041 2.192248534312977 85.84331068303243 16.0 0.0 0.0 18.0 
196.00271267939007 2.473111338200266 93.11225027199532 16.0 0.0 0.0 17.0 
197.00064184988543 2.649654121768487 95.43596586462877 16.0 0.0 0.0 18.0 
198.00159764113786 2.6823350723369352 93.39444443200745 16.0 0.0 0.0 17.0 
199.00016604037287 2.9035483545631333 97.18809323816942 16.0 0.0 0.0 17.0 
200.00552602584327 2.775422016851077 97.18809323816942 16.0 0.0 0.0 17.0 
201.00013347137693 3.036332909976099 111.69991800481012 17.0 0.0 0.0 17.0 
202.00247874876692 2.9711957091209755 111.69991800481012 17.0 0.0 0.0 17.0 
203.00248570534401 2.2963996899053725 91.00630033964188 17.0 0.0 0.0 17.0 
204.00225623327873 2.296866222568188 91.00630033964188 17.0 0.0 0.0 17.0 
205.00125391987464 2.259441036287579 98.49767494623671 17.0 0.0 0.0 17.0 
206.00106423277637 2.208198656626916 78.42263643743865 17.0 0.0 0.0 18.0 
207.00399449414056 2.338151731063583 78.42263643743865 17.0 0.0 0.0 18.0 
208.0009812888582 2.0417565677199065 78.42263643743865 17.0 0.0 0.0 18.0 
209.00072656909188 2.1707646904702416 75.30691360223676 17.0 0.0 0.0 18.0 
210.00122167358234 2.4214208162306323 81.24433409367606 16.0 0.0 0.0 18.0 
211.00103660999977 2.680170099318769 78.45318788033637 16.0 0.0 0.0 18.0 
212.00340428382987 2.7824614418935205 87.22669105722349 17.0 0.0 0.0 18.0 
213.0004927069542 2.4981601046820905 80.66887463551342 17.0 0.0 0.0 18.0 
214.001684924704 2.7167122732051423 94.14593414779779 17.0 0.0 0.0 18.0 
215.00022505613205 2.2600665433393488 80.66887463551342 17.0 0.0 0.0 18.0 
216.00039128253383 2.3946131955629504 88.13190094323505 17.0 0.0 0.0 17.0 
217.0067838076614 2.243893899479736 101.11495947592789 17.0 0.0 0.0 17.0 
218.0027120979458 2.0550409216641694 95.57269473694583 17.0 0.0 0.0 17.0 
219.01006548634916 2.5672038754461926 119.69325545867406 17.0 0.0 0.0 17.0 
220.00105238759306 2.373879310959068 90.53302468403206 15.0 0.0 0.0 17.0 
221.00083049503633 2.6545236649008506 125.94762874755833 15.0 0.0 0.0 17.0 
222.00195846392077 2.379628188879959 99.48733579337636 16.0 0.0 0.0 17.0 
223.00247755246576 2.3853652108972394 99.48733579337636 16.0 0.0 0.0 16.0 
224.00060468459094 2.0415466212536275 118.67341292184602 14.0 0.0 0.0 16.0 
225.0024682038972 2.2158976585136068 124.96185276145667 15.0 0.0 0.0 16.0 
226.0028799917229 2.6682816836299033 124.96185276145667 15.0 0.0 0.0 16.0 
227.00208432805243 2.3921068792621645 124.96185276145667 14.0 0.0 0.0 15.0 
228.0022570485478 2.0912292899514298 117.74950360559814 15.0 0.0 0.0 15.0 
229.00284060061196 2.295910880759388 117.74950360559814 14.0 0.0 0.0 15.0 
230.00240078830316 2.833713983072335 124.13450876922337 14.0 0.0 0.0 15.0 
231.0012097965302 3.167514692365056 124.13450876922337 14.0 0.0 0.0 15.0 
232.00470102407584 3.9981669117913605 139.21082694489314 14.0 0.0 0.0 15.0 
233.00017403626873 4.419115734353501 139.21082694489314 14.0 0.0 0.0 15.0 
234.00360722689297 4.684702184685642 139.21082694489314 14.0 0.0 0.0 15.0 
235.00003578162156 5.162918003840252 145.67591128050447 15.0 0.0 0.0 15.0 
236.00424593192017 5.410003417700922 145.67591128050447 15.0 0.0 0.0 16.0 
237.00015259763813 5.532323888621234 138.34739842971402 15.0 0.0 0.0 16.0 
238.0002642763097 5.654825651142973 138.34739842971402 15.0 0.0 0.0 16.0 
239.0000953791754 6.225784447229399 138.34739842971402 15.0 0.0 0.0 16.0 
240.00115253974212 6.3510440106403365 144.82732514999458 15.0 0.0 0.0 16.0 
241.00118234828287 6.217698985346794 144.82732514999458 15.0 0.0 0.0 16.0 
242.00119449896587 6.65980780684393 140.56350696530035 15.0 0.0 0.0 16.0 
243.00078263249887 6.9786760060966815 147.65619862122878 15.0 0.0 0.0 16.0 
244.0034919674775 7.491848186257326 147.65619862122878 15.0 0.0 0.0 16.0 
245.00307186651284 8.111439344629131 155.08740538730922 15.0 0.0 0.0 16.0 
246.00012785447962 8.522723319762708 155.08740538730922 16.0 0.0 0.0 16.0 
247.00184935038402 7.8057911483864455 155.08740538730922 16.0 0.0 0.0 16.0 
248.00155688840002 7.564244674044365 164.26693670909975 16.0 0.0 0.0 16.0 
249.00320386625572 8.039830949708135 158.88238991040288 15.0 0.0 0.0 16.0 
250.00222824334048 9.557030877891027 170.0120761743214 13.0 0.0 0.0 16.0 
251.00136728341187 9.769584528325897 170.0120761743214 13.0 0.0 0.0 16.0 
252.00215892341137 9.930018996231793 170.0120761743214 13.0 0.0 0.0 16.0 
253.00149412972428 9.774203948533206 177.56814997371526 14.0 0.0 0.0 16.0 
254.00372090748846 10.447244805797695 177.56814997371526 14.0 0.0 0.0 16.0 
255.00644813829277 10.51184341936235 176.07985780548574 15.0 0.0 0.0 16.0 
256.00008127929533 9.793892961026547 170.4464789148729 15.0 0.0 0.0 16.0 
257.00245038296197 10.089561940287012 170.4464789148729 15.0 0.0 0.0 17.0 
258.00136292520494 9.469691840552494 168.6573289035985 15.0 0.0 0.0 17.0 
259.00013649476585 10.187957172709748 168.6573289035985 15.0 0.0 0.0 17.0 
260.00397319045743 9.783678155807598 161.27363717735352 15.0 0.0 0.0 17.0 
261.0019525580809 9.496353316893309 161.27363717735352 14.0 0.0 0.0 17.0 
262.00023973549696 9.662180027784972 161.27363717735352 15.0 0.0 0.0 17.0 
263.0040912432464 9.433613351370449 153.7857368448138 14.0 0.0 0.0 17.0 
264.0012369881832 10.24185022555111 153.7857368448138 14.0 0.0 0.0 17.0 
265.0026862847552 9.72032292481537 146.40632817323217 14.0 0.0 0.0 17.0 
266.00127636534484 9.413458213139117 146.40632817323217 14.0 0.0 0.0 17.0 
267.0045748420083 9.473338185952306 146.40632817323217 14.0 0.0 0.0 17.0 
268.001942839001 9.15929568042808 138.91971070784348 14.0 0.0 0.0 17.0 
269.0004076533964 9.290806289250636 138.91971070784348 14.0 0.0 0.0 17.0 
270.0003690715008 8.682776546447418 131.47825953503798 14.0 0.0 0.0 17.0 
271.0006355155665 8.698191307276682 131.47825953503798 14.0 0.0 0.0 17.0 
272.0020775382544 7.842502492875712 130.66582251748798 15.0 0.0 0.0 17.0 
273.0003270779402 8.325412639543108 138.30650948830117 15.0 0.0 0.0 18.0 
274.0004236026002 7.879448625854653 130.66582251748798 15.0 0.0 0.0 18.0 
275.00087846107886 7.227162573085837 127.176118524799 16.0 0.0 0.0 18.0 
276.0010651558475 4.147125973462115 119.80690133371502 16.0 0.0 0.0 18.0 
277.00047910842784 3.362425544131559 91.42766003914073 16.0 0.0 0.0 18.0 
278.00208004647436 3.586799946293523 109.05585678398177 16.0 0.0 0.0 17.0 
279.0011918744561 3.2515904338907906 94.22328262854035 16.0 0.0 0.0 17.0 
280.0025974131 3.456745953010154 94.22328262854035 15.0 0.0 0.0 17.0 
281.0027575909382 3.351327631102534 100.98197185011065 15.0 0.0 0.0 16.0 
282.00415991141347 3.347930598289426 100.98197185011065 15.0 0.0 0.0 16.0 
283.00137143796564 2.964585199160404 77.11741037379358 15.0 0.0 0.0 16.0 
284.0001783868689 3.1790001310891784 102.38145951045306 15.0 0.0 0.0 16.0 
285.0012645935034 3.08262078144208 102.38145951045306 15.0 0.0 0.0 16.0 
286.0008100951984 3.081051982437789 102.38145951045306 15.0 0.0 0.0 16.0 
287.000415519409 2.7253440784839302 72.65688667057293 15.0 0.0 0.0 16.0 
288.0000119408199 2.8872115799680245 77.29804967861594 15.0 0.0 0.0 16.0 
289.00486295172976 2.920300128272566 80.46589237107645 15.0 0.0 0.0 16.0 
290.00257046824106 2.830807867198626 80.46589237107645 15.0 0.0 0.0 15.0 
291.0000471919828 2.688590312715383 78.53670105261375 15.0 0.0 0.0 15.0 
292.011147096912 2.7787077586598756 78.53670105261375 16.0 0.0 0.0 16.0 
293.0015543374782 2.636404160348528 77.56490625929644 16.0 0.0 0.0 16.0 
294.00000246224397 2.464733259806817 82.3849106838515 16.0 0.0 0.0 16.0 
295.0001016633915 2.5301743998779505 84.62548303455685 15.0 0.0 0.0 16.0 
296.00043842309566 2.512790793949196 84.62548303455685 15.0 0.0 0.0 16.0 
297.0043305034176 2.4288458352476177 84.62548303455685 14.0 0.0 0.0 16.0 
298.000784444985 2.500323642689899 84.62548303455685 14.0 0.0 0.0 16.0 
299.0028146946361 2.5938718494817747 91.6492586340396 14.0 0.0 0.0 16.0 
300.0038474980438 2.651474207560576 92.66913155043426 14.0 0.0 0.0 16.0 
301.00637159177927 2.766441146687011 92.66913155043426 14.0 0.0 0.0 16.0 
302.00250281199834 2.6346196520564233 92.66913155043426 14.0 0.0 0.0 16.0 
303.00222931357297 2.4944054218881386 92.66913155043426 14.0 0.0 0.0 16.0 
304.0016043881448 2.618310334232666 101.12184501189756 14.0 0.0 0.0 16.0 
305.00114286903437 2.5276557217474167 101.12184501189756 14.0 0.0 0.0 16.0 
306.00108468946434 2.517195215831515 100.89231360395712 14.0 0.0 0.0 17.0 
307.0031879113732 2.143313176106662 100.89231360395712 14.0 0.0 0.0 16.0 
308.00034845226384 2.5842827645348843 101.12184501189756 14.0 0.0 0.0 16.0 
309.0014785291897 2.204258210394988 101.77306517289225 14.0 0.0 0.0 16.0 
310.0001142639193 1.8576579449308521 98.16068874750698 14.0 0.0 0.0 16.0 
311.0006416915945 1.650632024787901 65.47630884285456 14.0 0.0 0.0 16.0 
312.0004696171327 1.2963583182373446 65.47630884285456 14.0 0.0 0.0 16.0 
313.00260629632754 1.4064927233598339 64.6510121179773 14.0 0.0 0.0 17.0 
314.01006548634916 1.3544024517334707 60.088192417780704 15.0 0.0 0.0 17.0 
315.00337121487905 1.04082171666902 44.748783420080514 15.0 0.0 0.0 16.0 
316.0003317463245 1.171598646573817 60.44734355008512 15.0 0.008908428409998613 4.454214204999317 16.0 
317.00274208909497 1.2628304069737 60.44734355008512 15.0 0.008908428409998613 4.454214204999317 16.0 
318.0001182020152 1.507742315058289 60.65109458925832 15.0 0.0 0.0 17.0 
319.00208122114105 1.3089399434172149 53.44121691855119 16.0 0.0 0.0 17.0 
320.0035114849478 1.2341660953806175 53.44121691855119 16.0 0.0 0.0 17.0 
321.0041863369297 1.1471470598777742 53.44121691855119 16.0 0.0 0.0 17.0 
322.00106689594 1.1591625369243457 53.44121691855119 16.0 0.0 0.0 17.0 
323.0002145908138 1.1577586682872345 51.312016593753725 16.0 0.0 0.0 17.0 
324.0035715105921 1.1189783942614846 54.067837734073834 16.0 0.0 0.0 16.0 
325.00653536199127 1.1755908860034103 54.683379204036925 16.0 0.0 0.0 16.0 
326.0007248477092 1.0581376141414063 54.683379204036925 16.0 0.0 0.0 16.0 
327.0000046321802 0.935541705685696 52.137567645524626 16.0 0.0 0.0 16.0 
328.00014203608856 0.8350173105653997 58.952608258373175 16.0 0.0 0.0 16.0 
329.0035698323945 0.6706838526060271 58.952608258373175 16.0 0.0 0.0 17.0 
330.0001718477753 0.7619909834283685 65.51899912807022 16.0 0.0 0.0 17.0 
331.0032688017633 0.7627340941624252 65.51899912807022 16.0 0.0 0.0 15.0 
332.0003485999256 0.6031779977828695 60.42875821209452 16.0 0.0 0.0 15.0 
333.000795810195 0.4387113415240879 34.658395523715996 16.0 0.0 0.0 15.0 
334.00301464235554 0.6023736432948767 42.15726407472033 15.0 0.0 0.0 14.0 
335.006432850401 0.6245760035367797 42.15726407472033 16.0 0.0 0.0 14.0 
336.00195928199116 0.40840034104557943 42.15726407472033 16.0 0.0 0.0 15.0 
337.00081374353573 0.5656746402681698 42.15726407472033 16.0 0.0 0.0 15.0 
338.00188534146787 0.39763293875897754 29.485283807394495 15.0 0.0 0.0 15.0 
339.0008658726277 0.5301905180412319 36.996808478198744 15.0 0.0 0.0 15.0 
340.000830138124 0.47701122476670904 36.996808478198744 15.0 0.0 0.0 15.0 
341.0019319341937 0.5033964009833383 36.996808478198744 15.0 0.0 0.0 15.0 
342.0004116957913 0.5038529541151213 39.487965867709676 14.0 0.0 0.0 15.0 
343.00288363869504 0.578634045915979 44.32485945632729 14.0 0.0 0.0 15.0 
344.00365869874906 0.5855545741611963 37.069377267654374 14.0 0.0 0.0 15.0 
345.001545940765 0.5672278059434144 37.069377267654374 14.0 0.0 0.0 15.0 
346.00376156618216 0.6829604553495191 42.80305166362737 14.0 0.0 0.0 15.0 
347.00083092131473 0.6886523951711483 39.616541462678185 13.0 0.0 0.0 15.0 
348.0038088740302 0.6897248803358056 42.80305166362737 13.0 0.0 0.0 15.0 
349.00000834878807 0.31379498996388683 31.31541504155004 13.0 0.0 0.0 15.0 
350.00036358237674 0.5593540696122454 46.656632877852076 14.0 0.0 0.0 15.0 
351.0029682517857 0.40830475683511785 40.402248804486106 14.0 0.0 0.0 15.0 
352.000930829589 0.4660538269000449 40.402248804486106 14.0 0.0 0.0 14.0 
353.0040912432464 0.44034853707583516 40.402248804486106 14.0 0.0 0.0 14.0 
354.0020303117241 0.47907350170114515 44.48833439486884 14.0 0.0 0.0 14.0 
355.0004291413825 0.6011639735594196 44.48833439486884 14.0 0.0 0.0 14.0 
356.00637159177927 0.5015142405271089 38.3613643885366 14.0 0.0 0.0 14.0 
357.0042635398035 0.7314309743548818 53.33880784970066 15.0 0.0 0.0 14.0 
358.00081008607685 0.654255212993512 53.33880784970066 14.0 0.0 0.0 15.0 
359.0021393537345 0.7614754187927165 53.33880784970066 14.0 0.0 0.0 15.0 
360.00009637692307 0.9230946435501618 57.3999740871339 14.0 0.0 0.0 15.0 
361.0043736416206 0.8740859537980521 57.3999740871339 15.0 0.0 0.0 15.0 
362.0005483377481 0.9230285639675847 54.430875291757474 17.0 0.0 0.0 16.0 
363.0018248103853 0.9296016501815504 54.430875291757474 18.0 0.0 0.0 16.0 
364.0000762013919 0.8478980407384931 54.430875291757474 19.0 0.0 0.0 15.0 
365.0002233751323 0.8569671706322569 50.78549620303281 18.0 0.0 0.0 14.0 
366.000945421271 0.5931968890911709 40.148217657885596 19.0 0.0 0.0 14.0 
367.00299248931486 0.46876064837464976 31.058089541343577 18.0 0.0 0.0 14.0 
368.00317143163375 0.2611168504330305 22.31976759483976 18.0 0.0 0.0 15.0 
369.00088092319584 0.4268738524964628 55.821015791550224 18.0 0.0 0.0 15.0 
370.0060006188881 0.576881878950129 61.04573213753997 18.0 0.0 0.0 15.0 
371.0049389032324 0.7126050177390894 72.83085174670441 18.0 0.0 0.0 15.0 
372.0001156140984 0.598482049314038 72.83085174670441 18.0 0.0 0.0 16.0 
373.0010800339312 0.7805295586692726 84.84512731248225 18.0 0.0 0.0 16.0 
374.003614436655 0.7648037607285927 72.83085174670441 18.0 0.0 0.0 16.0 
375.00139506877395 1.0781030385800439 90.4989214809039 18.0 0.0 0.0 16.0 
376.0023217760747 0.9116850810382476 71.56614371134361 18.0 0.0 0.0 15.0 
377.0002105797219 0.8882380901328807 90.4989214809039 18.0 0.0 0.0 15.0 
378.00014890795995 0.899544893819914 90.4989214809039 18.0 0.0 0.0 15.0 
379.0001222847003 1.1499315540954789 83.61704936624432 18.0 0.0 0.0 15.0 
380.00011411656783 1.3325722351821023 89.30135969231657 18.0 0.0 0.0 16.0 
381.00015189569143 1.3602554640604398 89.30135969231657 18.0 0.0 0.0 16.0 
382.002553664323 1.2041219882047227 70.31127688062219 17.0 0.0 0.0 16.0 
383.00058836331306 1.5008722788095161 82.40325509447399 17.0 0.0 0.0 16.0 
384.00060215490083 1.741164266716885 88.12352503975723 17.0 0.0 0.0 16.0 
385.00079575491975 1.909535597443818 88.12352503975723 17.0 0.0 0.0 16.0 
386.0011729257159 1.988947444150038 88.12352503975723 17.0 0.0 0.0 16.0 
387.00174161880835 1.9609485075093063 88.12352503975723 16.0 0.0 0.0 16.0 
388.0015763713986 1.9048618110363584 69.08489913017536 16.0 0.0 0.0 16.0 
389.0017134268032 1.9434607255006218 69.08489913017536 16.0 0.0 0.0 16.0 
390.00132134456817 2.249263792203856 74.75963586909455 16.0 0.0 0.0 16.0 
391.0006507838134 2.5365460016170864 86.96082842370032 16.0 0.0 0.0 16.0 
392.0002370950625 2.39953357133943 86.96082842370032 17.0 0.0 0.0 16.0 
393.0018979613085 2.6308983039522587 86.96082842370032 18.0 0.0 0.0 16.0 
394.003194201767 2.3718590851929564 80.02640594508318 18.0 0.0 0.0 16.0 
395.0034242865962 2.5494441572525695 83.5767539817922 18.0 0.0 0.0 16.0 
396.0035772658452 2.5227053799235555 83.5767539817922 18.0 0.0 0.0 16.0 
397.00057053443334 2.561147482278151 83.5767539817922 18.0 0.0 0.0 16.0 
398.0031783061463 2.7889910710793453 82.5245089127472 18.0 0.0 0.0 16.0 
399.0011016700957 3.085415268217668 151.55774660810573 18.0 0.0 0.0 16.0 
400.0013085804253 3.0602720548630806 85.15127357976729 18.0 0.0 0.0 16.0 
401.0040285443302 2.8785286806784525 141.61035120338568 18.0 0.0 0.0 16.0 
402.00121042773765 3.0923501160828724 141.61035120338568 19.0 0.0 0.0 16.0 
403.00144510378277 3.077000891169154 141.61035120338568 20.0 0.0 0.0 16.0 
404.00008551433416 2.4992949644362996 93.95114617297986 20.0 0.0 0.0 15.0 
405.001945161604 2.4088847693004203 94.13687969310627 20.0 0.0 0.0 15.0 
406.0001381358228 2.3611185687560345 94.13687969310627 20.0 0.0 0.0 15.0 
407.0000665239027 2.3636209084939988 100.85829345161432 18.0 0.0 0.0 15.0 
408.0000352459797 2.2910748713935227 108.31881041868371 19.0 0.0 0.0 16.0 
409.0042295134767 2.3770328087203167 108.81216450928025 18.0 0.0 0.0 20.0 
410.0001228808449 1.8342377319828813 108.81216450928025 17.0 0.0 0.0 21.0 
411.0005588856255 1.4788272774619695 108.81216450928025 17.0 0.0 0.0 19.0 
412.00048441670197 1.4570734960166696 108.81216450928025 18.0 0.0 0.0 18.0 
413.0014308951866 1.0604806078831133 116.27359887033901 18.0 0.0 0.0 17.0 
414.0018668999672 1.0103987555505334 123.24183834547028 18.0 0.0 0.0 16.0 
415.0005285841959 0.6895267181642245 123.73502773982506 18.0 0.0 0.0 16.0 
416.0001363026266 0.2602165285645923 50.95169222928726 17.0 0.0 0.0 16.0 
417.0031749143089 0.32355446871263355 123.24183834547028 18.0 0.0 0.0 16.0 
418.00361091908945 0.33140457088995023 131.1981313284142 18.0 0.0 0.0 16.0 
419.0016809040464 0.030871651145293066 8.807165017607161 19.0 0.0 0.0 17.0 
420.00103243694474 0.022985590590238667 6.876390315960549 19.0 0.0 0.0 17.0 
421.0011773991755 0.022985590590238667 6.876390315960549 19.0 0.0 0.0 17.0 
422.00104732740436 0.013752780631921105 6.876390315960549 19.0 0.0 0.0 16.0 
423.0035213957233 0.015096803374180992 6.876390315960549 19.0 0.0 0.0 16.0 
424.00474098930783 0.015096803374180992 6.876390315960549 19.0 0.0 0.0 17.0 
425.0003894886903 0.08127000688747558 10.555808719622917 19.0 0.0 0.0 19.0 
426.00169564888057 0.07577783973239016 10.555808719622917 18.0 0.0 0.0 18.0 
427.00489460410364 0.09016106698603689 10.555808719622917 18.0 0.0 0.0 18.0 
428.0000828870026 0.0747022738375364 15.069155199529604 18.0 0.0 0.0 17.0 
429.00407447358685 0.0747022738375364 15.069155199529604 18.0 0.0 0.0 17.0 
430.003593376054 0.16096090792305867 22.337071538665526 18.0 0.0 0.0 16.0 
431.00021210888127 0.08167801638050479 16.33861195031207 19.0 0.0 0.0 16.0 
432.0046435098508 0.15361800039055862 22.337071538665526 19.0 0.0 0.0 16.0 
433.0007130987075 0.04680681156174932 6.980161859942456 19.0 0.0017947240637538565 0.8973620318769235 16.0 
434.00001929454595 0.060996227667948384 11.127290620532307 19.0 0.0 0.0 17.0 
435.001532107896 0.18282773816751266 18.24506880766262 19.0 0.0 0.0 17.0 
436.00157387215506 0.1509997191896716 18.104145271120615 18.0 0.0 0.0 17.0 
437.0061733662569 0.1171765391104015 15.903903741076192 18.0 0.0 0.0 17.0 
438.0016107196601 0.07867572162113451 9.404281806984159 19.0 0.0 0.0 17.0 
439.00017531126866 0.12115573673275515 9.83091163127483 18.0 0.0 0.0 17.0 
440.00016075769736 0.25131504541531274 16.589590214304394 18.0 0.0 0.0 17.0 
441.00138294896834 0.20955222804715276 14.861834453093763 19.0 0.0 0.0 18.0 
442.0071642937491 0.1763403051490463 14.089510148454593 20.0 0.0 0.0 18.0 
443.00319570335927 0.1748162564224735 17.012495521395522 21.0 0.0 0.0 18.0 
444.00231020592116 0.14079126537968278 14.089510148454593 21.0 0.0 0.0 18.0 
445.00096057152336 0.19519955882823153 18.550300548613592 20.0 0.0 0.0 18.0 
446.0018952186011 0.18245624148141276 27.9490798144341 20.0 0.0 0.0 18.0 
447.0005888511916 0.12302480351102198 17.900495666819353 20.0 0.0 0.0 18.0 
448.00231547140436 0.14396934151219684 18.241271021151164 20.0 0.0 0.0 18.0 
449.00013037163234 0.12478679507405381 18.241271021151164 20.0 0.0 0.0 18.0 
450.0027113469437 0.11690272088384343 17.774562938575542 20.0 0.0 0.0 18.0 
451.0026359522649 0.12164571713199755 17.774562938575542 20.0 0.0 0.0 18.0 
452.00007853212105 0.11048783602357844 17.774562938575542 19.0 0.0 0.0 18.0 
453.0006529671444 0.12318672433491493 25.253186582288834 19.0 0.0 0.0 18.0 
454.0004317580285 0.12318672433491493 25.253186582288834 19.0 0.0 0.0 17.0 
455.01038582713676 0.11771230690605962 25.04265523591974 19.0 0.0 0.0 17.0 
456.00341501995496 0.11771230690605962 25.04265523591974 19.0 0.0 0.0 17.0 
457.004784711814 0.1148604674679711 25.04265523591974 19.0 0.0 0.0 17.0 
458.0040912432464 0.09462538404559619 32.515571853416304 19.0 0.0 0.0 17.0 
459.00129674733734 0.09462538404559619 32.515571853416304 19.0 0.0 0.0 17.0 
460.0008954113131 0.11981028949713309 32.60726858446918 17.0 0.0 0.0 17.0 
461.00330555837394 0.11981028949713309 32.60726858446918 17.0 0.0 0.0 17.0 
462.002625536728 0.08782309493016081 32.60726858446918 17.0 0.0 0.0 17.0 
463.00147544144863 0.022608557761222597 5.802085405551821 17.0 0.0 0.0 17.0 
464.00016473621514 0.01737868814908307 5.502193475059499 17.0 0.0 0.0 17.0 
465.0034151991697 0.0032941298454878093 1.6470649227439083 17.0 0.0 0.0 17.0 
466.00004552617776 0.0 0.0 17.0 0.0 0.0 17.0 
467.0010119764811 0.009637488364684277 3.936358166420831 17.0 0.0 0.0 17.0 
468.0006193403781 0.009637488364684277 3.936358166420831 17.0 0.0 0.0 17.0 
469.00024939225614 0.009637488364684277 3.936358166420831 17.0 0.0 0.0 17.0 
470.00302316490576 0.03901795725772015 11.313814756114027 17.0 0.0 0.0 17.0 
471.0013326542612 0.05244942305543852 11.313814756114027 17.0 0.0 0.0 18.0 
472.00011875310014 0.05760368593553358 13.890946196161423 17.0 0.0 0.0 19.0 
473.0014074359467 0.05760368593553358 13.890946196161423 17.0 0.0 0.0 18.0 
474.0002938097331 0.05760368593553358 13.890946196161423 17.0 0.0 0.0 18.0 
475.0001745148004 0.07182669814460549 18.83553148362236 17.0 0.0 0.0 18.0 
476.00012248016253 0.07704157695650977 18.83553148362236 17.0 0.0 0.0 18.0 
477.00154389934676 0.07704157695650977 18.83553148362236 17.0 0.0 0.0 18.0 
478.0008321341247 0.08681390115781135 21.333249279411206 17.0 0.0 0.0 18.0 
479.00183445736656 0.086349544868752 21.678706369466312 17.0 0.0 0.0 18.0 
480.00448151105667 0.16148532286390677 30.03986970259072 17.0 0.0 0.0 18.0 
481.0022961181386 0.15928204494604767 30.03986970259072 18.0 0.0 0.0 18.0 
482.0008657259202 0.3895207865547792 62.67381806718703 18.0 0.0 0.0 18.0 
483.0040912432464 0.3916469545360482 62.67381806718703 19.0 0.0 0.0 18.0 
484.0010607435616 0.42492352279983686 48.45432186725668 19.0 0.0 0.0 17.0 
485.00262071284044 0.09969202582463534 22.38575357016478 20.0 0.0 0.0 17.0 
486.0000991764732 0.012396719483504277 6.198359741752142 20.0 0.0 0.0 17.0 
487.00413772823407 0.0018670471591737967 0.9335235795869039 20.0 0.0 0.0 17.0 
488.0015610942677 0.0 0.0 20.0 0.0 0.0 17.0 
489.0031809810679 0.0 0.0 20.0 0.0 0.0 16.0 
490.0004232743223 0.0 0.0 20.0 0.0 0.0 16.0 
491.00516874967343 0.001999370311879422 0.9996851559397157 20.0 0.0 0.0 16.0 
492.00214547754547 0.015397263961536938 6.698946824828738 20.0 0.007044071585623429 3.5220357928117494 16.0 
493.0017179184317 0.042059341478909426 11.771125949036502 20.0 0.007044071585623429 3.5220357928117494 16.0 
494.0078873143381 0.048050704631532964 9.078237263741954 20.0 0.0 0.0 17.0 
495.0045205341542 0.06195042669165539 12.638431291667644 20.0 0.0 0.0 17.0 
496.00044755602994 0.10669583515273867 16.534182271482962 21.0 0.0 0.0 17.0 
497.000516490733 0.11829371382189972 14.155611422219692 21.0 0.0 0.0 17.0 
498.000779851022 0.14611237708570873 16.846538958850118 21.0 0.0 0.0 17.0 
499.0004890369728 0.181803403480619 19.97216257525676 21.0 0.0 0.0 19.0 
500.00526701891084 0.20915262260131942 26.99133438890931 22.0 0.0 0.0 19.0 
501.00147470441067 0.23873271614870029 26.99133438890931 22.0 0.0 0.0 19.0 
502.0001082617273 0.25634864604503205 26.99133438890931 20.0 0.0 0.0 19.0 
503.0006686694497 0.20579104091214767 26.99133438890931 20.0 0.0 0.0 19.0 
504.00027620139286 0.1667324962132768 34.29279214529282 19.0 0.0 0.0 19.0 
505.00062405611396 0.22632543042009484 41.35377235819516 19.0 0.0 0.0 19.0 
506.0010090842951 0.2731945684855875 41.35377235819516 19.0 0.0 0.0 19.0 
507.00152693615786 0.24332126808666635 41.35377235819516 19.0 0.0 0.0 18.0 
508.0002352272602 0.2711414426778129 48.63338493383293 19.0 0.0019299405900575224 0.9649702950287633 18.0 
509.000434449047 0.2799651053115445 55.649151023027656 19.0 0.006548828872651269 2.309444141296865 18.0 
510.0032068195193 0.34832113947482385 55.649151023027656 18.0 0.006548828872651269 2.309444141296865 17.0 
511.0002994214287 0.4060279739841919 55.649151023027656 18.0 0.002398937480880812 0.9649702950287633 18.0 
512.0080623196925 0.394073601295009 55.649151023027656 18.0 4.6899689082328965E-4 0.23449844541164566 18.0 
513.002983070965 0.4376674749428631 55.649151023027656 19.0 0.0 0.0 20.0 
514.0018041747805 0.5099218311577056 62.9368274568256 19.0 0.0 0.0 20.0 
515.0012095538282 0.7865368857099686 69.91912308355563 19.0 0.0 0.0 20.0 
516.0015035105521 0.6332359359323929 69.91912308355563 19.0 0.0 0.0 21.0 
517.0023314994407 0.7640673762308624 69.91912308355563 19.0 0.0 0.0 21.0 
518.0000454183797 0.8468049343433645 69.91912308355563 19.0 0.0 0.0 21.0 
519.0035762709716 0.7928049514843434 62.47848815300324 20.0 0.0 0.0 21.0 
520.0010058640046 1.0621572638168386 69.46214457222942 20.0 0.0 0.0 20.0 
521.001689560574 1.034251168033686 69.46214457222942 21.0 0.0 0.0 22.0 
522.0006863025867 1.0986482288757446 69.46214457222942 21.0 0.0 0.0 22.0 
523.0005635839381 1.1200819999278981 75.98242284608659 21.0 0.0 0.0 22.0 
524.0009938193864 1.2099768109185933 75.98242284608659 22.0 0.0 0.0 21.0 
525.0015828344433 1.3688750265717884 83.02223425242425 22.0 0.0 0.0 21.0 
526.0019764527927 1.3586058606323765 83.02223425242425 22.0 0.0 0.0 21.0 
527.0010581478773 1.300395037062351 83.02223425242425 22.0 0.0 0.0 21.0 
528.0012470536439 1.5185714701683588 107.7826494992288 22.0 0.0 0.0 21.0 
529.0066210603892 1.4722341157485113 107.7826494992288 22.0 0.0 0.0 21.0 
530.0035921327467 1.7535356014263108 114.97066279928111 22.0 0.0 0.0 21.0 
531.0031651141884 1.7485717577893496 116.55701756203018 22.0 0.0 0.0 21.0 
532.0022048882566 1.8168889883779675 116.55701756203018 21.0 0.0 0.0 21.0 
533.0022504722576 1.8554815497142174 116.55701756203018 21.0 0.0 0.0 22.0 
534.0100654863492 1.8930488656849758 116.55701756203018 21.0 0.0 0.0 21.0 
535.002517086834 2.186300381438824 123.68684574880075 21.0 0.0 0.0 21.0 
536.0001522861561 2.263266180791552 118.07834750464878 21.0 0.0 0.0 19.0 
537.0017974279506 2.298881654001652 118.07834750464878 22.0 0.0 0.0 18.0 
538.0004806482242 2.593066970359496 146.94254262024054 21.0 0.0 0.0 19.0 
539.0002161483943 2.4109236154104856 143.4172339666663 19.0 0.0 0.0 19.0 
540.0031164980384 3.0965444184617095 164.4750951770979 18.0 0.0 0.0 19.0 
541.0030061880248 3.0660825267733993 164.4750951770979 18.0 0.0 0.0 19.0 
542.0023535065965 2.9946265220220973 164.4750951770979 18.0 0.0 0.0 19.0 
543.0010457652695 2.8727248079793655 164.4750951770979 18.0 0.0 0.0 20.0 
544.0018481052812 3.0715266249140085 164.4750951770979 18.0 0.0 0.0 20.0 
545.0003553459158 3.4731824091108243 164.3875935598278 18.0 0.0 0.0 20.0 
546.0015578806433 3.2912477776656854 164.3875935598278 18.0 0.0 0.0 20.0 
547.000819258905 3.3273100774008415 164.3875935598278 18.0 0.0 0.0 20.0 
548.0023303817603 3.303444544029267 164.3875935598278 19.0 0.0 0.0 20.0 
549.0005687032794 3.3662125558530236 171.74132964632275 19.0 0.0 0.0 20.0 
550.0001706477736 3.931808075313995 164.2034686576817 19.0 0.0 0.0 20.0 
551.0025956444791 3.8395952024337765 164.2034686576817 19.0 0.0 0.0 20.0 
552.0004812126768 3.8489330151205357 164.2034686576817 19.0 0.0 0.0 20.0 
553.0040101619225 3.1779258090160387 155.1667758857376 18.0 0.0 0.0 20.0 
554.0017846218883 2.9534391673102767 138.0868152832452 18.0 0.0 0.0 19.0 
555.001682813201 2.7444559055320887 85.26731827349272 18.0 0.0 0.0 19.0 
556.0000709978553 2.975086836326592 117.16792671906603 18.0 0.0 0.0 19.0 
557.0009988127351 3.026478939236221 117.16792671906603 18.0 0.0 0.0 19.0 
558.0012974535139 3.042448183172516 117.16792671906603 18.0 0.0 0.0 19.0 
559.0008555165383 3.1498109919730926 117.16792671906603 18.0 0.0 0.0 19.0 
560.0025916842943 3.6653823473969642 116.96274042163628 18.0 0.0 0.0 19.0 
561.0055224472134 3.6508076876431135 116.96274042163628 17.0 0.0 0.0 19.0 
562.0010049162452 3.564041937393242 116.96274042163628 18.0 0.0 0.0 19.0 
563.0029758709723 2.33973263360399 116.96274042163628 18.0 0.0 0.0 19.0 
564.0000682335047 2.0572319960076353 116.96274042163628 18.0 0.0 0.0 19.0 
565.0013580826525 2.599395601335417 124.27967356253549 18.0 0.0 0.0 19.0 
566.0035197093847 1.9246730615039742 116.71814208759429 19.0 0.0 0.0 18.0 
567.0072544131028 1.624094196696921 122.04336345682242 19.0 0.0 0.0 19.0 
568.0008875541054 1.9169912499129058 122.04336345682242 19.0 0.0 0.0 19.0 
569.0023998472752 1.5251371545463652 122.04336345682242 19.0 0.0 0.0 19.0 
570.0064835976648 2.092522961262044 129.35041208565934 19.0 0.0 0.0 19.0 
571.0014354628225 2.1145129134667866 129.35041208565934 19.0 0.0 0.0 18.0 
572.0001787869205 1.9268007634472166 125.17559833591037 19.0 0.0 0.0 18.0 
573.0018960006217 1.8401158475727335 125.17559833591037 19.0 0.0 0.0 18.0 
574.0004730776884 1.8414569063968775 125.17559833591037 19.0 0.0 0.0 18.0 
575.0001374622681 1.816170475837003 132.51561026918097 19.0 0.0 0.0 18.0 
576.0002205891047 2.159096043241628 136.0933070465402 19.0 0.0 0.0 18.0 
577.0016635332321 1.8109826288940345 128.5973954556335 19.0 0.0 0.0 18.0 
578.0021529708686 1.6548756496417434 128.5973954556335 19.0 0.0 0.0 18.0 
579.000197842992 2.1329712327354615 143.4436779309808 19.0 0.0 0.0 18.0 
580.0013832452876 1.123089266065319 134.79965693032193 19.0 0.0 0.0 18.0 
581.0027946537867 0.8549066864595578 142.294103371135 21.0 0.0 0.0 21.0 
582.0000057690656 0.38819847942596997 45.76942353161493 21.0 0.0 0.0 21.0 
583.0007118789664 0.3960685852555606 45.76942353161493 20.0 0.0 0.0 20.0 
584.0008698441168 0.3106534315528187 37.91516185010656 19.0 0.0 0.0 19.0 
585.0026204155622 0.3620575199747232 37.26488627793165 19.0 0.0 0.0 19.0 
586.0010867875802 0.44027021460146654 37.26488627793165 19.0 0.0 0.0 19.0 
587.0019140136764 0.3190337450832139 37.26488627793165 19.0 0.0 0.0 19.0 
588.0040912432464 0.40716332774641495 45.049204597691926 19.0 0.0 0.0 19.0 
589.0001176322746 0.3499964693668305 45.049204597691926 18.0 0.0 0.0 19.0 
590.001654697831 0.39023357286118115 36.73608256611817 18.0 0.0 0.0 19.0 
591.0023652688691 0.45588759373537 36.73608256611817 18.0 0.0 0.0 19.0 
592.0006701085118 0.4403271334102804 36.73608256611817 18.0 0.0 0.0 19.0 
593.0004650756329 0.5174247482536355 44.508989131829026 18.0 0.0 0.0 19.0 
594.0018743237771 0.49090367282137054 44.508989131829026 18.0 0.0 0.0 19.0 
595.000548363557 0.5966130690278472 51.47917859437655 18.0 0.0 0.0 19.0 
596.001668533982 0.6470305684850453 51.47917859437655 18.0 0.0 0.0 19.0 
597.0011895652128 0.6223930792560755 44.02407500192581 19.0 0.0 0.0 20.0 
598.0032145619658 0.662300282816562 44.02407500192581 20.0 0.0 0.0 20.0 
599.0001834177888 0.6152661617247741 44.02407500192581 20.0 0.0 0.0 19.0 
600.0000772203733 0.8648462557771843 50.9173273856679 20.0 0.0 0.0 19.0 
#####################################################################
# End of data export. Simulation finished at: 2019-02-25T20:34+0000 #
#####################################################################
