#####################################################################
# Alchemist log file - simulation started at: 2019-02-25T20:44+0000 #
#####################################################################
# seed = 184.0
#
# The columns have the following meaning: 
# time distance-rep[Mean] distance-rep[Max] leader-rep[CountDistinct] distance-share[Mean] distance-share[Max] leader-share[CountDistinct] 
0.0 NaN NaN NaN NaN NaN NaN 
1.007467403037268 0.0 0.0 499.0 0.0 0.0 79.0 
2.0011521172480093 0.0 0.0 118.0 0.0 0.0 70.0 
3.0016215732003273 0.0 0.0 107.0 0.0 0.0 60.0 
4.001930926511486 0.0 0.0 103.0 0.0 0.0 57.0 
5.000100444398442 0.0 0.0 91.0 0.0 0.0 48.0 
6.00071498597464 0.0 0.0 84.0 0.0 0.0 45.0 
7.00115211724801 0.0 0.0 81.0 0.0 0.0 40.0 
8.001866596159381 0.0 0.0 82.0 0.0 0.0 39.0 
9.007535783580584 0.0 0.0 77.0 0.0 0.0 38.0 
10.002062204264668 0.0 0.0 73.0 0.0 0.0 36.0 
11.00432377598131 0.0 0.0 68.0 0.0 0.0 33.0 
12.00115211724801 0.0 0.0 63.0 0.0 0.0 29.0 
13.003299998208195 0.0 0.0 64.0 0.0 0.0 30.0 
14.002697464235508 0.0 0.0 59.0 0.0 0.0 31.0 
15.004300153917198 0.0 0.0 56.0 0.0 0.0 32.0 
16.00158181767248 0.0 0.0 53.0 0.0 0.0 29.0 
17.00115211724801 0.0 0.0 54.0 0.0 0.0 28.0 
18.003299998208195 0.0 0.0 51.0 0.0903280559660852 45.164027983042246 23.0 
19.006709495057898 0.0 0.0 50.0 0.09748201433712318 38.564402549406054 24.0 
20.001603474225597 0.0 0.0 49.0 0.0 0.0 25.0 
21.002590151466762 0.0 0.0 49.0 0.0 0.0 25.0 
22.00115211724801 0.0 0.0 50.0 0.0 0.0 22.0 
23.00136798955962 0.0 0.0 48.0 0.0 0.0 22.0 
24.00008392868304 0.0 0.0 47.0 0.0 0.0 20.0 
25.000384538076922 0.0 0.0 44.0 0.017516459928724918 8.75822996436247 25.0 
26.000006382773005 0.0 0.0 43.0 0.0 0.0 25.0 
27.000869033217437 0.0 0.0 44.0 0.0 0.0 24.0 
28.003299998208195 0.0 0.0 44.0 0.0 0.0 22.0 
29.00174756564313 0.0 0.0 43.0 0.0 0.0 21.0 
30.000779400956663 0.0 0.0 44.0 0.0 0.0 20.0 
31.00589030456658 0.0 0.0 41.0 0.0 0.0 20.0 
32.00115211724801 0.0 0.0 39.0 0.0 0.0 18.0 
33.00024624345917 0.0 0.0 40.0 0.0 0.0 18.0 
34.00057256834729 0.0 0.0 36.0 0.0 0.0 18.0 
35.00123629172077 0.0 0.0 36.0 0.0 0.0 18.0 
36.00125498358841 0.0 0.0 36.0 0.032272419296492265 10.652609621122735 19.0 
37.000491247922966 0.0 0.0 37.0 0.021305219242245408 10.652609621122735 19.0 
38.00329999820819 2.819624564555731E-4 0.14098122822778691 36.0 0.021305219242245408 10.652609621122735 19.0 
39.00253695359968 2.819624564555731E-4 0.14098122822778691 36.0 0.021305219242245408 10.652609621122735 19.0 
40.00185773459036 2.819624564555731E-4 0.14098122822778691 36.0 0.0 0.0 21.0 
41.00380746918527 2.819624564555731E-4 0.14098122822778691 36.0 0.0 0.0 21.0 
42.00097797057191 0.0 0.0 36.0 0.0 0.0 21.0 
43.0001658942643 0.005274734686526687 2.6373673432633495 36.0 0.0 0.0 21.0 
44.000922277574894 0.005420653479337249 2.6373673432633495 36.0 0.0 0.0 21.0 
45.00259188833942 0.025495357090483374 10.03735180557311 33.0 0.0 0.0 20.0 
46.0055095080465 0.025823279644105603 10.03735180557311 33.0 0.0 0.0 19.0 
47.00115211724801 0.005605414875511921 2.729748041350689 32.0 0.0 0.0 19.0 
48.000872529927925 0.023895938593378647 6.360533104607384 31.0 0.0 0.0 19.0 
49.002788624735565 0.011433487360505515 5.424686152463266 32.0 0.0 0.0 19.0 
50.001891766146265 0.029447789377204915 9.007151008349666 30.0 0.0 0.0 18.0 
51.00123562074065 0.029447789377204915 9.007151008349666 31.0 0.0 0.0 19.0 
52.00115211724801 0.021615233152471977 9.007151008349666 30.0 0.0 0.0 18.0 
53.00088221426459 0.08643488349959115 20.90586774728797 31.0 0.0 0.0 18.0 
54.003176445011995 0.0799074425824039 20.90586774728797 32.0 0.0 0.0 19.0 
55.003226275700406 0.0799074425824039 20.90586774728797 33.0 0.0 0.0 19.0 
56.000289743594706 0.08979727178195046 20.90586774728797 32.0 0.0 0.0 19.0 
57.00115211724801 0.06135968755872836 20.90586774728797 31.0 0.0 0.0 18.0 
58.00007272430031 0.10523360755322582 20.161183790991743 32.0 0.0 0.0 18.0 
59.0001853120578 0.08531512748237505 20.161183790991743 30.0 0.0 0.0 18.0 
60.00035289280473 0.034060510762485285 11.60043736509985 31.0 0.0 0.0 18.0 
61.00277260839582 0.034060510762485285 11.60043736509985 29.0 0.0 0.0 18.0 
62.00115211724801 0.026560348003604007 7.850355985659235 30.0 0.0 0.0 19.0 
63.00329999820819 0.06711387254950162 15.305598102928656 31.0 0.0 0.0 19.0 
64.00079309600967 0.07686034744723734 15.305598102928656 30.0 0.0 0.0 19.0 
65.00207041239047 0.03295191790547363 6.243544945825022 32.0 0.0 0.0 19.0 
66.00037204832994 0.07819397348665091 11.572166626757195 28.0 0.0 0.0 19.0 
67.0000793194092 0.0560000029336893 8.913432247793594 29.0 0.0 0.0 19.0 
68.00079561867511 0.0942739243139951 14.699539880747267 29.0 0.0 0.0 18.0 
69.00417848648559 0.15871506565222995 21.83738245239772 28.0 0.0 0.0 18.0 
70.00169350786295 0.15871506565222995 21.83738245239772 29.0 0.0 0.0 18.0 
71.00001069288082 0.15871506565222995 21.83738245239772 28.0 0.0 0.0 18.0 
72.00060132451875 0.12314521230546421 19.494247022807002 28.0 0.0 0.0 18.0 
73.00101145070775 0.22516598442628946 25.43162662093303 28.0 0.0 0.0 18.0 
74.00222208713701 0.227259034806272 30.532084117997783 29.0 0.0 0.0 19.0 
75.00019959786822 0.227259034806272 30.532084117997783 29.0 0.0 0.0 19.0 
76.00056521410401 0.227259034806272 30.532084117997783 29.0 0.0 0.0 19.0 
77.00115211724801 0.3224775520787789 46.06476192505281 27.0 0.0 0.0 19.0 
78.00275383773231 0.3281542115582515 37.423644643906556 27.0 0.0 0.0 19.0 
79.00019976955018 0.45381347323356647 52.82317969960732 27.0 0.0 0.0 19.0 
80.00075666366486 0.4636269771285886 52.82317969960732 28.0 0.0 0.0 19.0 
81.00414440299966 0.4682345415873311 46.566811651943226 27.0 0.0 0.0 19.0 
82.00005159986713 0.37678032258823324 43.38648421321696 27.0 0.0 0.0 19.0 
83.00273885980405 0.4209886987632574 47.795173326056386 25.0 0.0 0.0 19.0 
84.00553532687984 0.36198965249741144 47.795173326056386 25.0 0.0 0.0 19.0 
85.00169509936923 0.36198965249741144 47.795173326056386 23.0 0.0 0.0 19.0 
86.00674077972677 0.4758999030981264 47.795173326056386 23.0 0.0 0.0 20.0 
87.00113431910393 0.4197499411353215 47.153762115517026 23.0 0.0 0.0 19.0 
88.00010457208688 0.514403004972128 49.282324122324354 23.0 0.0 0.0 20.0 
89.00070178252196 0.4529281870820407 49.282324122324354 23.0 0.0 0.0 20.0 
90.00040866590852 0.561166729287715 49.282324122324354 23.0 0.0 0.0 20.0 
91.00270511956958 0.7092189880469996 44.32331628617794 23.0 0.0 0.0 20.0 
92.0005114155697 0.5842693834170473 44.2962287986409 23.0 0.0 0.0 19.0 
93.00005629819873 0.602543612020193 46.10486501012579 23.0 0.0 0.0 19.0 
94.0022216513452 0.5098382721343928 46.10486501012579 22.0 0.0 0.0 18.0 
95.00003561763475 0.5191450185599352 46.10486501012579 22.0 0.0 0.0 18.0 
96.00924329171859 0.623977210859607 46.10486501012579 22.0 0.0 0.0 18.0 
97.00115211724801 0.5209198773940631 40.723669447317405 22.0 0.0 0.0 18.0 
98.00329999820819 0.5394788299599067 42.976871227199695 22.0 0.0 0.0 18.0 
99.0001156603046 0.5319643903138409 42.976871227199695 22.0 0.0 0.0 17.0 
100.00441213821267 0.5256032684232447 42.976871227199695 22.0 0.0 0.0 17.0 
101.00290579917032 0.47512563509004263 37.654954840052284 21.0 0.0 0.0 17.0 
102.00115211724801 0.49625736712966073 37.654954840052284 21.0 0.0 0.0 17.0 
103.00239937830693 0.4818854048745701 39.746008787334574 21.0 0.0 0.0 17.0 
104.00051100934269 0.49015683497644325 39.746008787334574 21.0 0.0 0.0 17.0 
105.00021165703637 0.4426953784123657 39.746008787334574 21.0 0.0 0.0 17.0 
106.00031399979362 0.3809350508814542 34.38303666638248 21.0 0.0 0.0 17.0 
107.00115211724801 0.2520593708440506 34.38303666638248 21.0 0.0 0.0 17.0 
108.00099422839942 0.05296388266909965 26.481941334549987 21.0 0.0 0.0 17.0 
109.00066517608664 0.07249586920792564 36.247934603963046 21.0 0.0 0.0 17.0 
110.0004253292239 0.0 0.0 20.0 0.0 0.0 18.0 
111.00017233701297 0.0 0.0 19.0 0.0 0.0 18.0 
112.00097807003004 0.0 0.0 19.0 0.0 0.0 18.0 
113.00253904102186 0.0 0.0 19.0 0.0 0.0 18.0 
114.0014807731555 0.0 0.0 19.0 0.0 0.0 18.0 
115.0023796270369 0.0 0.0 19.0 0.0 0.0 18.0 
116.00019551744792 0.0 0.0 19.0 0.0 0.0 19.0 
117.00095947050623 0.0 0.0 19.0 0.0 0.0 19.0 
118.00032253716304 0.0 0.0 19.0 0.0 0.0 19.0 
119.00139163024103 0.0 0.0 19.0 0.0 0.0 19.0 
120.00076256033462 0.0 0.0 19.0 0.0 0.0 19.0 
121.00345282377954 0.0 0.0 18.0 0.0 0.0 19.0 
122.00115211724801 0.0 0.0 17.0 0.0 0.0 19.0 
123.00013206234473 0.0 0.0 17.0 0.0 0.0 19.0 
124.00238234050978 0.0 0.0 17.0 0.0 0.0 19.0 
125.00159125013533 0.0 0.0 17.0 0.0 0.0 19.0 
126.00268946553648 0.0 0.0 17.0 0.0 0.0 19.0 
127.00115211724801 0.0 0.0 17.0 0.0 0.0 20.0 
128.0032999982082 0.0 0.0 17.0 0.0 0.0 20.0 
129.00007911680973 0.0 0.0 17.0 0.0 0.0 20.0 
130.00116391400644 0.0 0.0 17.0 0.0 0.0 21.0 
131.00385963683456 0.0 0.0 18.0 0.0 0.0 21.0 
132.00097427389852 0.0 0.0 18.0 0.0 0.0 21.0 
133.00184827157042 0.0 0.0 19.0 0.0 0.0 20.0 
134.0004809686236 0.0 0.0 19.0 0.0 0.0 20.0 
135.00013752250953 0.0 0.0 19.0 0.0 0.0 21.0 
136.00207544729682 0.0 0.0 19.0 0.0 0.0 21.0 
137.00071814356065 0.0 0.0 18.0 0.0 0.0 20.0 
138.001349065608 0.0 0.0 18.0 0.0 0.0 20.0 
139.00330854848252 0.0 0.0 18.0 0.0 0.0 19.0 
140.00108063016677 0.0 0.0 18.0 0.0 0.0 19.0 
141.00210044528762 0.0 0.0 19.0 0.0 0.0 19.0 
142.00002506638188 0.0 0.0 19.0 0.0 0.0 19.0 
143.0012652900556 0.0 0.0 19.0 0.0 0.0 19.0 
144.00260836916723 0.0 0.0 18.0 0.0 0.0 19.0 
145.0001958317422 0.0 0.0 18.0 0.0 0.0 19.0 
146.0002559512573 0.0 0.0 18.0 0.0 0.0 19.0 
147.001152117248 0.002295155932103175 0.7161016633977226 19.0 0.0 0.0 18.0 
148.0032999982082 8.629526053077289E-4 0.43147630265386283 19.0 0.0 0.0 16.0 
149.00018330105624 0.005012391573724058 2.5061957868620084 19.0 0.0 0.0 16.0 
150.00586339384608 0.0 0.0 19.0 0.0 0.0 16.0 
151.00108416431675 0.0 0.0 19.0 0.0 0.0 16.0 
152.001152117248 0.0 0.0 19.0 0.0 0.0 16.0 
153.0032999982082 0.02181928866674943 6.250743260803034 19.0 0.0 0.0 16.0 
154.00012652959717 0.0 0.0 19.0 0.0 0.0 16.0 
155.00439144428222 0.0 0.0 18.0 0.0 0.0 16.0 
156.00066744948526 0.0 0.0 18.0 0.0 0.0 15.0 
157.001152117248 0.0 0.0 17.0 0.0 0.0 15.0 
158.00090563835923 0.0 0.0 17.0 0.0 0.0 16.0 
159.00128993810267 0.0 0.0 17.0 0.0 0.0 17.0 
160.0004679576234 0.0 0.0 17.0 0.0 0.0 17.0 
161.00108070844735 0.0 0.0 17.0 0.0 0.0 17.0 
162.001152117248 0.0 0.0 17.0 0.0 0.0 17.0 
163.0011436250685 0.0 0.0 17.0 0.0 0.0 17.0 
164.0021311238045 0.0 0.0 17.0 0.0 0.0 17.0 
165.00254267286516 0.0 0.0 17.0 0.0 0.0 17.0 
166.00337400679058 0.0 0.0 18.0 0.0 0.0 17.0 
167.0008663537756 0.0 0.0 18.0 0.0 0.0 16.0 
168.0007605428708 0.0 0.0 18.0 0.0 0.0 16.0 
169.0006516203042 0.0 0.0 18.0 0.0 0.0 15.0 
170.00070081065357 5.717379617937595E-4 0.28586898089687907 18.0 0.0 0.0 16.0 
171.00068821350402 0.0 0.0 20.0 0.0 0.0 16.0 
172.001152117248 0.0 0.0 21.0 0.0 0.0 16.0 
173.00000050374786 0.0 0.0 20.0 0.0 0.0 16.0 
174.00131641230632 0.0 0.0 20.0 0.0 0.0 16.0 
175.00027244696042 0.0 0.0 19.0 0.0 0.0 16.0 
176.00171186200967 0.0 0.0 20.0 0.0 0.0 17.0 
177.001152117248 0.0 0.0 20.0 0.0 0.0 18.0 
178.00087722572414 0.0 0.0 19.0 0.0 0.0 18.0 
179.0014171312115 0.0 0.0 19.0 0.0 0.0 18.0 
180.0015006943544 0.0 0.0 19.0 0.0 0.0 17.0 
181.00092863253164 0.0 0.0 18.0 0.0 0.0 17.0 
182.001152117248 0.0 0.0 18.0 0.0 0.0 17.0 
183.0032999982082 0.0 0.0 18.0 0.0 0.0 17.0 
184.00010307490632 1.5672720942330984E-4 0.07836360471165449 18.0 0.0 0.0 17.0 
185.01017718383244 0.011505376195654046 3.8260144265550196 18.0 0.0 0.0 18.0 
186.00019790272097 0.011505376195654046 3.8260144265550196 18.0 0.0 0.0 18.0 
187.001152117248 0.01552716939781705 3.8260144265550196 18.0 0.0 0.0 18.0 
188.00170370544203 0.01552716939781705 3.8260144265550196 18.0 0.0 0.0 18.0 
189.00074124613678 0.06384920678380199 10.990165227204415 18.0 0.0 0.0 18.0 
190.00355753296023 0.07896935523361462 14.818390733225982 18.0 0.0 0.0 19.0 
191.00260932772403 0.07896935523361462 14.818390733225982 19.0 0.0 0.0 20.0 
192.001152117248 0.08644637610992104 14.818390733225982 19.0 0.0 0.0 20.0 
193.00219991559936 0.08644637610992104 14.818390733225982 19.0 0.0 0.0 20.0 
194.00443244111366 0.0654806268366023 12.94114114878792 19.0 0.0 0.0 20.0 
195.0004808560528 0.09029941797204334 20.297145277197302 19.0 0.0 0.0 19.0 
196.00318566586492 0.0 0.0 19.0 0.0 0.0 18.0 
197.001152117248 0.0 0.0 19.0 0.0 0.0 17.0 
198.00115298960404 0.0 0.0 19.0 0.0 0.0 17.0 
199.00685235309038 0.0 0.0 19.0 0.0 0.0 17.0 
200.0008244881328 0.0 0.0 18.0 0.0 0.0 18.0 
201.00469988803724 0.0 0.0 18.0 0.0 0.0 17.0 
202.001152117248 0.0 0.0 18.0 0.0 0.0 17.0 
203.0032999982082 0.0 0.0 18.0 0.0 0.0 16.0 
204.0017211551172 0.0 0.0 18.0 0.0 0.0 16.0 
205.00155832217038 0.0 0.0 18.0 0.0 0.0 16.0 
206.00248975299996 0.0 0.0 18.0 0.0 0.0 16.0 
207.001152117248 0.0 0.0 18.0 0.0 0.0 16.0 
208.0032999982082 0.0 0.0 18.0 0.0 0.0 15.0 
209.00052465421604 0.0 0.0 18.0 0.0 0.0 15.0 
210.00099545101386 0.0 0.0 18.0 0.0 0.0 15.0 
211.00651126692335 0.0 0.0 18.0 0.0 0.0 15.0 
212.001152117248 0.0 0.0 18.0 0.0020808998019256355 1.0404499009628125 15.0 
213.0032999982082 0.0 0.0 17.0 0.0020808998019256355 1.0404499009628125 15.0 
214.0010434992661 0.0 0.0 17.0 0.006783838552221211 2.3514693751477864 15.0 
215.00357456086957 0.0 0.0 17.0 0.022651708447025853 4.516148919280738 15.0 
216.00361959483362 0.0 0.0 17.0 0.016869710673578134 8.434855336789099 15.0 
217.00002610966234 0.0 0.0 17.0 0.002925167401048732 1.4625837005243625 15.0 
218.000453818725 0.0 0.0 17.0 0.002925167401048732 1.4625837005243625 15.0 
219.00090761033096 0.0 0.0 17.0 0.002925167401048732 1.4625837005243625 15.0 
220.0005652490874 0.0 0.0 17.0 0.0158042429089043 6.439537753927738 15.0 
221.00198523632272 0.0 0.0 17.0 0.045369673807129536 13.835669345383934 15.0 
222.000778436135 0.0 0.0 17.0 0.03135863024639189 13.835669345383934 17.0 
223.00025876927882 0.0 0.0 17.0 0.03135863024639189 13.835669345383934 16.0 
224.00065501600025 0.0 0.0 17.0 0.0 0.0 17.0 
225.00030668435932 0.0 0.0 17.0 0.0 0.0 16.0 
226.00013985418465 0.0 0.0 17.0 0.0 0.0 16.0 
227.001152117248 0.0 0.0 17.0 0.0 0.0 16.0 
228.00061414701958 0.0 0.0 17.0 0.0 0.0 16.0 
229.00320774756793 0.0 0.0 18.0 0.0 0.0 16.0 
230.00121593307364 0.0 0.0 19.0 0.0 0.0 16.0 
231.00274655359382 0.0 0.0 20.0 0.0 0.0 17.0 
232.0001742569078 0.012837017280911448 6.418508640455741 19.0 0.0 0.0 17.0 
233.0032999982082 0.012837017280911448 6.418508640455741 19.0 0.0 0.0 17.0 
234.00165266669464 0.026514190764622896 13.257095382311405 19.0 0.0 0.0 17.0 
235.00185803317248 0.010237715020608742 3.006695710319832 20.0 0.0 0.0 19.0 
236.00033965253544 0.010237715020608742 3.006695710319832 20.0 0.0 0.0 19.0 
237.00072543429704 0.010237715020608742 3.006695710319832 20.0 0.0 0.0 19.0 
238.0008737603446 0.0073467023254379935 3.006695710319832 20.0 0.0 0.0 19.0 
239.0009588475026 0.0073467023254379935 3.006695710319832 20.0 0.0 0.0 19.0 
240.00345502294238 0.037050715021135674 8.530935968104984 20.0 0.0 0.0 19.0 
241.00206539404684 0.017061871936209935 8.530935968104984 20.0 0.0 0.0 19.0 
242.00035396493828 0.0 0.0 20.0 0.0 0.0 19.0 
243.00073718202833 0.0 0.0 20.0 0.0 0.0 19.0 
244.00169666742485 0.0 0.0 20.0 0.0 0.0 19.0 
245.00243858048177 0.0 0.0 21.0 0.0 0.0 19.0 
246.00216801315426 0.0 0.0 21.0 0.0 0.0 19.0 
247.001152117248 0.0 0.0 21.0 0.0 0.0 19.0 
248.0020056571013 0.005219512114662486 2.6097560573312535 21.0 0.0 0.0 20.0 
249.00061006981937 0.008460666030587058 4.230333015293525 21.0 0.0 0.0 20.0 
250.0027902090625 0.08414897640994737 24.144111452795215 20.0 0.0 0.0 20.0 
251.00055607372013 0.11201774218405064 24.144111452795215 20.0 0.0 0.0 20.0 
252.001152117248 0.08818448953973756 24.144111452795215 20.0 0.0 0.0 19.0 
253.00319322742303 0.10039065245658135 24.144111452795215 20.0 0.0 0.0 19.0 
254.0035299277572 0.04019693860265537 7.932338488001051 20.0 0.0 0.0 20.0 
255.0011745754944 0.08484033687651724 11.478914159362972 20.0 0.0 0.0 20.0 
256.00279342381026 0.13286167186761744 24.01066749555008 20.0 0.0 0.0 19.0 
257.001152117248 0.1214288287644945 24.01066749555008 20.0 0.0 0.0 19.0 
258.00305247604024 0.10955636723179935 24.01066749555008 20.0 0.0 0.0 18.0 
259.00537479897696 0.10955636723179935 24.01066749555008 20.0 0.0 0.0 17.0 
260.0004406487984 0.1488064777275934 28.511193504587908 20.0 0.0 0.0 17.0 
261.0075437611692 0.19616304793671893 28.324398109828564 19.0 0.0 0.0 16.0 
262.00053632803065 0.20427148202392922 28.324398109828564 20.0 0.0 0.0 16.0 
263.00274909731365 0.20427148202392922 28.324398109828564 19.0 0.0 0.0 16.0 
264.00281486661964 0.21870789130421053 28.324398109828564 19.0 0.0 0.0 16.0 
265.0003735762487 0.2803725720601746 32.97385714849179 19.0 0.0 0.0 16.0 
266.00008180564805 0.20033025591059012 28.024583854327375 19.0 0.0 0.0 16.0 
267.001152117248 0.273839832325893 28.024583854327375 19.0 0.0 0.0 18.0 
268.0032999982082 0.1877373414905996 28.024583854327375 19.0 0.0 0.0 18.0 
269.0004612527351 0.28437881888529265 28.29454755366669 20.0 0.0 0.0 19.0 
270.0012609452617 0.4400858005997585 60.271534253758205 22.0 0.02539888839284704 12.699444196423485 19.0 
271.0001456934776 0.42295396343302116 60.271534253758205 21.0 0.01688631029305796 8.443155146529051 20.0 
272.001152117248 0.6013068600708942 60.271534253758205 22.0 0.03164566250296489 15.822831251482285 20.0 
273.0005608697905 0.5856643227898273 60.271534253758205 22.0 0.03164566250296489 15.822831251482285 20.0 
274.0003555580952 0.6970458872274944 58.05420990847625 22.0 0.03164566250296489 15.822831251482285 20.0 
275.00531023871224 0.7090323755845218 65.16363778578489 21.0 0.03164566250296489 15.822831251482285 20.0 
276.00039548398956 0.8342646729643256 65.16363778578489 21.0 0.023399564705047074 11.69978235252347 20.0 
277.001152117248 0.6609292794802374 65.16363778578489 21.0 0.03830188619188857 19.150943095944257 20.0 
278.00069855364285 0.7536114366929988 65.16363778578489 21.0 0.03830188619188857 19.150943095944257 19.0 
279.0050644361424 1.4605845552540933 92.34069322697798 21.0 0.0 0.0 20.0 
280.0017795631465 1.3608180451419207 92.34069322697798 21.0 0.0 0.0 21.0 
281.0016664679707 1.8781136733090522 99.69760796104322 21.0 0.0 0.0 20.0 
282.001152117248 2.001614753766124 99.69760796104322 20.0 0.0 0.0 19.0 
283.00195545248715 2.255235198872158 97.4801469346558 20.0 0.0 0.0 18.0 
284.0029485780285 2.347428722395186 97.4801469346558 21.0 0.0 0.0 18.0 
285.0020542493175 3.012490221552071 104.94325374323546 21.0 0.0 0.0 18.0 
286.0016619968556 3.1134517832452664 103.77231658396727 21.0 0.0 0.0 18.0 
287.001152117248 3.737639110528108 109.41549887933695 21.0 0.0 0.0 18.0 
288.0013942040576 3.789331050719598 108.65711870121049 20.0 0.0 0.0 18.0 
289.00074551158235 3.6873959588472087 114.02448476471614 20.0 0.0 0.0 18.0 
290.00041144336257 3.9647020347380297 113.87362846355938 20.0 0.0 0.0 18.0 
291.0012992009675 4.027017794873563 116.85306219379652 20.0 0.0 0.0 18.0 
292.001152117248 3.9573510100273444 122.3236484837924 21.0 0.0 0.0 18.0 
293.00163194350836 3.5143343416560233 122.3236484837924 21.0 0.0 0.0 18.0 
294.00187910206677 2.7711038201471627 108.50249235369256 22.0 0.0 0.0 18.0 
295.0003491066685 2.374630886185511 113.43316936779473 21.0 0.0 0.0 18.0 
296.00137732743866 2.1263307226491146 107.79584394499602 21.0 0.0 0.0 18.0 
297.00086479353655 2.1461482850383495 107.79584394499602 21.0 0.0 0.0 18.0 
298.002475574064 1.8701927085107242 107.79584394499602 21.0 0.0 0.0 17.0 
299.005083136265 2.1118398056701317 107.79584394499602 20.0 0.0 0.0 17.0 
300.00232542547496 1.6288145007473183 104.7610073643927 20.0 0.0 0.0 17.0 
301.0002944833992 1.5516539669165759 104.7610073643927 20.0 0.0 0.0 17.0 
302.0004964569958 1.754459904923687 108.09708252658459 20.0 0.0 0.0 17.0 
303.0011144799899 1.5146590000647726 108.09708252658459 19.0 0.0 0.0 17.0 
304.0026595912899 1.7574818289263132 108.09708252658459 19.0 0.0 0.0 17.0 
305.00101100301356 1.8072045478667234 105.0642184899412 19.0 0.0 0.0 17.0 
306.0000237571106 1.9168814812327755 97.50853150031122 19.0 0.0 0.0 17.0 
307.0003767899697 2.1719256399937983 108.4686384726802 19.0 0.0 0.0 18.0 
308.00068182387315 2.070114947871478 108.4686384726802 19.0 0.0 0.0 18.0 
309.0060560373285 2.0281547063402514 102.56186878973733 20.0 0.0 0.0 18.0 
310.005414122653 2.1856065762524866 104.9618461728927 20.0 0.0 0.0 17.0 
311.0002562432295 2.3155177176433477 104.9618461728927 20.0 0.0 0.0 17.0 
312.001152117248 2.6431676053989372 104.9618461728927 20.0 0.0 0.0 17.0 
313.0032999982082 2.8084136648448306 104.9618461728927 20.0 0.0 0.0 17.0 
314.0010580071892 3.3007974066975216 104.9618461728927 20.0 0.0 0.0 17.0 
315.00140506404483 3.846887173726743 118.50338842091287 20.0 0.001931627054300906 0.9658135271504591 17.0 
316.0028486153574 3.9097226755096233 118.50338842091287 20.0 0.02973386701706937 8.276036443861614 17.0 
317.0009356302141 3.994725590119859 116.31016388603513 20.0 0.016552072887723167 8.276036443861614 17.0 
318.0009554495711 4.762343146538359 119.377347815431 20.0 0.016552072887723167 8.276036443861614 17.0 
319.00090021627227 5.089094369955793 119.377347815431 19.0 5.781282382030771E-4 0.28906411910153906 19.0 
320.00179153018615 5.158050705897798 122.96350468365961 19.0 0.0 0.0 19.0 
321.0015857618705 5.335512899769666 122.96350468365961 19.0 0.0 0.0 19.0 
322.0009883214436 5.2573327504101135 122.96350468365961 19.0 0.0 0.0 17.0 
323.00229358251966 5.028605982353302 119.08278738210504 19.0 0.0 0.0 17.0 
324.00649498630025 5.275811701266719 130.80847800329474 20.0 0.0 0.0 17.0 
325.00121963589305 4.90934496769157 127.71752355706337 20.0 0.0 0.0 18.0 
326.0011171026855 3.391130142359412 127.71752355706337 21.0 0.0 0.0 17.0 
327.001152117248 1.8903611006942673 108.79394990816377 21.0 0.0 0.0 17.0 
328.00019538732465 1.7908722925810978 105.17962979471719 21.0 0.0 0.0 17.0 
329.0012936196482 1.6693767485262523 105.17962979471719 21.0 0.0 0.0 17.0 
330.001490129089 1.3913024686815014 99.1522440487833 21.0 0.0 0.0 17.0 
331.0080440403337 1.8254554399245664 105.97554971615739 21.0 0.0 0.0 17.0 
332.00021493729525 1.5173936597153632 99.1522440487833 20.0 0.0 0.0 17.0 
333.000406935928 1.9389006023077042 109.47683935399493 21.0 0.0 0.0 17.0 
334.00025238312327 1.9435860674144187 109.47683935399493 21.0 0.0 0.0 17.0 
335.0043812960675 1.8078956403103024 102.05384208014164 21.0 0.0 0.0 17.0 
336.00133499452136 1.6399314464622456 102.05384208014164 20.0 0.0 0.0 17.0 
337.001152117248 2.0845155339107597 110.22577184317817 20.0 0.0 0.0 17.0 
338.0007482699509 2.289419653754936 110.22577184317817 19.0 0.0 0.0 17.0 
339.0039432363956 2.327899034412535 110.22577184317817 19.0 0.0 0.0 17.0 
340.0012758990533 2.392200309956749 103.2845312766176 18.0 0.0 0.0 16.0 
341.0060449492793 2.5119862412298652 103.2845312766176 19.0 0.0 0.0 16.0 
342.00050538138066 2.741102233899729 101.25488320578637 19.0 8.024860579808493E-4 0.40124302899042164 14.0 
343.000861643436 2.6988224152101945 96.42374257805949 19.0 8.024860579808493E-4 0.40124302899042164 14.0 
344.00111549935 2.983806734859793 128.9592435905597 20.0 8.024860579808493E-4 0.40124302899042164 15.0 
345.0023919483953 3.1146019367884312 122.07833632432795 20.0 8.024860579808493E-4 0.40124302899042164 15.0 
346.0038451071927 3.239972619709734 122.46010318196335 20.0 0.02782117708618015 7.951209661197737 15.0 
347.001152117248 3.2205643042104715 122.46010318196335 20.0 0.024802021265486224 5.959378881892292 15.0 
348.00207142410113 3.1382998710821437 122.46010318196335 20.0 0.0025151774827715466 1.2575887413857743 15.0 
349.0006725564248 3.491367467823303 122.46010318196335 20.0 0.0025151774827715466 1.2575887413857743 15.0 
350.0034453061576 2.9549162576366594 108.99030865525555 20.0 0.0025151774827715466 1.2575887413857743 15.0 
351.0040805214628 3.0468091556976464 108.99030865525555 20.0 0.031267667797573076 8.803978237332643 15.0 
352.001152117248 3.229834664928093 108.99030865525555 19.0 0.018000584795979407 6.82985566145382 15.0 
353.0032999982082 3.338819498984693 108.99030865525555 20.0 0.004589674776295623 2.1704367365358905 16.0 
354.00084897574857 3.51939695954235 108.99030865525555 20.0 0.004589674776295623 2.1704367365358905 16.0 
355.0000631073608 3.2508343084803237 95.62456498641507 20.0 0.004589674776295623 2.1704367365358905 16.0 
356.00093831414824 3.049609919407798 95.62456498641507 21.0 0.020969200933886142 9.720417271562297 18.0 
357.0005262402876 3.367852380900451 95.62456498641507 21.0 0.052701516116100244 7.675028245273921 18.0 
358.0032999982082 3.3294531664888214 95.62456498641507 21.0 0.048235466214828125 5.4962476735295525 18.0 
359.00133018955785 3.2125921718865915 95.62456498641507 21.0 0.048235466214828125 5.4962476735295525 17.0 
360.00040543006025 3.0745726069374157 86.43876592559803 20.0 0.052761804200013744 6.772684565615947 18.0 
361.00753092330456 3.0179119558291765 86.43876592559803 20.0 0.1143063478583256 14.396916611789607 19.0 
362.00054144271763 2.8436057659492304 86.43876592559803 20.0 0.14582802886576623 16.131529075116873 18.0 
363.0010116217008 3.036849230847435 92.84752514138859 20.0 0.14220307227911566 17.046797400320003 18.0 
364.0001842115499 3.510444891772005 110.36404382536546 20.0 0.06261634633451227 8.250839950503803 17.0 
365.0004471132107 3.1311465420282283 86.11976781221239 20.0 0.06261634633451227 8.250839950503803 17.0 
366.00030556427083 2.8809304501477957 86.11976781221239 19.0 0.13613961134866864 15.332853477169067 17.0 
367.0001097557149 2.8815058795236603 86.11976781221239 19.0 0.18752035394108502 22.361933044549346 17.0 
368.0007939224585 2.5303157988507383 92.43900642627699 18.0 0.1675066855844156 22.361933044549346 17.0 
369.0044646860803 2.311367145975507 92.43900642627699 19.0 0.12673464376260463 22.361933044549346 18.0 
370.0023721736203 1.8670567183802615 85.70377559718258 18.0 0.12673464376260463 22.361933044549346 18.0 
371.00371434819556 1.7650159111194157 85.70377559718258 18.0 0.026343594422516513 13.17179721125828 18.0 
372.00070378985623 1.730471510431721 85.70377559718258 18.0 0.0 0.0 18.0 
373.0032936244613 1.8864076161216856 92.03191105119589 18.0 0.0 0.0 18.0 
374.0005586350395 1.9003408677620615 92.03191105119589 18.0 0.0 0.0 18.0 
375.00187569442545 1.8450939631704941 85.38730065402535 18.0 0.0 0.0 18.0 
376.0014944150035 1.5413239205524076 85.38730065402535 17.0 0.0 0.0 18.0 
377.001152117248 1.6808457952373514 85.38730065402535 17.0 0.0 0.0 18.0 
378.0011481733155 1.6136989085141307 60.13622902342382 17.0 0.0 0.0 18.0 
379.0001113479573 1.924932398667198 91.72359489386656 17.0 0.0 0.0 18.0 
380.00057779982114 1.603518960423703 80.56189539949469 17.0 0.0 0.0 18.0 
381.003991815627 1.722012278065041 85.0720407619583 17.0 0.0 0.0 17.0 
382.0003136299118 1.8459412602407093 85.0720407619583 17.0 0.0 0.0 17.0 
383.0001801311236 1.6241524754084187 80.56189539949469 17.0 0.0 0.0 18.0 
384.00325999407 1.6246138227533997 95.60230189729089 17.0 0.0 0.0 18.0 
385.00654470696304 1.705909111244155 85.07208183044452 17.0 0.0 0.0 18.0 
386.0022739206289 1.5316747693295083 68.16474880974891 17.0 0.0 0.0 18.0 
387.001152117248 1.6385794001588583 72.35766454000719 17.0 0.0 0.0 17.0 
388.00255691546454 1.6667689939708803 76.85351081234268 17.0 0.0 0.0 17.0 
389.00121367860277 1.8551880447828037 82.7788105365039 17.0 0.0 0.0 17.0 
390.0050010100466 2.0236559708447275 78.20428818345255 17.0 0.0 0.0 17.0 
391.0001788799764 1.923041413566085 78.20428818345255 17.0 0.0 0.0 17.0 
392.001152117248 2.0265213426834694 78.20428818345255 17.0 0.0 0.0 17.0 
393.0003213101209 1.9568219616848626 84.98022332388064 17.0 0.0 0.0 17.0 
394.0012025281109 1.8643674200060993 72.25304369610546 17.0 0.0 0.0 17.0 
395.0024321280372 1.8452223885690633 59.086652673031665 17.0 0.0 0.0 17.0 
396.0024973704491 1.9353072374370222 72.25304369610546 16.0 0.0 0.0 16.0 
397.00089802662353 1.7280565384972386 55.03317684742737 16.0 0.0 0.0 16.0 
398.0021714151985 1.9686096773576696 59.086652673031665 16.0 0.0 0.0 17.0 
399.00112738337884 1.9196581128824934 65.71768471897371 16.0 0.0 0.0 17.0 
400.00105444007994 1.3353644251244172 55.03317684742737 16.0 0.0 0.0 17.0 
401.00022283633984 1.458699924607335 55.03317684742737 16.0 0.0 0.0 17.0 
402.0007547569089 1.2975090333383348 65.2438295270536 16.0 0.0 0.0 17.0 
403.00306051747356 1.4347819702593518 65.2438295270536 16.0 0.0 0.0 17.0 
404.0002235460518 1.4917505012837697 65.2438295270536 17.0 0.007268066614309097 3.634033307154567 17.0 
405.0046895478792 1.3198029587539266 65.2438295270536 17.0 0.013373860086110063 6.6869300430550425 17.0 
406.0005932462846 1.394898191570396 59.80045357391032 17.0 0.0 0.0 17.0 
407.001152117248 1.2584682804271885 59.80045357391032 17.0 0.0 0.0 18.0 
408.0023908557684 1.1016033401028948 59.80045357391032 17.0 0.0 0.0 18.0 
409.0012682324518 0.9282303332147543 61.640979274327776 17.0 0.0 0.0 17.0 
410.00001316471116 1.1802378522245585 63.13065347126184 17.0 0.0 0.0 17.0 
411.001109888068 1.0163263384402534 61.640979274327776 17.0 0.0 0.0 17.0 
412.001152117248 1.0622221329798736 61.640979274327776 17.0 0.0 0.0 17.0 
413.0032999982082 0.9739843614237775 57.07820774069165 18.0 0.0 0.0 16.0 
414.0032137707804 1.1036603484382594 67.93042268793289 18.0 0.0 0.0 16.0 
415.0005693231294 0.9633911024990178 60.97981146474865 17.0 0.0 0.0 16.0 
416.0003367874988 1.0676834251168847 71.40576632469254 16.0 0.0 0.0 16.0 
417.00058553869155 1.0923917697075045 71.40576632469254 16.0 0.0 0.0 16.0 
418.0026948425384 1.2412603734300292 90.03488292673546 15.0 0.0071414074710845835 3.5707037355423097 16.0 
419.0019312442102 1.2685908819005642 94.72313144165378 15.0 0.03181965121283011 7.097281930771317 18.0 
420.0004006919786 1.2788242973409627 94.72313144165378 15.0 0.0 0.0 18.0 
421.00420007778104 1.309080992069066 94.72313144165378 15.0 0.0 0.0 18.0 
422.001152117248 1.3529448129674442 89.07528079766666 15.0 0.0 0.0 18.0 
423.0005705931981 1.4005267034630617 89.07528079766666 16.0 0.0 0.0 18.0 
424.00066308437556 1.4567283500354806 93.7153324198436 17.0 0.0031382155368485085 1.56910776842426 21.0 
425.00140388063005 1.3516901034781588 67.55993472399285 17.0 0.007128608627754048 3.5643043138769883 21.0 
426.0007104399382 1.512391742657389 93.7153324198436 18.0 0.0 0.0 19.0 
427.00036456101884 1.6528850567092181 88.23679804630831 18.0 0.0 0.0 19.0 
428.0018057159417 1.6585528427286091 88.23679804630831 18.0 0.0 0.0 18.0 
429.00084587793134 1.74289358667117 88.23679804630831 18.0 0.0 0.0 18.0 
430.00378263300985 1.6884131285670638 92.8222775564177 19.0 0.0 0.0 18.0 
431.00003747502046 1.7158797266873254 92.8222775564177 19.0 0.0 0.0 18.0 
432.001152117248 1.7145395065298237 87.51701094423396 19.0 0.0 0.0 18.0 
433.00192790642484 1.6787863611646237 87.51701094423396 20.0 0.0 0.0 18.0 
434.0027641900084 1.8034125138777453 87.51701094423396 20.0 0.0 0.0 18.0 
435.00098085443864 1.888060740154702 92.18141267679516 20.0 0.0 0.0 18.0 
436.00097583081447 1.9555073608794908 92.18141267679516 19.0 0.0 0.0 18.0 
437.0008452373922 1.9652485945845126 86.89803595909439 19.0 0.0 0.0 18.0 
438.00019588500203 1.980812876628464 91.49077150087919 19.0 0.0 0.0 17.0 
439.0002482437558 2.0660347410908897 92.86013999755136 19.0 0.0 0.0 17.0 
440.00195445668845 2.196080149748823 96.32620029552061 19.0 0.0 0.0 17.0 
441.0002404020012 2.251488245293027 96.32620029552061 19.0 0.0 0.0 17.0 
442.001152117248 2.2370256392237806 101.82457872295106 19.0 0.0 0.0 17.0 
443.0002999648313 2.41389793790177 108.73768327255556 19.0 0.0 0.0 17.0 
444.000271205594 2.4034389556256315 106.79506588612884 19.0 0.0 0.0 17.0 
445.00147354386473 2.423932566368546 106.79506588612884 19.0 0.0 0.0 17.0 
446.00279380120054 2.5626727748059164 106.79506588612884 19.0 0.0 0.0 16.0 
447.0004012955018 2.5907358273882033 106.79506588612884 19.0 0.0 0.0 16.0 
448.00004832698954 2.2719618794579097 106.50222613068672 19.0 0.0 0.0 17.0 
449.0003717457102 2.729233864729859 113.04844003162896 18.0 0.0 0.0 17.0 
450.0018101988394 2.4243244298436193 102.88908001207113 18.0 0.0 0.0 17.0 
451.0000492074438 2.430905942880268 102.88908001207113 18.0 0.0 0.0 16.0 
452.001152117248 2.4976135751849635 102.88908001207113 18.0 0.0 0.0 16.0 
453.00271599353056 2.401443198568039 101.09956478731942 17.0 0.0 0.0 15.0 
454.00044314174727 3.20764436386271 121.02267943324614 17.0 0.0 0.0 15.0 
455.00184560415124 3.193600999760367 116.69204365074393 17.0 0.0 0.0 15.0 
456.0021837495523 3.3713844375488313 116.69204365074393 17.0 0.0 0.0 15.0 
457.001152117248 3.3303880763621208 116.69204365074393 17.0 0.0 0.0 15.0 
458.0032999982082 3.5099548275027286 116.69204365074393 17.0 0.0 0.0 15.0 
459.0001502626115 3.427159241805291 111.98702335598847 17.0 0.0 0.0 15.0 
460.00013361573156 3.7392072925220003 111.98702335598847 17.0 0.0 0.0 15.0 
461.00077132858075 4.000724401470431 124.78905784818079 17.0 0.0 0.0 15.0 
462.001152117248 3.955291071814598 123.52366377169704 17.0 0.0 0.0 15.0 
463.00254878074924 3.9583950379875588 123.52366377169704 17.0 0.0 0.0 16.0 
464.00702527895027 4.370145642864782 128.78766931353874 16.0 0.0 0.0 14.0 
465.001472753924 5.281859422348535 129.29545877198814 16.0 0.0 0.0 14.0 
466.0000853279398 5.440547566305872 136.92943057390983 16.0 0.0 0.0 14.0 
467.001152117248 5.79240760122547 136.92943057390983 16.0 0.0 0.0 14.0 
468.00027229071543 5.9713779752232945 136.92943057390983 16.0 0.0 0.0 17.0 
469.00349308436427 6.03671455436882 137.2727991063157 15.0 0.0 0.0 16.0 
470.00125200289125 6.050060224631776 134.88388380596302 15.0 0.0 0.0 16.0 
471.0006526657202 6.430165860797597 136.2621744328967 14.0 0.0 0.0 16.0 
472.001152117248 5.478497444708793 132.2813035440912 14.0 0.0 0.0 16.0 
473.00010508032585 6.128073795421697 136.28747975741385 14.0 0.0 0.0 17.0 
474.0035320110894 6.2887511345520215 140.7061925032982 14.0 0.0 0.0 17.0 
475.0030601227854 6.917416753286422 140.9202576112579 14.0 0.0 0.0 17.0 
476.00051433867026 6.761430639150962 140.9202576112579 14.0 0.0 0.0 17.0 
477.00052623981304 6.937128882070456 140.9202576112579 14.0 0.0 0.0 17.0 
478.0008695184386 7.036598870185543 139.19659996038382 14.0 0.0 0.0 17.0 
479.0011657353364 7.1212736789843385 139.19659996038382 15.0 0.0 0.0 17.0 
480.0005709848286 7.394862487495551 144.57335916082712 15.0 0.0 0.0 18.0 
481.0020808213274 7.723564400149793 152.60545716628224 15.0 0.0 0.0 19.0 
482.0005019301085 7.582301336733782 147.87161324758034 15.0 0.0 0.0 18.0 
483.0010869148369 7.974659560497385 150.44065929473942 15.0 0.0 0.0 18.0 
484.0000100624595 8.258810990007586 156.31243484274466 15.0 0.0 0.0 18.0 
485.0079412176789 7.9493497419259835 156.31243484274466 15.0 0.0 0.0 18.0 
486.00324855874794 7.792444614204765 156.31243484274466 15.0 0.0 0.0 17.0 
487.001152117248 8.049117703163954 164.5342242024377 15.0 0.0 0.0 17.0 
488.0028534989642 8.398577541666704 164.5342242024377 15.0 0.0 0.0 17.0 
489.0024273770934 8.892279766772585 179.09940095264676 15.0 0.0 0.0 17.0 
490.00118864173123 9.242457709859142 179.09940095264676 15.0 0.0 0.0 17.0 
491.00068519731064 8.975374292879962 179.09940095264676 15.0 0.0 0.0 17.0 
492.001152117248 9.240389376800456 184.34196433463825 16.0 0.0 0.0 17.0 
493.00015382539755 9.06812274374472 184.34196433463825 18.0 0.0 0.0 16.0 
494.0020738261092 9.347833833821063 189.7130898050682 19.0 0.0 0.0 16.0 
495.000865514449 10.268575954984152 189.7130898050682 19.0 0.0 0.0 16.0 
496.00005717715254 10.715016706001519 193.42020196098548 19.0 0.0 0.0 16.0 
497.00064002437006 9.720865440015542 175.09486062776335 19.0 0.0 0.0 16.0 
498.0012166302418 9.662805348620957 175.09486062776335 19.0 0.0 0.0 15.0 
499.00591594648427 9.871964716603918 175.09486062776335 20.0 0.0 0.0 15.0 
500.00137073230644 9.546900295635481 173.81381400142914 20.0 0.0 0.0 14.0 
501.0004876474167 9.997297811529116 187.91943863968686 21.0 0.0 0.0 14.0 
502.001152117248 9.84399107532141 187.91943863968686 21.0 0.0 0.0 14.0 
503.0032999982082 9.612221738109389 168.50832752444336 20.0 0.0 0.0 14.0 
504.00130503132436 9.86335296781435 187.91943863968686 20.0 0.0 0.0 14.0 
505.0026922059966 9.808073715572592 186.87635123299947 20.0 0.0 0.0 14.0 
506.0012078495713 9.761475347570864 181.44912051475995 20.0 0.0 0.0 14.0 
507.0005081813618 9.923921370356915 181.44912051475995 20.0 0.0 0.0 14.0 
508.0021685817042 9.779376377649223 181.44912051475995 20.0 0.0 0.0 14.0 
509.00181983607996 9.248469853826093 181.44912051475995 20.0 0.0 0.0 15.0 
510.00296772686863 9.188423447727937 178.56513550924024 20.0 0.0027587911363430584 1.3793955681715317 16.0 
511.000555777762 9.434903778430002 173.1144476632519 20.0 0.0 0.0 17.0 
512.0002314053766 9.0598610261016 173.1144476632519 19.0 0.0 0.0 16.0 
513.0023208095063 9.041130465001913 173.1144476632519 20.0 0.0 0.0 16.0 
514.0003474549858 8.829399926122727 172.9495966562751 20.0 0.0 0.0 16.0 
515.0007545304903 8.725471667486543 169.65262454946975 20.0 0.0 0.0 16.0 
516.0053632084303 8.58791350827964 169.58910528976577 21.0 0.0 0.0 16.0 
517.0001200784416 8.521258165858702 169.58910528976577 21.0 0.0 0.0 16.0 
518.0032999982081 8.505769451926255 175.18857881976442 21.0 0.0 0.0 15.0 
519.0003120579428 8.310598443791287 171.9406348260943 21.0 0.0 0.0 15.0 
520.0011823921802 8.288433604883256 171.9406348260943 21.0 0.0 0.0 15.0 
521.0037930137453 8.142351377530671 171.9406348260943 20.0 0.0 0.0 15.0 
522.001152117248 8.081638011322262 171.9406348260943 21.0 0.0 0.0 15.0 
523.0007885674355 7.772490665771336 177.75790452423746 22.0 0.0 0.0 14.0 
524.0003090616054 7.757353173172248 179.42872873932055 24.0 0.0 0.0 14.0 
525.0013373165568 6.93366765348579 179.42872873932055 24.0 0.0 0.0 14.0 
526.0004680823727 6.507565202305609 179.42872873932055 23.0 0.0 0.0 14.0 
527.0005564621487 5.992527459260562 179.42872873932055 24.0 0.0 0.0 14.0 
528.0030181029863 6.379534638780193 180.5656825973012 23.0 0.0 0.0 14.0 
529.0003194151675 5.889178835208069 177.74476133527105 22.0 0.0 0.0 14.0 
530.0027191691136 5.823505949316649 177.74476133527105 22.0 0.0 0.0 14.0 
531.0019178115948 6.015107099938745 177.74476133527105 22.0 0.0 0.0 15.0 
532.0004360220499 6.846411865970521 218.34258498272771 23.0 0.0 0.0 16.0 
533.0004835824811 6.207604179683973 219.87674124048533 22.0 0.0 0.0 16.0 
534.0019905294162 6.00939162260519 215.48840865807728 22.0 0.0 0.0 16.0 
535.0001757917579 6.675426874101977 216.99843264867417 22.0 0.0 0.0 16.0 
536.0097445506059 6.131975206747264 210.346698453398 22.0 0.0 0.0 15.0 
537.001152117248 6.539828892026664 216.99843264867417 22.0 0.0 0.0 15.0 
538.0030686873314 6.286065579304977 210.346698453398 22.0 0.0 0.0 15.0 
539.0020770190687 5.882732298405896 207.70336918759824 22.0 0.0 0.0 15.0 
540.0014478095194 5.7777710542878955 185.27305400524307 21.0 0.0 0.0 15.0 
541.0004537318489 5.961006314932646 202.73063650905237 21.0 0.0 0.0 15.0 
542.001152117248 6.210610855324953 202.73063650905237 20.0 0.0 0.0 15.0 
543.0032999982081 4.980418226521956 202.73063650905237 20.0 0.0 0.0 15.0 
544.0000466666434 4.994694910062069 202.73063650905237 19.0 0.0 0.0 15.0 
545.0034809918149 5.246159648807659 195.31792735844067 19.0 0.0 0.0 15.0 
546.0014989985211 4.7428358472595935 195.31792735844067 19.0 0.0 0.0 15.0 
547.001152117248 5.124778024428206 195.31792735844067 19.0 0.0 0.0 15.0 
548.0015541096573 5.778213229941074 214.8695631342253 19.0 0.0 0.0 15.0 
549.0013636437831 4.948370749861655 193.12598532810813 19.0 0.0 0.0 15.0 
550.0013075905122 4.959128901758337 189.195691325967 19.0 0.0 0.0 15.0 
551.00054028248 4.608833318578065 189.195691325967 19.0 0.0 0.0 15.0 
552.001152117248 4.827053353967856 207.22091207815464 19.0 0.0 0.0 15.0 
553.0024465523921 4.751291482406802 207.22091207815464 19.0 0.0 0.0 15.0 
554.0006251581663 4.176650517402018 193.94184821195972 19.0 0.0 0.0 15.0 
555.0012800415717 4.391905033511314 191.9197252661209 19.0 0.0 0.0 15.0 
556.0010563614767 3.6462802426247767 191.9197252661209 19.0 0.0 0.0 15.0 
557.0010950486621 4.4391801260319905 200.21849283892294 18.0 0.0 0.0 15.0 
558.0012399643851 4.858526465274811 202.53274278995218 18.0 0.0 0.0 16.0 
559.0002491565625 4.246518144033952 198.2093334753754 18.0 0.0 0.0 19.0 
560.0017361634293 4.52847654441337 198.2093334753754 18.0 0.0 0.0 18.0 
561.0002111842892 3.942084269056799 195.87226975742294 18.0 0.0 0.0 18.0 
562.001152117248 4.334700619960785 193.65101947281806 18.0 0.0 0.0 17.0 
563.0018378861324 5.149307681634674 199.41106808077018 18.0 0.0 0.0 17.0 
564.0003330445139 5.079392652163585 194.05268753713625 18.0 0.0 0.0 17.0 
565.0012063353547 5.0984619191386535 198.9705522183263 18.0 0.0 0.0 16.0 
566.0008342944836 5.06451679477175 191.88482080349195 17.0 0.0 0.0 16.0 
567.0004622536126 4.692374646693361 189.63050200229003 17.0 0.0 0.0 16.0 
568.0000902127415 5.478271511768568 198.9705522183263 18.0 0.0 0.0 17.0 
569.0029864849237 5.478297290222391 194.5323506612172 18.0 0.0 0.0 16.0 
570.0000865836915 5.216326354475014 194.5323506612172 18.0 0.0 0.0 16.0 
571.0001779980521 5.229284904666139 194.5323506612172 18.0 0.0 0.0 16.0 
572.001152117248 5.186754832388352 194.5323506612172 18.0 0.0 0.0 16.0 
573.0031384987795 4.8218235802685605 192.72329732454563 18.0 0.0 0.0 16.0 
574.0002563958337 4.814705049804365 188.35234247223417 17.0 0.0 0.0 16.0 
575.0047745742897 5.3257650180681395 201.18350418840242 17.0 0.0 0.0 16.0 
576.0024405105294 4.961380801366038 187.04319800532068 17.0 0.0 0.0 17.0 
577.001152117248 4.977354810664128 187.04319800532068 17.0 0.0 0.0 17.0 
578.0011106945996 4.857985514401381 187.04319800532068 18.0 0.0 0.0 17.0 
579.0025673834755 5.226480161205456 198.93786381948024 18.0 0.0 0.0 18.0 
580.0003565147995 5.47856176291616 198.93786381948024 18.0 0.0 0.0 18.0 
581.0007258045019 5.794464960838027 198.93786381948024 17.0 0.0 0.0 18.0 
582.000257187339 5.409550976872497 184.54000268119876 17.0 0.0 0.0 18.0 
583.0012227876995 5.757966371964104 204.78694792507292 17.0 0.0 0.0 18.0 
584.0030108587259 6.147746432306202 204.64173952294738 17.0 0.0 0.0 18.0 
585.0001582416209 5.858963589413087 204.64173952294738 17.0 0.0 0.0 18.0 
586.0019945239985 5.844922064648832 204.64173952294738 17.0 0.0 0.0 17.0 
587.001152117248 5.541690222546457 204.64173952294738 17.0 0.0 0.0 17.0 
588.0032999982081 5.2542465035008465 197.57717071293854 18.0 0.0 0.0 17.0 
589.0005690717893 5.526722182370845 197.57717071293854 19.0 0.0 0.0 18.0 
590.0004976970058 5.249831747524375 197.5320902774127 19.0 0.0 0.0 17.0 
591.0001121416262 5.233646404535785 197.5320902774127 18.0 0.0 0.0 17.0 
592.0003612626922 4.8594292179564595 197.5320902774127 18.0 0.0 0.0 17.0 
593.0032999982081 4.842528172170497 190.35292344406975 18.0 0.0 0.0 17.0 
594.0069525391988 4.808336683719952 190.41397974073345 18.0 0.0 0.0 17.0 
595.0005505579909 4.930806512982814 190.41397974073345 18.0 0.0 0.0 16.0 
596.0055663898341 4.448573554652779 190.41397974073345 20.0 0.0 0.0 16.0 
597.00067607188 4.068392898517749 183.2072587420193 21.0 0.0 0.0 15.0 
598.0032999982081 4.376559063206766 183.2072587420193 20.0 0.0 0.0 15.0 
599.0001712756135 3.709059564363484 183.3783874415305 20.0 0.0 0.0 18.0 
600.0020643950056 3.691130670046923 183.3783874415305 20.0 0.0 0.0 16.0 
#####################################################################
# End of data export. Simulation finished at: 2019-02-25T20:47+0000 #
#####################################################################
