#####################################################################
# Alchemist log file - simulation started at: 2019-02-25T20:04+0000 #
#####################################################################
# seed = 43.0
#
# The columns have the following meaning: 
# time distance-rep[Mean] distance-rep[Max] leader-rep[CountDistinct] distance-share[Mean] distance-share[Max] leader-share[CountDistinct] 
0.0 NaN NaN NaN NaN NaN NaN 
1.0003811274397125 0.0 0.0 497.0 0.0 0.0 73.0 
2.0026508228192257 0.0 0.0 111.0 0.0 0.0 67.0 
3.001076345756048 0.0 0.0 99.0 0.0 0.0 56.0 
4.000478950320848 0.0 0.0 93.0 0.0 0.0 50.0 
5.000420988633877 0.0 0.0 89.0 0.0 0.0 49.0 
6.001476122407593 0.0 0.0 86.0 0.0 0.0 45.0 
7.000511840858838 0.0 0.0 79.0 0.0 0.0 44.0 
8.000065756559183 0.0 0.0 80.0 0.0 0.0 41.0 
9.001123038971633 0.0 0.0 73.0 0.0 0.0 40.0 
10.00256223347991 0.0 0.0 69.0 0.0 0.0 41.0 
11.001742063326203 0.0 0.0 69.0 0.0 0.0 42.0 
12.003385096459297 0.0 0.0 61.0 0.0 0.0 39.0 
13.000215270437641 0.0 0.0 63.0 0.0 0.0 36.0 
14.008669527208962 0.0 0.0 58.0 0.020797021805730103 10.398510902865013 40.0 
15.003221763493706 0.0 0.0 56.0 0.0 0.0 35.0 
16.003283307533902 0.0 0.0 54.0 0.0 0.0 35.0 
17.001512650527292 0.0 0.0 54.0 0.0 0.0 33.0 
18.000150338269805 0.0 0.0 52.0 0.0 0.0 29.0 
19.003317501170397 0.0 0.0 51.0 0.0025757213668222857 1.2878606834111395 28.0 
20.002142324587744 0.0 0.0 48.0 0.0 0.0 28.0 
21.003283307533902 0.0 0.0 46.0 0.0 0.0 26.0 
22.00130182047081 0.0 0.0 47.0 0.0 0.0 25.0 
23.002237346236317 0.0 0.0 44.0 0.007284791836544265 3.642395918272115 23.0 
24.002582643744567 0.0 0.0 43.0 0.007284791836544265 3.642395918272115 23.0 
25.001617294096132 0.0 0.0 43.0 0.02973071297586831 11.150246005559637 23.0 
26.00324894456368 0.0 0.0 43.0 0.014714824862507534 3.7151104823744276 22.0 
27.000549330422903 0.0 0.0 42.0 0.032436783366277935 12.503281200764519 21.0 
28.005189007068562 0.0 0.0 43.0 0.02099139332416281 6.85339471320205 19.0 
29.001974066797157 0.0 0.0 40.0 0.02099139332416281 6.85339471320205 20.0 
30.00047895158765 0.0 0.0 39.0 0.0 0.0 19.0 
31.00229355203319 0.0 0.0 41.0 0.0 0.0 19.0 
32.00074235822209 0.0 0.0 39.0 0.0 0.0 17.0 
33.0027734830257 0.0 0.0 39.0 0.0 0.0 21.0 
34.000091990446585 0.0 0.0 41.0 0.0 0.0 18.0 
35.00272941812633 0.0 0.0 41.0 0.0 0.0 18.0 
36.00054247776655 0.0 0.0 39.0 0.0 0.0 17.0 
37.006449021326276 0.0 0.0 39.0 0.0 0.0 18.0 
38.00027197322007 0.0 0.0 38.0 0.0 0.0 18.0 
39.00566016489562 0.0 0.0 39.0 0.0 0.0 19.0 
40.00080780593911 0.0 0.0 42.0 0.0 0.0 19.0 
41.00079328053806 0.0 0.0 41.0 0.0 0.0 19.0 
42.00022652862301 0.0 0.0 40.0 0.0 0.0 17.0 
43.00033245844697 0.0 0.0 37.0 0.0 0.0 17.0 
44.00089531215071 0.0 0.0 37.0 0.0 0.0 17.0 
45.00039529548424 0.0 0.0 37.0 0.0 0.0 17.0 
46.0022042958507 0.0 0.0 37.0 0.0 0.0 17.0 
47.00008908256058 0.0 0.0 36.0 0.0 0.0 17.0 
48.006250407610096 0.0 0.0 36.0 0.0 0.0 17.0 
49.001405589098 0.0 0.0 35.0 0.0 0.0 17.0 
50.00055349282594 0.0 0.0 36.0 0.0 0.0 17.0 
51.00083261766242 0.0 0.0 35.0 0.0 0.0 17.0 
52.00076567892771 0.0 0.0 35.0 0.0 0.0 16.0 
53.000659009691425 0.0 0.0 31.0 0.0 0.0 16.0 
54.00245024107922 0.0 0.0 32.0 0.0 0.0 15.0 
55.00105928952358 0.0 0.0 31.0 0.0 0.0 15.0 
56.00225565022612 0.0 0.0 30.0 0.0 0.0 15.0 
57.00187563178406 0.0 0.0 30.0 0.0 0.0 15.0 
58.00037210014339 0.0 0.0 30.0 0.0 0.0 15.0 
59.00274929485491 0.0 0.0 30.0 0.0 0.0 16.0 
60.00011822433398 0.0 0.0 28.0 0.0 0.0 16.0 
61.002234145674684 0.0 0.0 32.0 0.0 0.0 15.0 
62.0017806981985 0.0 0.0 30.0 0.0 0.0 15.0 
63.001211514949176 0.0 0.0 26.0 0.0 0.0 15.0 
64.00578826737161 0.0 0.0 25.0 0.0 0.0 15.0 
65.00009623908349 0.0 0.0 25.0 0.0 0.0 15.0 
66.00178986148325 0.0 0.0 25.0 0.0 0.0 15.0 
67.00130719801878 0.0 0.0 25.0 0.0 0.0 14.0 
68.00171124797014 0.0 0.0 25.0 0.0 0.0 14.0 
69.00198586876817 0.0 0.0 26.0 0.0 0.0 14.0 
70.00119086839075 0.0 0.0 26.0 0.0 0.0 14.0 
71.00120717524157 0.0 0.0 26.0 0.0 0.0 14.0 
72.00101485420778 0.0 0.0 26.0 0.0 0.0 14.0 
73.00145082812583 0.0 0.0 26.0 0.0 0.0 14.0 
74.00196556017711 0.025891406161705256 12.945703080852638 25.0 0.0 0.0 14.0 
75.00149089212756 0.0 0.0 25.0 0.0 0.0 14.0 
76.0032833075339 0.0 0.0 26.0 0.0 0.0 15.0 
77.00210737039811 0.0 0.0 26.0 0.0 0.0 16.0 
78.00564793601926 0.0 0.0 26.0 0.0 0.0 16.0 
79.00142138070363 0.0 0.0 26.0 0.0 0.0 16.0 
80.00305724726127 0.0 0.0 26.0 0.0 0.0 16.0 
81.00018545107984 0.0 0.0 26.0 0.0 0.0 15.0 
82.00124594275243 0.0 0.0 26.0 0.0 0.0 18.0 
83.00145159177521 0.0 0.0 26.0 0.0 0.0 18.0 
84.00190475083075 0.0 0.0 26.0 0.0 0.0 17.0 
85.00031874717266 0.0 0.0 25.0 0.0 0.0 16.0 
86.00014445822138 0.0 0.0 25.0 0.0 0.0 15.0 
87.00110222636748 0.008931109142728641 4.465554571364322 25.0 0.0 0.0 14.0 
88.00159826514961 0.0 0.0 24.0 0.0 0.0 14.0 
89.00130112712802 0.008931109142728641 4.465554571364322 24.0 0.0 0.0 14.0 
90.0011653720687 0.008931109142728641 4.465554571364322 25.0 0.0 0.0 14.0 
91.0032833075339 0.09569506617744412 47.84753308872206 23.0 0.0 0.0 15.0 
92.00004753917653 0.038742234880486726 19.371117440243268 24.0 0.0 0.0 16.0 
93.00034086817814 0.038742234880486726 19.371117440243268 25.0 0.0 0.0 15.0 
94.00055703573673 0.0 0.0 25.0 0.0 0.0 15.0 
95.00064970388482 0.0 0.0 25.0 0.0 0.0 15.0 
96.00275712982055 0.0 0.0 26.0 0.0 0.0 15.0 
97.00118968806161 0.0 0.0 24.0 0.0 0.0 15.0 
98.00003965801805 0.0 0.0 25.0 0.0 0.0 15.0 
99.00009375435647 0.0 0.0 23.0 0.0 0.0 15.0 
100.00083338687051 0.0 0.0 21.0 0.0 0.0 15.0 
101.00016572019007 0.0 0.0 22.0 0.0 0.0 15.0 
102.0030448372915 0.0 0.0 22.0 0.0 0.0 15.0 
103.00037907374531 0.0 0.0 22.0 0.0 0.0 15.0 
104.00144238291526 0.0 0.0 22.0 0.0 0.0 15.0 
105.00017360080234 0.0 0.0 21.0 0.0 0.0 15.0 
106.00033860737676 0.0 0.0 22.0 0.0 0.0 15.0 
107.00246168104874 0.0 0.0 21.0 0.0 0.0 16.0 
108.0043531177474 0.0 0.0 22.0 0.0 0.0 16.0 
109.00177461078799 0.0 0.0 22.0 0.0 0.0 16.0 
110.00345958000901 0.0 0.0 21.0 0.0 0.0 14.0 
111.0032833075339 0.001315399237859586 0.6576996189297972 20.0 0.0 0.0 14.0 
112.00017069210878 0.009680612910083215 4.048723942397515 20.0 0.0 0.0 14.0 
113.00150568572951 0.009680612910083215 4.048723942397515 20.0 0.0 0.0 14.0 
114.00007305281174 0.009680612910083215 4.048723942397515 21.0 0.0 0.0 15.0 
115.00536418994977 0.009680612910083215 4.048723942397515 21.0 0.0 0.0 15.0 
116.00057071354797 0.06052261057646358 15.602364766866685 21.0 0.0 0.0 15.0 
117.00293771792751 0.030294128830850132 15.008947186967731 20.0 0.0 0.0 15.0 
118.00391181193864 0.05123593958241968 15.008947186967731 20.0 0.0 0.0 15.0 
119.00112875388037 0.09037414383908356 18.975684548433065 20.0 0.0 0.0 16.0 
120.0013317343056 0.02121804520848408 10.470905375784696 19.0 0.0 0.0 16.0 
121.00094546353067 0.19003898228265223 26.45546144717997 19.0 0.0 0.0 16.0 
122.00629826014 0.1311772992088593 24.68092518387263 21.0 0.0 0.0 17.0 
123.00140771207407 0.08181544884111315 15.087137060442217 21.0 0.0 0.0 17.0 
124.00043672526012 0.13099041094765843 24.587481053272768 21.0 0.0 0.0 17.0 
125.00040093796359 0.14597928820017242 24.68092518387263 21.0 0.0 0.0 17.0 
126.00044173856374 0.09484114169094818 27.879551965704394 21.0 0.0 0.0 19.0 
127.00129651353234 0.19524212431497223 30.02411293347211 21.0 0.0 0.0 19.0 
128.00037155832626 0.1836633460311687 30.128489698810085 21.0 0.0 0.0 19.0 
129.00282764595696 0.12953431104458152 27.879551965704394 21.0 0.0 0.0 17.0 
130.00310993708646 0.2561669233229805 30.02411293347211 21.0 0.0 0.0 17.0 
131.0018219659669 0.1245193531550535 32.80039314720682 21.0 0.0 0.0 17.0 
132.00238946371343 0.18044120496365074 34.37738062460076 21.0 0.0 0.0 17.0 
133.00128763081972 0.3593228989368682 38.32782980315483 21.0 0.0 0.0 17.0 
134.00290999785094 0.23203689702961974 32.80039314720682 21.0 0.0 0.0 17.0 
135.00005542421508 0.2446408220875802 32.63287294868371 20.0 0.0 0.0 17.0 
136.0002384056219 0.43127888513378804 37.50271193731521 20.0 0.0 0.0 17.0 
137.00300597205967 0.2566810725688099 35.47305227813146 20.0 0.0 0.0 17.0 
138.0001969259963 0.19079973697156696 30.64838205686442 20.0 0.0 0.0 17.0 
139.00313183285857 0.2616732190972286 35.43674106283103 20.0 0.0 0.0 17.0 
140.00379866757675 0.290819278992612 35.47305227813146 20.0 0.0 0.0 17.0 
141.0032833075339 0.2559754232831128 36.7780822871695 20.0 0.0 0.0 16.0 
142.00015073499887 0.18241925870877398 30.047841833485393 19.0 0.0 0.0 16.0 
143.00054709657482 0.1969607222485702 30.047841833485393 20.0 0.0 0.0 17.0 
144.00011346798158 0.1476094687774937 30.047841833485393 21.0 0.0 0.0 17.0 
145.00291227787312 0.16584912121751097 31.896936283596204 21.0 0.0 0.0 17.0 
146.00063627777982 0.1841688096121127 36.45366800617444 21.0 0.0 0.0 17.0 
147.00202483231806 0.12046769854920811 30.11692463730202 20.0 0.0 0.0 17.0 
148.00266260443385 0.13314118528695346 36.45366800617444 20.0 0.0 0.0 16.0 
149.0001880632671 0.0 0.0 19.0 0.0 0.0 17.0 
150.00179216471284 0.0 0.0 19.0 0.0 0.0 17.0 
151.00054464568 0.0 0.0 19.0 0.0 0.0 17.0 
152.00435718408144 0.0 0.0 19.0 0.0 0.0 17.0 
153.00023003733347 0.0 0.0 19.0 0.0 0.0 17.0 
154.0021771028035 0.0 0.0 19.0 0.0 0.0 17.0 
155.0009420277588 0.0 0.0 19.0 0.0 0.0 17.0 
156.0008834789106 0.0 0.0 19.0 0.0 0.0 17.0 
157.0036460594382 0.0 0.0 19.0 0.0 0.0 17.0 
158.00218618082334 0.0 0.0 19.0 0.0 0.0 17.0 
159.0036909416343 0.0 0.0 19.0 0.0 0.0 18.0 
160.00037648309205 0.0 0.0 19.0 0.0 0.0 19.0 
161.00118666493353 0.0 0.0 19.0 0.0 0.0 19.0 
162.00062361941949 0.0 0.0 18.0 0.0 0.0 19.0 
163.00280702861647 0.026383313231696192 7.271417634954645 18.0 0.0 0.0 19.0 
164.00022315988406 0.0192682463870128 5.920238980893458 18.0 0.0 0.0 19.0 
165.00442739229942 0.030082077804591774 5.920238980893458 17.0 0.0 0.0 19.0 
166.0005130839731 0.04130659052900748 7.804852599140958 18.0 0.0 0.0 19.0 
167.00082045259762 0.04130659052900748 7.804852599140958 18.0 0.0 0.0 19.0 
168.0011177596171 0.028596683046140617 7.258227968818176 17.0 0.0 0.0 19.0 
169.00269276513325 0.02152740780610604 7.258227968818176 17.0 0.0 0.0 19.0 
170.00010738797076 0.02664367367757461 9.816360904552425 17.0 0.0 0.0 19.0 
171.00153616257478 0.0412566797683249 8.807751701613398 17.0 0.0 0.0 19.0 
172.00722485986248 0.03694566954487175 8.807751701613398 17.0 0.0 0.0 19.0 
173.00181890327823 0.03627945152288817 8.807751701613398 17.0 0.006018193016798111 2.478621620992442 19.0 
174.00333246285177 0.038510497905914126 8.807751701613398 17.0 0.006018193016798111 2.478621620992442 17.0 
175.0019123958559 0.09303967440569104 14.14291914961396 17.0 0.009424572371163653 2.478621620992442 18.0 
176.0007332050138 0.05996422588671929 14.14291914961396 17.0 0.01478175325402178 2.6785904414290655 20.0 
177.0035639535133 0.028262682404698165 5.383083066538774 17.0 0.01139396695736451 2.6785904414290655 20.0 
178.00106219383264 0.03590915578839074 6.703970476026939 17.0 0.08414801943046735 10.00102123049325 19.0 
179.00058124208627 0.03132292614743345 4.530676107838673 17.0 0.058404151858382415 7.836215623414574 19.0 
180.0021611368098 0.0284234553890098 7.298522756598459 17.0 0.08220295370529003 12.513900914543001 19.0 
181.00023618296723 0.002948778751276727 1.474389375638367 19.0 0.084732554536097 12.513900914543001 20.0 
182.00135484924496 0.009376004329187872 3.213612788955544 19.0 0.11118606608617751 14.511960313252501 20.0 
183.00070551603525 0.009376004329187872 3.213612788955544 19.0 0.1703535568265452 14.938231230166167 20.0 
184.00666367421877 0.010879461155211578 3.213612788955544 19.0 0.25703670067704915 18.15422354584669 20.0 
185.00213938945575 0.015293550259566755 5.420657341133165 19.0 0.29753382386590993 19.656919680826718 19.0 
186.00015091776638 0.02051816075010555 5.899054449917969 19.0 0.3736901374019177 36.981671182244924 19.0 
187.00038016764012 0.017993227168610095 5.899054449917969 19.0 0.3358962328088149 19.656919680826718 19.0 
188.0013974851992 0.017993227168610095 5.899054449917969 19.0 0.48209997111615654 27.053041116204668 19.0 
189.002214818019 0.014319912641888737 5.899054449917969 19.0 0.49629226089393536 27.053041116204668 19.0 
190.0002493937718 0.014261177934133343 5.899054449917969 19.0 0.5401924598869574 42.554192430475894 20.0 
191.00083096578987 0.005860169007638851 2.9300845038194154 19.0 0.5556589934479014 42.554192430475894 20.0 
192.0008577481612 0.005860169007638851 2.9300845038194154 19.0 0.6314444924401451 43.0482709025253 20.0 
193.00011142406424 0.005860169007638851 2.9300845038194154 19.0 0.9105274159009433 50.50462700157823 21.0 
194.00042903773434 0.004547115361634923 2.2735576808174756 19.0 0.9105274159009433 50.50462700157823 21.0 
195.0038311332163 0.01740176046171987 6.427322550042447 19.0 0.871966172105387 45.991062924206204 22.0 
196.0015705149912 0.0 0.0 19.0 0.8297391751343454 45.991062924206204 21.0 
197.00136468436833 0.005713030403727507 2.8565152018637434 19.0 0.9115688253144912 45.991062924206204 22.0 
198.00036041628505 0.005713030403727507 2.8565152018637434 19.0 1.4034847549357115 54.88288195578562 22.0 
199.00074116906356 0.009380913185196694 2.8565152018637434 19.0 1.5083987896415405 54.88288195578562 21.0 
200.00004235594852 0.018463360726204362 7.397738972367563 19.0 1.4488653441474453 54.88288195578562 21.0 
201.0032833075339 0.00570586398210991 2.852931991054959 20.0 1.4196417137431487 54.88288195578562 21.0 
202.00049979539781 0.00570586398210991 2.852931991054959 20.0 1.2351081716404235 54.81572585326575 21.0 
203.00157612899818 0.00570586398210991 2.852931991054959 20.0 1.182571025141931 54.49246705668148 21.0 
204.0007048981812 0.012265706235608456 3.279921126749258 20.0 1.1627940880271037 63.09552097860188 21.0 
205.00206792556375 0.012265706235608456 3.279921126749258 20.0 1.1183296484674483 63.09552097860188 20.0 
206.00209361202403 0.0 0.0 19.0 1.105621907961809 63.09552097860188 20.0 
207.00111839452134 0.00540807434876174 2.7040371743808578 20.0 1.1897342312083667 64.16891396868226 20.0 
208.00067400691208 0.00540807434876174 2.7040371743808578 20.0 1.28860457186179 68.97272925959453 20.0 
209.00120980545373 0.00540807434876174 2.7040371743808578 20.0 1.3360280573284014 75.83771379168621 19.0 
210.00018039999824 0.00540807434876174 2.7040371743808578 20.0 1.289703310103544 75.83771379168621 19.0 
211.00160184123024 0.0 0.0 20.0 1.24461896874991 68.41152055022866 20.0 
212.00566691542159 0.11581285499128154 52.74826362834443 20.0 1.210079215565494 68.41152055022866 20.0 
213.00191344593694 0.11581285499128154 52.74826362834443 20.0 1.3114333051806484 68.43210840293096 20.0 
214.0029447186521 0.11581285499128154 52.74826362834443 20.0 1.2856905623880726 68.43210840293096 18.0 
215.00114504372397 0.010316327734592248 2.6434889505355272 19.0 1.285924578559567 68.43210840293096 17.0 
216.00027562765956 0.024771986540076903 10.033766831754889 18.0 1.0377647923146922 63.710656118144925 17.0 
217.00302029876067 0.07187617539986998 17.374239757132017 18.0 0.8505206735620234 54.25628645520439 17.0 
218.00015442371262 0.1351247241851312 23.208188955040754 18.0 0.9528917425253897 54.679983592723545 17.0 
219.004620942485 0.1582099555230242 23.208188955040754 18.0 0.9059453599283488 54.679983592723545 17.0 
220.00496866359796 0.1527673837680314 24.82699456314117 18.0 0.9237831002998653 54.679983592723545 17.0 
221.00125035172067 0.20346247065607814 32.293300137044554 19.0 1.016159822988109 54.679983592723545 17.0 
222.0027758345215 0.20554150586656073 32.293300137044554 19.0 0.7680045422534477 47.15474561137529 17.0 
223.0011927184063 0.1876394872319815 32.293300137044554 20.0 0.9223409387059339 51.22725152657421 17.0 
224.0024579398479 0.22773351637950048 32.293300137044554 19.0 0.9773052000336702 51.22725152657421 17.0 
225.00036819281615 0.23938383077188685 32.293300137044554 19.0 0.9733500629186372 51.22725152657421 17.0 
226.00030936458674 0.619364601947567 68.08976728554899 18.0 0.8820463998746546 51.22725152657421 17.0 
227.00248020918553 0.609144056909652 68.08976728554899 20.0 0.8481352665832889 47.05149156862976 17.0 
228.00073138767038 0.6655682792746695 62.300895703678805 21.0 0.7503594451966813 36.97175218247526 17.0 
229.00011756853507 0.6508019325528497 62.300895703678805 21.0 0.7330042132878929 36.97175218247526 17.0 
230.0012922215322 0.6714981660066233 62.300895703678805 21.0 0.7475077449801405 36.97175218247526 17.0 
231.00067896312234 0.7258528725364747 69.82517114277158 21.0 0.7203075414809883 36.97175218247526 18.0 
232.00437953789765 0.7412985242490705 68.09748860141463 21.0 0.683505993879844 41.00939297589014 18.0 
233.0004216960819 0.8650338830251237 62.30974126896274 21.0 0.5119598667241213 39.118522281144266 17.0 
234.00294570383585 0.8700403964112529 62.30974126896274 19.0 0.5940165567609671 39.118522281144266 18.0 
235.0048675367475 0.9168288599124523 69.63103817788925 19.0 0.6085152075418627 39.118522281144266 18.0 
236.00175422230507 0.823084317647413 77.09128977682781 19.0 0.16322453900604442 32.10593137428452 19.0 
237.0007042845072 1.0017632470188758 77.09128977682781 19.0 0.0 0.0 20.0 
238.00110401993012 0.9877563004391918 77.09128977682781 19.0 0.0 0.0 20.0 
239.00263347987993 1.0763193248371106 77.09128977682781 19.0 0.0 0.0 20.0 
240.00829073885464 0.7303340780031992 77.09128977682781 19.0 0.0 0.0 19.0 
241.0032833075339 0.7952363080238936 89.10967314956537 19.0 0.0 0.0 18.0 
242.0003018615473 1.1002472528974008 96.67797817521244 19.0 0.0 0.0 18.0 
243.00603864792478 1.2106577069813342 92.11049612399495 19.0 0.0 0.0 18.0 
244.00117509604922 1.1719852298811937 92.11049612399495 18.0 0.0 0.0 18.0 
245.00052377726112 1.3105214239892138 92.11049612399495 16.0 0.0 0.0 17.0 
246.00163960758235 1.2506638231278806 96.63477120301161 17.0 0.0 0.0 17.0 
247.00123808833808 1.2832498365084932 96.63477120301161 16.0 0.0 0.0 17.0 
248.00036538562736 1.5991846062182697 89.05591776058856 16.0 0.0 0.0 17.0 
249.00004861534512 1.6668756002620801 89.05591776058856 18.0 0.0 0.0 17.0 
250.00505879233324 1.366177067601677 74.15990199117226 18.0 0.0 0.0 17.0 
251.0032833075339 1.438994031036036 74.15990199117226 19.0 0.0 0.0 17.0 
252.00074827547104 1.2742477693567205 96.54142450730967 19.0 0.0 0.0 17.0 
253.00103990426373 0.9725777973851958 68.10550834229275 19.0 0.0 0.0 17.0 
254.00004944116714 0.9564962998157616 62.38834624754634 19.0 0.0 0.0 17.0 
255.00119829400577 0.9621700763036589 62.38834624754634 17.0 0.0 0.0 16.0 
256.0024724344878 1.1237317066349448 69.88078309277779 17.0 0.0 0.0 16.0 
257.002068639358 1.2846224608819283 68.03663643768397 17.0 0.0 0.0 16.0 
258.0022947179991 1.3624776734616229 68.03663643768397 17.0 0.0 0.0 16.0 
259.0009810775254 1.3996197903203147 62.3870920989778 16.0 0.0 0.0 16.0 
260.00038224144663 1.5562417358088911 62.3870920989778 16.0 0.0 0.0 16.0 
261.000186554931 1.7858882247207974 69.88232458953098 15.0 0.0 0.0 16.0 
262.00327431981736 2.007059333522057 73.61277514804812 15.0 0.0 0.0 16.0 
263.0014330019995 2.0760395568597074 73.61277514804812 15.0 0.0 0.0 16.0 
264.000230575455 2.2358230106663255 82.54765567066568 15.0 0.0 0.0 16.0 
265.0037265283301 2.168749123375585 82.54765567066568 15.0 0.0 0.0 18.0 
266.0022088997384 2.3664516576717434 89.8388379309527 15.0 0.0 0.0 18.0 
267.0020759519875 2.7493452463728656 89.8388379309527 15.0 0.0 0.0 17.0 
268.00032809543507 2.695423353867331 89.8388379309527 15.0 0.0 0.0 17.0 
269.00018724238976 2.5144207016665927 88.31458503775605 15.0 0.0 0.0 18.0 
270.00205746388946 2.5078776971995427 88.31458503775605 15.0 0.0 0.0 18.0 
271.0007670905981 2.5270418207128187 93.20516914138864 15.0 0.0 0.0 18.0 
272.00115225078065 2.58618534994806 93.20516914138864 15.0 0.0 0.0 16.0 
273.0008316328061 2.8122572780346426 100.18328403312586 16.0 0.0 0.0 17.0 
274.0022814485145 2.792693607768217 100.18328403312586 16.0 0.0 0.0 17.0 
275.0063191155634 2.669615752474166 100.18328403312586 16.0 0.0 0.0 17.0 
276.0000127645871 2.3944466386133736 99.13398792808425 16.0 0.0 0.0 17.0 
277.00059944753605 2.5936335387411464 106.1208946749889 17.0 0.0 0.0 18.0 
278.000566178017 1.9863805895105193 111.1382035043469 17.0 0.0 0.0 18.0 
279.001117419855 1.7579255348986178 107.15467555865735 17.0 0.0 0.0 18.0 
280.00863833833444 2.0053628759525624 110.06862407431794 17.0 0.0 0.0 18.0 
281.0008087160698 1.8833211472224503 88.05950867985871 17.0 0.0 0.0 17.0 
282.0004468327289 1.9029378867338775 95.17059699523418 17.0 0.0 0.0 17.0 
283.00003559718584 1.890340245092695 95.17059699523418 17.0 0.0 0.0 17.0 
284.00064545337835 1.8985268476538848 102.66424763660359 18.0 0.0 0.0 18.0 
285.0043373691798 2.1059396926657707 102.66424763660359 19.0 0.0 0.0 19.0 
286.00328330753393 2.0608322216023307 109.93308176488455 19.0 0.0 0.0 17.0 
287.00227552126125 2.1560291370242006 109.93308176488455 20.0 0.0 0.0 17.0 
288.00042280201654 2.594464281688584 109.93308176488455 20.0 0.0 0.0 17.0 
289.00207059240637 2.3633464665074366 98.95274783851806 19.0 0.0 0.0 17.0 
290.0022059334583 2.3425656281435057 98.95274783851806 18.0 0.0 0.0 17.0 
291.00259106454536 2.5903629376491484 98.95274783851806 18.0 0.0 0.0 18.0 
292.00321051090674 2.5206261530867202 98.95274783851806 18.0 0.0 0.0 17.0 
293.00237338750304 2.553741550186012 106.1005878571151 18.0 0.0 0.0 17.0 
294.0002437763217 2.5995924057920665 112.86783924644033 18.0 0.0 0.0 18.0 
295.00091126449234 2.2907280628972306 112.86783924644033 18.0 0.0 0.0 18.0 
296.0025871448993 2.668842852893258 112.86783924644033 18.0 0.0 0.0 18.0 
297.0009200470722 2.3185187698309835 112.86783924644033 19.0 0.0 0.0 18.0 
298.00230221740316 2.6954319320913154 126.76987317293361 20.0 0.0 0.0 18.0 
299.00158980589777 2.536649924898794 126.76987317293361 20.0 0.0 0.0 18.0 
300.0069117544732 2.2903841171031076 126.76987317293361 20.0 0.0 0.0 17.0 
301.0017559637028 2.0589993194606206 126.76987317293361 19.0 0.004841426985099211 2.420713492549595 17.0 
302.0015682424958 1.9632894900514029 126.76987317293361 19.0 0.0 0.0 18.0 
303.0031947949694 2.1265140252518284 133.95484043822984 19.0 0.0 0.0 17.0 
304.0048663956338 2.043135336948951 140.78288640909074 19.0 0.0 0.0 18.0 
305.00442505801163 2.277135748517397 140.78288640909074 19.0 0.0 0.0 18.0 
306.00138447706695 2.2714940142543285 140.78288640909074 20.0 0.0 0.0 19.0 
307.00351003085177 2.2784036119042606 140.78288640909074 20.0 0.0 0.0 19.0 
308.0000025510636 2.1614309111090724 98.33181954240621 20.0 0.0 0.0 19.0 
309.0000197163241 2.170262718970957 103.34001358074181 20.0 0.0 0.0 19.0 
310.00159449862116 2.150946882932698 103.34001358074181 20.0 0.0 0.0 19.0 
311.00069386554685 2.1392537354489423 103.34001358074181 20.0 0.0 0.0 20.0 
312.0066398524835 1.942340337559505 90.23749807116866 20.0 0.0 0.0 20.0 
313.0002605444568 2.0394158824103563 97.68432695323276 20.0 0.0 0.0 20.0 
314.003903538828 2.091467716305648 97.68432695323276 19.0 0.0 0.0 20.0 
315.00210534889453 2.1756413858300356 97.68432695323276 19.0 0.0 0.0 20.0 
316.00238540399727 1.9115432044004255 97.68432695323276 19.0 0.0 0.0 20.0 
317.00474480392825 1.8160714187159466 103.96010254597252 19.0 0.0 0.0 19.0 
318.00285674472684 1.7441043919531314 108.69876547949184 19.0 0.0 0.0 19.0 
319.003114754342 1.8601657296711052 108.69876547949184 19.0 0.0 0.0 18.0 
320.00038056321057 1.6855166577091492 108.69876547949184 19.0 0.0 0.0 18.0 
321.0008495141351 2.0211825569469424 108.69876547949184 19.0 0.0 0.0 18.0 
322.0000078530482 2.0190039856424455 114.97414279627282 19.0 0.0 0.0 17.0 
323.00132871397824 2.0796160423967174 117.86708502980662 19.0 0.0 0.0 17.0 
324.0002475254167 1.988080150743946 117.86708502980662 19.0 0.0 0.0 17.0 
325.00373589136655 1.9633653598443777 117.86708502980662 19.0 0.0 0.0 17.0 
326.0026230505356 2.1035742105481563 124.10705845110493 19.0 0.0 0.0 17.0 
327.0038744879111 1.9079089424306779 124.10705845110493 19.0 0.0 0.0 17.0 
328.0040656204423 1.971268342411548 126.8306121797387 19.0 0.0 0.0 17.0 
329.00275271366047 1.9583302132961116 126.8306121797387 19.0 0.0 0.0 17.0 
330.0000054906274 1.9674198080126268 126.8306121797387 19.0 0.0 0.0 17.0 
331.00225032744765 1.9887387615710348 126.8306121797387 19.0 0.0 0.0 17.0 
332.00010714154587 2.0081399285135344 132.92369104225554 19.0 0.0 0.0 17.0 
333.00126551812497 2.0801288598899164 135.81467982957514 20.0 0.0 0.0 17.0 
334.00369315175675 2.0924060055631575 135.81467982957514 20.0 0.0 0.0 17.0 
335.00320982689277 1.9447992616182324 135.81467982957514 19.0 0.0 0.0 17.0 
336.0012281654093 1.9780219556758443 135.81467982957514 19.0 0.0 0.0 17.0 
337.002016453975 1.7063925960166926 126.83676138603488 18.0 0.0 0.0 16.0 
338.00041069111455 1.5792111045459662 130.00975537324138 18.0 0.0 0.0 16.0 
339.0008486398925 1.5926368806544435 130.00975537324138 18.0 0.0 0.0 16.0 
340.00232348964755 1.8032324349332371 130.00975537324138 18.0 0.0 0.0 16.0 
341.00109775974465 1.5682394552604915 126.8801333669515 18.0 0.0 0.0 16.0 
342.0022418541587 1.41738745244255 126.8801333669515 18.0 0.0 0.0 16.0 
343.0019447989603 1.2569690318858482 130.24873754400176 18.0 0.0 0.0 16.0 
344.00016167482886 1.1185449993378598 130.24873754400176 18.0 0.0 0.0 16.0 
345.003528691436 1.1139393574855674 130.24873754400176 18.0 0.0 0.0 16.0 
346.0004067970983 0.9535053130025783 117.55987250692147 18.0 0.0 0.0 16.0 
347.0010924296384 0.9401151156257764 117.55987250692147 17.0 0.0 0.0 16.0 
348.0006409722782 1.0908761045393192 121.40361262028023 17.0 0.0 0.0 16.0 
349.0019523469885 0.8524752335656345 114.49048732303925 17.0 0.0 0.0 15.0 
350.00161718434305 0.6582601959853116 105.19754986992649 17.0 0.0 0.0 15.0 
351.00208811742385 0.6750349964105115 108.24561204484735 17.0 0.0 0.0 17.0 
352.0003884770596 0.7339125022658333 108.24561204484735 17.0 0.0 0.0 16.0 
353.00050158734075 0.7600604431427253 112.87486624922923 17.0 0.0 0.0 15.0 
354.0001732183606 0.34731809116749934 30.976529776519044 17.0 0.0 0.0 15.0 
355.0041192219052 0.3924072381857114 30.976529776519044 17.0 0.0 0.0 15.0 
356.0017287387801 0.5868054575788035 37.31810162408695 17.0 0.0 0.0 15.0 
357.00324101934706 0.6725891691304886 44.21925263009666 17.0 0.0 0.0 15.0 
358.0007175665575 0.7032317520332539 44.21925263009666 18.0 0.0 0.0 16.0 
359.0046876181588 0.7296389385214701 44.21925263009666 17.0 0.0 0.0 16.0 
360.0015849710368 0.7280643162569576 44.21925263009666 17.0 0.0 0.0 16.0 
361.00024092427657 0.8113888815429721 44.21925263009666 18.0 0.0 0.0 16.0 
362.0059643059684 0.9458766589308704 49.81852077177376 18.0 0.0 0.0 16.0 
363.00671494708416 0.7963527266593317 44.26408609040911 19.0 0.0 0.0 16.0 
364.00085041571737 0.6942564282797786 44.26408609040911 20.0 0.0 0.0 16.0 
365.0055640049262 0.19998307304574994 17.851629003972477 20.0 0.0 0.0 16.0 
366.001120432397 0.02688032508849026 13.440162544245055 20.0 0.0 0.0 16.0 
367.00115709642796 0.1180286024888373 22.351207774791675 20.0 0.0 0.0 16.0 
368.00178403489764 0.11562666338019896 22.351207774791675 20.0 0.0 0.0 16.0 
369.00113673956895 0.04660411338136016 10.94472568118789 20.0 0.0 0.0 16.0 
370.0031477755212 0.10393163511755656 18.039670995342107 20.0 0.0 0.0 16.0 
371.00328330753393 0.2637029078434325 23.18799371884259 20.0 0.021246707367921547 5.605816005191883 16.0 
372.0004330309861 0.2997758907700188 34.65222261646724 20.0 0.023156562873167624 5.605816005191883 16.0 
373.0008927344441 0.3261921876256486 34.65222261646724 20.0 0.035023117361882274 11.351122297379874 16.0 
374.00302021454775 0.2651009249113413 33.19713972042331 20.0 0.023811485351498386 11.351122297379874 17.0 
375.00068717558497 0.31207777619145316 33.19713972042331 20.0 0.0 0.0 17.0 
376.00328330753393 0.3000232766585842 33.19713972042331 20.0 0.0 0.0 17.0 
377.00220741046587 0.3300433959468716 33.19713972042331 20.0 0.0 0.0 17.0 
378.00209753300726 0.3422409646190474 33.19713972042331 19.0 0.0 0.0 17.0 
379.000207095022 0.35443706349006465 39.502086857393806 20.0 0.0 0.0 16.0 
380.0028856278986 0.3364708357362155 37.293767853643914 20.0 0.0 0.0 15.0 
381.0002699060756 0.4014354648666104 37.293767853643914 20.0 0.0 0.0 15.0 
382.0008187951466 0.3865660159384953 35.57583990364711 20.0 0.0 0.0 15.0 
383.0003042673992 0.3060180323208938 29.75215260210507 20.0 0.0 0.0 15.0 
384.0000631780206 0.3611195639945614 29.75215260210507 20.0 0.0 0.0 15.0 
385.00158427381336 0.3936079207761452 30.155672798171224 20.0 0.0 0.0 15.0 
386.0009922727965 0.4831457563496706 50.05663387148937 20.0 0.0 0.0 15.0 
387.0025689583215 0.3770596419579016 30.155672798171224 20.0 0.0 0.0 15.0 
388.00073988325875 0.39451306928619323 30.155672798171224 20.0 0.0 0.0 16.0 
389.00648051449105 0.49396411100938253 31.594448345454083 21.0 0.0 0.0 17.0 
390.00255341687404 0.6108834796493045 41.310036207474184 20.0 0.0 0.0 17.0 
391.0012259630985 0.5967079899558541 41.310036207474184 21.0 0.0 0.0 17.0 
392.0014788791023 0.5121660364195393 38.257349866813314 20.0 0.0 0.0 17.0 
393.0004766238882 0.5454607853106785 38.257349866813314 21.0 0.0 0.0 17.0 
394.0046830950722 0.763489824321522 57.89325523628992 21.0 0.0 0.0 17.0 
395.0033827819781 0.8944413544182158 64.4281060417199 21.0 0.0 0.0 17.0 
396.001244675943 0.8759528778933864 64.4281060417199 20.0 0.0 0.0 17.0 
397.00422630835675 0.7285425132058344 50.91828904907965 19.0 0.0 0.0 18.0 
398.0004592648738 0.7790736902215692 50.91828904907965 18.0 0.0 0.0 18.0 
399.0016469840547 0.9506042602600294 57.902024644368964 18.0 0.0 0.0 18.0 
400.00147610053665 1.1721545235407311 64.49692092254395 17.0 0.0 0.0 18.0 
401.0008650116266 1.1785998840149947 64.49692092254395 18.0 0.0 0.0 18.0 
402.00074441286347 1.1853674165149517 64.49692092254395 17.0 0.0 0.0 18.0 
403.0006864513882 1.2205634388009703 64.49692092254395 18.0 0.0 0.0 19.0 
404.003068476113 1.314681067003686 70.51312322086909 17.0 0.0 0.0 21.0 
405.00085049065535 1.5556758366010486 77.13269641515217 17.0 0.0 0.0 19.0 
406.0015135358141 1.5491832810132746 77.13269641515217 17.0 0.0 0.0 19.0 
407.00247754589344 1.4689972162083704 70.1183391523237 17.0 0.0 0.0 19.0 
408.0002363182508 1.6302254986514573 77.13269641515217 17.0 0.0 0.0 19.0 
409.0028757043418 1.6501752682604454 77.13269641515217 17.0 0.0 0.0 19.0 
410.0007833193517 1.5929608216114497 83.76327710699633 17.0 0.0 0.0 20.0 
411.0006752815109 1.4149652856286383 83.36096102227782 17.0 0.0 0.0 20.0 
412.0048563561239 1.3743643569414168 82.06003439331073 17.0 0.0 0.0 20.0 
413.000755687881 1.2086545108570792 82.06003439331073 17.0 0.0 0.0 20.0 
414.0023298822955 1.1435009919168615 66.50239820170015 17.0 0.0 0.0 19.0 
415.00152683525545 1.1916452538422078 72.59088389427802 17.0 0.0 0.0 19.0 
416.00190080386915 1.1767156324098695 72.59088389427802 17.0 0.0 0.0 19.0 
417.0031630053937 1.215086400624357 64.52352269464711 18.0 0.0 0.0 19.0 
418.0034402309464 1.230163062170851 71.03710936293214 18.0 0.0 0.0 19.0 
419.0022622671588 1.0233403084239776 71.03710936293214 18.0 0.0 0.0 19.0 
420.0005436789923 1.0839586697997083 77.34022047646306 19.0 0.0 0.0 19.0 
421.0001058495368 1.239849100662788 85.50130102262949 19.0 0.0 0.0 19.0 
422.00293208839366 1.0236861497957288 77.34022047646306 17.0 0.0 0.0 19.0 
423.0027754518447 0.5297750228386113 31.112384527650505 17.0 0.0 0.0 19.0 
424.0004854987616 0.5287830110601248 31.112384527650505 17.0 0.0 0.0 19.0 
425.0056847753569 0.428861899260531 31.112384527650505 17.0 0.0 0.0 19.0 
426.0014823594575 0.32259100934521834 31.112384527650505 17.0 0.0 0.0 19.0 
427.00281554497695 0.41185530785203084 38.53242842720556 17.0 0.0 0.0 19.0 
428.00123411534423 0.4440764264869396 36.24752005595414 18.0 0.0 0.0 18.0 
429.0072813017397 0.4964105549694619 36.24752005595414 18.0 0.0 0.0 18.0 
430.00168112574676 0.4645988746300644 39.353980383644426 17.0 0.0 0.0 18.0 
431.0017020097492 0.4321348859566153 40.02355339990689 18.0 0.005510883313221147 2.7554416566105715 18.0 
432.00143354534913 0.44626661070506396 46.02191861654185 17.0 0.005510883313221147 2.7554416566105715 18.0 
433.0031585757051 0.09938334382478753 44.08357173755644 17.0 0.0 0.0 18.0 
434.00089527605047 0.09087391188928841 32.24410319308163 17.0 0.0 0.0 18.0 
435.00074243489786 0.19272329621236736 44.08357173755644 17.0 0.03829284241250058 17.162365043877998 19.0 
436.00328330753393 0.12190667080682673 39.07145327075304 17.0 0.04725842386632206 21.645155770788705 17.0 
437.0005140344515 0.167116389772132 39.07145327075304 17.0 0.0 0.0 18.0 
438.002285258348 0.19547716171051477 39.07145327075304 17.0 0.0 0.0 18.0 
439.000538623973 0.1965985285181454 39.07145327075304 17.0 0.0 0.0 18.0 
440.0000541969281 0.21088571518030158 31.672909218426298 17.0 0.0 0.0 18.0 
441.00053453595143 0.22562518221645675 31.672909218426298 17.0 0.0 0.0 18.0 
442.0021691538466 0.14648709581626407 34.35368437862775 17.0 0.0 0.0 17.0 
443.00114175233955 0.11963727654439313 38.475459054195824 17.0 0.0 0.0 17.0 
444.00431556700477 0.042686358436002 21.343179218000984 17.0 0.0 0.0 16.0 
445.00047329521874 0.042686358436002 21.343179218000984 17.0 0.0 0.0 16.0 
446.0007347761896 0.042686358436002 21.343179218000984 17.0 0.0 0.0 16.0 
447.00398485058855 0.043402724337993095 21.701362168996468 17.0 0.0 0.0 16.0 
448.00064313247026 0.055553396359568366 27.776698179784205 17.0 0.0 0.0 16.0 
449.0011117998034 0.011607508570718236 5.803754285359105 17.0 0.0 0.0 16.0 
450.00051173264933 0.011607508570718236 5.803754285359105 17.0 0.0 0.0 16.0 
451.00318712569685 0.0 0.0 18.0 0.0 0.0 17.0 
452.0044548126006 0.0025175751503239275 1.2587875751619606 18.0 0.0 0.0 17.0 
453.0001619757271 0.03284782499438112 6.416623403381493 18.0 0.0 0.0 17.0 
454.0003241446265 0.11353668195277422 35.622031879307286 18.0 0.0 0.0 17.0 
455.0005814949299 0.11685048690515146 35.622031879307286 18.0 0.0 0.0 16.0 
456.00231793654007 0.09971007314825969 24.409159583408382 18.0 0.0 0.0 16.0 
457.00130792823006 0.09459352906142121 15.867323977719309 18.0 0.0 0.0 16.0 
458.0019773097458 0.1567398072941599 24.481685321360857 18.0 0.0 0.0 16.0 
459.00037674380707 0.19932497935374976 24.481685321360857 18.0 0.0 0.0 16.0 
460.0006844137506 0.23340109009182905 28.663964909903882 18.0 0.0 0.0 16.0 
461.0003128013418 0.1448711704421799 24.481685321360857 18.0 0.0 0.0 16.0 
462.0079020911742 0.33653547443241155 30.682097629399976 18.0 0.0 0.0 16.0 
463.0004687480683 0.43701384760858675 36.17531467115529 18.0 0.0 0.0 16.0 
464.0004338562132 0.4224456813876309 36.17531467115529 18.0 0.0 0.0 17.0 
465.0002923791612 0.43713141938572914 36.17531467115529 18.0 0.0 0.0 17.0 
466.00328330753393 0.36167987940187907 30.682097629399976 18.0 0.0 0.0 17.0 
467.0000212375203 0.4431197762458388 45.418180986883016 18.0 0.0 0.0 17.0 
468.00059134381024 0.5634285774338207 45.418180986883016 19.0 0.0 0.0 17.0 
469.0007414839803 0.5157043845346599 45.418180986883016 19.0 0.0 0.0 17.0 
470.0020636330816 0.187311958136272 45.418180986883016 19.0 0.0 0.0 17.0 
471.0020442158887 0.2309292872961968 59.72139516045718 19.0 0.0 0.0 17.0 
472.0001996946386 0.14678837604056189 52.003369180263064 20.0 0.0 0.0 16.0 
473.00102638296084 0.0 0.0 21.0 0.0 0.0 16.0 
474.00086952632375 0.0 0.0 22.0 0.0 0.0 16.0 
475.0054366437043 0.0 0.0 22.0 0.0 0.0 16.0 
476.0005379665371 0.0 0.0 21.0 0.0 0.0 16.0 
477.0042335492505 0.0 0.0 21.0 0.0 0.0 16.0 
478.002555968576 0.0 0.0 21.0 0.0 0.0 14.0 
479.00006077971767 0.0 0.0 21.0 0.0 0.0 14.0 
480.0004242375549 0.0 0.0 21.0 0.0 0.0 14.0 
481.00043558566756 0.0 0.0 20.0 0.0 0.0 14.0 
482.0006097933174 0.0 0.0 20.0 0.0 0.0 14.0 
483.00201150152566 0.0 0.0 20.0 0.0 0.0 14.0 
484.0009546516583 0.0 0.0 19.0 0.0 0.0 12.0 
485.00161037498873 0.0 0.0 20.0 0.0 0.0 12.0 
486.00180351347194 0.0 0.0 21.0 0.0 0.0 12.0 
487.00006292823815 0.0 0.0 19.0 0.0 0.0 12.0 
488.0006388972141 0.0 0.0 22.0 0.0 0.0 12.0 
489.0000565890852 0.0 0.0 22.0 0.0 0.0 12.0 
490.00095716731505 0.0 0.0 21.0 0.0 0.0 12.0 
491.0001240044795 0.0 0.0 24.0 0.0 0.0 12.0 
492.00137594763186 0.0 0.0 23.0 0.0 0.0 12.0 
493.00118810198956 0.0 0.0 21.0 0.0 0.0 12.0 
494.00094098923915 0.0 0.0 20.0 0.0 0.0 13.0 
495.00024644740057 0.0 0.0 20.0 0.0 0.0 13.0 
496.00328330753393 0.0 0.0 20.0 0.0 0.0 13.0 
497.0020983287636 0.0 0.0 20.0 0.0 0.0 12.0 
498.0008486213041 0.006807579647823879 3.4037898239119215 20.0 0.0 0.0 12.0 
499.00132661859294 0.04098483696649154 9.850940892877503 20.0 0.0 0.0 12.0 
500.00070843416324 0.05150333118937568 9.850940892877503 20.0 0.0 0.0 12.0 
501.00016610826333 0.03984642315202753 9.770713490345429 20.0 0.0 0.0 12.0 
502.00056420042483 0.10571605535222588 9.989889017034699 20.0 0.0 0.0 12.0 
503.0089023118321 0.38177664580516624 26.559846483845206 20.0 0.0 0.0 16.0 
504.0001157864769 0.5252092288123595 41.71672615652162 20.0 0.0 0.0 15.0 
505.00277337423836 0.42904651326635884 26.559846483845206 19.0 0.0 0.0 15.0 
506.00278689376427 0.4774037006396019 32.9667381702732 20.0 0.0 0.0 14.0 
507.0010475093472 0.5026114239031121 35.333513453428765 20.0 0.0 0.0 15.0 
508.0000918703126 0.7212956422708221 37.64184102766055 19.0 0.0 0.0 15.0 
509.0009874266432 0.7251821107111227 39.97329760220475 18.0 0.0 0.0 16.0 
510.00054437919835 0.7686134945220188 39.97329760220475 18.0 0.0 0.0 16.0 
511.0007599519508 0.74079673421722 44.01763182372105 18.0 0.0 0.0 16.0 
512.0004903500475 0.743351812133871 44.01763182372105 18.0 0.0 0.0 16.0 
513.0007273161933 1.0103065659660073 43.60739990464501 18.0 0.0 0.0 16.0 
514.0020224947172 1.1352045480193211 49.054326188592626 18.0 0.0 0.0 16.0 
515.0006855170519 1.0865831261804872 49.054326188592626 18.0 0.0 0.0 16.0 
516.000725412945 1.115715285085494 47.58240568227856 17.0 0.0 0.0 15.0 
517.0036738317483 1.2041104590420424 47.58240568227856 16.0 0.0 0.0 15.0 
518.0024389282921 1.2848887296472926 45.54045190374069 16.0 0.0 0.0 15.0 
519.0039377960258 1.605068059329972 55.23543507599999 16.0 0.0 0.0 15.0 
520.0004856918947 1.492405817476154 55.23543507599999 16.0 0.0 0.0 16.0 
521.0000768410172 1.760048192297094 55.25771304675234 16.0 0.0 0.0 16.0 
522.0010703454278 1.729129929870844 55.25771304675234 16.0 0.0 0.0 16.0 
523.0000973263886 2.3022537899392335 62.08364147214019 16.0 0.0 0.0 16.0 
524.0007833807781 2.300405582917401 62.08364147214019 16.0 0.0 0.0 16.0 
525.0009142808055 2.5139848390009605 62.08364147214019 16.0 0.0 0.0 16.0 
526.0006534044412 2.421605711013179 57.32259014757926 16.0 0.0 0.0 16.0 
527.0026627922838 2.464047576679883 57.32259014757926 16.0 0.0 0.0 16.0 
528.0005904343126 2.820490859060864 63.058454662205065 16.0 0.0 0.0 16.0 
529.0009549925368 2.919461318236684 63.058454662205065 16.0 0.0 0.0 15.0 
530.0010224601905 2.866080461926216 63.058454662205065 16.0 0.0 0.0 15.0 
531.0010515863387 2.9377452310035115 62.86135101660159 17.0 0.0 0.0 15.0 
532.0096121467503 3.096810552185608 69.11738480737569 17.0 0.0 0.0 15.0 
533.0016929718023 3.195081896766062 85.30565818380381 17.0 0.0 0.0 15.0 
534.0005906384382 3.1474804634219518 85.30565818380381 17.0 0.0 0.0 15.0 
535.0050258283094 3.1392453152451587 69.64971971699543 17.0 0.0 0.0 15.0 
536.0031198817223 3.6864956172380188 89.48293202554981 17.0 0.0 0.0 15.0 
537.0040998827216 4.008341198306417 95.59424635696485 17.0 0.0 0.0 15.0 
538.0006965668065 4.191565161827992 105.58890314529907 17.0 0.0 0.0 15.0 
539.001841798776 3.948895658238462 105.58890314529907 17.0 0.0 0.0 15.0 
540.0019312692355 3.654449814332729 105.58890314529907 17.0 0.0 0.0 15.0 
541.0019249700433 3.4076249304797304 79.49905608667814 17.0 0.0 0.0 16.0 
542.0000069432961 3.983362454648964 99.61487600531416 17.0 0.0 0.0 16.0 
543.0032539436536 3.8321143770788826 106.99190334045062 17.0 0.0 0.0 16.0 
544.0033458496334 3.776576002973914 106.99190334045062 17.0 0.0 0.0 16.0 
545.0003356378386 4.146040204871419 111.19083801021486 17.0 0.0 0.0 16.0 
546.0032833075339 4.337568523984139 111.19083801021486 17.0 0.0 0.0 16.0 
547.0006011895485 4.440627240525102 118.69577705650107 18.0 0.0 0.0 17.0 
548.0005426521742 4.560548032316479 121.16094057273642 19.0 0.0 0.0 18.0 
549.000678684972 4.76741714463269 121.16094057273642 20.0 0.0 0.0 17.0 
550.00035560193 4.1304038238253264 111.85193937224608 23.0 0.0 0.0 17.0 
551.0032833075339 4.522167084980015 114.22067763430965 22.0 0.0 0.0 17.0 
552.0037890013612 4.773752967539378 125.6041130846221 23.0 0.0 0.0 17.0 
553.0002917414153 4.541828636769095 126.23367624441693 22.0 0.0 0.0 17.0 
554.0006166682003 4.883240631662956 130.9788485117628 21.0 0.0 0.0 17.0 
555.0014402103793 5.264414265565603 130.9788485117628 21.0 0.0 0.0 18.0 
556.0032833075339 5.327977650852144 130.9788485117628 20.0 0.0 0.0 18.0 
557.0002427717376 5.205202904523344 123.6769158140741 19.0 0.0 0.0 18.0 
558.0020877557988 5.31631397425978 129.5302913259598 19.0 0.0 0.0 18.0 
559.002589565391 5.551747631337613 129.5302913259598 19.0 0.0 0.0 18.0 
560.0035624013261 5.332901429964822 129.5302913259598 19.0 0.0 0.0 18.0 
561.0001824325784 5.39409176249823 129.5302913259598 18.0 0.0 0.0 18.0 
562.0005104424364 5.7533529908392795 142.89026361335647 18.0 0.0 0.0 17.0 
563.0001432449418 5.805856315517201 136.72389487784642 18.0 0.0 0.0 17.0 
564.0008277743353 6.050249857990915 143.30571002554422 18.0 0.0 0.0 17.0 
565.0048441181552 5.9130624376467305 136.72389487784642 18.0 0.0 0.0 17.0 
566.0032833075339 6.767668977410692 145.10253534951585 18.0 0.0 0.0 17.0 
567.0000951011381 6.93106430944306 151.79930174506399 18.0 0.0 0.0 17.0 
568.0020308100001 6.799562110329224 151.18754519757573 18.0 0.0 0.0 17.0 
569.0040338389596 7.534329992986866 153.85381909360513 18.0 0.0 0.0 18.0 
570.0065797537661 7.449374635186094 155.69641513111816 18.0 0.0 0.0 20.0 
571.0000601976695 7.344260760398045 155.69641513111816 18.0 0.0 0.0 20.0 
572.0017091649802 7.368949361289078 155.69641513111816 17.0 0.0 0.0 20.0 
573.0001251919642 7.699009496608771 162.81129457949368 16.0 0.0 0.0 19.0 
574.0017251305329 7.655175927231788 162.81129457949368 16.0 0.0 0.0 19.0 
575.0003720749594 7.66765542869625 162.81129457949368 16.0 0.0 0.0 19.0 
576.0032833075339 7.631586588006125 162.81129457949368 15.0 0.0 0.0 19.0 
577.000827495155 7.365809791926366 154.79808415731924 14.0 0.0 0.0 19.0 
578.0009379062244 7.475567932706728 156.43198729650027 14.0 0.0 0.0 21.0 
579.0019633133264 7.441494910270219 156.43198729650027 14.0 0.0 0.0 22.0 
580.000623940998 7.433657324922028 156.43198729650027 14.0 0.0 0.0 21.0 
581.0003040968558 7.427180986790394 156.43198729650027 14.0 0.0 0.0 20.0 
582.0034249579768 7.44225633212399 163.8535671819222 14.0 0.0 0.0 20.0 
583.0028244343881 7.9278480015225155 174.2508496584203 14.0 0.0 0.0 18.0 
584.0010786237157 7.920897625118199 174.2508496584203 15.0 0.0 0.0 18.0 
585.0050722312768 7.77535974259243 166.75598639275847 15.0 0.00613077917246695 3.0653895862334934 18.0 
586.0032833075339 7.847804747985227 166.75598639275847 15.0 0.013882437662202478 6.941218831101224 18.0 
587.0023271487024 7.79663770562554 173.02501562323522 15.0 0.013882437662202478 6.941218831101224 18.0 
588.0014118158871 7.868004301308551 175.06111070396048 15.0 0.013882437662202478 6.941218831101224 17.0 
589.0014387376514 7.632249499177838 175.06111070396048 18.0 0.0 0.0 18.0 
590.0036585126661 7.581474029570075 171.6784443010282 20.0 0.0 0.0 20.0 
591.0032833075339 6.929373210099301 161.21924361268879 19.0 0.0 0.0 20.0 
592.0018027651855 7.405327197236731 171.6784443010282 18.0 0.0 0.0 20.0 
593.0011705958225 7.147764508017054 163.31399747543873 18.0 0.0 0.0 20.0 
594.0032885280303 7.150831882836634 163.31399747543873 18.0 0.0 0.0 20.0 
595.0008981322187 7.072077199125743 155.7999641780761 18.0 0.0 0.0 21.0 
596.001170090917 7.150788213759359 155.7999641780761 18.0 0.0 0.0 21.0 
597.0008557819972 6.983089018860619 155.7999641780761 18.0 0.0 0.0 21.0 
598.0012267641447 6.970458104871919 158.54312235977773 18.0 0.0 0.0 21.0 
599.0017267347871 7.113493888203857 155.02462804340433 18.0 0.0 0.0 20.0 
600.0015434452522 7.258036494853544 155.02462804340433 18.0 0.0 0.0 20.0 
#####################################################################
# End of data export. Simulation finished at: 2019-02-25T20:07+0000 #
#####################################################################
