#####################################################################
# Alchemist log file - simulation started at: 2019-02-25T20:04+0000 #
#####################################################################
# seed = 38.0
#
# The columns have the following meaning: 
# time distance-rep[Mean] distance-rep[Max] leader-rep[CountDistinct] distance-share[Mean] distance-share[Max] leader-share[CountDistinct] 
0.0 NaN NaN NaN NaN NaN NaN 
1.0021536716955983 0.0 0.0 496.0 0.0 0.0 72.0 
2.0018999785271228 0.0 0.0 111.0 0.0 0.0 68.0 
3.001486275127725 0.0 0.0 102.0 0.0 0.0 61.0 
4.006028543489675 0.0 0.0 94.0 0.0 0.0 54.0 
5.003188364021858 0.0 0.0 90.0 0.0 0.0 49.0 
6.000918775093719 0.0 0.0 86.0 0.0 0.0 47.0 
7.001038869624572 0.0 0.0 85.0 0.0 0.0 44.0 
8.004841834413444 0.0 0.0 82.0 0.0 0.0 41.0 
9.002755581864147 0.0 0.0 79.0 0.0 0.0 37.0 
10.007863080692681 0.0 0.0 72.0 0.0 0.0 35.0 
11.00016440309031 0.0 0.0 67.0 0.0 0.0 33.0 
12.000522301373177 0.0 0.0 68.0 0.0 0.0 30.0 
13.001262074537316 0.0 0.0 65.0 0.0 0.0 29.0 
14.000252999187243 0.0 0.0 61.0 0.0 0.0 30.0 
15.002000300374554 0.0 0.0 59.0 0.0 0.0 31.0 
16.000255093866613 0.0 0.0 59.0 0.0 0.0 29.0 
17.00189997852712 0.0 0.0 57.0 0.0 0.0 28.0 
18.00218480063369 0.0 0.0 51.0 0.014928624191732723 7.464312095866319 28.0 
19.003846254044515 0.0 0.0 52.0 0.005976216005601824 2.9881080028009137 26.0 
20.001469452330902 0.0 0.0 46.0 0.07679670508256028 11.20137398281176 26.0 
21.000533157554194 0.0 0.0 45.0 0.060243473441985204 11.20137398281176 27.0 
22.000215039748976 0.0 0.0 44.0 0.07686806857528375 17.101438635637408 26.0 
23.000072524082313 0.0 0.0 42.0 0.0 0.0 27.0 
24.002151473238058 0.0 0.0 43.0 0.0 0.0 25.0 
25.004482778510553 0.0 0.0 43.0 0.0 0.0 24.0 
26.001945705258176 0.0 0.0 40.0 0.0 0.0 24.0 
27.000269640156777 0.0 0.0 39.0 0.0 0.0 24.0 
28.0020847639323 0.0 0.0 39.0 0.0 0.0 19.0 
29.00021792776713 0.0 0.0 39.0 0.0 0.0 20.0 
30.000403140119516 0.0 0.0 39.0 0.0 0.0 18.0 
31.00027097728916 0.0 0.0 39.0 0.0 0.0 18.0 
32.00189997852712 0.0 0.0 39.0 0.0 0.0 17.0 
33.00016097858127 0.0 0.0 37.0 0.0 0.0 16.0 
34.00045047649476 0.0 0.0 35.0 0.0 0.0 16.0 
35.00100445358696 0.0 0.0 35.0 0.0 0.0 16.0 
36.001664657972256 0.0 0.0 34.0 0.0 0.0 16.0 
37.00189997852712 0.0 0.0 36.0 0.0 0.0 16.0 
38.00112903546926 0.0 0.0 34.0 0.0 0.0 16.0 
39.00365499847467 0.0 0.0 35.0 0.0 0.0 15.0 
40.00007069858409 0.0 0.0 35.0 0.0 0.0 15.0 
41.00204815797449 0.0 0.0 37.0 0.0 0.0 15.0 
42.000189376839415 0.0 0.0 38.0 0.0 0.0 15.0 
43.0020696706189 0.0 0.0 39.0 0.0 0.0 16.0 
44.0019237651918 0.0 0.0 38.0 0.0 0.0 16.0 
45.0046215251243 0.0 0.0 39.0 0.0 0.0 16.0 
46.00056685887712 0.0 0.0 39.0 0.0 0.0 16.0 
47.00096418364678 0.0 0.0 38.0 0.0 0.0 16.0 
48.0025094925318 0.0 0.0 38.0 0.0 0.0 16.0 
49.001123946329066 0.0 0.0 36.0 0.0 0.0 15.0 
50.00189030809798 0.0 0.0 37.0 0.0 0.0 15.0 
51.00073080671521 0.0 0.0 36.0 0.0 0.0 16.0 
52.00043405510295 0.0 0.0 35.0 0.0 0.0 16.0 
53.00250725377646 0.01361926802085044 6.809634010425242 34.0 0.0 0.0 16.0 
54.00086253802142 0.005159069228815586 2.5795346144078053 34.0 0.0 0.0 16.0 
55.00077162360063 0.005467691977666383 2.5795346144078053 33.0 0.0 0.0 16.0 
56.0015435887992 0.005159069228815586 2.5795346144078053 31.0 0.0 0.0 16.0 
57.00139772487787 0.06503675197223081 14.156364221642349 30.0 0.0 0.0 16.0 
58.000057001032424 0.05817323647411632 12.301419297689648 29.0 0.0 0.0 16.0 
59.00159869260628 0.03287152308082416 7.39675162646131 30.0 0.0 0.0 16.0 
60.00409148883294 0.03287152308082416 7.39675162646131 26.0 0.0 0.0 16.0 
61.00300946088266 0.03815733750338825 7.39675162646131 27.0 0.0 0.0 15.0 
62.00189997852712 0.03287152308082416 7.39675162646131 28.0 0.0 0.0 15.0 
63.00098274955947 0.035951052711587834 9.09264557988169 27.0 0.0 0.0 15.0 
64.00096864777528 0.017058240540180805 4.1512171915678096 27.0 0.0 0.0 15.0 
65.00108854023668 0.04144013638870452 12.58452447353875 27.0 0.0 0.0 15.0 
66.00011764790098 0.1361701958209642 47.7002477982457 27.0 0.0 0.0 15.0 
67.00039108700433 0.20886333996048517 43.142523261952164 28.0 0.0 0.0 15.0 
68.00484183441344 0.1363310485990972 47.194284323017456 28.0 0.0 0.0 15.0 
69.00569433480003 0.08925243397057789 23.65497700875804 28.0 0.0 0.0 15.0 
70.00149197385753 0.0634773011753893 23.351935084702404 27.0 0.0 0.0 15.0 
71.00027354863902 0.13927853649263924 23.351935084702404 26.0 0.0 0.0 16.0 
72.00129816977964 0.17024663570350454 23.351935084702404 26.0 0.0 0.0 17.0 
73.00040034914356 0.17585959579031232 23.351935084702404 26.0 0.0 0.0 17.0 
74.0009223957832 0.17019620975334543 23.351935084702404 26.0 0.0 0.0 17.0 
75.00409638400725 0.19197823714708095 23.351935084702404 25.0 0.0 0.0 18.0 
76.00083408590622 0.21794109321942567 34.018466283500686 26.0 0.0 0.0 17.0 
77.00189997852712 0.2464473399751368 34.018466283500686 26.0 0.0 0.0 17.0 
78.00037317697202 0.3308601666419309 55.57762089769358 26.0 0.005660186288378579 2.8300931441893056 17.0 
79.00027581531339 0.0 0.0 24.0 0.02559617003947511 10.325331079101943 17.0 
80.00024641774061 0.0 0.0 24.0 0.040585714661288755 10.325331079101943 17.0 
81.00020804051066 0.0 0.0 23.0 0.0016843968675495802 0.8421984337747972 17.0 
82.00098614015455 0.012227599369672567 4.308938011384157 23.0 0.0016843968675495802 0.8421984337747972 17.0 
83.00290387014884 0.019042842137821217 4.308938011384157 23.0 0.0016843968675495802 0.8421984337747972 18.0 
84.00073669255737 0.02908409753968069 7.341434291594879 22.0 0.0016843968675495802 0.8421984337747972 18.0 
85.00253132120666 0.02908409753968069 7.341434291594879 23.0 0.0016843968675495802 0.8421984337747972 18.0 
86.00067226266033 0.02908409753968069 7.341434291594879 23.0 0.0 0.0 19.0 
87.00189997852712 0.030744541295706744 7.470198425959552 24.0 0.0 0.0 19.0 
88.00084974449756 0.08122448562314266 11.322679152451002 24.0 0.0 0.0 20.0 
89.00138205651142 0.09483762506514112 12.687704122205304 24.0 0.0 0.0 20.0 
90.00034793343066 0.09483762506514112 12.687704122205304 23.0 0.0 0.0 20.0 
91.00073096902601 0.08513354310084735 12.687704122205304 22.0 0.0 0.0 20.0 
92.00180533014837 0.11961302248818964 15.375129646667034 22.0 0.0 0.0 20.0 
93.00018664276475 0.22838594592522868 20.394755978631053 22.0 0.0 0.0 20.0 
94.0032258404654 0.13099814616850586 18.175189717330227 22.0 0.0 0.0 20.0 
95.00101241543206 0.16602178803708414 18.175189717330227 22.0 0.0 0.0 20.0 
96.00207395150592 0.16847987218110452 19.0923348978975 22.0 0.0 0.0 20.0 
97.00083615997929 0.2161406973287364 23.01821803988676 21.0 0.0 0.0 20.0 
98.00343100184672 0.5636188134797854 35.950425967871325 21.0 0.0 0.0 20.0 
99.00064121198504 0.4446073847629701 44.09501855035353 21.0 0.0 0.0 21.0 
100.0007064765403 0.521643353169207 44.09501855035353 20.0 0.0 0.0 20.0 
101.00334124066981 0.6472097809631266 36.82719997368844 20.0 0.0 0.0 20.0 
102.00034162640621 0.6877888669156844 42.78897931559962 20.0 0.0 0.0 21.0 
103.00040214491104 0.654010924822762 42.78897931559962 19.0 0.0 0.0 21.0 
104.00191169419021 0.6473666513822042 42.78897931559962 19.0 0.0 0.0 22.0 
105.01090106169845 0.6731370163269625 42.78897931559962 19.0 0.0 0.0 23.0 
106.00069404687768 0.5875590576957626 35.228431072806984 18.0 0.0 0.0 22.0 
107.00041851338841 0.579491421078981 38.88620958397465 19.0 0.0 0.0 22.0 
108.00048817539717 0.5527415520359986 40.01545444622832 18.0 0.0 0.0 22.0 
109.00207505971503 0.4923226199546217 42.01695083815676 19.0 0.0 0.0 22.0 
110.0065822560109 0.4852896986157937 42.01695083815676 19.0 0.0 0.0 22.0 
111.00299136724846 0.39252902185706134 40.01545444622832 19.0 0.0 0.0 22.0 
112.00037408147762 0.5111169478227731 45.48439705550675 20.0 0.0 0.0 23.0 
113.00028737730467 0.3596175551192545 44.86795974983451 20.0 0.0 0.0 23.0 
114.00056958204523 0.2669990898508588 42.65617999489018 20.0 0.0 0.0 23.0 
115.0028353133384 0.17038722216070962 42.65617999489018 20.0 0.0 0.0 23.0 
116.00082053411175 0.3238872136024807 42.65617999489018 19.0 0.0 0.0 23.0 
117.00189997852712 0.2663057297705341 49.18927083280792 19.0 0.0 0.0 22.0 
118.0028938997074 0.09837854166561498 49.18927083280792 19.0 0.0 0.0 21.0 
119.00022616327888 0.0 0.0 18.0 0.0 0.0 21.0 
120.00640332392557 0.0 0.0 18.0 0.0 0.0 21.0 
121.00422198683819 0.0 0.0 18.0 0.0 0.0 21.0 
122.00015914484548 0.0 0.0 18.0 0.0 0.0 21.0 
123.00372500836662 0.0 0.0 18.0 0.0 0.0 21.0 
124.0007955090015 0.0 0.0 18.0 0.0 0.0 21.0 
125.00086661098545 0.0 0.0 18.0 0.0 0.0 21.0 
126.00693303961746 0.005339952140093748 2.6699760700468573 18.0 0.0 0.0 21.0 
127.00189997852712 0.005339952140093748 2.6699760700468573 18.0 0.0 0.0 21.0 
128.00484183441344 0.005339952140093748 2.6699760700468573 17.0 0.0 0.0 20.0 
129.00030159362308 0.0 0.0 18.0 0.0 0.0 20.0 
130.00897330567773 0.011382969670994147 2.6317161389521857 18.0 0.0 0.0 20.0 
131.00119454429046 0.005559134469595573 2.6317161389521857 19.0 0.0 0.0 20.0 
132.00189997852712 0.008394630516763521 4.04946416253614 20.0 0.0 0.0 20.0 
133.000557531468 0.0 0.0 22.0 0.0 0.0 20.0 
134.0005956822955 0.0 0.0 21.0 0.0 0.0 21.0 
135.00594978736822 0.0 0.0 23.0 0.0 0.0 21.0 
136.00226736162395 0.0 0.0 22.0 0.0 0.0 21.0 
137.00096239714432 0.0 0.0 22.0 0.0 0.0 21.0 
138.00025881414695 0.0016797171490628613 0.8398585745314335 21.0 0.0 0.0 21.0 
139.0026923403285 0.00812709718967492 3.203459631455786 21.0 0.0 0.0 21.0 
140.00240460895938 0.010895802024826718 3.203459631455786 21.0 0.0 0.0 20.0 
141.00018233480236 0.010895802024826718 3.203459631455786 20.0 0.0 0.0 20.0 
142.00189997852712 0.004488882761915122 1.4045828064261343 20.0 0.0 0.0 19.0 
143.00201474245918 0.002809165612852297 1.4045828064261343 20.0 0.0 0.0 19.0 
144.00629448980214 0.015902432906237357 7.951216453118576 20.0 0.0 0.0 19.0 
145.00062061343525 0.0 0.0 20.0 0.0 0.0 19.0 
146.00363798134393 0.0 0.0 20.0 0.0 0.0 19.0 
147.00189997852712 0.0 0.0 20.0 0.0 0.0 17.0 
148.00089274635013 0.0 0.0 20.0 0.0 0.0 17.0 
149.0029182904012 0.0 0.0 20.0 0.0 0.0 17.0 
150.00016423500205 0.011524381701329469 5.762190850664723 19.0 0.0 0.0 17.0 
151.0041481114864 0.022628246731244073 5.762190850664723 19.0 6.156443744241106E-4 0.3078221872120537 17.0 
152.00060045364597 0.11706366175174102 22.95260544566034 19.0 6.156443744241106E-4 0.3078221872120537 17.0 
153.00095101309444 0.3082311241888893 46.29515560275982 19.0 0.0 0.0 17.0 
154.0015741290256 0.32095854655267114 52.6588667846506 19.0 0.0 0.0 17.0 
155.00024153817301 0.44540783190398103 58.22949850894054 20.0 0.0 0.0 16.0 
156.00077569363992 0.3266680423630782 49.92826926816241 20.0 0.0 0.0 16.0 
157.0003298550481 0.23890900258971856 49.92826926816241 20.0 0.0 0.0 16.0 
158.00101973692455 0.04590551426377763 22.95275713188869 20.0 0.0 0.0 16.0 
159.0007763380587 0.04230240998678228 21.151204993391076 20.0 0.0 0.0 17.0 
160.0003059986636 0.01780562525091269 5.7877002131788515 20.0 0.0 0.0 17.0 
161.00264790313187 0.07947069886536302 22.342912583905388 20.0 0.0 0.0 17.0 
162.00026003177956 0.07947069886536302 22.342912583905388 20.0 0.0 0.0 17.0 
163.0010131501682 0.08399736561447489 22.342912583905388 20.0 0.0 0.0 17.0 
164.00030532905083 0.08399736561447489 22.342912583905388 20.0 0.0 0.0 17.0 
165.0001997770942 0.07366528284303626 21.490950795549026 20.0 0.0 0.0 17.0 
166.00175323499815 0.023450477974181365 7.533200270348601 20.0 0.0 0.0 17.0 
167.00189997852712 0.08161654742745625 15.602971731764569 20.0 0.0 0.0 16.0 
168.00010409561511 0.047326296712978125 7.808490355620592 20.0 0.0 0.0 15.0 
169.00040601372902 0.09294311972607866 15.602971731764569 20.0 0.0 0.0 15.0 
170.0001517622808 0.13736670386131733 26.44831839388914 20.0 0.0 0.0 15.0 
171.00649164685282 0.15982239687216787 21.057681288203554 19.0 0.0 0.0 15.0 
172.00179607142897 0.20750126198597335 26.44831839388914 19.0 0.0 0.0 15.0 
173.0007166926107 0.22203712097240258 26.44831839388914 19.0 0.0 0.0 16.0 
174.0107082076291 0.010878602702170212 5.439301351085106 19.0 0.0 0.0 16.0 
175.0020092728475 0.0 0.0 19.0 0.0 0.0 16.0 
176.0013591526116 0.009442821453945743 4.721410726972863 19.0 0.0 0.0 16.0 
177.00189997852712 0.008533615943232372 4.266807971616174 19.0 0.0 0.0 16.0 
178.0012950702834 0.023733738155519848 7.537768974438109 19.0 0.0 0.0 16.0 
179.00264488758518 0.018101021660589495 4.721410726972863 19.0 0.0 0.0 16.0 
180.0025531800026 0.025393545266883803 10.7097494358039 19.0 0.0 0.0 17.0 
181.0033343468866 0.02141949887160791 10.7097494358039 19.0 0.0 0.0 17.0 
182.00087915581062 0.03525156689699307 10.7097494358039 19.0 0.0 0.0 17.0 
183.0017488946959 0.03607649461895245 18.03824730947636 19.0 0.0 0.0 17.0 
184.00189502358785 0.007181784751862637 3.5908923759313325 19.0 0.0 0.0 17.0 
185.00111773597993 0.026655015635475465 11.874771663679695 19.0 0.0 0.0 18.0 
186.00021887767164 0.02374954332735946 11.874771663679695 19.0 0.0 0.0 18.0 
187.00016663443026 0.02374954332735946 11.874771663679695 19.0 0.0 0.0 16.0 
188.0012243661031 0.03583947172004392 11.874771663679695 18.0 0.0 0.0 16.0 
189.00240872360433 0.11394114885373097 28.834653528018293 18.0 0.0 0.0 16.0 
190.005480161874 0.20398162624634125 34.123072325619404 18.0 0.0 0.0 16.0 
191.00272834261455 0.1680180411724259 34.123072325619404 18.0 0.0 0.0 16.0 
192.00189997852712 0.09977189652118738 28.834653528018293 18.0 0.0 0.0 16.0 
193.00484183441344 0.13396056839871875 34.40830833734768 17.0 0.0 0.0 16.0 
194.00392610000137 0.12362542130823219 34.40830833734768 17.0 0.0 0.0 16.0 
195.00040186684598 0.2887024134661223 51.33834744459213 17.0 0.0 0.0 16.0 
196.00682307735906 0.22089964989737434 44.65612416075828 17.0 0.0 0.0 16.0 
197.00189997852712 0.23426409646504306 51.33834744459213 19.0 0.0 0.0 17.0 
198.00346056213056 0.320931369859985 57.051757818176895 19.0 0.0 0.0 17.0 
199.0047193227804 0.5568709429656635 68.54344276783814 19.0 0.0 0.0 17.0 
200.00160729758986 0.5934052536945014 68.54344276783814 17.0 0.0 0.0 17.0 
201.00118032653066 0.4860324142917558 61.78453682090691 19.0 0.005845583299836186 2.9227916499181106 17.0 
202.0002046658134 0.523641785854875 61.78453682090691 19.0 0.005845583299836186 2.9227916499181106 17.0 
203.00028390655794 0.2610875083741912 57.05098159478217 17.0 0.019844525409587043 9.922262704793496 16.0 
204.00060917601917 0.34056412660145896 57.05098159478217 17.0 0.019844525409587043 9.922262704793496 16.0 
205.00288478120024 0.3743254336984305 54.994024473100325 17.0 0.019844525409587043 9.922262704793496 16.0 
206.00336451114416 0.38827672151920284 54.994024473100325 17.0 0.03363377378940559 16.81688689470286 16.0 
207.00189997852712 0.38827672151920284 54.994024473100325 17.0 0.03363377378940559 16.81688689470286 16.0 
208.00004499988444 0.3862303975356005 56.06682397346714 17.0 0.0 0.0 16.0 
209.0018018347165 0.384362454775774 56.06682397346714 16.0 0.007632428445976048 3.8162142229880374 16.0 
210.00053601935443 0.42711509691212773 56.06682397346714 15.0 0.007632428445976048 3.8162142229880374 15.0 
211.00101436402463 0.4388847806139127 60.773197816653976 15.0 0.012361474745446556 6.180737372723314 15.0 
212.00049206051324 0.5896726080860447 69.27592247922604 15.0 0.012361474745446556 6.180737372723314 16.0 
213.00283713351575 0.4371206039966692 66.89118907349422 15.0 0.012361474745446556 6.180737372723314 16.0 
214.00453969051551 0.29712060385110994 53.68227879148054 15.0 0.026441536702159183 13.220768351079556 16.0 
215.0043341791945 0.6311358609691489 73.23004698584549 15.0 0.026441536702159183 13.220768351079556 16.0 
216.0005584583693 0.6311797915867956 73.23004698584549 15.0 0.030614491402996595 15.30724570149826 16.0 
217.00067418213104 0.4847196976151042 69.15773631437492 15.0 0.030614491402996595 15.30724570149826 16.0 
218.00003630805102 0.47395051621230466 69.15773631437492 15.0 0.030614491402996595 15.30724570149826 16.0 
219.00054597536206 0.5078638058965392 69.15773631437492 15.0 0.0 0.0 16.0 
220.00146168764573 0.7411812465492499 97.84556893072181 15.0 0.0 0.0 16.0 
221.0005738773639 0.5688173172405773 69.13591667459252 15.0 0.0 0.0 16.0 
222.00189997852712 0.7056037188749372 97.84556893072181 16.0 0.0 0.0 16.0 
223.0003087337649 0.49582458779971467 69.13591667459252 17.0 0.0 0.0 16.0 
224.00330956862155 0.4836686609517903 69.13591667459252 16.0 0.0 0.0 16.0 
225.00154426244112 0.5479733032462487 68.76205424944862 17.0 0.0 0.0 16.0 
226.00273725245648 0.5424715734665491 68.76205424944862 16.0 0.0 0.0 16.0 
227.00189997852712 0.4015640541343057 67.4706332067991 16.0 0.0 0.0 16.0 
228.00023299748537 0.25248723393756245 50.68911409352148 16.0 0.0 0.0 16.0 
229.0006023721756 0.5102632616749704 68.76205424944862 16.0 0.0 0.0 16.0 
230.0001097364569 0.5475009156405011 73.64696867320197 16.0 0.0 0.0 16.0 
231.0025497306181 0.5707135353692017 80.36509762361732 16.0 0.0 0.0 16.0 
232.00021900783443 0.4099833401219643 67.73681331295552 16.0 0.0 0.0 16.0 
233.0000530222025 0.402488378329898 67.73681331295552 16.0 0.0 0.0 16.0 
234.0000648637344 0.5707729913931971 80.36509762361732 15.0 0.0 0.0 16.0 
235.00231990425507 0.6375863022568213 86.57676792383637 15.0 0.03434181396588593 17.170906982943023 16.0 
236.0073970739043 0.44688611405000817 66.61291867870636 15.0 0.05599670606434674 20.948810638303883 16.0 
237.00189997852712 0.4822544296792956 66.61291867870636 15.0 0.014099084787738816 7.0495423938693875 16.0 
238.00098753606923 0.4703723175547296 66.61291867870636 15.0 0.014099084787738816 7.0495423938693875 16.0 
239.0054651335986 0.4674043331024511 66.61291867870636 15.0 0.014099084787738816 7.0495423938693875 15.0 
240.00003586282944 0.5441100063833514 65.32485981789728 15.0 0.04444179926308714 15.171357237674101 15.0 
241.0004606865161 0.5609945802242482 65.32485981789728 15.0 0.0 0.0 15.0 
242.00014749839443 0.5609945802242482 65.32485981789728 15.0 0.0 0.0 15.0 
243.00378448592912 0.5710720721817161 65.32485981789728 15.0 0.0 0.0 15.0 
244.0014571333867 0.5843385110732698 65.32485981789728 15.0 0.0 0.0 15.0 
245.00538102762366 0.7324926999603559 63.9470685694335 15.0 0.027997844442053582 13.998922221026731 15.0 
246.0016042565062 0.7525996343856765 63.9470685694335 14.0 0.04409006062837193 19.312445614533374 15.0 
247.00189997852712 0.8030357039113137 63.9470685694335 14.0 0.00546516939930529 2.732584699652648 15.0 
248.00065247196665 0.8031622802563189 63.9470685694335 14.0 0.00546516939930529 2.732584699652648 15.0 
249.0107082076291 0.7332913178416847 63.9470685694335 13.0 2.482550941716113E-4 0.12412754708580565 15.0 
250.00186223926548 0.9430600223539173 69.9180817649472 13.0 0.028225518206897306 13.715537299649924 15.0 
251.0019719513838 1.0353497741647297 62.635667963034734 13.0 0.023109041108668887 6.4834285633569095 15.0 
252.00013585615594 1.1045852963493046 62.635667963034734 13.0 0.023109041108668887 6.4834285633569095 16.0 
253.00484183441344 1.0634763091573152 62.635667963034734 13.0 0.023109041108668887 6.4834285633569095 16.0 
254.00273023091364 0.9350217918041085 62.635667963034734 13.0 0.047681968670784745 13.828035941549075 16.0 
255.00150392090427 0.9871853624281177 54.67256669359671 13.0 0.06542008074341045 20.13253942836863 16.0 
256.0022142409942 1.122325570259608 54.67256669359671 13.0 0.03540994078268118 8.852485195670312 16.0 
257.00113024537444 0.9757357469470419 54.67256669359671 13.0 0.03540994078268118 8.852485195670312 16.0 
258.0011194167376 1.0024537725461358 54.67256669359671 13.0 0.03540994078268118 8.852485195670312 16.0 
259.0008616338338 1.0761799877435843 54.67256669359671 14.0 0.03540994078268118 8.852485195670312 16.0 
260.0012992629311 1.2850083192537627 54.780735998546476 14.0 0.06279162376050981 22.543326684584486 17.0 
261.00136878391913 1.5269226355256191 54.780735998546476 15.0 0.04803680213486459 24.018401067432194 17.0 
262.00189997852715 1.240921605026731 61.85989430100227 15.0 0.04803680213486459 24.018401067432194 17.0 
263.003259081551 1.0655460778348478 61.85989430100227 15.0 0.0 0.0 19.0 
264.00186141374945 0.8526686891097309 61.85989430100227 15.0 0.0 0.0 18.0 
265.00032057426415 0.8510915986857239 66.97344522872788 15.0 0.009147589004644421 4.573794502322215 19.0 
266.00066771748664 0.9124658598173574 61.77821631815493 15.0 0.0 0.0 20.0 
267.00189997852715 1.0013115778182604 66.97344522872788 15.0 0.0 0.0 19.0 
268.00156024447807 0.5084757208557457 42.52425637330737 15.0 0.0 0.0 19.0 
269.00063395298884 0.7035167482446893 55.56162347087081 15.0 0.0 0.0 19.0 
270.00409777258403 0.8921795292226711 62.3692457784216 15.0 0.0 0.0 18.0 
271.0030427073263 0.9283352590406213 62.3692457784216 15.0 0.0 0.0 18.0 
272.00175601665285 0.8782756276347908 62.3692457784216 15.0 0.0 0.0 18.0 
273.00273934431254 0.9722050635846594 62.3692457784216 15.0 0.0 0.0 18.0 
274.00113142686433 0.6469671524850724 62.3692457784216 17.0 0.0 0.0 17.0 
275.00005367874286 0.6103928453401254 62.56629314682374 17.0 0.0 0.0 16.0 
276.001243046036 0.7811267344210546 78.95044205042922 17.0 0.0 0.0 16.0 
277.0018837774741 0.5396655185561583 72.03425624835762 16.0 0.0 0.0 16.0 
278.0027092737826 0.28917344730698435 72.03425624835762 16.0 0.0 0.0 16.0 
279.0016173929149 0.18385387873145131 69.43986604549059 16.0 0.0 0.0 16.0 
280.00358718136204 0.036904621462889406 10.945584608997649 16.0 0.0 0.0 16.0 
281.001527256064 0.015013452244894237 4.882374342860459 16.0 0.0 0.0 16.0 
282.0014293713651 0.015013452244894237 4.882374342860459 16.0 0.0018640710907060938 0.9320355453530453 15.0 
283.00080903480887 0.027249654349477404 11.486104727664156 17.0 0.0 0.0 15.0 
284.001060109181 0.11505280705821565 24.926867277914482 17.0 0.0 0.0 15.0 
285.00024883561736 0.038016425376732464 19.008212688366115 18.0 0.0 0.0 16.0 
286.00195184007305 0.0 0.0 18.0 0.0 0.0 16.0 
287.00189997852715 0.0 0.0 18.0 0.0 0.0 16.0 
288.0024662346363 0.0 0.0 18.0 0.0 0.0 16.0 
289.0008933082537 0.0 0.0 19.0 0.0 0.0 16.0 
290.00210283825646 0.018734202181287303 5.209084541761314 19.0 0.0 0.0 16.0 
291.0018036129165 0.09405993625908371 13.320478517699371 19.0 0.0 0.0 16.0 
292.00189997852715 0.23963936767838762 31.120443661378374 19.0 0.0 0.0 16.0 
293.002203942989 0.23333943677042948 26.32599541643569 19.0 0.0 0.0 16.0 
294.00047857257016 0.23169411282919375 26.32599541643569 18.0 0.0 0.0 15.0 
295.0027395972163 0.2994213222618742 27.13749886074939 18.0 0.0 0.0 15.0 
296.0007966856 0.47081030104556343 38.619925366860684 18.0 0.0 0.0 14.0 
297.00080679090047 0.5243658247700046 38.619925366860684 18.0 0.0 0.0 14.0 
298.00347611040513 0.6356990662684933 38.619925366860684 18.0 0.0 0.0 14.0 
299.0077650686788 0.7000630641706947 38.619925366860684 18.0 0.0 0.0 14.0 
300.00553797800666 0.9233739672996739 42.582809989612116 18.0 0.0 0.0 14.0 
301.00029814269436 1.0917163049015095 50.033880777884946 17.0 0.0 0.0 14.0 
302.00093917454484 1.0758403637288896 50.033880777884946 17.0 0.0 0.0 14.0 
303.00010873345565 1.5338293531045395 68.2899424801546 17.0 0.0 0.0 15.0 
304.00021225520806 1.2606538916267485 44.87425144460414 17.0 0.0 0.0 15.0 
305.00069263670787 1.7842115039685864 68.2899424801546 17.0 0.0 0.0 17.0 
306.0010163014081 1.8897931852466392 78.72969758633167 17.0 0.0 0.0 16.0 
307.0008154475185 2.091712556483662 78.72969758633167 17.0 0.0 0.0 17.0 
308.0000734427873 1.7392627621705454 78.72969758633167 17.0 0.0 0.0 18.0 
309.0086845204914 1.41737293264073 78.72969758633167 17.0 0.0 0.0 18.0 
310.00384923416993 1.4762180726449796 84.6851325842473 17.0 0.0 0.0 18.0 
311.0023345282376 1.5082951679241599 88.80762302848035 17.0 0.0 0.0 18.0 
312.0016431518973 1.2370841154391081 60.59845095280173 17.0 0.0 0.0 19.0 
313.00179508239734 0.8798321943839291 53.02280946874805 17.0 0.0 0.0 19.0 
314.00025533611193 1.0404616809590475 53.02280946874805 17.0 0.0 0.0 18.0 
315.000928521763 1.1476923743848404 56.86843174127466 17.0 0.0 0.0 18.0 
316.001164332244 1.2018291665920149 56.86843174127466 17.0 0.0 0.0 18.0 
317.00189997852715 1.1228874045655364 56.86843174127466 17.0 0.0 0.0 18.0 
318.0000124641682 1.2870243239319115 64.32812909459102 17.0 0.0 0.0 18.0 
319.0006496108128 1.2822003995312015 64.32812909459102 17.0 0.0 0.0 18.0 
320.0008925734768 1.3776806322348785 80.44370989689816 17.0 0.0 0.0 18.0 
321.0016573611542 1.366108588241443 80.44370989689816 16.0 0.0 0.0 18.0 
322.00189997852715 1.4308923637750424 80.44370989689816 15.0 0.0 0.0 18.0 
323.00056583818053 1.5099022037220475 80.44370989689816 15.0 0.0 0.0 18.0 
324.0008751135881 1.5620811283176659 80.44370989689816 15.0 0.0 0.0 17.0 
325.0014498347007 1.576038710681724 79.86023053596608 15.0 0.012123570370643317 3.961654362860372 18.0 
326.0078688808535 1.687311633463186 79.86023053596608 15.0 0.0034165190524163194 1.7082595262081668 18.0 
327.00189997852715 1.8686111407443204 79.86023053596608 14.0 0.005660548201352443 2.830274100676206 18.0 
328.0002873172543 2.3147183933196303 79.86023053596608 14.0 0.009077067253768724 2.830274100676206 18.0 
329.000498971583 2.978673823939625 96.3392561441459 14.0 0.009077067253768724 2.830274100676206 17.0 
330.00206300803194 3.010111853147018 101.02587091509247 14.0 0.022271007431501323 5.8376328318484525 16.0 
331.00088734132015 3.347055596017716 93.64958725306326 13.0 0.03699994170237154 9.726634298607564 16.0 
332.00189997852715 3.3985797555074244 93.64958725306326 14.0 0.07962534800016552 17.18515947386541 15.0 
333.00136895071023 3.631428878937344 98.53318314076381 14.0 0.12139623554895827 17.18515947386541 16.0 
334.00770797732304 3.7392995056617213 98.53318314076381 13.0 0.0663265121111435 10.655767743574017 18.0 
335.0023332036227 4.090167839308399 103.08902546045209 15.0 0.023152654010563795 10.655767743574017 18.0 
336.0002246612005 4.132664002395404 103.08902546045209 15.0 0.001841118523415769 0.9205592617078935 18.0 
337.00180260835265 4.4255661800666 103.08902546045209 15.0 0.01748240713306392 8.375871800261052 17.0 
338.00247442429514 4.604808748151459 103.08902546045209 15.0 0.033123678177114736 8.375871800261052 17.0 
339.002532499788 4.756676317413315 110.04875732497499 15.0 0.054313229386939596 10.655860742064363 16.0 
340.0007492131599 4.805040236064727 90.66253796474331 14.0 0.054313229386939596 10.655860742064363 16.0 
341.0006557968478 5.2745528846180765 117.14351704902816 14.0 0.054313229386939596 10.655860742064363 16.0 
342.00189997852715 5.3417126918378575 117.14351704902816 15.0 0.062833964713805 15.27874972477403 16.0 
343.00219856577564 4.92934719590356 123.9876007635961 17.0 0.016631842304720826 8.315921152360374 15.0 
344.0000953458637 4.132107482835334 123.9876007635961 16.0 0.0 0.0 15.0 
345.00129858806685 4.014139489922187 130.9901755176246 17.0 0.0 0.0 15.0 
346.0015291154733 3.522991184988077 90.2412782962997 17.0 0.0 0.0 16.0 
347.0011949920346 4.081974655916209 130.9901755176246 18.0 0.0 0.0 16.0 
348.0003639682727 4.23064366627089 130.9901755176246 17.0 0.0 0.0 16.0 
349.00442368850446 4.249660276620862 137.8888298527126 17.0 0.0 0.0 16.0 
350.0021320644551 4.304228740223578 96.83544096659494 17.0 0.0 0.0 15.0 
351.00024836470436 4.228909529997389 96.83544096659494 17.0 0.0 0.0 15.0 
352.0012275241754 4.380911064562002 144.76027470251017 17.0 0.0 0.0 15.0 
353.0005365692879 3.8601879177316 104.22409169708715 16.0 0.0 0.0 15.0 
354.00301723193473 3.9859490348818456 152.4084203105794 16.0 0.0 0.0 15.0 
355.000378359393 3.8113001229329915 104.22409169708715 16.0 0.0 0.0 15.0 
356.0007830032445 3.7727328090701984 111.02591759672475 16.0 0.0 0.0 15.0 
357.00074312445 3.5708478794259824 118.38190889737035 17.0 0.0 0.0 15.0 
358.00171982163124 5.025706164618569 160.73186841219018 17.0 0.0 0.0 15.0 
359.0028143691566 5.041941057851012 165.0956090655481 19.0 0.0 0.0 16.0 
360.00222650087136 5.468479289016916 167.85311611159926 17.0 0.0 0.0 16.0 
361.0011498435225 5.276933613651772 172.21199274819776 16.0 0.0 0.0 16.0 
362.0002862856932 5.608230091665661 172.21199274819776 16.0 0.0 0.0 16.0 
363.0034405270674 5.084081332047038 168.38687487421845 16.0 0.0 0.0 16.0 
364.00091455165835 5.14905400904611 178.73852687127368 16.0 0.0 0.0 16.0 
365.0013415120572 5.335793117935622 176.30093846230915 16.0 0.0 0.0 16.0 
366.0021743217493 5.281385553815528 177.48202738061457 16.0 0.0 0.0 16.0 
367.00189997852715 6.224686388571247 182.4234394172612 16.0 0.0 0.0 16.0 
368.00484183441347 5.547345755198869 177.48202738061457 15.0 0.0011222141948546748 0.5611070974273389 16.0 
369.00220520991326 5.190785245542169 175.65511619928247 16.0 0.0011222141948546748 0.5611070974273389 16.0 
370.00055755274735 5.408191272475864 180.0902426906967 15.0 0.0 0.0 17.0 
371.00017495145875 5.9031996761327115 181.18369662389125 15.0 0.0 0.0 16.0 
372.00189997852715 6.2404174235311505 181.18369662389125 15.0 0.0 0.0 16.0 
373.00256111574026 5.920328105619269 181.18369662389125 15.0 0.0 0.0 16.0 
374.0019875882184 5.916652446626709 181.18369662389125 15.0 0.0 0.0 15.0 
375.0033371280409 6.205707126132173 180.68631595128375 15.0 0.0 0.0 15.0 
376.0041546709548 6.209963906184603 180.68631595128375 15.0 0.0 0.0 15.0 
377.0000070820992 6.270831764454423 180.68631595128375 15.0 0.0 0.0 15.0 
378.00096521896734 6.866272265326656 194.5384522372039 14.0 0.0 0.0 15.0 
379.00061900625457 6.507470899567364 182.11075747153967 14.0 0.0 0.0 15.0 
380.0023199965408 6.309182764369532 183.5096508716573 14.0 0.0 0.0 15.0 
381.002059707906 5.932556411859315 183.5096508716573 15.0 0.0 0.0 15.0 
382.00135502154956 5.595678812823474 183.5096508716573 15.0 0.0 0.0 16.0 
383.00260181456747 3.8470231355339735 165.44941617879232 15.0 0.0 0.0 16.0 
384.0000681721469 3.5010647803715758 107.41579588797663 14.0 0.0 0.0 15.0 
385.00174600850534 3.7178108037576165 108.06335688490657 14.0 0.0 0.0 15.0 
386.0029003037233 3.709121422487276 115.54438378778383 14.0 0.0 0.0 15.0 
387.0014589249396 4.296155683280791 164.70905925544588 14.0 0.0 0.0 15.0 
388.00128843806806 3.6395644227304507 115.54438378778383 14.0 0.0 0.0 15.0 
389.003107259952 3.8620660255575308 115.54438378778383 14.0 0.006279493289417861 2.1104063827106927 15.0 
390.00459582745674 3.7674889946783536 123.80190688210422 14.0 0.05136983774607389 13.619960940045473 15.0 
391.0031398498887 3.620695083714044 123.80190688210422 14.0 0.002058680523996481 1.029340261998243 16.0 
392.00148191545816 3.730299559028689 123.80190688210422 14.0 0.0 0.0 14.0 
393.0015030397792 3.875977021425187 123.80190688210422 14.0 0.0 0.0 14.0 
394.00186411620564 3.8856214697553786 123.80190688210422 14.0 0.0 0.0 14.0 
395.00537102632234 4.1173490244248345 124.75191425153844 14.0 0.0 0.0 14.0 
396.0000019175192 4.363453141634106 132.12585448093716 14.0 0.0 0.0 14.0 
397.00189997852715 4.096654760485312 93.89300623346685 14.0 0.0 0.0 14.0 
398.00019595151866 4.136540593115341 93.89300623346685 14.0 0.0 0.0 14.0 
399.00013524583585 4.274958314714243 93.69297480500262 14.0 0.0 0.0 14.0 
400.002024552178 4.282956106257056 93.93229695857809 14.0 0.0 0.0 14.0 
401.00386912275616 4.467321839601738 93.93229695857809 14.0 0.0 0.0 14.0 
402.0004398444878 4.641887558931404 144.23777747409451 14.0 0.0 0.0 14.0 
403.0013495913196 3.9497335955286768 98.52488365412819 14.0 0.0 0.0 14.0 
404.00044440823905 4.273088480248695 98.52488365412819 14.0 0.0 0.0 14.0 
405.00863994057346 4.382105061936209 98.52488365412819 15.0 0.0 0.0 15.0 
406.0054369383211 4.050985800378537 100.04690838475659 16.0 0.0 0.0 16.0 
407.0017552597642 3.4807911619841474 100.04690838475659 18.0 0.0 0.0 17.0 
408.000655365225 1.7232984607006518 107.26685057559831 18.0 0.0 0.0 17.0 
409.00154823138985 1.51788433355023 107.26685057559831 18.0 0.0 0.0 17.0 
410.00167977440253 0.9841559729433675 93.81254031689235 18.0 0.0 0.0 17.0 
411.00200276711166 0.9091646262896552 73.082310636106 18.0 0.0 0.0 17.0 
412.00157475424925 1.0854179340415593 76.65741336495898 18.0 0.0 0.0 18.0 
413.0028531007412 1.2564887815269654 78.08998712490472 18.0 0.014595317782105086 7.297658891052521 18.0 
414.00044262367936 1.3072658321483748 84.89374145952166 18.0 0.0 0.0 17.0 
415.0017192279825 1.3810678936699587 84.89374145952166 18.0 0.0 0.0 17.0 
416.0046079369328 1.3894700859981737 84.89374145952166 18.0 0.0 0.0 17.0 
417.0005726132598 1.4097012992396092 84.89374145952166 18.0 0.0 0.0 17.0 
418.0019818246379 1.7645423723188454 87.20530788437651 18.0 0.0 0.0 17.0 
419.0000083166546 1.5187240827399726 93.21718949509534 18.0 0.0 0.0 18.0 
420.00140308228487 1.3594432308624305 88.03344740572123 18.0 0.0 0.0 17.0 
421.0002767820007 1.368891529508271 88.03344740572123 18.0 0.0 0.0 17.0 
422.0016814748174 1.6627922157526447 88.03344740572123 18.0 0.0 0.0 18.0 
423.00464995811745 1.6317021570236292 88.90604559151012 18.0 0.0 0.0 18.0 
424.0083645196935 1.8696374975646022 95.9501560917264 19.0 0.0 0.0 18.0 
425.0022127856923 1.9140585980874896 95.9501560917264 19.0 0.0 0.0 18.0 
426.00199362375724 1.8688201266229063 95.9501560917264 19.0 0.0 0.0 18.0 
427.0003746087349 2.163660652114848 95.9501560917264 19.0 0.0 0.0 17.0 
428.0001772771307 2.318742142987577 113.11171137256412 19.0 0.0 0.0 17.0 
429.00290551561517 2.158737692335281 107.88568239794375 19.0 0.0 0.0 17.0 
430.0015237981915 2.2513831864864784 120.50343793710766 19.0 0.0 0.0 17.0 
431.0027073207307 2.9032345078053052 130.84897546134403 19.0 0.0 0.0 17.0 
432.0004013699878 3.1094815297443565 130.84897546134403 19.0 0.0 0.0 16.0 
433.0002324228221 2.9524250420745823 130.84897546134403 19.0 0.0 0.0 16.0 
434.00125582026357 2.901700438340994 118.88222418043591 19.0 0.0 0.0 16.0 
435.0028527203874 3.086753297557647 111.82145142861384 19.0 0.0 0.0 17.0 
436.00581712387236 2.9647272865018572 111.82145142861384 21.0 0.0 0.0 17.0 
437.00026525821596 2.408017175577293 86.71305851352042 22.0 0.0 0.0 17.0 
438.0029752549932 2.2739506521632067 62.880297122797344 22.0 0.0 0.0 17.0 
439.00089276519395 2.2933219952145456 82.72736599339015 22.0 0.0 0.0 17.0 
440.00052486088987 2.285839961962186 82.72736599339015 22.0 0.0 0.0 17.0 
441.00031100056395 2.412583398083008 82.72736599339015 22.0 0.0 0.0 19.0 
442.00039559848705 2.5194367871178267 90.16367983580824 22.0 0.009303322685689147 4.651661342844534 20.0 
443.00178869008585 2.5054354816786826 82.73846343244611 22.0 0.0 0.0 23.0 
444.0004552161713 2.3701888465537104 82.73846343244611 22.0 0.0 0.0 23.0 
445.0000012946974 2.296036478423763 82.73846343244611 23.0 0.0 0.0 23.0 
446.0015019870636 2.400977663384677 106.06620668398415 22.0 0.0 0.0 23.0 
447.0011530780784 2.506982414252006 91.88586859441904 22.0 0.0 0.0 22.0 
448.0028338756692 2.4924291716542557 91.88586859441904 22.0 0.0 0.0 21.0 
449.0006150998393 2.4861810515282228 91.88586859441904 22.0 0.0 0.0 21.0 
450.00024788125944 2.5457668548195698 99.35952623032853 22.0 0.0 0.0 21.0 
451.0006840616579 2.6202594589715567 99.35952623032853 22.0 0.0 0.0 19.0 
452.00189997852715 3.0164351503024474 106.86593761182502 22.0 0.0 0.0 19.0 
453.00177163816375 2.873689630994496 106.86593761182502 21.0 0.0 0.0 19.0 
454.00253701841694 3.004624465802204 106.86593761182502 21.0 0.0 0.0 19.0 
455.00047168666947 2.875647487670185 114.29091744560611 21.0 0.0 0.0 19.0 
456.0014345727265 2.906905374609184 121.79784794077625 21.0 0.0 0.0 19.0 
457.00189997852715 3.0354874278585067 121.79784794077625 21.0 0.0 0.0 18.0 
458.0022231591052 3.2345889663181184 121.79784794077625 21.0 0.0 0.0 18.0 
459.0046999199922 2.8589693143842103 121.79784794077625 21.0 0.0 0.0 18.0 
460.0029803332798 3.0735569211966713 121.79784794077625 21.0 0.0 0.0 19.0 
461.0008314750996 3.1409790133129505 119.8255152547967 21.0 0.0 0.0 19.0 
462.00024458367625 3.208888684091135 127.286265218903 21.0 0.0 0.0 19.0 
463.0019712363391 3.2089254263466627 127.286265218903 20.0 0.0 0.0 19.0 
464.0004337044463 3.2370716936649484 127.286265218903 20.0 0.0 0.0 19.0 
465.00502527305275 3.2512920006427404 127.286265218903 20.0 0.0 0.0 18.0 
466.0026981657197 2.9616412699245536 114.35597452252756 20.0 0.0 0.0 18.0 
467.0003172062795 3.1234121842494402 121.74910518353772 19.0 0.0 0.0 18.0 
468.00126644004064 2.7322126482296594 121.74910518353772 19.0 0.0 0.0 18.0 
469.00150799295955 2.9800053519611662 121.74910518353772 19.0 0.0 0.0 18.0 
470.000080977051 2.709075762577883 124.99872863691877 19.0 0.0 0.0 17.0 
471.00340441204645 2.744826517543508 124.99872863691877 19.0 0.0 0.0 17.0 
472.00189997852715 2.236460375711843 132.44653491709664 19.0 0.0 0.0 17.0 
473.0035355331641 2.9654257469747174 132.44653491709664 19.0 0.0 0.0 17.0 
474.0000574577646 2.8283126822732543 121.86346615278154 19.0 0.0 0.0 17.0 
475.0004206170955 2.5740566001359544 114.79570726008296 19.0 0.0 0.0 17.0 
476.0011365275182 2.1538684932017564 114.79570726008296 19.0 0.0 0.0 17.0 
477.00189997852715 1.8410404635798925 113.56466275004385 19.0 0.0 0.0 17.0 
478.00196164949017 1.5316989684904259 113.56466275004385 19.0 0.0 0.0 17.0 
479.0045157929254 1.6200827412894563 113.56466275004385 19.0 0.0 0.0 17.0 
480.0031177639202 1.3802244759582105 113.76113492794286 19.0 0.0 0.0 17.0 
481.00181217706444 1.3492742539420182 113.76113492794286 18.0 0.0 0.0 17.0 
482.0005771610166 1.3636664598579316 121.28810640200652 19.0 0.0 0.0 17.0 
483.0006184478883 1.3208701045734081 121.61096684114068 18.0 0.0 0.0 16.0 
484.0033629533771 1.4979554024139698 121.61096684114068 18.0 0.0 0.0 16.0 
485.0008456441075 1.237620114636184 121.884337512537 18.0 0.0 0.0 16.0 
486.00531337502355 0.8166832164507363 129.35852130487604 18.0 0.0 0.0 16.0 
487.0002896860429 0.6892588215148886 129.7902667702674 18.0 0.0 0.0 16.0 
488.0017299591861 0.6892588215148886 129.7902667702674 18.0 0.0 0.0 16.0 
489.0007927014641 0.7792946815407146 130.49855269521208 18.0 0.0 0.0 17.0 
490.0007361335865 0.5198544890915995 130.1369777755324 18.0 0.0 0.0 17.0 
491.0012104893299 0.2602739555510644 130.1369777755324 17.0 0.0 0.0 17.0 
492.00007797755154 0.5522543633659223 138.15015040287426 16.0 0.0 0.0 17.0 
493.0002483021759 0.0 0.0 15.0 0.0 0.0 18.0 
494.00108096563605 0.275230099730198 137.61504986509846 16.0 0.0 0.0 17.0 
495.00010179407707 0.0 0.0 15.0 0.0 0.0 17.0 
496.0004621197019 0.0 0.0 15.0 0.0 0.0 16.0 
497.0007677500328 0.0 0.0 15.0 0.0 0.0 16.0 
498.00484183441347 0.0 0.0 15.0 0.0 0.0 16.0 
499.0049372545294 0.0 0.0 15.0 0.0 0.0 16.0 
500.00410200064147 0.0 0.0 15.0 0.0 0.0 16.0 
501.00097033134216 0.010083432879195608 3.89888981592739 15.0 0.0 0.0 16.0 
502.00078497267884 0.0 0.0 15.0 0.0 0.0 16.0 
503.0000311925045 0.12666747942518997 63.33373971259465 15.0 0.0 0.0 15.0 
504.003403143227 0.006909566321296941 3.454783160648475 15.0 0.0 0.0 15.0 
505.00151767226566 0.15353059344510195 70.6896773677974 15.0 0.0 0.0 15.0 
506.00701789084303 0.19524309510356672 70.6896773677974 15.0 0.0 0.0 15.0 
507.00189997852715 0.050323501920380265 14.349204322647836 15.0 0.0 0.0 15.0 
508.0001121424347 0.050323501920380265 14.349204322647836 15.0 0.0 0.0 15.0 
509.0017312289476 0.08259755186599518 18.110871628233838 15.0 0.0 0.0 14.0 
510.00037794660847 0.1319963200328806 25.612854174949916 15.0 0.0 0.0 14.0 
511.0000246622181 0.1454983330047586 25.612854174949916 15.0 0.0 0.0 14.0 
512.0018999785271 0.12766519335296278 25.612854174949916 14.0 0.0 0.0 15.0 
513.000030824146 0.17536971020604725 29.29548684206074 14.0 0.0 0.0 15.0 
514.0002005734148 0.18892653400040949 32.9272709448353 14.0 0.0 0.0 15.0 
515.0038038622569 0.20557426687650537 32.9272709448353 14.0 0.0 0.0 14.0 
516.0017263577 0.17690240344673003 33.853533355602536 14.0 0.0 0.0 14.0 
517.0000125645603 0.24379395287547082 38.85593062736589 14.0 0.0 0.0 14.0 
518.0008960742742 0.24200929688602893 38.85593062736589 14.0 0.0 0.0 15.0 
519.0005167010663 0.25595700004095256 41.20892915742371 14.0 0.0 0.0 15.0 
520.0008147044573 0.27282885514877786 39.65876605192332 13.0 0.0 0.0 15.0 
521.0019507462779 0.37100063254754545 39.65876605192332 13.0 0.0 0.0 15.0 
522.0018999785271 0.4754739744636768 64.4432179112494 14.0 0.0 0.0 15.0 
523.0038831591354 0.3893157655855093 46.462095198224034 15.0 0.0 0.0 15.0 
524.0043935537892 0.30903288660341627 46.462095198224034 15.0 0.0 0.0 15.0 
525.0021463096747 0.37765357730636046 46.462095198224034 15.0 0.0 0.0 15.0 
526.0009847049206 0.5027891695618768 46.76920851400786 15.0 0.0 0.0 15.0 
527.0018999785271 0.5573453502713155 65.65792835531965 15.0 0.0 0.0 15.0 
528.0012573735787 0.5882894519486084 66.80646899097809 15.0 0.0 0.0 16.0 
529.0018818353581 0.6615137873205487 66.80646899097809 14.0 0.0 0.0 16.0 
530.0022283828571 0.5108155508958477 66.80646899097809 15.0 0.0 0.0 16.0 
531.0014779999503 0.5641616788678956 67.88900952938383 14.0 0.0 0.0 15.0 
532.0018999785271 0.16533357497875173 20.234593373775454 14.0 0.0 0.0 15.0 
533.0029463354939 0.16600401989075952 20.234593373775454 14.0 0.0 0.0 15.0 
534.0000675877209 0.16182655085899822 20.234593373775454 14.0 0.0 0.0 15.0 
535.0002650682687 0.16096910848835438 20.234593373775454 14.0 0.0 0.0 15.0 
536.0002158485619 0.156534264054926 21.662055166179982 14.0 0.0 0.0 15.0 
537.0018999785271 0.13952936516707323 21.662055166179982 14.0 0.0 0.0 15.0 
538.0002171971322 0.16447084664446113 20.72943115097945 14.0 0.0 0.0 16.0 
539.0028782304116 0.15751308088918964 20.72943115097945 15.0 0.0 0.0 16.0 
540.0035093628694 0.2468132899167683 39.32888581622217 15.0 0.0 0.0 16.0 
541.0076650323737 0.17072202159445984 22.201148991093646 15.0 0.009394916913501661 2.2235331629757127 16.0 
542.0000868425666 0.26214987508709203 39.32888581622217 14.0 0.005845858658371658 2.2235331629757127 15.0 
543.0047976192872 0.2624418155432252 31.97339419421482 14.0 0.0 0.0 16.0 
544.0000039348515 0.26883260730527225 36.154363158816096 14.0 0.0 0.0 16.0 
545.0015276148384 0.2668772231120193 36.154363158816096 15.0 0.0 0.0 16.0 
546.0001483493934 0.2818509468200597 36.154363158816096 15.0 0.0 0.0 17.0 
547.0016500767182 0.34388634754775205 36.154363158816096 15.0 0.0 0.0 17.0 
548.0002754450826 0.5053284809296523 51.91079265712315 15.0 0.0 0.0 17.0 
549.0016215561216 0.5095918273457516 51.91079265712315 15.0 0.0 0.0 18.0 
550.000438074769 0.5173685266629988 51.91079265712315 15.0 0.0 0.0 18.0 
551.0009664824479 0.54710107327988 53.75704982930827 15.0 0.0 0.0 18.0 
552.0012792205777 0.6062684933859186 46.488821354816366 15.0 0.0 0.0 18.0 
553.0000283080053 0.5315093084891852 46.488821354816366 15.0 0.0 0.0 18.0 
554.001587057337 0.6031313604519195 46.488821354816366 15.0 0.0 0.0 18.0 
555.0024046027532 0.5818033808152109 48.554790922963576 15.0 0.0 0.0 18.0 
556.0028204198172 0.5761735309146462 41.401161654431036 15.0 0.0 0.0 18.0 
557.0006683284598 0.6525571170809545 46.198316487259405 15.0 0.0 0.0 18.0 
558.0018169287979 0.6348485679686836 46.198316487259405 15.0 0.0 0.0 18.0 
559.0021122718465 0.6722299861006206 46.198316487259405 16.0 0.0 0.0 17.0 
560.0031369311906 0.7446920174061992 48.67653491717516 16.0 0.0 0.0 17.0 
561.0001309174165 0.7652605897033256 48.67653491717516 16.0 0.0 0.0 17.0 
562.0018999785271 0.7504321401398472 55.82442000020893 16.0 0.0 0.0 17.0 
563.0023781009104 0.7500966479218739 55.82442000020893 16.0 0.0 0.0 17.0 
564.0024617685052 0.8457370825600017 55.82442000020893 16.0 0.0 0.0 17.0 
565.0027475392116 0.8800364537379513 48.97501892935449 16.0 0.0 0.0 17.0 
566.0032454536665 0.9025430575704335 48.97501892935449 17.0 0.0 0.0 18.0 
567.0011726612445 0.8019299269458795 48.97501892935449 17.0 0.0 0.0 17.0 
568.0039867843965 0.9342117377742606 48.97501892935449 17.0 0.0 0.0 17.0 
569.0032084850563 0.9415662700332634 39.597730169132234 17.0 0.0 0.0 17.0 
570.0015780271431 1.1958250921874658 56.027254803276776 17.0 0.0 0.0 18.0 
571.0007102219147 1.1711450892436568 44.43304170630171 17.0 0.0 0.0 18.0 
572.0003611955964 1.3099771707359757 44.43304170630171 17.0 0.0 0.0 18.0 
573.0020621514327 1.114667635427455 46.63494915797031 17.0 0.0 0.0 18.0 
574.0036966587966 1.3133049914509738 54.07698999038212 17.0 0.0 0.0 18.0 
575.0013977273068 1.2186453206909689 54.07698999038212 19.0 0.0 0.0 18.0 
576.0015534956709 1.0514263498103786 54.07698999038212 19.0 0.0 0.0 18.0 
577.0018999785271 0.8089232406916377 44.61255781510408 19.0 0.0 0.0 18.0 
578.0048418344135 0.6801939438213663 47.554944497434946 19.0 0.0 0.0 19.0 
579.0008437273192 0.5957677132739979 47.554944497434946 19.0 0.0 0.0 20.0 
580.0010648934 0.6593404746191867 51.622710409238096 19.0 0.0 0.0 18.0 
581.0003331028774 0.6479692410777609 51.622710409238096 19.0 0.0 0.0 18.0 
582.0018999785271 0.6539712749591927 51.622710409238096 19.0 0.0 0.0 18.0 
583.0007403443994 0.6363515412156342 54.45741212123107 19.0 0.0 0.0 18.0 
584.0007942304253 0.5864289940149346 54.45741212123107 19.0 0.0 0.0 18.0 
585.0005545015738 0.6603817902992284 57.97021369048542 17.0 0.0 0.0 18.0 
586.0000059346781 0.6871134180671159 57.97021369048542 17.0 0.0 0.0 18.0 
587.0015936353648 0.6074770581698515 57.97021369048542 17.0 0.0 0.0 18.0 
588.0013690087803 0.4710446950308526 59.13214539383824 16.0 0.0 0.0 18.0 
589.0005677770249 0.5233191052177281 57.523515461757825 16.0 0.0 0.0 18.0 
590.003212875322 0.38853946751681434 37.61914476074162 16.0 0.0 0.0 18.0 
591.0003875221691 0.45045386100874524 60.13017714612624 16.0 0.0 0.0 18.0 
592.0004312972663 0.3238263708677047 34.30895101850933 17.0 0.0 0.0 18.0 
593.0026152222962 0.4670174652865862 41.59400970106543 17.0 0.0 0.0 18.0 
594.0018357232476 0.3453562767504961 29.25262919239458 18.0 0.0 0.0 18.0 
595.0010308479029 0.553124290587051 46.576832747264234 18.0 0.0 0.0 18.0 
596.0018988582317 0.3203345018446458 37.83871737400503 17.0 0.0 0.0 18.0 
597.0018999785271 0.235502594982846 37.83871737400503 17.0 0.0 0.0 18.0 
598.0011111455406 0.2149370803052291 37.83871737400503 17.0 0.0 0.0 19.0 
599.0002673739385 0.24981400002070692 37.83871737400503 17.0 0.0 0.0 19.0 
600.004281808951 0.3117725003684843 49.3140277238256 17.0 0.0 0.0 19.0 
#####################################################################
# End of data export. Simulation finished at: 2019-02-25T20:07+0000 #
#####################################################################
