#####################################################################
# Alchemist log file - simulation started at: 2019-02-25T18:02+0000 #
#####################################################################
# seed = 5.0
#
# The columns have the following meaning: 
# time distance-rep[Mean] distance-rep[Max] leader-rep[CountDistinct] distance-share[Mean] distance-share[Max] leader-share[CountDistinct] 
0.0 NaN NaN NaN NaN NaN NaN 
1.000987478833227 0.0 0.0 497.0 0.0 0.0 74.0 
2.0001795344925717 0.0 0.0 105.0 0.0 0.0 67.0 
3.003606639079534 0.0 0.0 106.0 0.0 0.0 60.0 
4.0027777461453695 0.0 0.0 96.0 0.0 0.0 50.0 
5.000594324844767 0.0 0.0 93.0 0.0 0.0 46.0 
6.0050188033554015 0.0 0.0 86.0 0.0 0.0 44.0 
7.001060424508797 0.0 0.0 81.0 0.0 0.0 42.0 
8.003753117520219 0.0 0.0 80.0 0.0 0.0 40.0 
9.00098159501434 0.0 0.0 72.0 0.0 0.0 35.0 
10.000178305264997 0.0 0.0 67.0 0.0 0.0 33.0 
11.00390732244604 0.0 0.0 59.0 0.0 0.0 29.0 
12.002127498340393 0.0 0.0 61.0 0.019672611806115257 5.474884183950678 28.0 
13.001199346797325 0.0 0.0 55.0 0.029623745771699198 9.336988701898974 29.0 
14.00347256373516 0.0 0.0 54.0 0.05175857245014092 9.8145556528834 28.0 
15.003758959666893 0.0 0.0 53.0 0.05175857245014092 9.8145556528834 26.0 
16.000993885557683 0.0 0.0 49.0 0.09458693800229898 21.414182776079144 27.0 
17.000110697407543 0.0 0.0 46.0 0.0 0.0 28.0 
18.001053090243285 0.0 0.0 43.0 0.0 0.0 27.0 
19.00347256373516 0.0 0.0 45.0 0.023535177791142503 11.014148882648982 31.0 
20.00204079007668 0.0 0.0 42.0 0.02202829776529789 11.014148882648982 26.0 
21.000467508401584 0.0 0.0 40.0 0.0 0.0 24.0 
22.00020098332448 0.0 0.0 41.0 0.0 0.0 24.0 
23.001034903529803 0.0 0.0 42.0 0.0 0.0 23.0 
24.00347256373516 0.0 0.0 41.0 0.05517787294632997 13.527379372734714 23.0 
25.000494336738242 0.0 0.0 39.0 0.06818507968993145 20.86404539984153 22.0 
26.001909847728566 0.0 0.0 38.0 0.05536846103077929 20.86404539984153 20.0 
27.004546854333622 0.0 0.0 38.0 0.05536846103077929 20.86404539984153 20.0 
28.003575564053975 0.0 0.0 34.0 0.08370233856012156 23.45070374945982 22.0 
29.000585238356937 0.0 0.0 35.0 0.046901407498919405 23.45070374945982 23.0 
30.00024841857228 0.0 0.0 33.0 0.0 0.0 22.0 
31.00027164404592 0.0 0.0 32.0 0.0 0.0 21.0 
32.00071500180043 0.0 0.0 32.0 0.06618519701546388 26.3086525422664 21.0 
33.00343185979881 0.0 0.0 32.0 0.07190673210867138 22.517647270670636 22.0 
34.00347256373516 0.0 0.0 31.0 0.03773503439797071 18.867517198985297 23.0 
35.000783625768484 0.0 0.0 31.0 0.03773503439797071 18.867517198985297 22.0 
36.00194494493992 0.0 0.0 31.0 0.05059678636930172 25.298393184650763 22.0 
37.0003246157534 0.0 0.0 31.0 0.05059678636930172 25.298393184650763 24.0 
38.000642907543984 0.0 0.0 31.0 0.05059678636930172 25.298393184650763 21.0 
39.00155256880925 0.0 0.0 31.0 0.0 0.0 19.0 
40.00090635003201 0.0 0.0 31.0 0.0 0.0 17.0 
41.00209331779069 0.0 0.0 32.0 0.0 0.0 17.0 
42.00018185400829 0.0 0.0 32.0 0.0 0.0 17.0 
43.000347351754044 0.0 0.0 30.0 0.0 0.0 18.0 
44.001267010662296 0.011867091318623917 5.93354565931196 29.0 0.0 0.0 17.0 
45.00374902537552 0.011867091318623917 5.93354565931196 30.0 0.0 0.0 17.0 
46.0016210202484 0.011867091318623917 5.93354565931196 28.0 0.0 0.0 17.0 
47.001997787316974 0.026197893373864734 13.098946686932464 27.0 0.0 0.0 17.0 
48.00118763244028 0.026197893373864734 13.098946686932464 28.0 0.0 0.0 17.0 
49.00287379982615 0.01131535656251685 5.657678281258399 27.0 0.0 0.0 18.0 
50.0001566593385 0.01131535656251685 5.657678281258399 28.0 0.0 0.0 18.0 
51.00447215274464 0.01131535656251685 5.657678281258399 30.0 0.0 0.0 17.0 
52.00521629705223 0.024363472792078 12.18173639603907 30.0 0.0 0.0 17.0 
53.001571594794044 0.024363472792078 12.18173639603907 32.0 0.0 0.0 17.0 
54.00058093300125 0.03932729775401812 19.66364887700894 32.0 0.0 0.0 17.0 
55.000030129652735 0.03932729775401812 19.66364887700894 35.0 0.0 0.0 17.0 
56.00000842385348 0.0 0.0 35.0 0.0 0.0 17.0 
57.000081663425476 0.04703192032127526 23.515960160637604 34.0 0.0 0.0 17.0 
58.001285470954706 0.046319138698753766 23.15956934937688 35.0 0.0 0.0 17.0 
59.000605469953875 0.046319138698753766 23.15956934937688 34.0 0.0 0.0 17.0 
60.000476604006444 0.046319138698753766 23.15956934937688 32.0 0.0 0.0 17.0 
61.0007909993946 0.05603155917018097 23.15956934937688 32.0 0.0 0.0 17.0 
62.0008612079228 0.03947617073443587 19.738085367218048 32.0 0.0 0.0 17.0 
63.003491854533905 0.062025000936095 19.738085367218048 32.0 0.0 0.0 17.0 
64.0009386284376 0.12133179929309304 29.65339917849903 32.0 0.0 0.0 17.0 
65.00135325762005 0.06425783631617818 19.738085367218048 32.0 0.0 0.0 17.0 
66.00033203070356 0.04562167347103653 19.738085367218048 30.0 0.0 0.0 17.0 
67.00016686129166 0.10019815993069614 26.36402569799941 29.0 0.0 0.0 17.0 
68.00141202847684 0.10019815993069614 26.36402569799941 30.0 0.006995738432069744 3.497869216034843 17.0 
69.00112147179087 0.10019815993069614 26.36402569799941 29.0 0.0 0.0 17.0 
70.00071707686178 0.10019815993069614 26.36402569799941 29.0 0.0 0.0 17.0 
71.00486549823937 0.1152405833879731 26.36402569799941 29.0 0.0 0.0 17.0 
72.000087554507 0.12694490762761154 23.322774753791293 30.0 0.0 0.0 17.0 
73.00061187076774 0.11205995626384309 23.322774753791293 30.0 0.0 0.0 18.0 
74.00130285189489 0.11205995626384309 23.322774753791293 30.0 0.0 0.0 18.0 
75.00003403308285 0.13230248284163396 26.866495074739362 30.0 0.0 0.0 18.0 
76.00501107840647 0.13230248284163396 26.866495074739362 29.0 0.0 0.0 18.0 
77.00156194063601 0.14829999663537582 31.389251028143264 30.0 0.0 0.0 18.0 
78.00375311752022 0.19343452952079207 31.389251028143264 31.0 0.0 0.0 18.0 
79.00069565371003 0.21438634595339645 31.389251028143264 30.0 0.0 0.0 18.0 
80.00187132688424 0.1300198831125557 31.389251028143264 29.0 0.0 0.0 18.0 
81.00055610384788 0.0 0.0 29.0 0.0 0.0 18.0 
82.00008874378771 0.0 0.0 30.0 0.0 0.0 18.0 
83.00071861488894 0.0 0.0 30.0 0.0 0.0 18.0 
84.00024398643771 0.0 0.0 29.0 0.0 0.0 18.0 
85.0020559253704 0.0 0.0 29.0 0.0 0.0 18.0 
86.00148552605572 0.0 0.0 28.0 0.0 0.0 18.0 
87.00521629705223 0.0 0.0 29.0 0.0 0.0 18.0 
88.00375311752022 0.0 0.0 28.0 0.0 0.0 18.0 
89.00112324108044 0.0 0.0 26.0 0.0 0.0 18.0 
90.00181132059419 0.0 0.0 25.0 0.0 0.0 18.0 
91.0001809993999 0.0 0.0 25.0 0.0 0.0 18.0 
92.00059154833804 0.0 0.0 25.0 0.0 0.0 18.0 
93.00278103417979 0.0 0.0 25.0 0.0 0.0 18.0 
94.00231314270194 0.0 0.0 25.0 0.0 0.0 18.0 
95.00212521751048 0.0 0.0 25.0 0.0 0.0 18.0 
96.0001808570405 0.013546244687319341 3.888683291846178 24.0 0.0 0.0 18.0 
97.00028413509422 0.052340428921715546 5.7191761124010725 25.0 0.0 0.0 18.0 
98.00084372564464 0.052340428921715546 5.7191761124010725 25.0 0.0 0.0 18.0 
99.00128778298618 0.06794512856257606 6.887897342720407 24.0 0.0 0.0 19.0 
100.00273400024314 0.05416933387713521 5.7191761124010725 24.0 0.0 0.0 19.0 
101.00598930778767 0.08577954982978447 10.802831599065058 24.0 0.0 0.0 19.0 
102.00144104583347 0.2017270865252065 14.635844841049675 24.0 0.0 0.0 19.0 
103.00059693988023 0.14351405170585388 14.056962244703072 23.0 0.0 0.0 18.0 
104.00026832593757 0.14370128858629921 14.470672568626696 23.0 0.0 0.0 18.0 
105.0000295255495 0.14253332838637892 13.886692468666439 23.0 0.0 0.0 19.0 
106.00315933450469 0.10175306747826635 19.192712248917587 23.0 0.0 0.0 19.0 
107.00037884829476 0.13593800386181193 19.668907459587018 24.0 0.0 0.0 19.0 
108.00321790620923 0.09964441123439498 19.192712248917587 24.0 0.0 0.0 19.0 
109.00041939728065 0.037166525646360866 18.58326282318049 25.0 0.0 0.0 22.0 
110.0016979685633 0.032097277586394336 16.048638793197142 26.0 0.0 0.0 22.0 
111.00022835681987 0.02916170915016507 14.580854575082554 26.0 0.0 0.0 21.0 
112.00174155914014 0.0 0.0 24.0 0.0 0.0 21.0 
113.00373700091073 0.0 0.0 24.0 0.0 0.0 22.0 
114.00079922072148 0.0 0.0 23.0 0.0 0.0 22.0 
115.002307485068 0.0 0.0 23.0 0.0 0.0 21.0 
116.00134161182773 0.0 0.0 22.0 0.0 0.0 21.0 
117.00112602904184 0.0 0.0 22.0 0.0 0.0 21.0 
118.00074106851484 0.0 0.0 22.0 0.0 0.0 21.0 
119.00002290523747 0.0 0.0 22.0 0.0 0.0 21.0 
120.0012809995462 0.0 0.0 22.0 0.0 0.0 21.0 
121.00252291985456 0.0 0.0 22.0 0.0 0.0 21.0 
122.00159152070059 0.0 0.0 23.0 0.0 0.0 22.0 
123.0007623744792 0.0 0.0 23.0 0.0 0.0 23.0 
124.00186511764197 0.0 0.0 23.0 0.0 0.0 23.0 
125.00327831958893 0.0 0.0 22.0 0.0 0.0 22.0 
126.00181735732895 0.0 0.0 22.0 0.0 0.0 22.0 
127.00415400484674 0.0 0.0 22.0 0.0 0.0 22.0 
128.00054341657977 0.0 0.0 22.0 0.0 0.0 22.0 
129.00317287003128 0.0 0.0 22.0 0.0 0.0 22.0 
130.0012666797828 0.0 0.0 22.0 0.0 0.0 22.0 
131.00065607605725 0.0 0.0 22.0 0.0 0.0 21.0 
132.00521629705224 0.0 0.0 22.0 0.0 0.0 21.0 
133.00114496266536 0.0 0.0 22.0 0.0 0.0 20.0 
134.00088970641525 0.0 0.0 22.0 0.0 0.0 20.0 
135.0000831086999 0.0 0.0 22.0 0.0 0.0 21.0 
136.0001323545013 0.0 0.0 22.0 0.0 0.0 21.0 
137.0041486863064 0.0 0.0 22.0 0.0 0.0 21.0 
138.00093633467776 0.0 0.0 22.0 0.0 0.0 20.0 
139.0003851651558 0.0 0.0 22.0 0.0 0.0 19.0 
140.00062888999756 0.0 0.0 22.0 0.0 0.0 18.0 
141.00339555723147 0.0 0.0 22.0 0.0 0.0 19.0 
142.0007195585046 0.0 0.0 22.0 0.0 0.0 19.0 
143.0037531175202 0.0 0.0 22.0 0.0 0.0 19.0 
144.00262523930002 0.0 0.0 22.0 0.0 0.0 18.0 
145.00125708690706 0.0 0.0 22.0 0.0 0.0 18.0 
146.0083891170722 0.0 0.0 22.0 0.0 0.0 17.0 
147.00363193439225 0.017728712405872378 8.86435620293625 21.0 0.0 0.0 16.0 
148.00110562785758 0.0 0.0 21.0 0.0 0.0 16.0 
149.00108775446122 0.0 0.0 22.0 0.0 0.0 17.0 
150.00151411603684 0.0 0.0 22.0 0.0 0.0 17.0 
151.00322139583554 0.0 0.0 22.0 0.0 0.0 18.0 
152.00318396953452 0.007739781256170098 3.8698906280850736 23.0 0.0 0.0 19.0 
153.00130146236384 0.0 0.0 23.0 0.0 0.0 20.0 
154.00347256373516 0.007739781256170098 3.8698906280850736 21.0 0.0 0.0 19.0 
155.00035098945497 0.0 0.0 21.0 0.0 0.0 19.0 
156.0009983641019 0.0010611383893938777 0.5305691946969375 21.0 0.0 0.0 19.0 
157.00224961090527 0.022277386000739304 10.608123805672733 21.0 0.0 0.0 18.0 
158.00064408194729 0.022277386000739304 10.608123805672733 21.0 0.0 0.0 18.0 
159.00081461682353 0.026292313964446774 6.659329523199148 20.0 0.0 0.0 18.0 
160.0031597466477 0.026292313964446774 6.659329523199148 21.0 0.0 0.0 18.0 
161.00060204811638 0.06229955586432006 18.003620949936845 21.0 0.0 0.0 18.0 
162.00044234766358 0.047339461726046854 10.825101509849333 21.0 0.0 0.0 18.0 
163.0037531175202 0.06100603341601087 10.825101509849333 22.0 0.0 0.0 19.0 
164.00347256373516 0.05346085121337812 18.14163982344928 22.0 0.0 0.0 20.0 
165.0058823862607 0.06475902038380782 18.14163982344928 21.0 0.0 0.0 20.0 
166.00221966569356 0.06475902038380782 18.14163982344928 22.0 0.0 0.0 20.0 
167.00091612520896 0.05786450090328758 14.237870368454537 21.0 0.0 0.0 20.0 
168.00111322673277 0.07957873488209849 14.856134197505696 21.0 0.0 0.0 20.0 
169.00209846589865 0.13678465903401757 22.27544949927224 21.0 0.0 0.0 19.0 
170.00192557599792 0.16617289587256245 22.27544949927224 21.0 0.0 0.0 19.0 
171.00263842664515 0.1239492860190225 22.27544949927224 21.0 0.0 0.0 19.0 
172.00264178818398 0.13993458211004253 21.20527081900974 22.0 0.0 0.0 20.0 
173.0037531175202 0.14108214901902297 21.77905427350001 22.0 0.0 0.0 20.0 
174.000582694804 0.17163348724005986 29.122348455819917 22.0 0.0 0.0 20.0 
175.00121255262493 0.09232335421548189 22.87818830475797 22.0 0.0 0.0 19.0 
176.00215770421303 0.09969427980224793 22.87818830475797 22.0 0.0 0.0 18.0 
177.00521629705224 0.08406321079537676 22.87818830475797 22.0 0.0 0.0 18.0 
178.0004003518858 0.07697751320753334 16.259566445238733 22.0 0.0 0.0 18.0 
179.00227367774744 0.10028639177365195 23.604771942250807 22.0 0.0 0.0 20.0 
180.00229769594335 0.09415743505296163 19.42220837457657 22.0 0.0 0.0 19.0 
181.00449995891935 0.0 0.0 22.0 0.0 0.0 19.0 
182.00201657875385 0.0 0.0 21.0 0.0 0.0 18.0 
183.00203360297024 0.0 0.0 21.0 0.0 0.0 17.0 
184.00122640776289 0.0 0.0 20.0 0.0 0.0 17.0 
185.0010305556036 0.0 0.0 20.0 0.0 0.0 18.0 
186.0009342207753 0.0 0.0 21.0 0.0 0.0 18.0 
187.00021798337198 0.0 0.0 21.0 0.0 0.0 18.0 
188.00223904778255 0.0 0.0 21.0 0.0 0.0 19.0 
189.00147876422938 0.004538084111808463 1.5321226910936332 22.0 0.0 0.0 19.0 
190.0030708524959 0.004538084111808463 1.5321226910936332 22.0 0.0 0.0 19.0 
191.00093118474527 0.01827481128231644 9.137405641158239 23.0 0.0 0.0 19.0 
192.00190514808173 0.0 0.0 22.0 0.0 0.0 19.0 
193.00100686586404 0.016586757591085292 8.293378795542623 22.0 0.0 0.0 18.0 
194.0007038468789 0.0 0.0 22.0 0.0 0.0 18.0 
195.00481573421743 0.0 0.0 22.0 0.0 0.0 18.0 
196.00048605397635 0.0 0.0 22.0 0.0 0.0 18.0 
197.00521629705224 0.0 0.0 22.0 0.0 0.0 18.0 
198.00054315168452 0.0 0.0 22.0 0.0 0.0 18.0 
199.000290550745 0.0 0.0 22.0 0.0 0.0 18.0 
200.00246780052836 0.0 0.0 22.0 0.0 0.0 18.0 
201.0047200517361 0.0 0.0 22.0 0.0 0.0 18.0 
202.0017790863252 0.0 0.0 22.0 0.0 0.0 18.0 
203.0037531175202 0.0 0.0 22.0 0.0 0.0 18.0 
204.0010652694627 0.0 0.0 21.0 0.0 0.0 18.0 
205.00057188667694 0.0 0.0 21.0 0.0 0.0 18.0 
206.00047277434064 0.0 0.0 21.0 0.0 0.0 17.0 
207.00404164102935 0.0 0.0 21.0 0.0 0.0 16.0 
208.00180686867898 0.0 0.0 20.0 0.0 0.0 16.0 
209.00102920847718 0.0 0.0 20.0 0.0 0.0 16.0 
210.00516684262828 0.0 0.0 20.0 0.0 0.0 16.0 
211.00576580946347 0.0 0.0 20.0 0.0 0.0 16.0 
212.00022350504892 0.0 0.0 19.0 0.0 0.0 16.0 
213.00317863930056 0.0 0.0 19.0 0.0 0.0 18.0 
214.00147170023226 0.015526919748061373 6.058994090078443 19.0 0.0 0.0 18.0 
215.0006477158844 0.02237449916514706 6.058994090078443 21.0 0.0 0.0 18.0 
216.00054173604536 0.014784733735812435 2.7598902496078495 21.0 0.0 0.0 18.0 
217.00196892911268 0.012703601085777925 2.7598902496078495 21.0 0.0 0.0 19.0 
218.00000069629002 0.009580066689955301 4.1261338860426235 20.0 0.0 0.0 20.0 
219.00232584958627 0.006467474652070442 2.0139187176039854 19.0 0.0 0.0 20.0 
220.00033757840572 0.044635392652172874 9.413027349106443 19.0 0.0 0.0 20.0 
221.0031859206857 0.0 0.0 23.0 0.0 0.0 20.0 
222.00108190795763 0.016974862917524737 8.487431458762359 22.0 0.0 0.0 20.0 
223.00035092275937 0.0 0.0 21.0 0.0 0.0 20.0 
224.00347256373516 0.0 0.0 21.0 0.0 0.0 20.0 
225.00102675165368 0.0 0.0 21.0 0.0 0.0 20.0 
226.0018419730318 0.0 0.0 21.0 0.0 0.0 20.0 
227.0011045376885 0.018481244850589957 9.240622425294958 20.0 0.0 0.0 19.0 
228.00256395338977 0.018481244850589957 9.240622425294958 20.0 0.0 0.0 19.0 
229.00005573840986 0.039353844865061036 16.451838095404042 20.0 0.0 0.0 18.0 
230.0032974241946 0.04227615188949346 16.451838095404042 20.0 0.0 0.0 18.0 
231.00200159725637 0.027449326333504467 9.038425317409462 19.0 0.0 0.0 18.0 
232.00146733943393 0.02099915765925114 9.038425317409462 19.0 0.0 0.0 18.0 
233.0037531175202 0.08919623884817277 34.098540594460985 19.0 0.0 0.0 18.0 
234.00347256373516 0.05168824344370253 9.038425317409462 19.0 0.0 0.0 18.0 
235.0026369695613 0.13839756624251207 40.501584147068655 19.0 0.0 0.0 18.0 
236.0003954768883 0.10998419604608417 33.08555107647359 18.0 0.0 0.0 18.0 
237.00100269755572 0.11279257423823315 33.08555107647359 18.0 0.0 0.0 21.0 
238.00254673156763 0.12507354548652855 33.08555107647359 18.0 0.0 0.0 20.0 
239.00025222328665 0.19494528248765283 43.38295731034222 18.0 0.0 0.0 20.0 
240.00272922637026 0.10973756629581106 34.12708869617009 18.0 0.0 0.0 20.0 
241.00007296085593 0.11418939350331252 35.98534609833635 18.0 0.0 0.0 20.0 
242.00160398707538 0.1384739076945575 35.98534609833635 17.0 0.0 0.0 21.0 
243.00019788680427 0.042218701306640204 15.457757411522039 17.0 0.007393712718747403 3.6968563593736974 20.0 
244.00099156331777 0.06030152468948896 15.457757411522039 17.0 0.007393712718747403 3.6968563593736974 20.0 
245.00053385409984 0.059899786872942604 15.967559072466315 17.0 0.007393712718747403 3.6968563593736974 20.0 
246.00002085999031 0.04665065544311004 15.967559072466315 17.0 0.02172667883888522 10.863339419442582 20.0 
247.0030266987539 0.08200785680327066 23.613204966642712 17.0 0.0 0.0 19.0 
248.0002437218864 0.10424318633193723 20.57107605212755 17.0 0.0 0.0 19.0 
249.00168651541608 0.0946724615765293 23.613204966642712 17.0 0.0 0.0 21.0 
250.00130997774426 0.08665005236374985 11.143468282734887 17.0 0.0 0.0 21.0 
251.00160875401232 0.03964563399496316 9.209843076823915 17.0 0.0 0.0 19.0 
252.00084878319117 0.19191409086491082 18.342344887443716 17.0 0.0 0.0 19.0 
253.0037531175202 0.2198719394154579 18.342344887443716 17.0 0.0 0.0 18.0 
254.00347256373516 0.3341780179879406 25.363034808211694 17.0 0.0 0.0 18.0 
255.00050845393116 0.3410110867416676 25.363034808211694 17.0 0.0 0.0 17.0 
256.0006830756508 0.35138728346621184 22.916333097829153 17.0 0.0 0.0 17.0 
257.0010473664012 0.3727235514757903 26.182753362616864 17.0 0.0 0.0 17.0 
258.0019323044106 0.3949796265342677 26.72084836122059 17.0 0.0 0.0 18.0 
259.0004320336059 0.28963249466211716 17.211419485389456 17.0 0.0 0.0 19.0 
260.00005933545106 0.42805673778196146 31.32830470962645 17.0 0.0 0.0 18.0 
261.0001287385375 0.5123316356104392 31.32830470962645 17.0 0.0 0.0 18.0 
262.00035514306654 0.5415590270029992 29.371327315496245 16.0 0.0 0.0 18.0 
263.00139603488554 0.6332873719684899 39.34879563533934 17.0 0.0 0.0 18.0 
264.00219660104085 0.9098530097034084 35.57418027208436 17.0 0.0 0.0 18.0 
265.0012305676863 1.500555170643274 63.06363100023606 17.0 0.0 0.0 18.0 
266.00126383808504 1.233900481200426 63.06363100023606 17.0 0.0 0.0 18.0 
267.00000312199364 1.3563442448272784 55.68550556748582 17.0 0.0 0.0 17.0 
268.0037531175202 1.4587243926985847 55.68550556748582 17.0 0.0 0.0 17.0 
269.00068263586934 1.2568545224488894 40.55651416954353 18.0 0.0 0.0 18.0 
270.0026919899899 1.5549193250208162 63.08314527706119 18.0 0.0 0.0 18.0 
271.00007877751545 1.5207219641706105 47.03109006206188 18.0 0.0 0.0 18.0 
272.0029032250187 1.7995802877482485 55.759356960900845 18.0 0.0 0.0 19.0 
273.0037531175202 1.4395607943620488 55.759356960900845 18.0 0.0 0.0 19.0 
274.00189922743743 1.4519814691313853 55.759356960900845 18.0 0.002648312306832749 1.324156153416368 19.0 
275.00215557511774 1.534256490339905 63.10360175274923 18.0 0.0 0.0 20.0 
276.00092081274016 1.4467327650915045 63.10360175274923 18.0 0.0 0.0 20.0 
277.003691551979 1.513767129989452 55.80920685646109 18.0 0.0 0.0 20.0 
278.002744906632 1.3565713134475426 55.80920685646109 18.0 0.002332882173151972 1.1664410865759862 20.0 
279.00347256373516 1.5078931008280692 59.4883139287665 18.0 0.002332882173151972 1.1664410865759862 20.0 
280.00314750960337 1.1725538815092285 48.9127684893418 18.0 0.0 0.0 21.0 
281.0004405163271 0.9694807429283534 46.171503099110765 18.0 0.0 0.0 21.0 
282.0000446925857 0.4027346310336556 26.704626524716474 18.0 0.0 0.0 21.0 
283.0005637932079 0.3964743071936098 26.704626524716474 18.0 0.0 0.0 21.0 
284.00076253284476 0.2309132040538787 22.102763593558564 18.0 0.0 0.0 21.0 
285.0013374073325 0.17009046588234356 22.102763593558564 18.0 0.0 0.0 21.0 
286.00015459478846 0.12667237266851078 11.94096561245945 18.0 0.0 0.0 21.0 
287.0004879765438 0.13389711440261115 11.94096561245945 18.0 0.0 0.0 21.0 
288.00339584117114 0.11340548542963014 11.94096561245945 18.0 0.0 0.0 20.0 
289.00077338706734 0.057847073696845795 11.94096561245945 18.0 0.0 0.0 20.0 
290.00149206404046 0.00861480848718096 3.4876264014908713 18.0 0.0 0.0 20.0 
291.00167815543415 0.007556719558789335 3.4876264014908713 18.0 0.0 0.0 20.0 
292.00521629705224 0.011935334172856544 3.4876264014908713 18.0 0.0 0.0 20.0 
293.000330003158 0.01159537751177435 3.4876264014908713 18.0 0.0 0.0 20.0 
294.0026356872876 0.0 0.0 19.0 0.0 0.0 20.0 
295.00010839771124 0.011778856277610439 5.889428138805187 20.0 0.0 0.0 19.0 
296.0025192564071 0.03830312019626452 19.15156009813225 20.0 0.0 0.0 19.0 
297.00083049254437 0.03147765983993013 15.738829919964957 20.0 0.0 0.0 19.0 
298.00191437425434 0.03147765983993013 15.738829919964957 20.0 0.0 0.0 20.0 
299.0001081667616 0.05865519278294172 22.915379304147223 20.0 0.0 0.0 20.0 
300.0050891306406 0.05865519278294172 22.915379304147223 20.0 0.0 0.0 20.0 
301.00123376442 0.05865519278294172 22.915379304147223 20.0 0.0 0.0 20.0 
302.00020133467063 0.05216729454637852 19.67143018586546 20.0 0.0 0.0 20.0 
303.00037557480135 0.05216729454637852 19.67143018586546 20.0 0.0 0.0 19.0 
304.0004117319065 0.09370985793992492 19.67143018586546 20.0 0.0 0.0 18.0 
305.00499168905026 0.10802065431113211 26.826828371468963 20.0 0.0 0.0 18.0 
306.00152365834765 0.10802065431113211 26.826828371468963 20.0 0.0 0.0 18.0 
307.001003116091 0.057393645634561175 15.020070452824683 21.0 0.0 0.0 18.0 
308.0037531175202 0.08403296924925226 22.785004402100583 20.0 0.0 0.0 18.0 
309.00322196242666 0.09461898866389526 24.524489929846993 20.0 0.0 0.0 18.0 
310.00482227115384 0.09461898866389526 24.524489929846993 21.0 0.0 0.0 18.0 
311.00008442186703 0.09461898866389526 24.524489929846993 21.0 0.0 0.0 18.0 
312.00128651715124 0.09461898866389526 24.524489929846993 19.0 0.0 0.0 18.0 
313.0005692304716 0.09461898866389526 24.524489929846993 22.0 0.0 0.0 19.0 
314.0010889290733 0.14053960863909998 35.666103593402454 20.0 0.0 0.0 20.0 
315.00015060967365 0.14053960863909998 35.666103593402454 20.0 0.0 0.0 20.0 
316.0010978187132 0.14053960863909998 35.666103593402454 20.0 0.0 0.0 20.0 
317.0007685001574 0.13845537963293497 35.666103593402454 20.0 0.0 0.0 20.0 
318.0032029635818 0.21658283601856543 35.666103593402454 20.0 0.0 0.0 20.0 
319.00071076182036 0.17166131419812644 47.57986478918059 20.0 0.0 0.0 20.0 
320.0030462750964 0.23909655547877273 47.57986478918059 20.0 0.0 0.0 19.0 
321.0029732660956 0.23909655547877273 47.57986478918059 20.0 0.0 0.0 19.0 
322.0048633363258 0.3473081689872369 47.57986478918059 20.0 0.0 0.0 20.0 
323.0012066816596 0.37122458090589266 47.57986478918059 20.0 0.0 0.0 19.0 
324.00347256373516 0.4244080847950324 59.60800607464063 20.0 0.0 0.0 19.0 
325.001947181705 0.3544374841260038 59.60800607464063 20.0 0.0 0.0 19.0 
326.00227096151843 0.4395816859574861 59.60800607464063 20.0 0.0 0.0 19.0 
327.0036877449321 0.4230959115558991 59.60800607464063 20.0 0.0 0.0 19.0 
328.0001441368138 0.4265258211286252 59.60800607464063 20.0 0.0 0.0 19.0 
329.00030822636467 0.5071557952645424 71.97260288964532 20.0 0.005434059648356571 2.7170298241782973 18.0 
330.0029787270076 0.390266324165304 40.89690155437893 20.0 0.0201595320366504 10.07976601832516 18.0 
331.00038269540073 0.33896341469790425 40.89690155437893 20.0 0.025128906341590065 10.07976601832516 18.0 
332.00297089241633 0.1431539474758381 28.460161382806092 20.0 0.0201595320366504 10.07976601832516 18.0 
333.0001177719808 0.14694354329205495 28.460161382806092 20.0 0.0201595320366504 10.07976601832516 18.0 
334.0002530147998 0.17055948474578986 28.371966096104188 21.0 0.005257067179202316 2.6285335896011475 19.0 
335.00203859194056 0.17695343698479304 28.371966096104188 21.0 0.04500834556138918 10.061013769928252 19.0 
336.009683301537 0.1878402878055721 28.371966096104188 21.0 0.06151227809513952 10.061013769928252 19.0 
337.0004721757805 0.18954647752345508 28.371966096104188 21.0 0.062456547169244675 10.061013769928252 19.0 
338.0037531175202 0.24128358481327578 32.86059945259274 21.0 0.0609663662159237 10.061013769928252 19.0 
339.00018379459397 0.25701246133585637 32.86059945259274 21.0 0.045999783668750606 7.944758942274774 19.0 
340.0000973872602 0.2395307557295063 32.86059945259274 20.0 0.07566655736871057 12.70194845192546 18.0 
341.00536911593895 0.2493841934342798 32.86059945259274 20.0 0.10030084136744719 12.70194845192546 18.0 
342.00521629705224 0.2517774410589035 32.86059945259274 20.0 0.09078147771497912 20.145881684143063 18.0 
343.0015253719688 0.2968264202005653 39.678548776857525 21.0 0.06439383235370144 20.145881684143063 18.0 
344.00103906325484 0.3500176075759019 41.70171869472546 21.0 0.08083874371724449 20.145881684143063 17.0 
345.00147802567835 0.359888309401073 41.70171869472546 21.0 0.1552297340998962 27.583403188989138 17.0 
346.00113272993707 0.34525359822531404 41.70171869472546 21.0 0.17980444662883505 27.583403188989138 17.0 
347.00248593922953 0.35082630227890543 41.70171869472546 20.0 0.19469068718975427 35.026523469448904 17.0 
348.0005687404507 0.4108485850605702 41.70171869472546 19.0 0.2047419726850829 35.026523469448904 17.0 
349.00020784489413 0.4393379912120995 48.62137694267628 17.0 0.18467585950037535 35.026523469448904 17.0 
350.00080663506145 0.4247363263002873 48.62137694267628 17.0 0.20468250704938987 42.465150985439294 17.0 
351.00046176724607 0.43511556421648523 48.62137694267628 16.0 0.3102247049517801 21.21752877669499 17.0 
352.0001954735329 0.2927949730230028 48.62137694267628 16.0 0.40712585682223845 23.57581623931921 17.0 
353.001903616276 0.5170357448258033 54.50992182141076 16.0 0.48583801632910806 23.031026032917424 16.0 
354.0001879941959 0.5805698509969016 54.50992182141076 16.0 0.5388956132257141 25.784223180060053 18.0 
355.0002393019562 0.46241510232842314 54.50992182141076 17.0 0.5513454201324376 29.403810115634997 19.0 
356.0031423049079 0.45521234642335584 54.50992182141076 17.0 0.6776080924077352 30.483938334265275 20.0 
357.0026640374957 0.38084788723945756 54.50992182141076 16.0 0.6683180247112221 29.403810115634997 20.0 
358.0037531175202 0.545020177313832 59.03592007155737 16.0 0.6244478026922234 32.87229082182188 19.0 
359.0004822802029 0.34401645654735835 61.34755833169453 17.0 0.6244478026922234 32.87229082182188 19.0 
360.0047873911024 0.4383396828649195 61.34755833169453 17.0 0.6443375245958733 34.27525257607485 19.0 
361.00260228518636 0.17834706440983988 43.95567427915336 18.0 0.741167395889654 34.22803691077493 19.0 
362.00521629705224 0.2597148521384422 61.34755833169453 18.0 0.7514391072002169 34.22803691077493 19.0 
363.0034102745925 0.41179678259538355 61.34755833169453 18.0 0.7520250247850331 34.22803691077493 19.0 
364.00347256373516 0.27925416768410216 27.869633744687633 18.0 0.7519204013110287 38.16519864750464 19.0 
365.0004121054821 0.25648683736348704 27.869633744687633 18.0 0.8594290485866004 38.5401645258128 19.0 
366.0009116344216 0.3864272013131222 31.92398572420055 19.0 0.9849270017376366 38.48949015503311 18.0 
367.00223697126387 0.2870803046040011 31.92398572420055 19.0 1.0846624017480384 38.48949015503311 18.0 
368.00108959392173 0.41194436832772763 38.692159287300996 19.0 1.1280969044833415 41.220824976547306 18.0 
369.0004218670362 0.49425985167293895 38.692159287300996 20.0 1.1378991554521005 41.220824976547306 18.0 
370.000376238801 0.43766944175228284 38.692159287300996 19.0 0.8983134342754417 43.16573845065926 18.0 
371.00063692478386 0.4296849612180418 33.247754706310275 19.0 0.9327316458353407 45.066263638079306 18.0 
372.0039521505133 0.4978505548380751 39.453421053146116 19.0 0.9939112798988945 45.066263638079306 18.0 
373.0037531175202 0.46392600725178074 39.453421053146116 20.0 0.9784682549794412 50.58083876478017 19.0 
374.0021543262135 0.5776695654564213 46.32399664512616 21.0 0.9487578523438486 50.58083876478017 20.0 
375.000558821386 0.5998604535469281 46.32399664512616 20.0 0.7573112758807148 50.58083876478017 20.0 
376.0005829998879 0.7923584182136147 52.77044362010773 21.0 0.31979960306958577 35.397152046713444 21.0 
377.0000674311535 0.7794019508766986 52.77044362010773 20.0 0.3134741576806634 32.795434138004254 20.0 
378.00037811168625 0.8580819303978067 52.77044362010773 19.0 0.1825000240738406 32.234429352252505 19.0 
379.00035024856163 0.9751825059897408 59.7297127559479 18.0 0.0 0.0 22.0 
380.00058180624364 0.9702383002625177 64.75112864434885 18.0 0.0 0.0 22.0 
381.00018733755866 0.9596413705205702 64.75112864434885 18.0 0.0 0.0 22.0 
382.00281963220186 0.9924249679219489 64.75112864434885 18.0 0.0 0.0 22.0 
383.0037531175202 1.0596348936173199 71.82934537473233 18.0 0.0 0.0 22.0 
384.0031681118092 1.1931705992440096 71.82934537473233 18.0 0.0 0.0 21.0 
385.0041445472624 1.1923852085091027 71.82934537473233 18.0 0.0 0.0 21.0 
386.0010672551582 1.1885147587534677 77.73494895479718 17.0 0.0 0.0 20.0 
387.0008956041038 1.2196776299331418 77.73494895479718 17.0 0.0 0.0 20.0 
388.00222098092144 1.3091657050755958 77.73494895479718 17.0 0.0 0.0 20.0 
389.00302212937663 1.499997090133644 84.71269337576871 17.0 0.0 0.0 19.0 
390.0015840398435 1.4924276973285306 84.71269337576871 17.0 0.0 0.0 19.0 
391.0042286859279 1.6250150962170644 90.73125129612242 17.0 0.001347290603747538 0.673645301873762 19.0 
392.0000147906803 1.4747864712236123 90.73125129612242 17.0 0.001347290603747538 0.673645301873762 19.0 
393.00372400030994 1.9809662221793058 90.73125129612242 17.0 0.001347290603747538 0.673645301873762 19.0 
394.00035784758165 2.2216879753603322 97.7620983348175 18.0 0.001347290603747538 0.673645301873762 20.0 
395.0011648352932 2.0559473822313628 97.7620983348175 18.0 0.005739572987958442 1.434893246989617 20.0 
396.00179833297733 2.214528953527014 103.98189408882376 18.0 0.035470836600586544 8.867709150146624 20.0 
397.00386272992455 2.056491867134623 92.97223395904058 18.0 0.035470836600586544 8.867709150146624 20.0 
398.00267339161485 2.224162222366149 97.27991153467161 18.0 0.035470836600586544 8.867709150146624 19.0 
399.0003344817205 2.286938695649873 97.27991153467161 18.0 0.035470836600586544 8.867709150146624 19.0 
400.01051127067046 2.284854437659997 97.80071665078287 18.0 0.028776044730163743 14.38802236508181 19.0 
401.0020439720301 2.2890497430011156 105.16098336479314 18.0 0.0 0.0 18.0 
402.00315902413166 2.0569232731218903 97.80071665078287 18.0 0.0 0.0 18.0 
403.0025228168819 1.943402348359191 68.68719105061552 18.0 0.0 0.0 18.0 
404.0013604594991 2.1299219486181773 71.96192556788804 18.0 0.0 0.0 18.0 
405.00028278030425 2.1134541588774796 71.96192556788804 18.0 0.0 0.0 18.0 
406.0030540693078 2.215766928226551 71.96192556788804 18.0 0.0 0.0 18.0 
407.00521629705224 2.247350691301765 77.6561942325186 18.0 0.0 0.0 18.0 
408.00055195908146 2.2847535854871484 81.03057933020148 18.0 0.0 0.0 18.0 
409.0017500119998 2.6907282757146413 81.03057933020148 18.0 0.0 0.0 17.0 
410.00398297977836 2.8275085263548054 81.03057933020148 18.0 0.0 0.0 17.0 
411.0006240319729 2.821121449051599 81.03057933020148 18.0 0.0 0.0 17.0 
412.00066552411613 2.893788900891889 86.63705178936453 18.0 0.0 0.0 17.0 
413.0006581771102 2.9717648424424556 86.63705178936453 18.0 0.0 0.0 17.0 
414.000488847641 3.206194925325904 89.99333170793517 18.0 0.0 0.0 17.0 
415.00262625852775 3.398472800632226 89.99333170793517 18.0 0.0 0.0 17.0 
416.00069904648086 3.3604235719454745 89.99333170793517 18.0 0.0 0.0 17.0 
417.0044132595654 3.2975245146527654 89.99333170793517 18.0 0.0 0.0 17.0 
418.0004577237418 3.339376034072298 93.21034487772323 18.0 0.0 0.0 17.0 
419.0013588374423 3.646499479246194 100.44239176773266 18.0 0.0 0.0 17.0 
420.0013061362157 3.243375860930526 84.52873404506488 18.0 0.0 0.0 17.0 
421.00083726778735 3.2892643237699257 91.97496035842335 18.0 0.0 0.0 17.0 
422.002168260361 3.363453649721386 91.97496035842335 17.0 0.0 0.0 17.0 
423.00276960855155 3.241774628988077 91.97496035842335 17.0 0.0 0.0 15.0 
424.00206699743285 3.2571818800245285 89.43979990566396 18.0 0.0 0.0 15.0 
425.00004012109576 2.1555885739854683 89.43979990566396 18.0 0.0 0.0 15.0 
426.00077147738637 1.7099128171496882 83.23114522846492 18.0 0.0 0.0 15.0 
427.00521629705224 1.849105068731189 84.46029167168211 17.0 0.0 0.0 15.0 
428.0010848427704 1.9138571758591758 90.25673330786748 18.0 0.0 0.0 16.0 
429.00324721306765 2.056169099510834 90.25673330786748 18.0 0.0 0.0 16.0 
430.00015183829277 2.0548082300916626 90.25673330786748 18.0 0.0 0.0 16.0 
431.0003942433266 1.88797222478336 93.73086894385744 18.0 0.0 0.0 16.0 
432.00288765360386 2.033542104563612 94.10797042021403 17.0 0.0 0.0 16.0 
433.00036046894974 1.6361203492266236 83.25434340588981 17.0 0.0 0.0 16.0 
434.0003801190213 2.2143870502757963 100.62616013430602 17.0 0.0 0.0 16.0 
435.00003438954076 1.8697086862573578 83.25434340588981 17.0 0.0 0.0 16.0 
436.0004350014619 1.8772539913368502 92.17927787302631 17.0 0.0 0.0 16.0 
437.00142698770395 1.832315189068723 88.24399527477351 17.0 0.0 0.0 15.0 
438.0035885223582 1.7681445424761786 83.82569491078283 17.0 0.0 0.0 15.0 
439.00285933129834 2.1740520311899703 93.83555667974144 17.0 0.0 0.0 15.0 
440.00424461127676 1.9916391173020576 95.0303965389902 17.0 0.0 0.0 15.0 
441.0043448422326 1.6649542818526746 74.6947494735121 17.0 0.0 0.0 15.0 
442.00083380792626 1.696036916593262 74.6947494735121 17.0 0.0 0.0 15.0 
443.0037531175202 1.7813198579870102 79.2409212481781 17.0 0.0 0.0 15.0 
444.0000609392899 1.8292373902688914 81.71903432228578 17.0 0.0 0.0 15.0 
445.0003647753637 1.9988216229521725 85.26928841056974 17.0 0.0 0.0 15.0 
446.0037500204227 1.817129543332945 76.50730369433234 17.0 0.0 0.0 15.0 
447.00036570648047 1.8735394098049831 76.50730369433234 17.0 0.0 0.0 15.0 
448.0012237228546 1.7778787474949556 83.54517425685935 17.0 0.0 0.0 15.0 
449.00347256373516 1.694072613834524 81.13792737615415 17.0 0.0 0.0 15.0 
450.00093144488 1.6167817640118594 78.55865586342992 17.0 0.0 0.0 15.0 
451.0000994754441 1.7262865000673122 78.55865586342992 17.0 0.0 0.0 15.0 
452.0007035680657 1.7129724009940543 78.55865586342992 17.0 0.0 0.0 15.0 
453.0021082547685 1.782273272773035 82.40120988356352 17.0 0.0 0.0 15.0 
454.0030392081981 1.345918636916593 79.01961360392124 17.0 0.0 0.0 15.0 
455.0010491466812 1.3965057029157606 79.01961360392124 18.0 0.0 0.0 16.0 
456.0007399965325 1.1323242721740883 78.2643885952732 18.0 0.0 0.0 16.0 
457.00141181512043 1.2268843436227341 81.09484293346463 18.0 0.0 0.0 16.0 
458.00037008707557 1.1988630178448056 88.2603560968891 18.0 0.0 0.0 16.0 
459.0004611783576 0.8922902661857999 81.93605136720538 18.0 0.0 0.0 16.0 
460.0001500763633 1.0072407706998683 83.87796522329637 18.0 0.0 0.0 16.0 
461.0002490156095 0.49107968521351597 83.87796522329637 18.0 0.0 0.0 16.0 
462.0026225560781 0.409281084512949 81.93605136720538 18.0 0.0 0.0 16.0 
463.00032771021597 0.6362197300483956 83.87796522329637 18.0 0.0 0.0 16.0 
464.0010553556085 0.510979277341679 87.38929880213914 18.0 0.0 0.0 16.0 
465.00160710442117 0.505815003885987 87.38929880213914 17.0 0.0 0.0 17.0 
466.00312847637906 0.3292126925751288 81.75636263263664 17.0 0.0 0.0 17.0 
467.0001584867727 0.3272409660708496 81.8641204027877 17.0 0.0 0.0 17.0 
468.00195982733743 0.5063716456954739 84.94482728213126 17.0 0.0 0.0 16.0 
469.00347256373516 0.19426799093784247 84.94482728213126 17.0 0.0 0.0 16.0 
470.00066271024644 0.04418017120541024 13.750865793678031 17.0 0.0 0.0 16.0 
471.00086969575415 0.04418017120541024 13.750865793678031 17.0 0.0 0.0 18.0 
472.0021846432092 0.04418017120541024 13.750865793678031 17.0 0.0 0.0 17.0 
473.0033657870598 0.0 0.0 16.0 0.0 0.0 17.0 
474.00347256373516 0.0 0.0 16.0 0.0 0.0 17.0 
475.0041453736909 0.08277247529873233 23.94311289391399 16.0 0.006139317278470832 3.0696586392353993 17.0 
476.0029460516396 0.08277247529873233 23.94311289391399 18.0 0.006139317278470832 3.0696586392353993 17.0 
477.00158505196555 0.0921181541963197 23.94311289391399 17.0 0.006139317278470832 3.0696586392353993 17.0 
478.0017932036312 0.05723190468541504 23.94311289391399 18.0 0.0 0.0 16.0 
479.0028751885934 0.12514244575125374 26.803403177369034 17.0 0.0 0.0 15.0 
480.00241625774976 0.09161382107468938 32.3053305547983 16.0 0.0 0.0 15.0 
481.00141225290463 0.027003159965092578 11.82470680434389 17.0 0.0 0.0 15.0 
482.0036045880207 0.036375207677041776 16.510730660318472 17.0 0.0 0.0 15.0 
483.00231706781744 0.04587311256714099 16.510730660318472 17.0 0.0 0.0 15.0 
484.00286766401484 0.0693468478681292 23.560603240574636 17.0 1.4403439755073864E-4 0.07201719877537016 15.0 
485.0015094348194 0.10350383929277751 23.560603240574636 18.0 0.007823550280661916 2.010283073129017 15.0 
486.0013750643391 0.11722878861347208 30.423077900921896 18.0 0.004315518978799328 2.010283073129017 15.0 
487.00103513278066 0.13096236928678961 30.423077900921896 18.0 0.005622024509661067 2.010283073129017 15.0 
488.001329919881 0.15937810073054776 37.55561642528255 18.0 0.0012052615903344413 0.587136883930981 15.0 
489.00132078512394 0.21116415429772672 37.55561642528255 18.0 2.061564147224432E-4 0.10307820736122153 16.0 
490.00110350479264 0.22102168243237383 37.55561642528255 18.0 0.0 0.0 15.0 
491.00154330360937 0.23682479841956974 45.04938086697953 18.0 0.0 0.0 15.0 
492.00137070369493 0.2521964866783907 45.04938086697953 18.0 0.0 0.0 15.0 
493.00043864208175 0.2664008851349879 45.04938086697953 18.0 0.0 0.0 15.0 
494.0004287340759 0.350865225488392 48.27808544901967 19.0 0.0 0.0 15.0 
495.0016257813593 0.26564037592384265 32.51037318577423 19.0 0.0 0.0 15.0 
496.00743989794677 0.27818826496025784 48.27808544901967 19.0 0.0 0.0 17.0 
497.00129720765875 0.07380696988318328 7.98553142291081 19.0 0.0 0.0 16.0 
498.0037531175202 0.067026184038102 7.98553142291081 18.0 0.0 0.0 16.0 
499.00170130096603 0.13474565009705836 11.899881362975293 18.0 0.0 0.0 16.0 
500.0013793611745 0.1702518260436944 16.732236848831462 18.0 0.0 0.0 17.0 
501.00089770381135 0.18017567091090178 18.471139992617196 18.0 0.0 0.0 17.0 
502.0009511544888 0.21298963335868357 18.471139992617196 18.0 0.0 0.0 17.0 
503.00069904540396 0.23279757119803313 18.471139992617196 18.0 0.0 0.0 17.0 
504.0010147405431 0.3168281560589207 20.43097799927736 17.0 0.0 0.0 17.0 
505.0027069239469 0.3241401377679637 22.065552989298567 17.0 0.0 0.0 16.0 
506.0007273697121 0.3359773356277391 26.945185946390353 18.0 0.0 0.0 16.0 
507.00164007228426 0.1875254984146486 26.945185946390353 18.0 0.0 0.0 16.0 
508.0018544164451 0.151221494203391 26.945185946390353 18.0 0.0 0.0 16.0 
509.00024621789544 0.15950949455512642 26.945185946390353 18.0 0.0 0.0 16.0 
510.0013403539724 0.10185404740190422 24.368550383213858 18.0 0.0 0.0 16.0 
511.0004573938469 0.03965317647047047 16.860461227052554 17.0 0.0 0.0 16.0 
512.0020207870891 0.01565165944874516 6.731885082502885 17.0 0.0 0.0 16.0 
513.0002301880236 0.005932254016365571 1.8721823663130408 17.0 0.0 0.0 16.0 
514.0009481985951 0.0 0.0 17.0 0.0 0.0 16.0 
515.000219012592 0.0 0.0 17.0 0.0 0.0 16.0 
516.0015789870862 0.0 0.0 17.0 0.0 0.0 17.0 
517.0003393715034 0.01339342771988395 6.696713859942008 17.0 0.0 0.0 17.0 
518.0005857159348 0.0 0.0 17.0 0.0 0.0 17.0 
519.0008116247267 0.01339342771988395 6.696713859942008 17.0 0.0 0.0 17.0 
520.0006987336587 0.01345963841658146 6.7298192082907065 17.0 0.001418613688841727 0.7093068444208654 17.0 
521.0004979032153 0.01345963841658146 6.7298192082907065 17.0 0.001418613688841727 0.7093068444208654 17.0 
522.0005482456805 0.035667794948208154 6.7298192082907065 17.0 0.001418613688841727 0.7093068444208654 17.0 
523.0005415210627 0.035667794948208154 6.7298192082907065 18.0 0.001418613688841727 0.7093068444208654 17.0 
524.0034725637352 0.07942229283798166 14.240033088225545 18.0 0.001418613688841727 0.7093068444208654 17.0 
525.0035424333214 0.06435261790861865 13.684297590578751 19.0 0.031133577023220272 9.292160418766798 18.0 
526.0066006360685 0.06435261790861865 13.684297590578751 18.0 0.0 0.0 19.0 
527.0030216068237 0.09359701157664575 21.15920231212678 18.0 0.0 0.0 19.0 
528.0022816008786 0.09359701157664575 21.15920231212678 18.0 0.0 0.0 19.0 
529.000186820318 0.12104886520545854 25.620690516520852 18.0 0.0 0.0 19.0 
530.0004539723776 0.12007759809712212 28.19880096138229 18.0 0.011513718344089834 5.756859172044926 19.0 
531.0013600008729 0.12007759809712212 28.19880096138229 18.0 0.011513718344089834 5.756859172044926 19.0 
532.0052162970522 0.15123626979182608 36.54031091652149 18.0 0.0 0.0 20.0 
533.0009596926767 0.14950376143671706 35.674056738966925 18.0 0.0 0.0 20.0 
534.0034725637352 0.21471345995955723 37.47881586837437 18.0 0.0 0.0 20.0 
535.001843703377 0.21056675608156944 37.17619632778195 17.0 0.0 0.0 20.0 
536.0012154763408 0.21191860789103084 37.47881586837437 17.0 0.0 0.0 20.0 
537.0016125098455 0.06260858349871797 30.800090132012087 17.0 0.0 0.0 20.0 
538.0016256611505 0.13696097615428124 37.17619632778195 17.0 0.0 0.0 19.0 
539.0034725637352 0.12423333815384752 37.51242870038871 17.0 0.0 0.0 19.0 
540.0030988067871 0.10737141621169634 29.96748734440183 17.0 0.0 0.0 18.0 
541.0018055004239 0.1982000396386536 45.414311713478384 17.0 0.0 0.0 18.0 
542.0005858035007 0.10737141621169634 29.96748734440183 18.0 0.0 0.0 19.0 
543.0037531175202 0.10737141621169634 29.96748734440183 18.0 0.0 0.0 19.0 
544.0003211857348 0.09373610254785904 30.552766656078376 18.0 0.0 0.0 19.0 
545.0002018533569 0.09214682750188775 23.09155451861963 18.0 0.0 0.0 19.0 
546.0038548011123 0.09334173731687441 23.09155451861963 18.0 0.0 0.0 19.0 
547.0004604857844 0.09334173731687441 23.09155451861963 18.0 0.0 0.0 19.0 
548.0021940389393 0.09320196549066061 23.09155451861963 18.0 0.0 0.0 19.0 
549.0008365162281 0.2010495745219417 49.47952821338512 18.0 0.0 0.0 19.0 
550.0013089552756 0.19163989046428245 49.47952821338512 18.0 0.0 0.0 19.0 
551.0012055489576 0.19560696620782736 49.47952821338512 18.0 0.0 0.0 19.0 
552.0031158521173 0.19560696620782736 49.47952821338512 18.0 0.0 0.0 19.0 
553.0022271294712 0.21044568632279498 49.47952821338512 18.0 0.0 0.0 18.0 
554.001105691976 0.2157681343206656 49.47952821338512 18.0 0.0 0.0 18.0 
555.0006564931294 0.2144308342990909 43.20243482547792 18.0 0.0 0.0 18.0 
556.0024729838007 0.23590059898850255 43.20243482547792 17.0 0.0 0.0 18.0 
557.0033244962126 0.23590059898850255 43.20243482547792 17.0 0.0 0.0 18.0 
558.0006144930497 0.2529118227205764 43.20243482547792 17.0 0.0 0.0 18.0 
559.0008225532497 0.2432517071461205 37.05622402518878 17.0 0.0 0.0 18.0 
560.0007382080712 0.2652011606552101 37.05622402518878 17.0 0.0014557712245663783 0.7278856122831883 18.0 
561.0007322747152 0.29492122313608055 37.05622402518878 17.0 0.007183807693209658 2.31833058315641 18.0 
562.0023591587662 0.29492122313608055 37.05622402518878 17.0 0.007183807693209658 2.31833058315641 19.0 
563.0001230709855 0.2388309092639139 37.05622402518878 18.0 0.007183807693209658 2.31833058315641 20.0 
564.0000559282711 0.2611574737396983 40.74466697988109 18.0 0.007183807693209658 2.31833058315641 19.0 
565.0008208750006 0.15815350519343102 33.934818796107635 18.0 0.03220706224028246 9.825994299525547 19.0 
566.0031663100999 0.16327881908905648 33.934818796107635 18.0 0.01255507364123145 4.923414164108607 19.0 
567.0001440162123 0.16327881908905648 33.934818796107635 20.0 0.0027082453130141794 0.7680527937422426 19.0 
568.0035857480927 0.19127990874235434 33.934818796107635 19.0 0.0027082453130141794 0.7680527937422426 19.0 
569.0009212773633 0.2138779767406173 33.934818796107635 19.0 0.0027082453130141794 0.7680527937422426 18.0 
570.0024074523855 0.24159122372626574 38.02754388184911 19.0 0.0011721397255296834 0.5860698627648446 18.0 
571.0004107452711 0.18517356034288113 25.741635169131598 19.0 0.0027674022929949143 0.749344082487454 18.0 
572.0052162970522 0.13100895004910953 25.741635169131598 19.0 0.02309618716381171 10.164392435408388 19.0 
573.0006614139144 0.18025454508480146 28.342870389135612 19.0 0.0027674022929949143 0.749344082487454 19.0 
574.0015385484229 0.17971332704410373 28.342870389135612 19.0 0.0027674022929949143 0.749344082487454 19.0 
575.0014747106717 0.17053037291763126 29.568101918681407 21.0 0.0 0.0 20.0 
576.0045654009523 0.17053037291763126 29.568101918681407 20.0 0.004759968850335594 2.3799844251678053 20.0 
577.0005433496549 0.2170691053382353 29.568101918681407 20.0 0.004759968850335594 2.3799844251678053 20.0 
578.0006157425362 0.35585458834410844 47.82706354328491 20.0 0.02002452287307432 7.632277011369325 20.0 
579.0016616641026 0.22125391425163868 36.7895028494255 20.0 0.004759968850335594 2.3799844251678053 19.0 
580.0005541767537 0.2598175876846962 38.19004036352777 20.0 0.0 0.0 19.0 
581.0021332435459 0.22710426072184778 38.19004036352777 20.0 0.01805223581999949 9.026117909999726 19.0 
582.0004842370794 0.3435455741299194 41.863993222611924 20.0 0.027597999351076055 13.798999675538113 19.0 
583.0029671097466 0.28032007420340804 41.863993222611924 20.0 0.0 0.0 21.0 
584.0000352514649 0.25791238092855123 43.551111727728994 20.0 0.0 0.0 20.0 
585.0023973761674 0.16100853377422056 36.58851853709862 21.0 0.0 0.0 20.0 
586.0015959929607 0.16100853377422056 36.58851853709862 21.0 0.0 0.0 19.0 
587.0008127726143 0.09202437031304544 36.454894239997685 20.0 0.0 0.0 19.0 
588.0023878211872 0.07317703707419816 36.58851853709862 20.0 0.0 0.0 20.0 
589.0006455018985 0.0 0.0 20.0 0.0 0.0 20.0 
590.0032893768021 0.0 0.0 20.0 0.0 0.0 20.0 
591.0026497416703 0.0 0.0 20.0 0.0 0.0 20.0 
592.0033800625141 0.005942434606949997 2.971217303475015 20.0 0.0 0.0 20.0 
593.0026495396645 0.01605368656237499 5.055625977712452 20.0 0.0 0.0 20.0 
594.0034725637352 0.024034318806047318 6.647914576615392 20.0 0.0 0.0 20.0 
595.0022492444656 0.01073848965281652 2.971217303475015 21.0 0.0 0.0 20.0 
596.0011587837805 0.018091884199097286 6.647914576615392 21.0 0.0 0.0 21.0 
597.0000369791201 0.018091884199097286 6.647914576615392 21.0 0.0 0.0 20.0 
598.0002637547636 0.0 0.0 21.0 0.0 0.0 20.0 
599.0034725637352 0.0 0.0 21.0 0.0 0.0 21.0 
600.0065379945596 0.0 0.0 21.0 0.0 0.0 21.0 
#####################################################################
# End of data export. Simulation finished at: 2019-02-25T18:05+0000 #
#####################################################################
