#####################################################################
# Alchemist log file - simulation started at: 2019-02-25T20:07+0000 #
#####################################################################
# seed = 54.0
#
# The columns have the following meaning: 
# time distance-rep[Mean] distance-rep[Max] leader-rep[CountDistinct] distance-share[Mean] distance-share[Max] leader-share[CountDistinct] 
0.0 NaN NaN NaN NaN NaN NaN 
1.0001219130885215 0.0 0.0 495.0 0.0 0.0 77.0 
2.0001879296549694 0.0 0.0 108.0 0.0 0.0 68.0 
3.0013956686229313 0.0 0.0 102.0 0.0 0.0 58.0 
4.002580151533904 0.0 0.0 100.0 0.0 0.0 50.0 
5.00568740765328 0.0 0.0 94.0 0.0 0.0 41.0 
6.00027180352345 0.0 0.0 85.0 0.0 0.0 40.0 
7.000187929654969 0.0 0.0 82.0 0.0 0.0 38.0 
8.001395668622932 0.0 0.0 75.0 0.0 0.0 36.0 
9.00309609007405 0.0 0.0 71.0 0.0 0.0 33.0 
10.001482963824738 0.0 0.0 69.0 0.0 0.0 30.0 
11.002228071243422 0.0 0.0 67.0 0.0 0.0 28.0 
12.00018792965497 0.0 0.0 62.0 0.0 0.0 26.0 
13.000857261794541 0.0 0.0 56.0 0.0 0.0 25.0 
14.004289145194322 0.0 0.0 57.0 0.0 0.0 28.0 
15.001852422792464 0.0 0.0 51.0 0.0 0.0 31.0 
16.00122579234865 0.0 0.0 47.0 0.0 0.0 31.0 
17.00018792965497 0.0 0.0 45.0 0.0 0.0 26.0 
18.001395668622933 0.0 0.0 44.0 0.04754119499317214 13.087100742235435 24.0 
19.000236110603083 0.0 0.0 41.0 0.06807564156457732 13.087100742235435 22.0 
20.00134483624364 0.0 0.0 39.0 0.0 0.0 24.0 
21.000349623452184 0.0 0.0 40.0 0.0 0.0 21.0 
22.00018792965497 0.0 0.0 38.0 0.0 0.0 21.0 
23.001395668622933 0.0 0.0 36.0 0.0 0.0 18.0 
24.000815478222503 0.0 0.0 35.0 0.0 0.0 16.0 
25.000473769580687 0.0 0.0 34.0 0.0 0.0 16.0 
26.000248917205276 0.0 0.0 33.0 0.0 0.0 16.0 
27.00018792965497 0.0 0.0 33.0 0.0 0.0 16.0 
28.00120031883171 0.0 0.0 33.0 0.0 0.0 16.0 
29.002670955194912 0.0 0.0 32.0 0.0 0.0 15.0 
30.002325064333117 0.0 0.0 31.0 0.0 0.0 15.0 
31.000090117816555 0.0 0.0 30.0 0.0 0.0 16.0 
32.00018792965497 0.0 0.0 30.0 0.0 0.0 15.0 
33.00139566862293 0.0 0.0 30.0 0.0 0.0 15.0 
34.004264295266395 0.0 0.0 29.0 0.0 0.0 15.0 
35.005013724546565 0.0 0.0 29.0 0.0 0.0 15.0 
36.00078114418099 0.0 0.0 27.0 0.0 0.0 15.0 
37.00018792965497 0.0161004952158194 8.050247607909682 31.0 0.0 0.0 15.0 
38.00139566862293 0.0 0.0 29.0 0.0 0.0 15.0 
39.001084823756464 0.0 0.0 30.0 0.0 0.0 16.0 
40.0001057664026 0.0 0.0 30.0 0.0 0.0 16.0 
41.00222807124342 0.0 0.0 31.0 0.0 0.0 16.0 
42.00018792965497 0.0 0.0 32.0 0.0 0.0 16.0 
43.00022575789325 0.0 0.0 31.0 0.0 0.0 16.0 
44.0004297190594 0.0 0.0 29.0 0.0 0.0 16.0 
45.00239818634679 0.0 0.0 29.0 0.0 0.0 17.0 
46.00116930403308 0.0 0.0 28.0 0.0 0.0 16.0 
47.00018792965497 0.0 0.0 28.0 0.0 0.0 16.0 
48.00139566862293 0.0 0.0 27.0 0.0 0.0 16.0 
49.00386018940328 0.0 0.0 26.0 0.0 0.0 15.0 
50.00000412918121 0.0 0.0 26.0 0.0 0.0 15.0 
51.00092918857108 0.0 0.0 26.0 0.0 0.0 15.0 
52.00018792965497 0.0 0.0 26.0 0.0 0.0 15.0 
53.00139566862293 0.0 0.0 26.0 0.0 0.0 15.0 
54.00374818502368 0.0 0.0 26.0 0.0 0.0 15.0 
55.00485427117453 0.0 0.0 26.0 0.0 0.0 15.0 
56.001766542650266 0.0 0.0 26.0 0.0 0.0 14.0 
57.00018792965497 0.0 0.0 26.0 0.0 0.0 14.0 
58.00035501685915 0.0 0.0 26.0 0.0 0.0 14.0 
59.000846040770135 0.0 0.0 27.0 0.0 0.0 14.0 
60.002099184250355 0.0 0.0 29.0 0.0 0.0 14.0 
61.00222807124342 0.0 0.0 28.0 0.0 0.0 14.0 
62.00018792965497 0.0 0.0 27.0 0.0 0.0 14.0 
63.00139566862293 0.0 0.0 28.0 0.0 0.0 14.0 
64.00016140296027 0.0 0.0 26.0 0.0 0.0 14.0 
65.00174423298121 0.0 0.0 26.0 0.0 0.0 14.0 
66.00222807124342 0.0 0.0 26.0 0.0 0.0 14.0 
67.00018792965497 0.0 0.0 26.0 0.0 0.0 14.0 
68.00082957267833 0.0 0.0 26.0 0.0 0.0 14.0 
69.00080689623428 0.0 0.0 26.0 0.0 0.0 14.0 
70.00086763157327 0.002768063053243353 1.3840315266216692 25.0 0.0 0.0 15.0 
71.00147151947358 0.002768063053243353 1.3840315266216692 26.0 0.0 0.0 15.0 
72.00018792965497 0.013281675559136306 6.640837779568159 27.0 0.0 0.0 15.0 
73.00000754609461 0.013281675559136306 6.640837779568159 27.0 0.0 0.0 15.0 
74.00054648776388 0.013281675559136306 6.640837779568159 23.0 0.0 0.0 15.0 
75.00007995056721 0.013281675559136306 6.640837779568159 21.0 0.0 0.0 15.0 
76.00222807124342 0.0 0.0 21.0 0.0 0.0 15.0 
77.00018792965497 0.0 0.0 21.0 0.0 0.0 15.0 
78.00139566862293 0.0 0.0 21.0 0.0 0.0 15.0 
79.00117054080468 0.0272065546915845 13.603277345792293 20.0 0.0 0.0 15.0 
80.00121813933104 0.0 0.0 20.0 0.0 0.0 15.0 
81.0007981087055 0.0 0.0 20.0 0.0 0.0 15.0 
82.00018792965497 0.0 0.0 19.0 0.0 0.0 15.0 
83.00054616260746 0.00187528685626086 0.9376434281304284 20.0 0.0 0.0 15.0 
84.00428914519432 0.00187528685626086 0.9376434281304284 20.0 0.0 0.0 15.0 
85.00104082139259 0.007946660640313904 3.973330320156947 20.0 0.0 0.0 16.0 
86.00222807124342 0.007946660640313904 3.973330320156947 19.0 0.0 0.0 16.0 
87.00018792965497 0.007946660640313904 3.973330320156947 19.0 0.0 0.0 16.0 
88.00139566862293 0.0 0.0 20.0 0.0 0.0 17.0 
89.00160442044817 0.0 0.0 20.0 0.0 0.0 17.0 
90.00182891751179 1.8450700947147524E-4 0.09225350473573712 20.0 0.0 0.0 17.0 
91.00095186313621 1.8450700947147524E-4 0.09225350473573712 19.0 0.0 0.0 17.0 
92.00018792965497 0.0 0.0 19.0 0.0 0.0 17.0 
93.00139566862293 0.0 0.0 19.0 0.0 0.0 17.0 
94.00061611891587 0.0 0.0 19.0 0.0 0.0 17.0 
95.00333703071075 0.0 0.0 19.0 0.0 0.0 17.0 
96.00222807124342 0.0 0.0 19.0 0.0 0.0 17.0 
97.00018792965497 0.0 0.0 19.0 0.0 0.0 17.0 
98.00139566862293 0.0 0.0 19.0 0.0 0.0 17.0 
99.00116697029554 0.0 0.0 19.0 0.0 0.0 17.0 
100.00215640885236 0.0 0.0 19.0 0.0 0.0 17.0 
101.00055876861896 0.0 0.0 19.0 0.0 0.0 17.0 
102.00018792965497 0.0 0.0 19.0 0.0 0.0 18.0 
103.0010206578455 0.0 0.0 19.0 0.00759186645127466 3.7959332256373273 18.0 
104.00257139408316 0.0 0.0 19.0 0.022381749958265723 11.190874979132815 18.0 
105.00445678387597 0.0 0.0 20.0 0.022381749958265723 11.190874979132815 18.0 
106.00079631528438 0.0 0.0 20.0 0.022381749958265723 11.190874979132815 18.0 
107.00018792965497 0.0 0.0 20.0 0.0 0.0 18.0 
108.00024121563649 0.0 0.0 20.0 0.0 0.0 18.0 
109.00067149917666 0.0 0.0 20.0 0.0 0.0 17.0 
110.00005001866283 0.0 0.0 20.0 0.0 0.0 17.0 
111.00070130288496 0.0 0.0 20.0 0.005641153277885822 2.8205766389429243 17.0 
112.00018792965497 0.0 0.0 20.0 0.005641153277885822 2.8205766389429243 17.0 
113.00028789657185 0.0 0.0 19.0 0.02036899801948287 10.1844990097415 17.0 
114.00137087314019 0.0 0.0 18.0 0.0768111188138406 17.104831424051184 17.0 
115.00219604088284 0.0 0.0 18.0 0.0768111188138406 17.104831424051184 17.0 
116.00052034334317 0.0 0.0 18.0 0.06562733549373588 11.116228973127562 17.0 
117.00018792965497 0.0 0.0 18.0 0.12010396612783666 17.234701375640384 17.0 
118.00016673471399 0.0 0.0 17.0 0.03135630545548721 15.678152727743623 17.0 
119.00428914519432 0.0 0.0 17.0 0.02791095193409145 13.955475967045771 17.0 
120.00064480687517 0.0 0.0 17.0 0.02791095193409145 13.955475967045771 17.0 
121.00004983733912 0.0 0.0 17.0 0.02791095193409145 13.955475967045771 17.0 
122.00018792965497 0.0 0.0 17.0 0.0 0.0 17.0 
123.00137475441657 0.0 0.0 17.0 0.04228441546143716 11.77606904301257 17.0 
124.00005388230376 0.0 0.0 17.0 0.0 0.0 18.0 
125.00491001754038 0.0 0.0 17.0 0.0 0.0 18.0 
126.00178718711068 0.0 0.0 17.0 0.0 0.0 18.0 
127.00018792965497 0.0 0.0 17.0 0.0 0.0 18.0 
128.00034285957287 0.0 0.0 17.0 0.0 0.0 18.0 
129.0036316103884 0.0 0.0 17.0 0.0 0.0 17.0 
130.000410707155 0.0 0.0 17.0 0.014952087052740561 3.8641448219535164 17.0 
131.00222807124342 0.0 0.0 17.0 0.02174089767163569 4.0700143082421505 17.0 
132.00018792965497 0.0 0.0 16.0 0.02174089767163569 4.0700143082421505 17.0 
133.00139566862293 0.0 0.0 16.0 0.0035968013056507653 1.7984006528253929 19.0 
134.00128133334582 0.0 0.0 16.0 0.0 0.0 19.0 
135.00065987837388 0.011007971192871436 5.50398559643574 16.0 0.0 0.0 19.0 
136.00222807124342 0.023998129338805484 11.999064669402685 17.0 0.0 0.0 19.0 
137.00018792965497 0.023998129338805484 11.999064669402685 17.0 0.0 0.0 19.0 
138.00118954735828 0.023998129338805484 11.999064669402685 17.0 0.0 0.0 18.0 
139.0041034188119 0.023998129338805484 11.999064669402685 18.0 0.0 0.0 18.0 
140.0002245550763 0.0 0.0 19.0 0.0 0.0 18.0 
141.0006762932733 0.0 0.0 19.0 0.0 0.0 17.0 
142.00003501922595 0.0 0.0 19.0 0.0 0.0 17.0 
143.00040582956336 0.0 0.0 21.0 0.0 0.0 17.0 
144.00038731680917 0.0 0.0 22.0 0.0 0.0 16.0 
145.00021722698733 0.0 0.0 22.0 0.0 0.0 16.0 
146.00222807124342 0.0 0.0 20.0 0.0 0.0 15.0 
147.00018792965497 0.0 0.0 19.0 0.0 0.0 13.0 
148.00139566862293 0.0 0.0 18.0 0.0 0.0 13.0 
149.0028187939274 0.0 0.0 18.0 0.0 0.0 13.0 
150.00059328656425 0.0 0.0 18.0 0.0 0.0 13.0 
151.00222807124342 0.0 0.0 17.0 0.0 0.0 13.0 
152.00018792965497 0.0 0.0 17.0 0.0 0.0 13.0 
153.00082334402558 0.0 0.0 17.0 0.0 0.0 13.0 
154.00135478202486 0.0 0.0 17.0 0.0 0.0 13.0 
155.00143571734276 0.0 0.0 17.0 0.0 0.0 13.0 
156.00222807124342 0.0 0.0 16.0 0.0 0.0 13.0 
157.00018792965497 0.0 0.0 16.0 0.0 0.0 13.0 
158.00041952482977 0.0 0.0 16.0 0.0 0.0 13.0 
159.00171516449467 0.0 0.0 16.0 0.0 0.0 13.0 
160.00780739818202 0.0 0.0 17.0 0.0 0.0 13.0 
161.0013552729612 0.0 0.0 17.0 0.0 0.0 13.0 
162.00018792965497 0.0 0.0 17.0 0.0 0.0 13.0 
163.00139566862293 0.0 0.0 17.0 0.0 0.0 14.0 
164.00223200642236 0.0 0.0 17.0 0.0 0.0 14.0 
165.00368539056475 0.0 0.0 17.0 0.0 0.0 14.0 
166.00112799440927 0.0 0.0 16.0 0.0 0.0 16.0 
167.00018792965497 0.0 0.0 16.0 0.0 0.0 17.0 
168.00139566862293 0.0 0.0 17.0 0.0 0.0 16.0 
169.00428914519432 0.0 0.0 17.0 0.0039140397447791015 1.9570198723895658 16.0 
170.00107244015868 0.004179467905816841 2.089733952908432 18.0 0.0 0.0 16.0 
171.00222807124342 0.04420399276484395 18.551913697480074 17.0 0.0 0.0 15.0 
172.00018792965497 0.09654212147725548 27.676550418560282 17.0 0.0 0.0 15.0 
173.00139566862293 0.08577903895492069 27.676550418560282 17.0 0.0 0.0 15.0 
174.00110960053402 0.02245154734567036 11.225773672835231 17.0 0.0 0.0 15.0 
175.0004978185474 0.0 0.0 17.0 0.0 0.0 15.0 
176.00153618646337 0.0 0.0 17.0 0.0 0.0 15.0 
177.00018271178817 0.0 0.0 17.0 0.0 0.0 15.0 
178.00139566862293 0.014524903845797505 7.26245192289872 17.0 0.0 0.0 15.0 
179.00428914519432 0.014524903845797505 7.26245192289872 17.0 0.0 0.0 15.0 
180.0025702664135 0.014524903845797505 7.26245192289872 17.0 0.0 0.0 15.0 
181.00002830160687 0.014524903845797505 7.26245192289872 17.0 0.0 0.0 15.0 
182.00018792965497 0.02333729350848778 7.26245192289872 17.0 0.0 0.0 18.0 
183.00139566862293 0.07111939372720644 16.81171715140627 17.0 0.0 0.0 18.0 
184.00075974845427 0.03842798039526537 14.807795366287593 17.0 0.0 0.0 17.0 
185.00218882048068 0.05729415797569539 16.81171715140627 17.0 0.0 0.0 18.0 
186.00049364139238 0.05729415797569539 16.81171715140627 17.0 0.0 0.0 19.0 
187.00018792965497 0.11450696898365803 16.81171715140627 16.0 0.0 0.0 17.0 
188.00139566862293 0.16320767400729 16.81171715140627 17.0 0.0 0.0 17.0 
189.00208052008196 0.18650350371124447 23.02869079796281 17.0 0.0 0.0 17.0 
190.00465239422343 0.1457768413319391 23.02869079796281 17.0 0.0 0.0 18.0 
191.00222807124342 0.18081438444308948 23.02869079796281 17.0 0.0 0.0 18.0 
192.00018792965497 0.14263423841882075 23.02869079796281 19.0 0.0 0.0 18.0 
193.00139566862293 0.13247208457887796 29.251426624654698 19.0 0.0 0.0 18.0 
194.0005056684143 0.12037424362150671 29.251426624654698 19.0 0.0 0.0 18.0 
195.00522889434825 0.11793104022267281 29.251426624654698 19.0 0.0 0.0 18.0 
196.00222807124342 0.11793104022267281 29.251426624654698 18.0 0.0 0.0 18.0 
197.00018792965497 0.12938958895062017 29.251426624654698 18.0 0.0 0.0 18.0 
198.00139566862293 0.18920736680917616 35.5860694185985 18.0 0.0 0.0 17.0 
199.00228260791874 0.17439600501988167 35.5860694185985 18.0 0.0 0.0 17.0 
200.00014928099426 0.17439600501988167 35.5860694185985 18.0 0.0 0.0 17.0 
201.00010041247873 0.1883877542315464 35.5860694185985 18.0 0.0 0.0 17.0 
202.00018792965497 0.12556186165448716 35.5860694185985 18.0 0.0 0.0 17.0 
203.00069684613166 0.16362773526207666 42.08513771520441 17.0 0.0 0.0 18.0 
204.00022500060393 0.1905376415040834 42.08513771520441 16.0 0.0 0.0 18.0 
205.00420353438187 0.1414973553665865 42.08513771520441 16.0 0.0 0.0 18.0 
206.00222807124342 0.20090082485653513 42.08513771520441 16.0 0.0 0.0 19.0 
207.00018792965497 0.13090497985303123 23.12049418238638 16.0 0.0 0.0 19.0 
208.00139566862293 0.1895148061216638 30.521341983877306 16.0 0.0 0.0 19.0 
209.00187850145699 0.1773436386093639 30.521341983877306 16.0 0.0 0.0 20.0 
210.0004909640621 0.1313374870046301 29.62338734468102 16.0 0.0 0.0 18.0 
211.00090807317693 0.08490542299480582 26.474975693015125 16.0 0.0 0.0 17.0 
212.00018792965497 0.31479647664781235 48.60902917855188 16.0 0.0 0.0 17.0 
213.00069730423746 0.27507819649447135 35.92711507523123 16.0 0.0 0.0 18.0 
214.00428914519432 0.319273424005541 38.35138716155953 16.0 0.0 0.0 17.0 
215.00033514978028 0.2763186983711891 41.25145067919661 15.0 0.0 0.0 17.0 
216.00019292904813 0.19497462153550144 41.25145067919661 15.0 0.0 0.0 17.0 
217.00018792965497 0.21629110874413046 28.472991668640617 16.0 0.0 0.0 17.0 
218.00139566862293 0.28601106806631993 33.5469691017681 17.0 0.0 0.0 16.0 
219.00145736731935 0.287446955320934 35.966400250210455 17.0 0.0 0.0 16.0 
220.0026843380077 0.34086228984079797 35.966400250210455 16.0 0.0 0.0 17.0 
221.0015936983726 0.2028576880690395 36.39795582068814 19.0 0.0 0.0 17.0 
222.00018792965497 0.09695435106626202 22.43819673680241 21.0 0.0 0.0 17.0 
223.00139566862293 0.08772858372638576 22.43819673680241 21.0 0.0 0.0 17.0 
224.00243474813092 0.10104803181561342 29.947824373971514 20.0 0.0 0.0 17.0 
225.00220750014387 0.11056858843261723 29.947824373971514 19.0 0.0 0.0 17.0 
226.00038296200447 0.13758071094885116 37.49792285219954 18.0 0.0 0.0 17.0 
227.00018792965497 0.13655511331794887 37.49792285219954 18.0 0.0 0.0 17.0 
228.0001202710733 0.15609507905829245 37.49792285219954 18.0 0.0 0.0 17.0 
229.00022611711165 0.13511695476998103 37.49792285219954 18.0 0.0 0.0 17.0 
230.0061662284392 0.16868442130279446 45.008568409476936 18.0 0.0 0.0 17.0 
231.00039867847764 0.18194616890874327 52.38956160563927 19.0 0.0 0.0 17.0 
232.00018792965497 0.23679525278022498 52.38956160563927 19.0 0.0 0.0 17.0 
233.00065362886065 0.2269852884534231 52.38956160563927 20.0 0.0 0.0 17.0 
234.00115162491997 0.36100953587759804 53.31095434374555 19.0 0.0 0.0 17.0 
235.0003330203552 0.4114327101375923 59.901882891781554 19.0 0.0 0.0 17.0 
236.00099545790738 0.5022748095576106 67.17978544828082 19.0 0.0 0.0 16.0 
237.00018792965497 0.5420225420784579 67.17978544828082 19.0 0.0 0.0 16.0 
238.00139566862293 0.6350230636226809 67.17978544828082 19.0 0.0 0.0 16.0 
239.00288157408664 0.6862446479539774 67.17978544828082 19.0 0.0 0.0 16.0 
240.00804261717155 1.093629899425599 94.99183085434265 19.0 0.0 0.0 16.0 
241.00169753648362 1.0982612510577183 102.5135889142407 19.0 0.0 0.0 16.0 
242.0000562394762 1.1587050308992664 101.69401719814715 17.0 0.0 0.0 16.0 
243.0002045022081 1.1120091483351127 101.69401719814715 17.0 0.0 0.0 16.0 
244.0040685888941 1.624205710829866 102.5135889142407 17.0 0.0 0.0 16.0 
245.00127655261804 1.6089757135705824 100.55082514307458 17.0 0.0 0.0 16.0 
246.00103223355148 1.5441096134596863 108.0605899125917 17.0 0.0 0.0 16.0 
247.00018792965497 1.7876133957483034 108.0605899125917 17.0 0.0 0.0 16.0 
248.00027513602393 1.9690646856627694 108.0605899125917 17.0 0.0 0.0 16.0 
249.00234015831649 1.995333196978402 108.0605899125917 17.0 0.0 0.0 17.0 
250.0025208248853 2.0342241902408698 105.30119398638851 17.0 0.0 0.0 17.0 
251.00222807124342 2.2164770021045737 112.40643481218166 17.0 0.0 0.0 17.0 
252.00018792965497 2.622710115991856 112.40643481218166 17.0 0.0 0.0 17.0 
253.00139566862293 2.623994230930235 112.40643481218166 17.0 0.0 0.0 17.0 
254.00279771383444 2.253156164941479 113.18362980314737 18.0 0.0 0.0 15.0 
255.00165616297983 2.185612003184754 113.18362980314737 18.0 0.0021678062637444685 1.0839031318722334 15.0 
256.0022280712434 0.970928760668999 116.8967378040578 18.0 0.0021678062637444685 1.0839031318722334 17.0 
257.0001048376632 0.7213476618971368 116.8967378040578 18.0 0.0021678062637444685 1.0839031318722334 18.0 
258.00139566862293 0.7071177373887902 116.8967378040578 18.0 0.0021678062637444685 1.0839031318722334 17.0 
259.00181313321684 0.36025979178332124 105.34683703179593 19.0 0.012438166080335959 6.2190830401679875 18.0 
260.0016204772776 0.24035809852590956 105.34683703179593 19.0 0.0076098289042157066 2.8228785542040953 19.0 
261.00097636338603 0.028278986948781955 13.636665743105794 20.0 0.0 0.0 20.0 
262.000187929655 0.0010056554625705292 0.5028277312852651 20.0 0.0 0.0 20.0 
263.00076108822986 0.0 0.0 20.0 0.0 0.0 20.0 
264.0019813844042 0.0 0.0 20.0 0.0 0.0 20.0 
265.0003166360612 0.0 0.0 20.0 0.0 0.0 19.0 
266.0022280712434 0.0 0.0 19.0 0.0 0.0 19.0 
267.000187929655 0.0 0.0 19.0 0.0 0.0 19.0 
268.0001287851885 0.0 0.0 19.0 0.0 0.0 19.0 
269.0014652453303 0.005216057718553831 1.4156525275085698 19.0 0.0 0.0 19.0 
270.00139034012915 0.020165645363351133 8.890446349907194 18.0 0.0 0.0 19.0 
271.0000827801558 0.020165645363351133 8.890446349907194 18.0 0.0 0.0 19.0 
272.000187929655 0.01882875953596732 8.890446349907194 18.0 0.0 0.0 17.0 
273.00139566862293 0.032441517607287224 8.890446349907194 18.0 0.0 0.0 16.0 
274.0042891451943 0.04590586535143641 15.597570828042706 18.0 0.0 0.0 16.0 
275.00292422185186 0.07452451745497883 23.100517844153984 18.0 0.0 0.0 16.0 
276.0022280712434 0.06091175938365888 23.100517844153984 18.0 0.0 0.0 16.0 
277.0000500891216 0.060144221168674135 23.100517844153984 18.0 0.0 0.0 16.0 
278.00139566862293 0.013943185480365893 6.971592740183013 18.0 0.0 0.0 16.0 
279.00015714068206 0.027863902665992046 13.931951332995965 18.0 0.0 0.0 16.0 
280.0056969682598 0.0 0.0 18.0 0.0 0.0 16.0 
281.0022280712434 0.0 0.0 18.0 0.0 0.0 16.0 
282.000187929655 0.0 0.0 18.0 0.0 0.0 16.0 
283.00139566862293 0.0 0.0 18.0 0.0 0.0 15.0 
284.0003015185726 0.0 0.0 18.0 0.0 0.0 15.0 
285.00519106103184 0.0 0.0 18.0 0.0 0.0 16.0 
286.0001601997103 0.0 0.0 18.0 0.0 0.0 16.0 
287.000187929655 0.0 0.0 18.0 0.0 0.0 16.0 
288.00095444509583 0.0054587703345013875 2.7293851672506833 18.0 0.0 0.0 16.0 
289.00150688861487 0.005962637510531764 2.9813187552658746 18.0 0.0 0.0 16.0 
290.0026938017287 0.005962637510531764 2.9813187552658746 18.0 0.0 0.0 16.0 
291.0022280712434 0.0 0.0 18.0 0.0 0.0 16.0 
292.000187929655 0.0 0.0 18.0 0.0 0.0 16.0 
293.00139566862293 0.0 0.0 18.0 0.0051766406149293355 2.58832030746467 16.0 
294.00045895735303 0.02939249227696614 14.008845158288096 17.0 0.0050792749632950504 1.361054448491501 16.0 
295.00051364751755 0.04434573872331135 14.008845158288096 15.0 0.0 0.0 16.0 
296.0010481798463 0.045520862641833144 14.008845158288096 15.0 0.0 0.0 15.0 
297.000187929655 0.09279835537474372 14.008845158288096 15.0 0.0 0.0 15.0 
298.0012204332419 0.07229336009053222 15.360641753612242 15.0 0.0 0.0 15.0 
299.00006821980725 0.12219075175846086 15.360641753612242 15.0 0.0 0.0 15.0 
300.00203357190975 0.1336014207253647 22.899109500456092 15.0 0.0 0.0 15.0 
301.0022280712434 0.18155055588723332 22.899109500456092 15.0 0.0 0.0 15.0 
302.000187929655 0.28208764012129245 23.519601689152097 15.0 0.0 0.0 15.0 
303.00139566862293 0.35450678595907836 30.21505617018869 15.0 0.0 0.0 14.0 
304.00229733202934 0.41419194931783665 37.76349834842844 15.0 0.0 0.0 15.0 
305.0002680681513 0.39249640961064053 37.76349834842844 15.0 0.002128383882736891 1.064191941368449 15.0 
306.0022280712434 0.5581890034878019 37.76349834842844 15.0 0.002128383882736891 1.064191941368449 15.0 
307.000187929655 0.5301992025715654 37.76349834842844 15.0 0.002128383882736891 1.064191941368449 15.0 
308.00000831870256 0.5225475618744471 37.76349834842844 15.0 0.0036771554440541143 1.838577722027054 15.0 
309.0042891451943 0.6647242186374055 45.04638415269278 17.0 0.0036771554440541143 1.838577722027054 15.0 
310.0001219226293 0.5693560567305143 44.02426084726065 18.0 0.0 0.0 14.0 
311.0010268839952 0.6297498738603384 51.58062331132206 17.0 0.0 0.0 14.0 
312.0001688141982 0.6509440491972419 52.60318783997636 17.0 0.0 0.0 14.0 
313.0010862481913 0.804335830678716 58.87355842785996 16.0 0.0 0.0 14.0 
314.00150028394233 0.7488894120506338 58.87355842785996 16.0 0.0 0.0 14.0 
315.0046406568322 0.7034503088933778 58.87355842785996 16.0 0.0 0.0 14.0 
316.0022280712434 0.6143735836792418 55.4042258449754 16.0 0.0 0.0 14.0 
317.000187929655 0.3639718412500395 54.203459420768525 16.0 0.0 0.0 14.0 
318.0000899081419 0.45258808911932485 62.74616861697007 16.0 0.0 0.0 14.0 
319.0012378858735 0.40866153181305054 62.74616861697007 17.0 0.0 0.0 14.0 
320.00232832819955 0.4376232746423702 61.544131220641134 17.0 0.0 0.0 14.0 
321.00034376934366 0.3041123393258491 40.06355773792913 17.0 0.0 0.0 14.0 
322.000187929655 0.23099073712131002 36.019689315941974 17.0 0.0 0.0 14.0 
323.00042962977244 0.0641268551835245 21.244305358814557 18.0 0.0 0.0 15.0 
324.0003503736446 0.14780108104548004 30.418622433008437 18.0 0.0 0.0 15.0 
325.00490223437913 0.10736854925038392 13.508650535975477 18.0 0.0 0.0 15.0 
326.0022280712434 0.09404815295917289 13.508650535975477 19.0 0.0 0.0 15.0 
327.000187929655 0.1005387183675092 20.747101596979405 19.0 0.0 0.0 16.0 
328.00139566862293 0.07289707032033496 20.747101596979405 19.0 0.0 0.0 16.0 
329.0008676414758 0.09767976220574473 20.747101596979405 19.0 0.0 0.0 16.0 
330.0023151790181 0.12479852930263503 20.747101596979405 19.0 5.362876429714999E-4 0.2681438214857508 16.0 
331.0022280712434 0.08444770473725659 21.511500543570776 19.0 5.362876429714999E-4 0.2681438214857508 16.0 
332.000187929655 0.09155635350987464 28.988810623587824 19.0 0.0 0.0 17.0 
333.00139566862293 0.06109410613194683 15.63622482059148 19.0 0.0 0.0 17.0 
334.0013740679704 0.05465712223201276 15.63622482059148 19.0 0.0 0.0 17.0 
335.00683033783855 0.08731446555565499 28.988810623587824 19.0 0.0 0.0 17.0 
336.0003637340932 0.1857579217038375 27.912495221396995 18.0 0.0 0.0 17.0 
337.000187929655 0.0680882274145954 14.666898823789495 18.0 0.0 0.0 17.0 
338.0003170432201 0.09813710402379804 25.838385822780424 18.0 0.0 0.0 17.0 
339.0042891451943 0.1622622047612251 30.655344328788516 18.0 0.0 0.0 17.0 
340.00176067075967 0.2293375423725224 37.94263235311894 18.0 0.0 0.0 17.0 
341.00075525676726 0.3634611412545676 37.94263235311894 18.0 0.015579812272406691 7.789906136203314 17.0 
342.000187929655 0.24794567439676105 37.114150569594244 18.0 0.015579812272406691 7.789906136203314 17.0 
343.00139566862293 0.19874273318385166 37.94263235311894 20.0 0.0 0.0 17.0 
344.0000413129055 0.23191211305291723 45.18773773790494 20.0 0.0 0.0 18.0 
345.00147773222113 0.2687601409577359 50.86425331116439 20.0 0.0 0.0 18.0 
346.0003886771868 0.1398899727613799 50.86425331116439 21.0 0.0015676554644907623 0.7838277322453848 18.0 
347.000187929655 0.09964399141018629 23.9651768373661 19.0 0.03330675822548781 10.030816873225291 18.0 
348.00111917543404 0.011163745245371072 3.1490233158625074 19.0 0.013245124479037066 6.622562239518572 17.0 
349.0006409049354 0.0 0.0 19.0 0.0 0.0 17.0 
350.0015841194481 0.01195021879119566 3.5422600887748104 20.0 0.0 0.0 18.0 
351.0009411143803 0.07583989072238279 23.861532148974902 20.0 0.0 0.0 18.0 
352.000187929655 0.13901301368311395 30.494456592106587 20.0 0.0 0.0 19.0 
353.0010252795998 0.1403492893511069 38.92904361434887 20.0 0.0 0.0 19.0 
354.0025699045151 0.031718271202812995 15.85913560140645 19.0 0.0 0.0 20.0 
355.00261703751676 0.031718271202812995 15.85913560140645 19.0 0.0 0.0 20.0 
356.0009726368138 0.0 0.0 19.0 0.0 0.0 20.0 
357.000187929655 0.0 0.0 18.0 0.0 0.0 20.0 
358.00139566862293 0.003946245200749364 1.973122600374694 18.0 0.0 0.0 20.0 
359.000470614446 0.004412018305436691 1.973122600374694 18.0 0.0 0.0 20.0 
360.0009939020389 0.06628419361700531 31.168974208127878 17.0 0.0 0.0 21.0 
361.0022280712434 0.07449664079277901 31.168974208127878 17.0 0.0 0.0 21.0 
362.000187929655 0.0 0.0 17.0 0.0 0.0 21.0 
363.00139566862293 0.0 0.0 17.0 0.0 0.0 21.0 
364.00171246066935 0.0 0.0 17.0 0.0 0.0 22.0 
365.00153624652097 0.0 0.0 17.0 0.0 0.0 21.0 
366.0015391658309 0.0 0.0 17.0 0.0 0.0 20.0 
367.000187929655 0.005429830121592725 2.7149150607963577 18.0 0.0 0.0 21.0 
368.00139566862293 0.00853920325097826 2.7149150607963577 18.0 0.0 0.0 21.0 
369.00055084208225 0.00853920325097826 2.7149150607963577 18.0 0.0 0.0 21.0 
370.00036545689426 0.00853920325097826 2.7149150607963577 18.0 0.0 0.0 21.0 
371.0022280712434 0.01740814529908418 7.14938608484934 18.0 0.0 0.0 21.0 
372.000187929655 0.012755238036457292 6.377619018228671 18.0 0.0 0.0 21.0 
373.0008508531867 0.023072783773363983 11.536391886682026 18.0 0.0 0.0 21.0 
374.0024134460433 0.0 0.0 18.0 0.0 0.0 21.0 
375.00407614517025 0.056273357686221694 11.536391886682026 18.0 0.0 0.0 21.0 
376.0022280712434 0.08763238498667365 16.35749750976146 18.0 0.0 0.0 21.0 
377.000187929655 0.06467126428853913 14.960423899783478 18.0 0.0 0.0 21.0 
378.00139566862293 0.03475041648897254 6.385040864724488 18.0 0.0 0.0 21.0 
379.0022869846688 0.046887022317390135 10.739686649898232 18.0 0.0 0.0 21.0 
380.0004948777358 0.0773660454753769 14.427266267980201 18.0 0.0 0.0 21.0 
381.00012736338294 0.1234711993401789 15.933260661124564 18.0 0.0 0.0 22.0 
382.000187929655 0.13679432426265067 17.716453454031182 18.0 0.0 0.0 20.0 
383.0008296573363 0.13679432426265067 17.716453454031182 18.0 0.0 0.0 20.0 
384.00334523713957 0.27455072811278236 24.42275959918024 18.0 0.0 0.0 20.0 
385.00282720050217 0.28262689274378283 24.481149427028612 19.0 0.0 0.0 20.0 
386.0022280712434 0.3302269505724627 25.58927193974796 20.0 0.0 0.0 20.0 
387.000187929655 0.3725122460251263 26.420754973008172 20.0 0.0 0.0 20.0 
388.00139566862293 0.33483904996853886 26.420754973008172 20.0 0.0 0.0 20.0 
389.0042891451943 0.3509607873987244 29.94249056601882 20.0 0.0 0.0 19.0 
390.00430645935916 0.3485039575020817 29.94249056601882 19.0 0.0 0.0 19.0 
391.0022280712434 0.42618756191506163 35.366705369885636 19.0 0.0 0.0 18.0 
392.000187929655 0.48102923049291535 35.366705369885636 18.0 0.0 0.0 19.0 
393.0012114378761 0.48169758932190637 35.366705369885636 18.0 0.0 0.0 19.0 
394.0019622612941 0.5127586257224928 45.88670402821643 18.0 0.0 0.0 19.0 
395.00002706817764 0.7022273543359587 45.88670402821643 18.0 0.0 0.0 19.0 
396.0022280712434 0.9466015080784745 52.4300114728793 18.0 0.0 0.0 19.0 
397.000187929655 0.9991572701411902 52.371949684833595 18.0 0.0 0.0 19.0 
398.001055293269 1.112598933676859 52.371949684833595 18.0 0.0 0.0 19.0 
399.0009486883562 1.022561763019624 52.371949684833595 18.0 0.0 0.0 19.0 
400.0009894894103 1.1311328650663377 54.96912000441071 18.0 0.0 0.0 19.0 
401.00053743396273 1.331430433124505 61.10535514906644 18.0 0.0 0.0 21.0 
402.000187929655 1.099784732720375 61.10535514906644 18.0 0.0 0.0 20.0 
403.00139566862293 0.969490040131194 63.389197185234366 18.0 0.0 0.0 20.0 
404.00343067302634 0.9740145757448723 61.10535514906644 18.0 0.0 0.0 20.0 
405.0007325735788 0.9802063413357209 56.02313562504361 18.0 0.0 0.0 19.0 
406.00019468874655 1.138332065494777 72.1246549898255 19.0 0.0 0.0 19.0 
407.000187929655 1.0141589953250292 58.695145621229244 20.0 0.0 0.0 19.0 
408.0013093944679 1.2316780443087052 62.69416981192194 19.0 0.0 0.0 19.0 
409.0042891451943 1.6547578145111608 74.60722796185888 19.0 0.0 0.0 19.0 
410.00084311608526 1.223083677345663 64.552640954722 19.0 0.0 0.0 19.0 
411.0019681357347 1.3895653238187822 79.76825199771349 19.0 0.0 0.0 19.0 
412.000187929655 1.870276629738612 86.69684318721602 19.0 0.0 0.0 19.0 
413.00139566862293 1.7850815843128436 76.2398307561765 19.0 0.0 0.0 19.0 
414.000041023616 1.6270243438943157 76.2398307561765 19.0 0.0 0.0 19.0 
415.0001418169568 1.6184610398669539 82.75428886474481 20.0 0.0 0.0 19.0 
416.00040212689805 1.7447828649936346 82.75428886474481 21.0 0.0 0.0 19.0 
417.000187929655 1.1301741006776163 71.65385050559411 21.0 0.0 0.0 18.0 
418.00139566862293 1.195917923890611 76.39614044788158 21.0 0.0 0.0 18.0 
419.0042891451943 0.6442861183225721 58.17317128567083 21.0 0.0 0.0 18.0 
420.000091698053 0.536897035638749 53.27000097264116 21.0 0.0 0.0 18.0 
421.00153365654006 0.5771845916957747 58.12900869422566 21.0 0.0 0.0 18.0 
422.000187929655 0.6495917442471318 61.3645668284438 21.0 0.0 0.0 18.0 
423.0008829536247 0.7021120686106479 63.13816040125653 21.0 0.0 0.0 17.0 
424.0014959357793 0.697606589282636 63.13816040125653 21.0 0.0 0.0 16.0 
425.0062750240925 0.679666879829139 59.349731711783534 21.0 0.0 0.0 16.0 
426.0022280712434 0.6042720593401606 64.23475845038655 21.0 0.0 0.0 15.0 
427.000187929655 0.2954382774770202 30.667124478057104 21.0 0.0 0.0 15.0 
428.00087787612836 0.3391333880789791 30.667124478057104 21.0 0.0 0.0 15.0 
429.0042891451943 0.30197637690990653 28.253785151327463 21.0 0.0 0.0 15.0 
430.00206992890134 0.2721482024808659 27.00713690224788 21.0 0.0 0.0 15.0 
431.0009739682169 0.3888019474798609 31.307540791674057 20.0 0.0 0.0 15.0 
432.000187929655 0.3462641761293215 31.307540791674057 20.0 0.0 0.0 15.0 
433.0006102630173 0.2561966804273252 29.49904992062386 20.0 0.0 0.0 15.0 
434.00122976118683 0.2650503665575094 30.769713353549662 20.0 0.0 0.0 15.0 
435.00229246369315 0.18791544867028995 30.769713353549662 19.0 0.0 0.0 15.0 
436.0022280712434 0.20138940606785866 30.769713353549662 19.0 0.0 0.0 15.0 
437.000187929655 0.244777500748187 33.85778851721605 20.0 0.0 0.0 15.0 
438.0005553886777 0.20636226866976173 28.2575382258039 20.0 0.0 0.0 18.0 
439.00282064500004 0.2235515767395858 28.2575382258039 20.0 0.0 0.0 17.0 
440.0024155519459 0.19886832785161557 27.00661470429975 20.0 0.0 0.0 17.0 
441.0010695005149 0.3495565798558758 32.5225537789197 20.0 0.0 0.0 17.0 
442.000187929655 0.38641414657147827 32.89110950096563 21.0 0.0 0.0 17.0 
443.00139566862293 0.46487162587797975 36.28346146299296 22.0 0.0 0.0 17.0 
444.0023675684437 0.4819457339472034 37.99651768466032 22.0 0.0 0.0 18.0 
445.0010780925918 0.5654836862153271 51.38749265312623 22.0 0.0 0.0 18.0 
446.0022280712434 0.7732654292972375 51.38749265312623 23.0 0.0 0.0 17.0 
447.000187929655 0.876978675277211 52.83394829612959 22.0 0.0 0.0 17.0 
448.00099227580915 0.8717504527252079 52.83394829612959 22.0 0.0 0.0 16.0 
449.0002048978106 0.6946815942439706 56.92142388981466 22.0 0.0 0.0 16.0 
450.0033857091022 0.6712499220949761 56.92142388981466 21.0 0.0 0.0 16.0 
451.0015340104983 0.8460009891578255 56.92142388981466 20.0 0.0 0.0 16.0 
452.000187929655 0.9145949448104856 55.83716841197 21.0 0.0 0.0 16.0 
453.0004526289786 0.8856441026756209 55.83716841197 21.0 0.0 0.0 16.0 
454.0003492716316 0.6854491721863695 35.82615447353109 21.0 0.0 0.0 21.0 
455.00095616249274 0.6818068288360426 35.82615447353109 21.0 0.0 0.0 21.0 
456.0022280712434 0.9281543221572938 42.614251797536014 21.0 0.0 0.0 19.0 
457.000187929655 1.0495564623426437 64.86980173286213 21.0 0.0 0.0 19.0 
458.0005657024773 1.1427950133462466 64.86980173286213 21.0 0.0 0.0 19.0 
459.0006874162357 1.0524761455364193 64.86980173286213 21.0 0.0 0.0 18.0 
460.0064691132363 1.163163933195904 60.06316469198879 20.0 0.0 0.0 18.0 
461.0022280712434 1.4443796719575182 66.93871533930127 19.0 0.0 0.0 18.0 
462.000187929655 1.3923556470871874 66.93871533930127 19.0 0.0 0.0 18.0 
463.0010783082889 1.4258511696365697 66.93871533930127 19.0 0.0 0.0 19.0 
464.0000586291077 1.3151982933274953 66.93871533930127 19.0 0.0 0.0 20.0 
465.0041857027843 0.9501686412156389 66.93871533930127 20.0 0.0 0.0 19.0 
466.0022180806849 0.7821046910025901 39.90439650989771 20.0 0.0 0.0 19.0 
467.000187929655 0.5255864460920853 34.49669046755068 21.0 0.0 0.0 19.0 
468.00139566862293 0.44276074509472 30.946663328568576 21.0 0.0 0.0 19.0 
469.0003575675966 0.37046108963198443 30.946663328568576 21.0 0.0 0.0 19.0 
470.0011314910178 0.3370885261777428 33.78021038173085 21.0 0.0 0.0 19.0 
471.0001357698846 0.4437109217795865 38.043320676689916 21.0 0.0 0.0 19.0 
472.000187929655 0.46870510900773593 35.97012171921378 20.0 0.0 0.0 19.0 
473.00139566862293 0.4561386228399041 36.568187510623716 20.0 0.0 0.0 19.0 
474.0003394408931 0.3880777775409818 36.568187510623716 18.0 0.0 0.0 19.0 
475.00046915370376 0.38317857237035924 35.97012171921378 18.0 0.0 0.0 19.0 
476.0022280712434 0.36675732336067063 27.59382767504667 17.0 0.0 0.0 18.0 
477.000187929655 0.35057984498411077 34.66518571670923 17.0 0.0 0.0 18.0 
478.00139566862293 0.36121872658043497 34.66518571670923 15.0 0.0 0.0 18.0 
479.0012429622596 0.35305518239104183 30.53025294362132 15.0 0.0 0.0 18.0 
480.001725085998 0.33654595078118527 30.53025294362132 15.0 0.0 0.0 18.0 
481.0022280712434 0.4034936487885304 36.33180127310885 14.0 0.0 0.0 18.0 
482.000187929655 0.28493682231225675 32.03261443009765 15.0 0.0 0.0 18.0 
483.00032322921567 0.2581939645691614 32.09980687714935 14.0 0.0 0.0 18.0 
484.0025337918066 0.17993275653923238 21.193758639243356 14.0 0.0 0.0 18.0 
485.00182639089036 0.17789416087371032 21.193758639243356 14.0 0.0 0.0 17.0 
486.00034349030653 0.25374684685959503 24.259500663682445 14.0 0.0 0.0 17.0 
487.000187929655 0.2509589856024083 24.259500663682445 14.0 0.0 0.0 17.0 
488.00139566862293 0.2558744663900148 24.259500663682445 14.0 0.0 0.0 17.0 
489.0008076213414 0.25484640424054267 20.373546249346276 15.0 0.0 0.0 17.0 
490.0018872500364 0.20548294792296043 20.192450676787814 15.0 0.0 0.0 17.0 
491.00179391998125 0.3349937932232456 24.94062295055727 15.0 0.0 0.0 17.0 
492.000187929655 0.3096924321296046 24.32541550251966 15.0 0.0 0.0 16.0 
493.00006748848995 0.274203988489233 24.29570605697691 15.0 0.0 0.0 16.0 
494.0002049942133 0.33859598268881647 28.2619285903032 15.0 0.0 0.0 16.0 
495.000265021997 0.35905911421032305 31.28335557283387 15.0 0.0 0.0 17.0 
496.00022418122956 0.21496284344487507 22.900601755408303 16.0 0.0 0.0 17.0 
497.000187929655 0.28206570188510083 28.638296215984525 16.0 0.0 0.0 17.0 
498.00139566862293 0.19735227902603839 29.03873901077847 16.0 0.0 0.0 17.0 
499.0006348694186 0.10077848774591115 16.61444222908463 15.0 0.0 0.0 16.0 
500.00401384362357 0.14019328265091835 24.702933257446546 16.0 0.0 0.0 16.0 
501.00046505614444 0.12198110209697124 24.702933257446546 16.0 0.0 0.0 17.0 
502.0000320988573 0.04052423365480574 9.706978496750565 16.0 0.0 0.0 17.0 
503.00068431984965 0.07712593282755513 18.30084958637471 16.0 0.0 0.0 17.0 
504.0002416092455 0.10240469727473614 18.30084958637471 16.0 0.0 0.0 17.0 
505.00044805530445 0.09657691392500352 18.30084958637471 16.0 0.0 0.0 17.0 
506.00041983831744 0.01723037504796363 5.7267530369989 17.0 0.0 0.0 17.0 
507.000187929655 0.06754998838763318 10.875751231114293 17.0 0.0 0.0 17.0 
508.00139566862293 0.09549754135392716 12.806993277997464 18.0 0.0 0.0 18.0 
509.00197875516886 0.06988355479793225 10.875751231114293 18.0 0.0 0.0 18.0 
510.001635200714 0.0817621693029576 14.103424707496231 18.0 0.0 0.0 19.0 
511.00138727979026 0.045015082732526766 12.195613122695477 18.0 0.0 0.0 19.0 
512.000187929655 0.13019933718539864 16.843563283122535 18.0 0.0 0.0 19.0 
513.0001050461061 0.06977007933541195 16.21915141393754 18.0 0.0 0.0 19.0 
514.0005797281052 0.032717885388571344 11.06742730869422 18.0 0.0 0.0 19.0 
515.0009699345312 0.05061705997686976 18.345514978566683 18.0 0.0 0.0 19.0 
516.0005201412309 3.274301963015207E-4 0.16371509815076024 18.0 0.0 0.0 19.0 
517.000187929655 3.274301963015207E-4 0.16371509815076024 18.0 0.0 0.0 19.0 
518.001395668623 3.274301963015207E-4 0.16371509815076024 18.0 0.0 0.0 19.0 
519.0022482154428 0.001040758521568363 0.3566641626334217 18.0 0.0 0.0 19.0 
520.0005557300922 0.009448992350341436 2.4553908070030843 18.0 0.0 0.0 19.0 
521.0022280712434 0.009448992350341436 2.4553908070030843 18.0 0.0 0.0 19.0 
522.000187929655 0.0 0.0 18.0 0.0 0.0 19.0 
523.001395668623 0.0 0.0 18.0 0.0 0.0 19.0 
524.0007226509427 0.0 0.0 20.0 0.0 0.0 19.0 
525.0031261289532 0.0 0.0 19.0 0.0 0.0 19.0 
526.0022280712434 0.0 0.0 20.0 0.0 0.0 19.0 
527.000187929655 0.0 0.0 20.0 0.0 0.0 18.0 
528.0009585302483 0.0 0.0 20.0 0.0 0.0 18.0 
529.0006637851751 0.0 0.0 19.0 0.0 0.0 18.0 
530.0011566565084 0.0 0.0 19.0 0.0 0.0 18.0 
531.0009986518029 0.0 0.0 19.0 0.0 0.0 18.0 
532.000187929655 0.0 0.0 19.0 0.0 0.0 18.0 
533.001395668623 0.0 0.0 19.0 0.0 0.0 18.0 
534.0022836956981 0.0 0.0 19.0 0.0 0.0 18.0 
535.006743543239 0.0 0.0 19.0 0.0 0.0 17.0 
536.0022280712434 0.0 0.0 19.0 0.0 0.0 17.0 
537.000187929655 0.0 0.0 19.0 0.0 0.0 16.0 
538.001395668623 0.0 0.0 20.0 0.0 0.0 17.0 
539.0012659604282 0.0 0.0 21.0 0.0 0.0 17.0 
540.0001537436175 0.0 0.0 21.0 0.0 0.0 17.0 
541.0022280712434 0.0 0.0 20.0 0.0 0.0 17.0 
542.000187929655 0.0 0.0 20.0 0.0 0.0 17.0 
543.0012610662666 0.0 0.0 20.0 0.0 0.0 17.0 
544.0001361832752 0.0 0.0 20.0 0.0 0.0 17.0 
545.0002261884542 0.0 0.0 19.0 0.0 0.0 18.0 
546.0005244790109 0.0 0.0 19.0 0.0 0.0 19.0 
547.000187929655 0.0 0.0 19.0 0.0 0.0 20.0 
548.0004628332102 0.0 0.0 19.0 0.0 0.0 20.0 
549.0001369750933 0.0 0.0 19.0 0.0 0.0 19.0 
550.0020553931522 0.0 0.0 19.0 0.0 0.0 19.0 
551.0012955060411 0.0 0.0 19.0 0.0 0.0 19.0 
552.000187929655 0.0 0.0 19.0 0.0 0.0 19.0 
553.001395668623 0.0 0.0 19.0 0.0 0.0 19.0 
554.0001950526001 0.0 0.0 20.0 0.0 0.0 18.0 
555.0037293062328 0.0 0.0 20.0 0.0034054850438245735 1.7027425219122847 18.0 
556.0012731165732 0.0 0.0 20.0 0.0 0.0 18.0 
557.000187929655 0.0 0.0 20.0 0.0034054850438245735 1.7027425219122847 18.0 
558.001395668623 0.0 0.0 20.0 0.018400934854560267 9.200467427280131 18.0 
559.0028776408254 0.0 0.0 20.0 0.018400934854560267 9.200467427280131 18.0 
560.0040012088426 0.0 0.0 20.0 0.0 0.0 18.0 
561.0022280712434 0.0 0.0 20.0 0.0 0.0 17.0 
562.000187929655 0.0 0.0 20.0 0.0 0.0 17.0 
563.0008292086787 0.0 0.0 20.0 0.0 0.0 17.0 
564.0019304404881 0.0 0.0 19.0 0.0 0.0 17.0 
565.0033867893758 0.0 0.0 19.0 0.0 0.0 17.0 
566.0005719289209 0.0 0.0 19.0 0.0 0.0 17.0 
567.000187929655 0.03232013368937218 6.563085966923751 20.0 0.0 0.0 17.0 
568.001395668623 0.03659240394646076 11.733116006306659 20.0 0.0 0.0 17.0 
569.0019325781301 0.03659240394646076 11.733116006306659 20.0 0.0 0.0 18.0 
570.0008644990033 0.03659240394646076 11.733116006306659 20.0 0.0 0.0 17.0 
571.001299896313 0.006426926327191039 3.213463163595492 20.0 0.0 0.0 19.0 
572.000187929655 0.009749923613505681 4.874961806752822 20.0 0.0 0.0 18.0 
573.0010082652745 0.0 0.0 19.0 0.0 0.0 18.0 
574.0008630042529 0.0 0.0 19.0 0.0 0.0 18.0 
575.0002416638794 0.0 0.0 19.0 0.0 0.0 18.0 
576.0022280712434 0.0 0.0 19.0 0.0 0.0 19.0 
577.000187929655 0.008677286271271836 4.338643135635948 20.0 0.0 0.0 19.0 
578.0006567404188 0.0 0.0 22.0 0.0 0.0 19.0 
579.0014354408983 0.0 0.0 22.0 0.0 0.0 19.0 
580.0029223152034 0.0 0.0 22.0 0.0 0.0 19.0 
581.0022280712434 0.009082088686884246 4.541044343442138 21.0 0.0 0.0 19.0 
582.000187929655 0.009082088686884246 4.541044343442138 22.0 0.0 0.0 19.0 
583.0000619818372 0.009082088686884246 4.541044343442138 22.0 0.0 0.0 19.0 
584.0031288066405 0.009082088686884246 4.541044343442138 21.0 0.0 0.0 19.0 
585.0008690543165 0.009082088686884246 4.541044343442138 21.0 0.0 0.0 18.0 
586.000557320489 0.009082088686884246 4.541044343442138 22.0 0.0 0.0 18.0 
587.000187929655 0.09898505435349315 33.62289525542457 23.0 0.0 0.0 17.0 
588.001395668623 0.0317392638426439 15.869631921321911 25.0 0.0 0.0 17.0 
589.0042738100015 0.0 0.0 25.0 0.0 0.0 17.0 
590.0013506621223 0.0 0.0 25.0 0.0 0.0 17.0 
591.0002960180952 0.0 0.0 25.0 0.0 0.0 17.0 
592.000187929655 0.0 0.0 24.0 0.0 0.0 17.0 
593.0005251853889 0.0 0.0 23.0 0.0 0.0 17.0 
594.0017248717484 0.0 0.0 23.0 0.0 0.0 17.0 
595.010009498709 0.0 0.0 23.0 0.0 0.0 17.0 
596.0021180482041 0.0 0.0 23.0 0.0 0.0 17.0 
597.000187929655 0.0 0.0 23.0 0.0 0.0 17.0 
598.0004304009573 0.0 0.0 22.0 0.0 0.0 16.0 
599.0013391352246 0.0 0.0 21.0 0.0 0.0 16.0 
600.0000124428533 0.0 0.0 24.0 0.0 0.0 17.0 
#####################################################################
# End of data export. Simulation finished at: 2019-02-25T20:11+0000 #
#####################################################################
