#####################################################################
# Alchemist log file - simulation started at: 2019-02-25T20:41+0000 #
#####################################################################
# seed = 175.0
#
# The columns have the following meaning: 
# time distance-rep[Mean] distance-rep[Max] leader-rep[CountDistinct] distance-share[Mean] distance-share[Max] leader-share[CountDistinct] 
0.0 NaN NaN NaN NaN NaN NaN 
1.0064688603443095 0.0 0.0 498.0 0.0 0.0 75.0 
2.0014288436138075 0.0 0.0 117.0 0.0 0.0 69.0 
3.0051964175890578 0.0 0.0 109.0 0.0 0.0 61.0 
4.001952286652801 0.0 0.0 108.0 0.0 0.0 52.0 
5.002288165055109 0.0 0.0 101.0 0.0 0.0 47.0 
6.0007814932488 0.0 0.0 92.0 0.0 0.0 45.0 
7.002162373936459 0.0 0.0 88.0 0.0 0.0 43.0 
8.005196417589058 0.0 0.0 83.0 0.0 0.0 40.0 
9.00082854643666 0.0 0.0 77.0 0.0 0.0 38.0 
10.001681408721247 0.0 0.0 76.0 0.0 0.0 38.0 
11.00489721168755 0.0 0.0 69.0 0.0 0.0 36.0 
12.002162373936459 0.0 0.0 69.0 0.02557322503129053 12.786612515645317 33.0 
13.002500452539223 0.0 0.0 67.0 0.0 0.0 34.0 
14.00150138837091 0.0 0.0 62.0 3.501250608080674E-4 0.17506253040403408 37.0 
15.004803289906386 0.0 0.0 63.0 0.036281338052872876 18.140669026436512 32.0 
16.001707487878928 0.0 0.0 59.0 0.036281338052872876 18.140669026436512 29.0 
17.002162373936457 0.0 0.0 58.0 0.022254953675510798 10.700078269203004 28.0 
18.000084014708936 0.0 0.0 55.0 0.022254953675510798 10.700078269203004 27.0 
19.000468730869333 0.0 0.0 52.0 8.547971371048133E-4 0.4273985685524053 28.0 
20.00236977968518 0.0 0.0 49.0 0.0 0.0 27.0 
21.001049500295785 0.0 0.0 49.0 0.0 0.0 27.0 
22.002162373936457 0.0 0.0 47.0 0.0 0.0 28.0 
23.00221938699117 0.0 0.0 48.0 0.0 0.0 25.0 
24.002637819787502 0.0 0.0 46.0 0.0 0.0 23.0 
25.00125909534104 0.0 0.0 46.0 0.0 0.0 21.0 
26.002025903083926 0.0 0.0 44.0 0.019944215225700408 9.972107612850152 22.0 
27.002162373936457 0.0 0.0 43.0 0.0 0.0 25.0 
28.002064941358878 0.0 0.0 43.0 0.0 0.0 21.0 
29.00221951377758 0.0 0.0 42.0 0.00327551869292547 1.6377593464627296 21.0 
30.00033541718679 0.0 0.0 41.0 0.00327551869292547 1.6377593464627296 21.0 
31.003177099494597 0.0 0.0 39.0 0.0 0.0 22.0 
32.00144152680235 0.0 0.0 40.0 0.0 0.0 22.0 
33.0015711304773 0.0 0.0 38.0 0.0 0.0 22.0 
34.000458768907876 0.0 0.0 39.0 0.016680386173492972 8.340193086746524 23.0 
35.00128189781336 0.0 0.0 38.0 0.016680386173492972 8.340193086746524 23.0 
36.000330469381424 0.0 0.0 38.0 0.0 0.0 22.0 
37.00045778512346 0.0 0.0 34.0 0.0 0.0 22.0 
38.00267725387476 0.0025665536659681006 1.2832768329840576 36.0 0.0 0.0 22.0 
39.003131139650876 0.0025665536659681006 1.2832768329840576 37.0 0.0 0.0 21.0 
40.00305695954381 0.0025665536659681006 1.2832768329840576 39.0 0.0 0.0 21.0 
41.0017395705947 0.017603540140702572 8.801770070351267 38.0 0.0 0.0 22.0 
42.00021534564742 0.0 0.0 35.0 0.0 0.0 22.0 
43.00340622327982 0.0 0.0 35.0 0.0 0.0 22.0 
44.003131139650876 0.0 0.0 34.0 0.0 0.0 24.0 
45.00092733307925 0.0 0.0 34.0 0.0 0.0 23.0 
46.0016525340271 0.0 0.0 34.0 0.0 0.0 23.0 
47.00051386422731 0.0 0.0 35.0 0.0 0.0 22.0 
48.00364386716722 0.0 0.0 36.0 0.0 0.0 21.0 
49.0013866151105 0.0 0.0 33.0 0.0 0.0 21.0 
50.00124841382743 0.0 0.0 34.0 0.0 0.0 21.0 
51.00019227530344 0.0 0.0 34.0 0.0 0.0 21.0 
52.0004738353537 0.0 0.0 32.0 0.0 0.0 21.0 
53.00042540554571 0.0 0.0 33.0 0.0 0.0 22.0 
54.000240891940074 0.005435772846643203 2.717886423321602 31.0 0.0 0.0 23.0 
55.00461852598653 0.005435772846643203 2.717886423321602 31.0 0.0 0.0 25.0 
56.00280220504387 0.005435772846643203 2.717886423321602 31.0 0.0 0.0 24.0 
57.00216237393646 0.005435772846643203 2.717886423321602 31.0 0.0 0.0 22.0 
58.000763354053035 0.005435772846643203 2.717886423321602 31.0 0.0 0.0 22.0 
59.003131139650876 0.01945355314261777 9.726776571308875 31.0 0.0 0.0 22.0 
60.000448379529345 0.03042653365589454 15.213266827947308 31.0 0.0 0.0 22.0 
61.000491310974326 0.03042653365589454 15.213266827947308 31.0 0.0 0.0 22.0 
62.000663159654735 0.0 0.0 32.0 0.0 0.0 21.0 
63.00053344341007 0.0 0.0 31.0 0.0 0.0 21.0 
64.00313113965088 0.0014551790437511661 0.7275895218755863 33.0 0.0 0.0 21.0 
65.00074148421481 0.0014551790437511661 0.7275895218755863 33.0 0.0 0.0 20.0 
66.0039707191008 0.0014551790437511661 0.7275895218755863 33.0 0.0 0.0 23.0 
67.00026454009125 0.007629788522030967 3.06984095584059 38.0 0.0 0.0 23.0 
68.00519641758906 0.006139681911681177 3.06984095584059 39.0 0.0 0.0 23.0 
69.00156419850248 0.012012019382981812 5.030427492837134 37.0 0.0 0.0 23.0 
70.0004442897642 0.001951164397307536 0.9755821986537683 34.0 0.0 0.0 23.0 
71.00199351782737 0.0 0.0 33.0 0.0 0.0 24.0 
72.00216237393646 0.0 0.0 32.0 0.0 0.0 24.0 
73.00215122952525 0.003121920821448478 1.560960410724249 32.0 0.0 0.0 24.0 
74.00226008872419 0.011753515170206936 4.315797174379242 32.0 0.0 0.0 24.0 
75.00301673451898 0.011753515170206936 4.315797174379242 32.0 0.0 0.0 24.0 
76.00157809689622 0.011753515170206936 4.315797174379242 32.0 0.0 0.0 24.0 
77.00062479070121 0.020918625250724493 4.58255504025874 32.0 0.0 0.0 25.0 
78.00154725806424 0.08744709956254719 12.827349894833787 32.0 0.0 0.0 25.0 
79.00313113965088 0.09225292841676087 12.827349894833787 32.0 0.0 0.0 25.0 
80.00029090116765 0.10005510522627165 12.827349894833787 32.0 0.0 0.0 25.0 
81.00048922994775 0.10005510522627165 12.827349894833787 31.0 0.0 0.0 25.0 
82.00216237393646 0.10005510522627165 12.827349894833787 31.0 0.0 0.0 25.0 
83.00063567079697 0.07557169539146742 11.222079887636937 31.0 0.0 0.0 23.0 
84.00288681998032 0.07946894250074563 11.222079887636937 30.0 0.0 0.0 23.0 
85.00084358434466 0.07675380518560294 11.222079887636937 29.0 0.0 0.0 23.0 
86.00123407041936 0.1180482376431811 13.919759590865937 29.0 0.0 0.0 22.0 
87.00076935859803 0.1180482376431811 13.919759590865937 30.0 0.0 0.0 22.0 
88.00254827328477 0.1364312624623645 17.573149310337328 30.0 0.0 0.0 22.0 
89.00048701184937 0.15477455869610318 18.535756518004888 26.0 0.0 0.0 22.0 
90.00110088662232 0.16917193904944736 19.193082563941914 26.0 0.0 0.0 21.0 
91.00646886034431 0.18048276256932722 19.193082563941914 26.0 0.0 0.0 22.0 
92.00216237393646 0.18048276256932722 19.193082563941914 26.0 0.0 0.0 22.0 
93.00423684818973 0.17756146693174946 22.11535708617555 25.0 0.0 0.0 22.0 
94.00113478925142 0.09947068351946961 20.96798838875057 25.0 0.0 0.0 22.0 
95.00354688458503 0.09947068351946961 20.96798838875057 25.0 0.0 0.0 22.0 
96.00014080381554 0.016522184316467136 8.261092158233566 24.0 0.0 0.0 22.0 
97.00121151858514 0.0 0.0 24.0 0.0 0.0 22.0 
98.00040045290001 0.0 0.0 22.0 0.0 0.0 22.0 
99.00032541203788 0.0 0.0 23.0 0.0 0.0 23.0 
100.00269143403513 0.0 0.0 22.0 0.0 0.0 22.0 
101.00546370217836 0.0 0.0 22.0 0.0 0.0 22.0 
102.00026673256737 0.0 0.0 22.0 0.0 0.0 21.0 
103.00197762853183 0.0 0.0 22.0 0.0 0.0 21.0 
104.00313113965088 0.0 0.0 22.0 0.0 0.0 21.0 
105.00133889368763 0.0 0.0 22.0 0.0 0.0 21.0 
106.0022004640954 0.0 0.0 22.0 0.0 0.0 21.0 
107.00216237393646 0.0 0.0 22.0 0.0 0.0 21.0 
108.00029363672658 0.0 0.0 22.0 0.0 0.0 20.0 
109.00049225580635 0.0 0.0 22.0 0.0 0.0 20.0 
110.00105099624317 0.0 0.0 22.0 0.0 0.0 21.0 
111.00153937819152 0.0034892909239638125 1.7446454619819178 22.0 0.0 0.0 21.0 
112.00167665300616 0.0 0.0 23.0 0.0 0.0 21.0 
113.00025052011819 0.0 0.0 23.0 0.0 0.0 21.0 
114.00036522729323 0.011268561680091514 5.634280840045761 23.0 0.0 0.0 21.0 
115.0003181507799 0.011268561680091514 5.634280840045761 23.0 0.0 0.0 21.0 
116.00634004294123 0.006283817684964914 3.141908842482451 23.0 0.0 0.0 22.0 
117.00095086093549 0.021334899513951157 10.667449756975543 23.0 0.0 0.0 22.0 
118.00039912776857 0.02142107188079987 10.667449756975543 23.0 0.0 0.0 22.0 
119.00241069586127 0.02142107188079987 10.667449756975543 23.0 0.0 0.0 22.0 
120.00593057156397 0.02142107188079987 10.667449756975543 23.0 0.0 0.0 22.0 
121.00646886034431 0.034341323539434115 8.610207138966729 23.0 0.0 0.0 21.0 
122.00216237393646 0.05304221156955676 17.910898645811642 23.0 0.0 0.0 21.0 
123.00130264859203 0.1559578957270809 25.24524932605337 23.0 0.0 0.0 21.0 
124.00032646716728 0.20784320889248 26.36809237098069 23.0 0.0 0.0 21.0 
125.00136036992271 0.27542327457061194 36.71557484204618 23.0 0.0 0.0 21.0 
126.00047282775928 0.05396349561644126 26.556312019939554 23.0 0.0 0.0 21.0 
127.00061035573876 0.0 0.0 22.0 0.0 0.0 21.0 
128.0017920742216 0.0 0.0 22.0 0.0 0.0 23.0 
129.00235030895433 0.0 0.0 22.0 0.0 0.0 22.0 
130.00334497663536 0.0 0.0 23.0 0.0 0.0 22.0 
131.00095361709737 0.0 0.0 24.0 0.0 0.0 22.0 
132.00021620536393 0.0 0.0 24.0 0.0 0.0 22.0 
133.00519641758905 0.0 0.0 23.0 0.0 0.0 22.0 
134.00313113965086 0.0 0.0 23.0 0.0 0.0 21.0 
135.0031490727825 0.0 0.0 23.0 0.0 0.0 21.0 
136.00441208310787 0.0 0.0 23.0 0.0 0.0 21.0 
137.00216237393647 0.0 0.0 23.0 0.0 0.0 21.0 
138.00295971116006 0.0 0.0 23.0 0.0 0.0 21.0 
139.00206994270684 0.0 0.0 23.0 0.0 0.0 21.0 
140.00075300960896 0.0 0.0 23.0 0.0 0.0 21.0 
141.00016766617236 0.0 0.0 23.0 0.0 0.0 21.0 
142.00216237393647 0.0 0.0 23.0 0.0 0.0 22.0 
143.00133680040005 0.0 0.0 22.0 0.0 0.0 22.0 
144.00049526515525 0.0 0.0 22.0 0.0 0.0 22.0 
145.00009683805712 0.0 0.0 21.0 0.0 0.0 22.0 
146.00090784275986 0.0 0.0 21.0 0.0 0.0 22.0 
147.0014070393369 0.0 0.0 21.0 0.0 0.0 21.0 
148.00519641758905 0.0 0.0 21.0 0.0 0.0 21.0 
149.00102901617493 0.007703729848568213 3.8518649242840866 22.0 0.0 0.0 21.0 
150.00094371714454 0.007703729848568213 3.8518649242840866 22.0 0.0 0.0 21.0 
151.00433890190118 0.007703729848568213 3.8518649242840866 22.0 0.0 0.0 21.0 
152.00216237393647 0.007703729848568213 3.8518649242840866 21.0 0.0 0.0 21.0 
153.00519641758905 0.022340305619250322 11.170152809625222 20.0 0.0 0.0 21.0 
154.00313113965086 0.010961276235957941 5.480638117978941 20.0 0.0 0.0 21.0 
155.0071776063793 0.010961276235957941 5.480638117978941 20.0 0.0 0.0 20.0 
156.00052881941338 0.010961276235957941 5.480638117978941 20.0 0.0 0.0 21.0 
157.00008879805998 0.030790204111019848 15.395102055510108 20.0 0.0 0.0 20.0 
158.00030968847446 0.031030191332480132 15.515095666240029 20.0 0.0 0.0 20.0 
159.00010894767053 0.05737673904552962 15.515095666240029 20.0 0.0 0.0 20.0 
160.00196475498007 0.08154690920834765 15.328780116882768 20.0 0.0 0.0 21.0 
161.00057883168063 0.08154690920834765 15.328780116882768 20.0 0.0 0.0 21.0 
162.00216237393647 0.0754684803873958 15.328780116882768 20.0 0.0 0.0 21.0 
163.00403535184682 0.044810920153630814 12.271400630766067 20.0 0.0 0.0 20.0 
164.0005937926733 0.0331701049272284 8.266459145264122 20.0 0.0 0.0 20.0 
165.00046376971946 0.05412066661770084 15.333500217956214 20.0 0.0 0.0 20.0 
166.00178113368614 0.18174543364426612 25.179096335846367 20.0 0.0 0.0 21.0 
167.00060698674505 0.11603203992346986 28.408218114239986 20.0 0.0 0.0 21.0 
168.00489985766689 0.2073110572932335 30.306008466925647 20.0 0.0 0.0 21.0 
169.00313113965086 0.08261209810158646 22.80240746830708 20.0 0.0 0.0 20.0 
170.0001532644938 0.05828958849538815 15.23457301078389 21.0 0.0 0.0 21.0 
171.00086724714274 0.09451447212599995 23.7467733629243 21.0 0.0 0.0 21.0 
172.0001312608432 0.059746543886360005 15.23457301078389 22.0 0.0 0.0 22.0 
173.00344592576192 0.04446684496685804 13.310598879612144 21.0 0.0 0.0 21.0 
174.00120017779815 0.03340701715796541 13.310598879612144 21.0 0.0 0.0 22.0 
175.00217483523124 0.06393108699772938 15.262034919881984 20.0 0.0 0.0 21.0 
176.00116224252594 0.11126014552391396 27.057438962462925 19.0 0.0 0.0 21.0 
177.00112602083834 0.11155937456561832 27.057438962462925 19.0 0.0 0.0 20.0 
178.0005030932293 0.14148763246788915 27.057438962462925 19.0 0.0 0.0 20.0 
179.00313113965086 0.21033256294600722 30.911647093885364 19.0 0.0 0.0 20.0 
180.00077817884667 0.1336446238957895 28.274248047148262 18.0 0.0 0.0 20.0 
181.0015699066652 0.06268502994348162 16.048097437541713 18.0 0.0 0.0 21.0 
182.00216237393647 0.06268502994348162 16.048097437541713 18.0 0.0 0.0 21.0 
183.00052119785343 0.08042831117188456 22.82615960151233 18.0 0.0 0.0 21.0 
184.00291787553644 0.11036583288196396 22.82615960151233 18.0 0.0 0.0 21.0 
185.00262923576673 0.10590971725012573 15.34491801924625 18.0 0.0 0.0 21.0 
186.00127008229467 0.0958714336288357 15.34491801924625 19.0 0.0 0.0 22.0 
187.0016608082464 0.0958714336288357 15.34491801924625 19.0 0.0 0.0 23.0 
188.00043783088518 0.18296385082422478 23.84583827601972 19.0 0.0 0.0 23.0 
189.0023509648591 0.23308207695009392 23.84583827601972 19.0 0.0 0.0 23.0 
190.00349712338604 0.21782425805184957 27.036609558580068 19.0 0.0 0.0 23.0 
191.00001463779222 0.2053834947347315 27.036609558580068 19.0 0.0 0.0 23.0 
192.00167480659294 0.21148822088533983 27.036609558580068 19.0 0.0 0.0 22.0 
193.0012183844738 0.3467636116184828 38.806918687162124 19.0 0.0 0.0 22.0 
194.000215098613 0.3581702206657174 38.806918687162124 19.0 0.0 0.0 22.0 
195.00054194308464 0.4058887773957327 38.806918687162124 20.0 0.0 0.0 22.0 
196.00502069012254 0.46906890500795995 38.806918687162124 20.0 0.0 0.0 21.0 
197.00178965164645 0.4033493047217711 34.25600999840222 20.0 0.0 0.0 21.0 
198.0008056479534 0.7544846726764078 42.06351351247048 22.0 0.0 0.0 21.0 
199.00056076025552 0.7183896346288798 41.81695075272637 20.0 0.0 0.0 21.0 
200.00089965986288 0.6183133032632757 29.581192380353855 20.0 0.0 0.0 21.0 
201.00000741809671 0.6008359763357604 27.49662294969042 20.0 0.0 0.0 21.0 
202.0010425115832 0.6247262493484674 28.637630922223394 20.0 0.0 0.0 21.0 
203.0001420605345 0.9080809987606248 58.687078190175896 20.0 0.0 0.0 23.0 
204.00072763428852 1.0078229674637302 58.687078190175896 20.0 0.0 0.0 23.0 
205.00162292824484 1.0528243282219518 58.687078190175896 19.0 0.0 0.0 22.0 
206.0001879996161 0.818214849032501 38.715245013358754 19.0 0.0 0.0 22.0 
207.00216237393647 0.9464762086137265 56.62471024062944 19.0 0.0 0.0 21.0 
208.0007187089033 1.03945362870547 45.88056361648819 19.0 0.0 0.0 25.0 
209.0004141566214 1.3336265907280949 64.05969195327225 19.0 0.0 0.0 26.0 
210.00042058376476 1.4832863328061416 64.05969195327225 19.0 0.0 0.0 25.0 
211.004632577473 1.4089918969014097 64.05969195327225 19.0 0.0 0.0 24.0 
212.0005481846587 1.5095918694664405 56.55298649792303 19.0 0.0 0.0 24.0 
213.0011928584911 1.818708394326635 69.86559928505648 19.0 0.0 0.0 23.0 
214.00031359926518 2.076561595761464 70.1074139223486 18.0 0.0 0.0 22.0 
215.00179750585775 2.034495851316656 67.78842924486287 17.0 0.0 0.0 22.0 
216.00186513204713 2.135636330148832 63.9456926026848 17.0 0.0 0.0 21.0 
217.00216237393647 2.0025817977121423 63.9456926026848 17.0 0.0 0.0 21.0 
218.00125161046844 2.2910333812742603 69.51180521954996 17.0 0.0 0.0 21.0 
219.0020175442747 2.400087035329925 69.32671565058382 17.0 0.0 0.0 21.0 
220.000054302388 2.226109609064645 64.07136617132295 17.0 0.0 0.0 21.0 
221.0064688603443 2.182868380798738 64.07136617132295 18.0 0.0 0.0 19.0 
222.00012282706888 1.9591450239382096 64.07136617132295 18.0 0.0 0.0 19.0 
223.00031855734022 2.2302537287954096 58.43065493276009 18.0 0.0 0.0 19.0 
224.00068911933081 2.712171749293659 69.13041398295843 18.0 0.0 0.0 18.0 
225.0006177227534 2.5663964254800637 64.1857628119713 19.0 0.0 0.0 18.0 
226.00416011710567 2.4303672591135967 64.1857628119713 19.0 0.0 0.0 18.0 
227.00008335613416 2.2987829704413305 64.1857628119713 19.0 0.0 0.0 18.0 
228.00025816650674 2.5948188501789207 68.75287819041245 19.0 0.0 0.0 18.0 
229.00034637632615 2.6710545192430843 68.75287819041245 19.0 0.0 0.0 18.0 
230.00321101725615 2.895456288185033 68.75287819041245 19.0 0.0 0.0 18.0 
231.00077268426688 2.6367879960945735 64.14254994000686 19.0 0.0 0.0 19.0 
232.00216237393647 2.4905401135781258 64.14254994000686 20.0 0.0 0.0 20.0 
233.00121031566513 2.1060092497311462 69.97396098994926 20.0 0.0 0.0 20.0 
234.0015317713253 1.7267099301501396 69.97396098994926 19.0 0.0 0.0 19.0 
235.00143461954778 1.297828679620232 69.97396098994926 20.0 0.0 0.0 19.0 
236.00030467218815 1.1287989436497605 69.97396098994926 21.0 0.0 0.0 19.0 
237.00216237393647 1.0979041616003296 69.92558603732056 21.0 0.0 0.0 19.0 
238.0006116184604 0.9131896133271006 76.15209213828899 21.0 0.0 0.0 19.0 
239.00231729432778 0.49000847397999125 43.905162506990195 20.0 0.0 0.0 19.0 
240.00129859060894 0.4603732502477194 43.905162506990195 20.0 0.0 0.0 19.0 
241.00246344613117 0.4545313980779319 43.29449590279697 20.0 0.0 0.0 19.0 
242.00216237393647 0.39060695667927686 43.29449590279697 21.0 0.0 0.0 19.0 
243.00230246220744 0.46008465587474867 43.29449590279697 21.0 0.0 0.0 19.0 
244.00121396356212 0.5161140025061092 43.914483921188804 21.0 0.0 0.0 19.0 
245.0019690981335 0.5292734761440734 43.914483921188804 21.0 0.0 0.0 19.0 
246.00071681998446 0.49396834909772164 43.304259917613564 21.0 0.0 0.0 19.0 
247.00216237393647 0.42005810404718025 36.41328887335192 21.0 0.0 0.0 19.0 
248.00254490002584 0.45447773034144634 43.91433782922846 21.0 0.0 0.0 19.0 
249.00081911630414 0.585039465851803 43.59847231541437 21.0 0.0 0.0 19.0 
250.00564282448457 0.561260465763239 43.91433782922846 21.0 0.0 0.0 20.0 
251.00011871525203 0.468852323149445 36.548384588282204 21.0 0.0 0.0 20.0 
252.0011804372465 0.4540429533105871 36.548384588282204 21.0 0.0 0.0 20.0 
253.00058817189213 0.4685210102063104 39.236272687609244 21.0 0.0 0.0 20.0 
254.0002902438236 0.5810344143574268 39.236272687609244 21.0 0.0 0.0 20.0 
255.00021746400571 0.55214783931397 39.236272687609244 22.0 0.0 0.0 20.0 
256.00067418204225 0.5518719088122266 39.236272687609244 22.0 0.0 0.0 19.0 
257.00197111826674 0.4595954977016033 31.86504022469805 23.0 0.0 0.0 20.0 
258.0020302027604 0.48740305117543 37.81160960448469 22.0 0.0 0.0 20.0 
259.0006431865233 0.4792351524200435 30.954522545686643 22.0 0.0 0.0 20.0 
260.0006032261804 0.43042794546044844 30.954522545686643 22.0 0.0 0.0 20.0 
261.0012828303946 0.401248329790275 30.481620660810933 22.0 0.0 0.0 20.0 
262.00106434349163 0.3544659973158678 30.458075643614308 22.0 0.0 0.0 20.0 
263.00025204438356 0.40724441362576735 41.0393204761794 22.0 0.0 0.0 21.0 
264.0005873872756 0.299637798511847 28.968895594878575 22.0 0.0 0.0 21.0 
265.0021710979689 0.23302166143593778 27.46612334314969 22.0 0.0 0.0 21.0 
266.001129454589 0.16871249801758453 24.008320421928346 22.0 0.0 0.0 20.0 
267.0002987231825 0.10057201276716222 17.085020801994602 22.0 0.0 0.0 19.0 
268.00370358219124 0.09240612464872788 17.085020801994602 22.0 0.0 0.0 19.0 
269.0006276562328 0.12948256694899715 16.114711714518023 22.0 0.0 0.0 19.0 
270.0022509577395 0.11165293317284883 16.114711714518023 22.0 0.0 0.0 19.0 
271.0019750136461 0.09662040267370793 16.114711714518023 22.0 0.0 0.0 19.0 
272.00134474809823 0.09015753882606978 15.755253645995282 22.0 0.0 0.0 19.0 
273.0010856130319 0.09317524617670779 17.1539020317484 22.0 0.0 0.0 19.0 
274.001762795384 0.09317524617670779 17.1539020317484 22.0 0.0 0.0 19.0 
275.0018690948674 0.04416977606394506 9.684846469722942 22.0 0.0 0.0 19.0 
276.0014871002899 0.010685258530208762 2.172935249521828 22.0 0.0 0.0 18.0 
277.00018026781646 0.013022697612888708 3.3416547908617815 22.0 0.0 0.0 18.0 
278.00005624704943 0.0075092637460783766 2.5712419875890475 22.0 0.0 0.0 18.0 
279.0027276364248 0.0013236640279564514 0.661832013978227 22.0 0.0 0.0 18.0 
280.00046110964587 0.003690443798856724 1.18338988545014 22.0 0.0 0.0 18.0 
281.0006187488027 0.0 0.0 22.0 0.0 0.0 18.0 
282.00056676059785 0.0 0.0 22.0 0.0 0.0 18.0 
283.0016524740868 0.0 0.0 23.0 0.0 0.0 18.0 
284.0021271972075 0.0 0.0 23.0 0.0 0.0 18.0 
285.0000614683698 0.016012898984112515 4.173135165300835 22.0 0.0 0.0 18.0 
286.0008384401911 0.007666628653510799 3.8333143267554135 24.0 0.0 0.0 18.0 
287.00215535812094 0.008346270330601662 4.173135165300835 24.0 0.0 0.0 18.0 
288.00354201755783 0.009035207613951544 2.7257537457301453 23.0 0.0 0.0 18.0 
289.000009136318 0.0 0.0 21.0 0.0 0.0 19.0 
290.00403758863405 0.0 0.0 21.0 0.0 0.0 19.0 
291.0039972365389 0.0 0.0 22.0 0.0 0.0 19.0 
292.00216237393647 0.0 0.0 22.0 0.0 0.0 19.0 
293.00432921012606 0.0 0.0 22.0 0.0 0.0 19.0 
294.0010312031247 0.0 0.0 22.0 0.0 0.0 19.0 
295.00234285881237 0.0 0.0 21.0 0.0 0.0 19.0 
296.00014374655143 0.0 0.0 21.0 0.0 0.0 19.0 
297.0011948957367 0.0 0.0 22.0 0.0 0.0 19.0 
298.0013048456799 0.0 0.0 22.0 0.0 0.0 19.0 
299.00313113965086 0.0 0.0 22.0 0.0 0.0 19.0 
300.0015703880146 0.0 0.0 21.0 0.0 0.0 19.0 
301.0038364417465 0.0 0.0 21.0 0.0 0.0 19.0 
302.00216237393647 0.0 0.0 21.0 0.0 0.0 19.0 
303.00142367569015 0.0 0.0 21.0 0.0 0.0 19.0 
304.00063641980637 0.0 0.0 20.0 0.0 0.0 19.0 
305.0012066004026 0.0 0.0 20.0 0.0 0.0 19.0 
306.0014159476959 0.0 0.0 20.0 0.0 0.0 19.0 
307.00216237393647 0.0 0.0 21.0 0.0 0.0 20.0 
308.00031116276074 0.0 0.0 21.0 0.0 0.0 20.0 
309.00306865581706 0.0 0.0 21.0 0.0 0.0 20.0 
310.0004950927078 0.0 0.0 21.0 0.0 0.0 19.0 
311.0015425027529 0.0 0.0 21.0 0.0 0.0 19.0 
312.00005074630485 0.0 0.0 21.0 0.0 0.0 19.0 
313.0021224760006 0.0 0.0 21.0 0.0 0.0 19.0 
314.00059278464175 0.0 0.0 22.0 0.0 0.0 19.0 
315.00055887011354 0.0 0.0 23.0 0.0 0.0 18.0 
316.0018466913954 0.0 0.0 23.0 0.0 0.0 18.0 
317.0001129970877 0.0 0.0 22.0 0.0 0.0 18.0 
318.0007476489059 0.0 0.0 21.0 0.0 0.0 18.0 
319.00272861962213 0.0 0.0 22.0 0.0 0.0 18.0 
320.0056342657955 0.0 0.0 21.0 0.0 0.0 18.0 
321.0030039022476 0.0 0.0 21.0 0.0 0.0 18.0 
322.0007072171065 0.0 0.0 23.0 0.0 0.0 20.0 
323.00129005705065 0.0 0.0 24.0 0.0 0.0 21.0 
324.000297490089 0.0 0.0 24.0 0.0 0.0 21.0 
325.0006709033092 0.0 0.0 24.0 0.0 0.0 21.0 
326.00305406173544 0.0 0.0 24.0 0.0 0.0 21.0 
327.00041138679103 0.0 0.0 24.0 0.0 0.0 20.0 
328.00012154046044 0.0 0.0 24.0 0.0 0.0 20.0 
329.00187606834834 0.0 0.0 23.0 0.0 0.0 20.0 
330.002608409127 0.0 0.0 23.0 0.0 0.0 20.0 
331.0018533292689 0.0 0.0 23.0 0.0 0.0 20.0 
332.00216237393647 0.0 0.0 23.0 0.0 0.0 20.0 
333.00050503849315 0.0 0.0 23.0 0.0 0.0 20.0 
334.00146355726207 0.0 0.0 23.0 0.0 0.0 20.0 
335.0009621596612 0.0 0.0 23.0 0.0 0.0 20.0 
336.0018234613431 0.0 0.0 23.0 0.0 0.0 20.0 
337.00081823943066 0.0 0.0 23.0 0.0 0.0 22.0 
338.0013001833275 0.0 0.0 23.0 0.0 0.0 22.0 
339.0003833938692 0.0 0.0 23.0 0.0 0.0 22.0 
340.0002910191284 0.0 0.0 23.0 0.0 0.0 22.0 
341.00001354020384 0.0 0.0 23.0 0.0 0.0 22.0 
342.00077965736364 0.0 0.0 23.0 0.0 0.0 22.0 
343.00208803654596 0.0 0.0 23.0 0.0 0.0 22.0 
344.0025767731875 0.0 0.0 23.0 0.0 0.0 22.0 
345.0079821157421 0.0 0.0 23.0 0.0 0.0 23.0 
346.0004327792008 0.0 0.0 23.0 0.0 0.0 21.0 
347.0005697340191 0.007691650848508437 3.845825424254201 23.0 0.0 0.0 21.0 
348.00041463969495 0.007691650848508437 3.845825424254201 23.0 0.0 0.0 20.0 
349.00055816211557 0.004356995055734732 2.178497527867364 23.0 0.0 0.0 20.0 
350.0017562486863 0.004356995055734732 2.178497527867364 23.0 0.0 0.0 19.0 
351.00042476482685 0.004356995055734732 2.178497527867364 23.0 0.0 0.0 19.0 
352.0010660063429 0.0 0.0 23.0 0.0 0.0 19.0 
353.0002888679584 0.0 0.0 23.0 0.0 0.0 19.0 
354.0011500169344 2.23767092146714E-4 0.11188354607335782 23.0 0.0 0.0 18.0 
355.00321573798414 2.23767092146714E-4 0.11188354607335782 23.0 0.0 0.0 18.0 
356.0002475447134 2.23767092146714E-4 0.11188354607335782 22.0 0.0 0.0 18.0 
357.0005591008926 2.23767092146714E-4 0.11188354607335782 21.0 0.0 0.0 18.0 
358.00405453263147 0.014441464114477715 7.220732057238905 23.0 0.0 0.0 17.0 
359.0023824567566 0.0016923613225353613 0.846180661267681 23.0 0.0 0.0 17.0 
360.0020691010605 0.010715477602841667 4.511558140153198 23.0 0.0 0.0 17.0 
361.00275661607515 0.024121407872596572 6.702965134877417 22.0 0.0 0.0 20.0 
362.00216237393647 0.04302590043351413 9.452246280458724 22.0 0.0 0.0 20.0 
363.00258865612267 0.018904492560917474 9.452246280458724 22.0 0.0 0.0 19.0 
364.00111627527826 0.03722907924092201 9.452246280458724 22.0 0.0 0.0 21.0 
365.00077466274854 0.03722907924092201 9.452246280458724 22.0 0.0073611644589308 3.680582229465415 20.0 
366.00014127553203 0.07264245646494345 17.706688612010907 23.0 0.0073611644589308 3.680582229465415 20.0 
367.0000471153352 0.053737963904026055 17.706688612010907 24.0 0.0 0.0 21.0 
368.0023912346938 0.0 0.0 23.0 0.0 0.0 21.0 
369.0001324385108 0.046769463995029625 23.384731997514848 24.0 0.0 0.0 21.0 
370.0001877684469 0.046769463995029625 23.384731997514848 23.0 0.0 0.0 21.0 
371.001106170254 0.046769463995029625 23.384731997514848 22.0 0.0 0.0 21.0 
372.00043797045515 0.0 0.0 22.0 0.0 0.0 21.0 
373.0012258086811 0.0 0.0 22.0 0.0 0.0 21.0 
374.00313113965086 0.04704689054301491 20.556635024993398 22.0 0.0 0.0 21.0 
375.00008225127976 0.002607245277205095 1.3036226386025476 21.0 0.0 0.0 21.0 
376.00513106158047 0.0 0.0 22.0 0.0 0.0 21.0 
377.00216237393647 0.0 0.0 21.0 0.0 0.0 20.0 
378.0021454921493 0.0 0.0 21.0 0.0 0.0 19.0 
379.00164773337445 0.0 0.0 20.0 0.0 0.0 19.0 
380.00498029759416 0.0 0.0 21.0 0.0 0.0 19.0 
381.0033902795235 0.0 0.0 21.0 0.0 0.0 19.0 
382.00216237393647 0.0 0.0 21.0 0.0 0.0 19.0 
383.0008703896924 0.0 0.0 21.0 0.0 0.0 19.0 
384.00043829170534 0.0 0.0 20.0 0.0 0.0 19.0 
385.0003554588301 0.0 0.0 21.0 0.0 0.0 19.0 
386.0023230500487 0.04076951284939263 8.10028858963426 21.0 0.0 0.0 19.0 
387.00010139306835 0.019887098107308696 6.789787436058418 20.0 0.0 0.0 19.0 
388.00095382993686 0.019887098107308696 6.789787436058418 20.0 0.0 0.0 19.0 
389.0003593682231 0.014200869164136386 3.785644581052509 20.0 0.0 0.0 19.0 
390.0021911596271 0.014200869164136386 3.785644581052509 20.0 0.0 0.0 19.0 
391.0045999962518 0.08622355585914503 25.12343946067739 20.0 0.0 0.0 18.0 
392.00016400305987 0.03440426304643598 11.790181312121717 19.0 0.0 0.0 19.0 
393.00012068466697 0.007571289162105057 3.785644581052509 20.0 0.0 0.0 18.0 
394.0013330278937 0.02668078017997123 6.678773909609987 20.0 0.0 0.0 18.0 
395.0006939683028 0.02668078017997123 6.678773909609987 21.0 0.0 0.0 18.0 
396.0019573068997 0.024025427614744202 6.661616180375603 22.0 0.0 0.0 20.0 
397.00151833124823 0.03475808015435521 13.899455749470917 23.0 0.0 0.0 19.0 
398.0024402135999 0.027798911498942043 13.899455749470917 22.0 0.0 0.0 19.0 
399.002155129268 0.0 0.0 22.0 0.0 0.0 18.0 
400.0002152022352 0.0 0.0 22.0 0.0 0.0 20.0 
401.00177736544555 0.01042759308929121 5.213796544645589 22.0 0.0 0.0 19.0 
402.0004950368852 0.0 0.0 22.0 0.0 0.0 19.0 
403.00009074328705 0.0 0.0 22.0 0.0 0.0 19.0 
404.0028844448768 0.0 0.0 22.0 0.0 0.0 19.0 
405.0024361144605 0.0 0.0 22.0 0.0 0.0 19.0 
406.0001652223563 0.0 0.0 21.0 0.0 0.0 19.0 
407.00216237393647 0.0 0.0 19.0 0.0 0.0 19.0 
408.00519641758905 0.0 0.0 18.0 0.0 0.0 19.0 
409.00004504808805 0.004287406536889302 2.1437032684446535 18.0 0.0 0.0 19.0 
410.00196433955006 0.018819799201500544 6.32364730893886 18.0 0.0 0.0 19.0 
411.0057097463704 0.018819799201500544 6.32364730893886 19.0 0.0 0.0 19.0 
412.0003199100483 0.031215187871359476 9.2839466267408 21.0 0.0 0.0 19.0 
413.000916137772 0.09510913837847447 31.946975253557525 20.0 0.005156249096980611 2.578124548490308 19.0 
414.0006977248649 0.12430559082719358 35.93356320292838 20.0 0.005156249096980611 2.578124548490308 19.0 
415.00166313116114 0.11410796912025732 23.452521284926206 20.0 0.020097016772482882 10.048508386241366 19.0 
416.00239893108517 0.1079538409893621 23.452521284926206 20.0 0.0 0.0 20.0 
417.001825876519 0.12027959796280557 23.452521284926206 20.0 0.0 0.0 20.0 
418.0002082986313 0.13841295400717352 23.452521284926206 20.0 0.0 0.0 20.0 
419.0021039626308 0.18340113016469092 33.70563765402326 21.0 0.0 0.0 20.0 
420.0064821091039 0.2590728200993792 38.35934595564407 20.0 0.0 0.0 20.0 
421.0002017904711 0.22248646878889872 38.35934595564407 21.0 0.0 0.0 20.0 
422.00216237393647 0.15207154296588238 27.36886746219642 22.0 0.0 0.0 20.0 
423.00229949488903 0.2969229939968607 33.06489548650862 21.0 0.0 0.0 20.0 
424.0007607841081 0.13821411922497753 28.07671935999332 21.0 0.0 0.0 19.0 
425.0069070978334 0.04091147063820479 13.661472790298859 20.0 0.0 0.0 19.0 
426.0016294229779 0.04091147063820479 13.661472790298859 20.0 0.002649978741106169 1.3249893705530837 19.0 
427.00142268230826 0.04091147063820479 13.661472790298859 20.0 0.002649978741106169 1.3249893705530837 19.0 
428.00037313983415 0.09798112040839431 25.874908159632696 20.0 0.002649978741106169 1.3249893705530837 18.0 
429.00040191643905 0.11369474412758326 30.619069374734238 19.0 0.0 0.0 19.0 
430.0057122716498 0.1447221792670059 30.619069374734238 19.0 0.0 0.0 18.0 
431.0064688603443 0.15757266277203436 30.619069374734238 19.0 0.0 0.0 17.0 
432.00143226053336 0.16754821086197447 30.619069374734238 20.0 0.0 0.0 17.0 
433.0008580818727 0.15294452843923997 30.06369454988979 20.0 0.0 0.0 17.0 
434.00014219218497 0.19269816878743118 35.13967570097245 20.0 0.0 0.0 16.0 
435.00117568116247 0.0283126920308699 8.419628157178522 20.0 0.0 0.0 16.0 
436.003503739053 0.09832767009315896 21.107597723647956 20.0 0.0 0.0 15.0 
437.00216237393647 0.06787518946005415 14.3009855642741 20.0 0.0 0.0 15.0 
438.00519641758905 0.098082722913555 14.3009855642741 20.0 0.0 0.0 15.0 
439.00313113965086 0.1280673661700583 20.12044484732303 20.0 0.0 0.0 15.0 
440.0028522792145 0.11603822717777205 21.760846163116014 20.0 0.0 0.0 15.0 
441.00000213982355 0.14819256364396313 21.760846163116014 20.0 0.0 0.0 15.0 
442.00095660466155 0.0999816517083604 15.728810591424605 20.0 0.0 0.0 15.0 
443.0014026213806 0.07769358727528895 15.728810591424605 20.0 0.0 0.0 15.0 
444.0002111345473 0.1579785861073033 47.243717691162885 20.0 0.0 0.0 15.0 
445.0026754165514 0.13077156879814625 39.92689924268916 20.0 0.0 0.0 15.0 
446.00049189039015 0.13277873211870658 39.92689924268916 20.0 0.0 0.0 15.0 
447.0003165104559 0.11849573029136008 39.92689924268916 20.0 0.0 0.0 15.0 
448.00340406765014 0.17685254302204179 39.92689924268916 19.0 0.0 0.0 15.0 
449.00166616887344 0.17028658339544564 33.6162000132596 19.0 0.0 0.0 14.0 
450.0088925976788 0.12360501254298265 26.21924242044514 19.0 0.0 0.0 14.0 
451.0006752737314 0.16660861504426316 26.21924242044514 19.0 0.0 0.0 15.0 
452.00152789694005 0.20194968426080548 26.21924242044514 19.0 0.0 0.0 15.0 
453.00251708422456 0.20441835633343203 26.21924242044514 19.0 0.0 0.0 15.0 
454.00101412934333 0.22156238950211712 24.640271075667073 19.0 0.0 0.0 15.0 
455.0005833903035 0.15062710245378738 22.33642072932591 19.0 0.0 0.0 14.0 
456.0027029098154 0.13911283560174525 22.37502428027028 19.0 0.0 0.0 14.0 
457.00155528258733 0.2188825897625941 24.640271075667073 19.0 0.0 0.0 14.0 
458.0010572562444 0.26780615845265665 24.640271075667073 19.0 0.0 0.0 14.0 
459.00313113965086 0.36046826098213425 28.41622314974387 19.0 0.0 0.0 14.0 
460.0004874567393 0.3030958297786451 28.41622314974387 19.0 0.0 0.0 15.0 
461.00036314503325 0.2569961367750106 22.355307083327915 18.0 0.0 0.0 13.0 
462.0003743529079 0.3971926448591781 33.726804906619236 18.0 0.0 0.0 13.0 
463.0007480166306 0.5912754425979815 38.007502101374314 18.0 0.0 0.0 13.0 
464.0011781438885 0.7346410157636198 49.30827360502758 18.0 0.0 0.0 13.0 
465.0044351163814 0.9094756426076392 85.78109040809966 18.0 0.0 0.0 14.0 
466.00006869161774 0.9135819447765299 85.78109040809966 18.0 0.0 0.0 14.0 
467.00181480272295 0.8687091025348261 90.59314910903424 18.0 0.0 0.0 14.0 
468.0026382279149 0.9324785077095262 90.59314910903424 17.0 0.0 0.0 13.0 
469.00059099019046 0.936191557350773 66.18039805942624 19.0 0.0 0.0 13.0 
470.00022039008894 0.6978751506877691 38.055871945596806 20.0 0.0 0.0 14.0 
471.00066915839415 0.6981739860286488 39.9719923407402 20.0 0.0 0.0 14.0 
472.0001936677512 0.6707434521410721 39.9719923407402 19.0 0.0 0.0 16.0 
473.00237847779266 0.7259599602467673 36.94921734220492 19.0 0.0 0.0 15.0 
474.0008210314109 0.720300092532698 34.52510331785271 19.0 0.0 0.0 15.0 
475.00105381501237 0.9497785950947866 41.46288981393235 19.0 0.0 0.0 15.0 
476.0021997111537 0.8385450279436422 41.46288981393235 20.0 0.0 0.0 15.0 
477.000181705221 0.7392427331683845 41.346865789728184 20.0 0.0 0.0 14.0 
478.00006800644803 0.7225617820696995 41.46288981393235 20.0 0.0 0.0 14.0 
479.00313113965086 1.0544527283050669 62.28105824048174 20.0 0.0 0.0 14.0 
480.00293493806674 0.9378002611964975 62.28105824048174 20.0 0.001108851391100865 0.5544256955504352 13.0 
481.00415507518534 1.165120449588261 62.28105824048174 20.0 0.001108851391100865 0.5544256955504352 13.0 
482.00210197640877 1.0306007078780886 62.28105824048174 19.0 0.001108851391100865 0.5544256955504352 13.0 
483.0043214478951 1.1946029192266108 62.28105824048174 20.0 0.0 0.0 13.0 
484.0011427732763 1.218182658061909 65.90327603096284 19.0 0.001064189395357631 0.532094697678815 13.0 
485.0003251264539 1.155943675859798 54.50451348289715 19.0 0.001064189395357631 0.532094697678815 13.0 
486.00148606265736 1.192689179281406 45.71164217285522 18.0 0.001064189395357631 0.532094697678815 13.0 
487.0004832963619 0.9909862052427656 45.71164217285522 18.0 0.0020418015660493443 1.020900783024672 14.0 
488.0023180562099 1.2685685082709053 54.50451348289715 18.0 0.0257517955479474 11.854996990949019 14.0 
489.00313113965086 1.4667402489076546 53.82525114867977 18.0 0.0020418015660493443 1.020900783024672 15.0 
490.0021823056784 1.6756945858574428 64.66321353573181 17.0 0.0020418015660493443 1.020900783024672 16.0 
491.00310114951174 1.4629869650468998 53.82525114867977 17.0 0.0 0.0 16.0 
492.00216237393647 1.3363021320583475 53.82525114867977 17.0 0.0 0.0 17.0 
493.00144258295825 1.4107968257836134 57.75549458324463 17.0 0.0 0.0 18.0 
494.00112552215575 1.703619184057215 65.11769984935523 17.0 0.0 0.0 18.0 
495.0033890524386 1.885472545659007 65.11769984935523 17.0 0.0 0.0 18.0 
496.00039174954264 1.8526206976742925 65.11769984935523 17.0 0.0 0.0 17.0 
497.00068554987337 1.9815584716399912 66.50337877827394 17.0 0.0 0.0 18.0 
498.0007849736251 2.032774172193538 66.50337877827394 17.0 0.0 0.0 18.0 
499.00289006774165 2.5464352963108734 79.21369375939463 17.0 0.0 0.0 18.0 
500.0023952344294 3.046310824814971 99.58894334966914 17.0 0.0 0.0 18.0 
501.0005551160826 3.1681770571904675 99.58894334966914 18.0 0.0 0.0 17.0 
502.00216237393647 3.1077000178118275 99.58894334966914 18.0 0.0 0.0 17.0 
503.00165812134577 2.994250746028666 99.58894334966914 18.0 0.0 0.0 17.0 
504.0019631127337 3.1726087235994416 99.58894334966914 18.0 0.0 0.0 17.0 
505.0004521335981 3.7343237189321474 100.8765203052343 19.0 0.0 0.0 17.0 
506.00308601209485 3.456478067532631 100.8765203052343 19.0 0.0 0.0 17.0 
507.00216237393647 3.5426082631042384 100.8765203052343 19.0 0.0 0.0 18.0 
508.00302506877796 3.5106282840076095 100.8765203052343 19.0 0.0 0.0 18.0 
509.00043390937367 3.773377489408304 100.8765203052343 19.0 0.0 0.0 18.0 
510.000949353936 4.0313034625713815 102.1737564039658 19.0 0.0 0.0 18.0 
511.0009550388139 4.2777096033767394 102.38241256877637 19.0 0.0 0.0 18.0 
512.0021623739365 4.053911416437196 102.38241256877637 19.0 0.0 0.0 18.0 
513.0017783974686 3.6723647149740737 102.38241256877637 20.0 0.0 0.0 18.0 
514.0031076207279 2.956889011512599 109.57874377182958 22.0 0.0 0.0 18.0 
515.0018518842998 2.565699869927363 109.57874377182958 23.0 0.0 0.0 18.0 
516.0008425334041 2.2159293098883257 80.69754964722529 23.0 0.0 0.0 18.0 
517.0013064834767 2.278790734291351 80.69754964722529 23.0 0.0 0.0 18.0 
518.0051964175891 1.8055865633924584 80.69754964722529 22.0 0.0 0.0 18.0 
519.0024117809788 1.7942163917332472 82.807083132316 22.0 0.0 0.0 18.0 
520.0011071846301 1.6597431932977031 85.98418520728603 22.0 0.0 0.0 18.0 
521.0030111577893 1.562838453786396 85.98418520728603 22.0 0.0 0.0 18.0 
522.0021623739365 1.4471357661028739 87.12114676052505 22.0 0.0 0.0 19.0 
523.0024280960023 1.540388094520848 87.12114676052505 22.0 0.0 0.0 19.0 
524.0001435671546 1.6399587775440998 93.73074790945816 23.0 0.0 0.0 19.0 
525.0001767907088 1.7165458142485628 97.73459728367749 23.0 0.0 0.0 20.0 
526.0025786849303 1.6354364939503592 97.73459728367749 24.0 0.0 0.0 21.0 
527.0021623739365 1.7338986179692477 99.0566321519463 24.0 0.0 0.0 21.0 
528.0001815121833 1.8266278873601554 99.0566321519463 25.0 0.0 0.0 22.0 
529.0002222926458 1.8267482573031406 109.90383731707152 25.0 0.0 0.0 22.0 
530.0024818813471 1.6704597801021999 109.90383731707152 23.0 0.0 0.0 23.0 
531.0054918809752 1.5817429790597488 109.90383731707152 23.0 0.0 0.0 24.0 
532.0019723190048 1.6045261837603002 111.23287209443936 23.0 0.0 0.0 24.0 
533.0012029335205 1.4547067486065568 111.23287209443936 22.0 0.0 0.0 24.0 
534.0031311396508 1.5555200722864801 117.66482215978908 23.0 0.0 0.0 24.0 
535.000118113634 1.5667260700399255 121.9529023808567 23.0 0.0 0.0 24.0 
536.0005711415395 1.7670008892853304 121.9529023808567 23.0 0.0 0.0 24.0 
537.000653304661 1.5405528730280469 123.28809108200551 23.0 0.0 0.0 24.0 
538.0035665712229 1.7967710212942674 123.28809108200551 23.0 0.0 0.0 25.0 
539.0010658970531 1.3549091988780768 124.78442362945714 23.0 0.0 0.0 25.0 
540.0035995827368 1.1654198911143225 126.08064739709505 23.0 0.0 0.0 25.0 
541.0064688603443 0.6847437179116366 124.78442362945714 23.0 0.0 0.0 25.0 
542.0021623739365 0.6636897490612161 114.25743920424702 22.0 9.446582740305936E-4 0.47232913701529355 25.0 
543.0034683865201 0.21395707607054248 106.97853803527124 23.0 0.015895479078569873 7.947739539284953 25.0 
544.0024149567122 0.0 0.0 22.0 0.015895479078569873 7.947739539284953 25.0 
545.0037058068269 0.0 0.0 22.0 0.015895479078569873 7.947739539284953 24.0 
546.0034751731807 0.0 0.0 22.0 0.015895479078569873 7.947739539284953 25.0 
547.0021623739365 0.0 0.0 22.0 0.030748396574120818 15.374198287060551 25.0 
548.002955516526 0.019169646858316212 5.211832961829259 22.0 0.04570644797273456 22.85322398636714 25.0 
549.0017516545961 0.047683979388721674 9.114468332196509 22.0 0.04570644797273456 22.85322398636714 25.0 
550.0023098132913 0.11705568573998516 18.680462709158007 22.0 0.04570644797273456 22.85322398636714 25.0 
551.0017183336431 0.10707448747505582 12.123700434363514 22.0 0.04570644797273456 22.85322398636714 25.0 
552.0000706359841 0.12656452254559025 12.123700434363514 22.0 0.06055015240572041 30.275076202860333 25.0 
553.0023002042658 0.1701859494927873 24.319659881299202 22.0 0.0 0.0 26.0 
554.0031276261308 0.21251430696216117 24.319659881299202 22.0 0.0 0.0 25.0 
555.0016410333304 0.2394227197895915 19.198269500122507 23.0 0.0 0.0 25.0 
556.0000167636726 0.20150504410884323 18.375732132815614 24.0 0.0 0.0 25.0 
557.0001898241032 0.214334863144951 21.59799527336503 24.0 0.0 0.0 25.0 
558.0009800120001 0.21672622404315522 21.59799527336503 23.0 0.0 0.0 25.0 
559.0031311396508 0.3029300024870828 23.682276159055533 22.0 0.0 0.0 25.0 
560.0010273820106 0.3782747369825856 25.75596317076139 22.0 0.0 0.0 24.0 
561.0022807452107 0.31052052380111794 25.75596317076139 22.0 0.0 0.0 23.0 
562.0001120750997 0.287480494443051 21.276095046991372 22.0 0.0 0.0 22.0 
563.0000106191601 0.2765917350957111 21.276095046991372 22.0 0.0 0.0 22.0 
564.0012177321424 0.35079511842671557 23.994064717933554 21.0 0.0 0.0 21.0 
565.0030723377248 0.41228914481465667 26.955181142041567 21.0 0.0 0.0 21.0 
566.0008982238109 0.3216395279762061 23.994064717933554 21.0 0.0 0.0 21.0 
567.001977207257 0.39201014197635364 26.955181142041567 21.0 0.0 0.0 20.0 
568.000565420766 0.3450974857210379 29.880002024083495 21.0 0.0 0.0 20.0 
569.0003050842195 0.4210047793404719 40.48827747752409 21.0 0.0 0.0 20.0 
570.000937352032 0.42751257357276234 40.48827747752409 21.0 0.0 0.0 20.0 
571.0025778928109 0.25725801771481394 40.48827747752409 20.0 0.0 0.0 20.0 
572.001575707787 0.40986801867556494 79.29227411812178 20.0 0.0066792879520562115 3.3396439760281 21.0 
573.0013214597939 0.27104544843307227 39.177975349673915 21.0 0.030247536776012555 11.476936001031191 20.0 
574.0008209110817 0.3944454452215237 44.97279196836317 20.0 0.030247536776012555 11.476936001031191 21.0 
575.0017025782466 0.4171815665766945 44.97279196836317 19.0 0.030247536776012555 11.476936001031191 21.0 
576.0005262925973 0.4786564377494875 44.97279196836317 19.0 0.03249506000597765 12.600697616013804 21.0 
577.0019601520545 0.47736764996343184 40.718315930555036 19.0 0.06723782856861796 21.018216668295224 20.0 
578.0001461390149 0.5587475930173845 40.1679612590311 19.0 0.08996979413977307 21.018216668295224 20.0 
579.0031311396508 0.6493538760660339 47.494823047376315 19.0 0.09224188316055293 20.44815401815228 20.0 
580.0004045800896 0.8087876539966629 47.494823047376315 19.0 0.09224188316055293 20.44815401815228 20.0 
581.0012739434121 0.6751757097548873 44.37458303897682 19.0 0.0928686732031841 20.44815401815228 20.0 
582.0010430819939 0.6339254754017438 44.37458303897682 19.0 0.13683154599984632 27.844655115862395 20.0 
583.0033704890458 0.6689115640236974 40.03619645027402 19.0 0.15276110802231382 27.844655115862395 20.0 
584.00147663124 0.7074965212873772 42.85653856585478 19.0 0.2115545874642978 29.396739720991917 21.0 
585.0016069412105 0.7873237425748946 44.1222141080772 20.0 0.21082763543194946 29.396739720991917 21.0 
586.0003551310504 0.7792056275593798 84.45756044046527 19.0 0.2120388085572835 29.396739720991917 21.0 
587.0021623739365 0.37820946060222443 41.14351623075049 21.0 0.22476368677428657 31.786813958973312 21.0 
588.0001110211473 0.231497965448017 34.289066032907414 21.0 0.24037323681625106 31.786813958973312 21.0 
589.0002154888894 0.1889249040074532 20.364166042332528 21.0 0.08710106253424839 25.681464597431273 21.0 
590.0007312944182 0.10023098462998314 15.607739839687838 21.0 0.08710106253424839 25.681464597431273 22.0 
591.0007474272334 0.19495585753876046 47.43573454721678 21.0 0.10199373843242983 25.681464597431273 21.0 
592.0021623739365 0.17742820643659676 40.04270227321132 21.0 0.052146367632904575 9.003359482577594 21.0 
593.0051964175891 0.19254657062772845 40.04270227321132 20.0 0.06794801121367201 16.494664373736924 21.0 
594.001397509464 0.2978500766460671 40.04270227321132 20.0 0.08800132101086874 16.494664373736924 21.0 
595.004382439788 0.3555834598500731 47.40898903180255 20.0 0.08293062099599051 16.494664373736924 21.0 
596.0023326426347 0.3699272215561659 47.40898903180255 20.0 0.03193407782029439 15.967038910147124 20.0 
597.0005209534093 0.4938773364902139 52.84719376138588 20.0 0.0 0.0 19.0 
598.0026432679133 0.5253933072248065 52.84719376138588 19.0 0.0 0.0 19.0 
599.0006061200426 0.8212088206857143 60.28053000754932 19.0 0.0 0.0 19.0 
600.0000285017743 0.9794797805838888 60.28053000754932 19.0 0.0 0.0 19.0 
#####################################################################
# End of data export. Simulation finished at: 2019-02-25T20:44+0000 #
#####################################################################
