#####################################################################
# Alchemist log file - simulation started at: 2019-02-25T20:01+0000 #
#####################################################################
# seed = 25.0
#
# The columns have the following meaning: 
# time distance-rep[Mean] distance-rep[Max] leader-rep[CountDistinct] distance-share[Mean] distance-share[Max] leader-share[CountDistinct] 
0.0 NaN NaN NaN NaN NaN NaN 
1.000654131675438 0.0 0.0 498.0 0.0 0.0 87.0 
2.0046622390870166 0.0 0.0 113.0 0.0 0.0 79.0 
3.000222310760937 0.0 0.0 109.0 0.0 0.0 68.0 
4.006259204434351 0.0 0.0 100.0 0.0 0.0 60.0 
5.0020998506722885 0.0 0.0 95.0 0.0 0.0 51.0 
6.000403693002378 0.0 0.0 87.0 0.0 0.0 45.0 
7.003895215718176 0.0 0.0 81.0 0.0 0.0 39.0 
8.000335391135376 0.0 0.0 71.0 0.0 0.0 43.0 
9.0002795386707 0.0 0.0 74.0 0.0 0.0 39.0 
10.000330673792703 0.0 0.0 66.0 0.0 0.0 34.0 
11.000654131675438 0.0 0.0 64.0 0.0 0.0 33.0 
12.00225288004695 0.0 0.0 62.0 0.0 0.0 33.0 
13.004329060234438 0.0 0.0 60.0 0.0 0.0 33.0 
14.003065887772236 0.0 0.0 56.0 0.0 0.0 35.0 
15.003745363038771 0.0 0.0 57.0 0.0 0.0 32.0 
16.00065413167544 0.0 0.0 54.0 0.0 0.0 31.0 
17.001065744964123 0.0 0.0 52.0 0.0 0.0 28.0 
18.000092920227576 0.0 0.0 52.0 0.011596120512571681 5.798060256285794 25.0 
19.00114429851871 0.0 0.0 46.0 0.019945255832579303 9.972627916289753 26.0 
20.00161370706947 0.0 0.0 46.0 0.019945255832579303 9.972627916289753 27.0 
21.00065413167544 0.0 0.0 45.0 0.012467180825614235 6.233590412807075 27.0 
22.000005363840085 0.0 0.0 45.0 0.012467180825614235 6.233590412807075 28.0 
23.000202079319806 0.0 0.0 43.0 0.012467180825614235 6.233590412807075 26.0 
24.001191979851733 0.0 0.0 43.0 0.0 0.0 25.0 
25.0018996869723 0.0 0.0 43.0 0.0 0.0 21.0 
26.000596436430897 0.0 0.0 41.0 0.027775777982063727 7.6606150229497985 21.0 
27.000966320501952 0.05131277665715136 14.190856717734306 39.0 0.029051594557220062 7.6606150229497985 21.0 
28.00087096816573 0.0 0.0 42.0 0.06203243939109997 11.629274315970264 21.0 
29.0002047486717 0.0036954737293789447 1.847736864689466 41.0 0.022223341104974575 5.799454583384829 24.0 
30.0047815665229 0.0 0.0 41.0 0.0 0.0 23.0 
31.000419937958196 7.506563574697255E-4 0.37532817873486124 39.0 0.0 0.0 23.0 
32.00008626746096 0.0 0.0 37.0 0.0 0.0 24.0 
33.00104053929064 0.0 0.0 38.0 0.0 0.0 24.0 
34.006389079935886 0.0 0.0 38.0 0.0 0.0 26.0 
35.00044045029243 0.0 0.0 38.0 0.0 0.0 24.0 
36.00046982627924 0.0 0.0 36.0 0.0 0.0 24.0 
37.00037872003963 0.0 0.0 35.0 0.0 0.0 23.0 
38.00143991044362 0.0 0.0 33.0 0.0 0.0 23.0 
39.00288493800943 0.0 0.0 30.0 0.0 0.0 21.0 
40.001578610534374 0.0 0.0 31.0 0.0 0.0 19.0 
41.00004131735417 0.0 0.0 31.0 0.0 0.0 20.0 
42.00095011218461 0.0 0.0 31.0 0.0 0.0 19.0 
43.00566592427082 0.0 0.0 31.0 0.0 0.0 19.0 
44.005480021811856 0.0 0.0 31.0 0.0 0.0 18.0 
45.00081212299305 0.003364329716203873 1.6821648581019417 31.0 0.0 0.0 18.0 
46.00065413167544 0.003364329716203873 1.6821648581019417 32.0 0.0 0.0 18.0 
47.00239114832078 0.003364329716203873 1.6821648581019417 33.0 0.0 0.0 17.0 
48.000247290913826 0.0 0.0 32.0 0.0 0.0 17.0 
49.001385045676 0.0 0.0 33.0 0.0 0.0 17.0 
50.000908786816936 0.009000444858384507 2.9487376881641865 30.0 0.0 0.0 17.0 
51.000606007687644 0.009000444858384507 2.9487376881641865 30.0 0.0 0.0 17.0 
52.00868433547997 0.005897475376328389 2.9487376881641865 29.0 0.0 0.0 17.0 
53.0032120486681 0.0 0.0 29.0 0.0 0.0 17.0 
54.003721992176324 0.0 0.0 28.0 0.0 0.0 17.0 
55.00080760305292 0.005715617882947516 2.8578089414737633 28.0 0.0 0.0 18.0 
56.00065413167544 0.005715617882947516 2.8578089414737633 28.0 0.0 0.0 19.0 
57.000432680469096 0.005715617882947516 2.8578089414737633 28.0 0.0 0.0 20.0 
58.002027687773904 0.0 0.0 28.0 0.0 0.0 20.0 
59.000627474927775 0.0 0.0 27.0 0.0 0.0 19.0 
60.00223753904423 0.009560675709311878 2.8348321872935003 27.0 0.0 0.0 19.0 
61.00065413167544 0.009560675709311878 2.8348321872935003 27.0 0.0 0.0 19.0 
62.001196411592844 0.00389101133472492 1.4130041027095785 28.0 0.0 0.0 19.0 
63.00073149511258 0.002826008205419154 1.4130041027095785 29.0 0.0 0.0 19.0 
64.00046852006099 0.0 0.0 30.0 0.0 0.0 19.0 
65.00182256938676 0.0 0.0 30.0 0.0 0.0 18.0 
66.00015908246512 0.0 0.0 30.0 0.0 0.0 18.0 
67.00066249662598 0.0 0.0 29.0 0.0 0.0 18.0 
68.00176406739969 0.0 0.0 29.0 0.0 0.0 18.0 
69.00114879687482 0.0 0.0 29.0 0.0 0.0 18.0 
70.00071182946031 0.0 0.0 29.0 0.0 0.0 18.0 
71.00065413167545 0.0 0.0 29.0 0.0 0.0 18.0 
72.00008168122979 0.0 0.0 28.0 0.0 0.0 19.0 
73.00192209351695 0.0 0.0 27.0 0.0 0.0 20.0 
74.00284051218883 0.0 0.0 27.0 0.0 0.0 21.0 
75.00014984672869 0.0 0.0 27.0 0.0 0.0 21.0 
76.00044096413059 0.0 0.0 28.0 0.0 0.0 21.0 
77.00183688355267 0.0 0.0 28.0 0.0 0.0 21.0 
78.00079032180018 0.0 0.0 27.0 0.0 0.0 21.0 
79.00050424854672 0.0 0.0 27.0 0.0 0.0 21.0 
80.00132307324371 0.0 0.0 28.0 0.0 0.0 21.0 
81.00065413167545 0.0 0.0 31.0 0.0 0.0 21.0 
82.00550620897731 0.0 0.0 32.0 0.0 0.0 21.0 
83.00064159337855 0.0 0.0 31.0 0.0 0.0 20.0 
84.00047523897832 0.0 0.0 28.0 0.0 0.0 20.0 
85.00206897114042 0.0 0.0 27.0 0.0 0.0 20.0 
86.00065413167545 0.0 0.0 27.0 0.0 0.0 21.0 
87.00238584793796 0.0 0.0 27.0 0.0 0.0 21.0 
88.00018745464388 0.0 0.0 26.0 0.0 0.0 21.0 
89.00137917798065 0.0 0.0 27.0 0.0 0.0 20.0 
90.00072327370846 0.0 0.0 26.0 0.0 0.0 20.0 
91.00065413167545 0.0 0.0 26.0 0.0 0.0 20.0 
92.00029058665879 0.0 0.0 25.0 0.0 0.0 20.0 
93.00136178341772 0.0 0.0 26.0 0.0 0.0 20.0 
94.00450828000473 0.0 0.0 25.0 0.0 0.0 20.0 
95.0031345568817 0.0 0.0 25.0 0.0 0.0 20.0 
96.00065413167545 0.0 0.0 25.0 0.0 0.0 20.0 
97.00046422096744 0.0 0.0 24.0 0.0 0.0 20.0 
98.00061471550028 0.0 0.0 24.0 0.0 0.0 20.0 
99.00116073936768 0.0 0.0 24.0 0.0 0.0 19.0 
100.00066766806385 0.0 0.0 24.0 0.0 0.0 19.0 
101.00065413167545 0.0 0.0 24.0 0.0 0.0 18.0 
102.00113378284374 0.0 0.0 24.0 0.0 0.0 18.0 
103.00160173389546 0.0 0.0 22.0 0.0 0.0 18.0 
104.00122396217765 0.0 0.0 22.0 0.0 0.0 17.0 
105.00166051086939 0.0 0.0 22.0 0.0 0.0 18.0 
106.00065413167545 0.0 0.0 22.0 0.0 0.0 18.0 
107.00470564640005 0.0 0.0 22.0 0.0 0.0 18.0 
108.00035403781733 0.0 0.0 23.0 0.0 0.0 19.0 
109.0013855450712 0.0 0.0 23.0 0.0 0.0 19.0 
110.0050685565625 0.0 0.0 23.0 0.0 0.0 19.0 
111.00001964406826 0.0 0.0 23.0 0.0 0.0 19.0 
112.01029591308098 0.0 0.0 22.0 0.0 0.0 19.0 
113.00099380508581 0.0 0.0 22.0 0.0 0.0 19.0 
114.0013506285084 0.0 0.0 21.0 0.0 0.0 19.0 
115.0019888966896 0.0 0.0 21.0 0.0 0.0 19.0 
116.00065413167545 0.0 0.0 21.0 0.0 0.0 19.0 
117.00020785077099 0.0 0.0 21.0 0.0 0.0 19.0 
118.00241723334568 0.0 0.0 21.0 0.0 0.0 19.0 
119.00013309037725 0.0 0.0 21.0 0.0 0.0 19.0 
120.0007038457548 0.0 0.0 21.0 0.0 0.0 20.0 
121.00065413167545 0.0 0.0 21.0 0.0 0.0 20.0 
122.00180043360697 0.0 0.0 21.0 0.0 0.0 20.0 
123.00164678555635 0.0 0.0 20.0 0.0 0.0 20.0 
124.00638907993589 0.0 0.0 20.0 0.0 0.0 20.0 
125.00201399445217 0.0 0.0 19.0 0.0 0.0 20.0 
126.00006880893211 0.0 0.0 19.0 0.0 0.0 19.0 
127.00004867973503 0.0 0.0 19.0 0.0 0.0 19.0 
128.00091572139866 0.0 0.0 19.0 0.0 0.0 19.0 
129.00267391227803 0.0 0.0 19.0 0.0 0.0 19.0 
130.0000699008035 0.0 0.0 19.0 0.0 0.0 19.0 
131.00062121146757 0.0 0.0 19.0 0.0 0.0 19.0 
132.0024602869233 0.00808480654283725 4.042403271418607 19.0 0.0 0.0 19.0 
133.00075199492582 0.0 0.0 19.0 0.0 0.0 19.0 
134.00049359202174 0.0 0.0 19.0 0.0 0.0 19.0 
135.00028452146964 0.0 0.0 19.0 0.0 0.0 19.0 
136.0002258648926 0.0 0.0 19.0 0.0 0.0 19.0 
137.00018921240232 0.008341395711657118 4.1706978558285925 20.0 0.0 0.0 19.0 
138.0013741723722 0.018924748710159076 5.2916764992509115 19.0 0.0 0.0 19.0 
139.00063949461 0.04849389826586546 12.683850232009405 19.0 0.0 0.0 19.0 
140.0025199853812 0.04849389826586546 12.683850232009405 19.0 0.0 0.0 19.0 
141.0000218580543 0.02312619780184613 11.563098900923052 19.0 0.04578946724180799 15.66791149186642 19.0 
142.0029079159015 0.008484192652103621 4.242096326051836 19.0 0.030863746658236824 8.205051200080788 19.0 
143.0029196537863 0.012967783962029833 4.242096326051836 19.0 0.030863746658236824 8.205051200080788 19.0 
144.0039112074903 0.1118117293388122 20.017020245524748 19.0 0.030863746658236824 8.205051200080788 19.0 
145.00042327536667 0.07177768884776227 11.70120960051645 19.0 0.030863746658236824 8.205051200080788 19.0 
146.00065413167545 0.12672084338464137 27.471577268439717 20.0 0.03383863102043423 12.655621898093756 20.0 
147.00037431294533 0.11201833376567456 27.471577268439717 20.0 0.01901007363427826 5.241343205015767 22.0 
148.00153853160108 0.15622357985399396 27.471577268439717 20.0 0.01901007363427826 5.241343205015767 23.0 
149.00547179793782 0.21588998043030783 34.92669105940166 20.0 0.0 0.0 23.0 
150.0045364787361 0.22737053314023847 27.542123181301122 20.0 0.0 0.0 22.0 
151.00065413167545 0.22737053314023847 27.542123181301122 21.0 0.0 0.0 22.0 
152.0022278025198 0.21246675500665085 27.542123181301122 21.0 0.0 0.0 22.0 
153.00658509050078 0.22710843262297126 29.167178350535664 22.0 0.0 0.0 23.0 
154.00079333369018 0.4228702083487928 45.890014969320276 21.0 0.0 0.0 22.0 
155.00046008391917 0.4529445210174174 46.0124558430592 20.0 0.0 0.0 21.0 
156.00048658574903 0.43831083428164735 46.0124558430592 20.0 0.0 0.0 21.0 
157.00064113845676 0.42341833462559003 46.0124558430592 20.0 0.0 0.0 21.0 
158.00022088871242 0.4464479450417225 46.38936962042675 20.0 0.0 0.0 20.0 
159.0008100035488 0.3743018760870459 39.331092400309984 20.0 0.0 0.0 20.0 
160.0007519084711 0.3743018760870459 39.331092400309984 20.0 0.0 0.0 20.0 
161.00065413167545 0.45178836785135923 46.039767353735556 20.0 0.0 0.0 20.0 
162.0047560318178 0.35970883314388835 39.331092400309984 20.0 0.0 0.0 20.0 
163.0012523577086 0.48150690159933535 46.039767353735556 20.0 0.0 0.0 20.0 
164.0063890799359 0.4357591024970485 46.79505337291684 21.0 0.0 0.0 20.0 
165.00231236603227 0.3902614428232618 39.214529263493745 21.0 0.0 0.0 20.0 
166.00065413167545 0.36425910845250514 39.214529263493745 21.0 0.0 0.0 20.0 
167.0077267366669 0.44618609608285065 40.963493815173194 21.0 0.0 0.0 21.0 
168.00015128115868 0.49131454205781866 46.804854339294735 21.0 0.0 0.0 20.0 
169.00138186197387 0.17805671215454866 40.963493815173194 20.0 0.0 0.0 20.0 
170.0008962757261 0.09302980398992408 20.532563133779462 20.0 0.0 0.0 20.0 
171.00065413167545 0.09302980398992408 20.532563133779462 19.0 0.0 0.0 18.0 
172.00175489414235 0.01566319646901451 7.831598234507226 18.0 0.0 0.0 17.0 
173.00108890809483 0.019413965921440946 7.831598234507226 19.0 0.0 0.0 17.0 
174.00126291921023 0.01566319646901451 7.831598234507226 20.0 0.0 0.0 17.0 
175.00059961989672 0.007959512661391013 3.979756330695494 21.0 0.0 0.0 17.0 
176.00065413167545 0.0022651746353909504 1.1325873176954815 23.0 0.0 0.0 17.0 
177.00152089847458 0.0022651746353909504 1.1325873176954815 22.0 0.016523304415791813 8.261652207895878 18.0 
178.0049204088801 0.01866274953693705 8.198787450773068 22.0 0.03783454237759766 10.655618980902887 18.0 
179.0005360536541 0.0394145618425668 11.97799536187972 22.0 0.03783454237759766 10.655618980902887 20.0 
180.00092397364756 0.03188474563742779 8.213087259310072 22.0 0.0 0.0 22.0 
181.0001066376601 0.017119480956886805 8.213087259310072 22.0 0.0 0.0 23.0 
182.000894917631 0.056586328971681636 11.96486588918745 22.0 0.0 0.0 22.0 
183.001366264572 0.056586328971681636 11.96486588918745 22.0 0.0 0.0 22.0 
184.0023655022391 0.06774670223052114 18.65574711988532 22.0 0.0 0.0 22.0 
185.00108589150716 0.028795255915735344 7.412649380314662 22.0 0.0 0.0 22.0 
186.00065413167545 0.014825298760629315 7.412649380314662 21.0 0.0 0.0 21.0 
187.00398840639076 0.05438074458748312 11.632800328185766 21.0 0.0 0.0 21.0 
188.00125013053295 0.05438074458748312 11.632800328185766 21.0 0.0 0.0 20.0 
189.00047249001776 0.09793812709500721 18.46443623082922 22.0 0.0 0.0 21.0 
190.00113433700778 0.07911117336295227 18.46443623082922 21.0 0.0 0.0 21.0 
191.00027477633324 0.051496027613334425 18.46443623082922 21.0 0.0 0.0 21.0 
192.00053942961898 0.09069064617553092 27.07995143658576 21.0 0.0 0.0 21.0 
193.0023990023114 0.11583704172713842 20.121167573208027 21.0 0.0 0.0 20.0 
194.0002658464068 0.13441247233912945 23.608611046568342 21.0 0.0 0.0 20.0 
195.00458475688433 0.10910914611354476 23.608611046568342 20.0 0.0 0.0 20.0 
196.00065413167545 0.10441260713578018 23.608611046568342 20.0 0.0 0.0 19.0 
197.0004457982375 0.08954264963453924 23.608611046568342 20.0 0.0 0.0 19.0 
198.0013238731708 0.019456468583955257 7.009403490186713 19.0 0.0 0.0 19.0 
199.00141293488562 0.05973504161314967 14.510669010402808 20.0 0.0 0.0 19.0 
200.0005564613727 0.06473352738854302 14.510669010402808 18.0 0.0 0.0 18.0 
201.00065413167545 0.049034541706874955 12.639661285523715 18.0 0.0 0.0 18.0 
202.00039259690976 0.05835553818863632 12.639661285523715 17.0 0.0 0.0 18.0 
203.00045394572547 0.09044644040649415 16.045451108929115 17.0 0.0 0.0 18.0 
204.00159814283737 0.17557928695772623 23.548813224297163 16.0 0.0 0.0 18.0 
205.00675623491838 0.2005303411318898 27.411247486554345 15.0 0.0 0.0 17.0 
206.00021733431194 0.1555698899031113 23.548813224297163 15.0 0.0 0.0 16.0 
207.00177216666518 0.17045236051500823 23.548813224297163 15.0 0.0 0.0 16.0 
208.00509448573328 0.13225659943912496 21.59014500688926 15.0 0.0 0.0 16.0 
209.00153072804153 0.21353656610460683 29.04090738056388 15.0 0.0 0.0 16.0 
210.00038325738174 0.23798984118528485 29.04090738056388 15.0 0.0 0.0 16.0 
211.00065413167545 0.24768555258438113 46.26296941434089 14.0 0.0 0.0 16.0 
212.0018397221537 0.19371011696070534 50.32769915660916 14.0 0.0 0.0 16.0 
213.00379623139864 0.10220033531075726 50.32769915660916 14.0 0.0 0.0 16.0 
214.00047679417708 0.1486583887286795 56.37406760651987 14.0 0.0 0.0 16.0 
215.00098204433073 0.17935091490034175 56.37406760651987 14.0 0.0 0.0 15.0 
216.00065413167545 0.177766575334861 56.37406760651987 14.0 0.0 0.0 15.0 
217.0017447007814 0.196755345975873 56.37406760651987 14.0 0.0 0.0 15.0 
218.00054456435404 0.1711450265925131 60.461235687191106 14.0 0.0 0.0 15.0 
219.0012848797929 0.3120193629489851 66.57590384158817 14.0 0.0 0.0 15.0 
220.0004786911798 0.22799892282696005 66.57590384158817 14.0 0.0 0.0 15.0 
221.00065413167545 0.23852409086963436 66.57590384158817 14.0 0.0 0.0 15.0 
222.0006014578464 0.19143818066691862 66.57590384158817 14.0 0.0 0.0 15.0 
223.0009431226887 0.18007965011223862 70.7120447992126 14.0 0.0 0.0 15.0 
224.00028571613734 0.27965362087886864 76.86916666399634 14.0 0.0 0.0 15.0 
225.00332013029353 0.3643856402953022 76.86916666399634 14.0 0.0 0.0 15.0 
226.00065413167545 0.4228326482102576 76.86916666399634 14.0 0.0 0.0 15.0 
227.00204459478124 0.3736958916284056 81.05297168552437 15.0 0.0 0.0 15.0 
228.00501121481196 0.3364159395741413 81.05297168552437 15.0 0.0 0.0 16.0 
229.0046724467449 0.4440230042530123 87.1787977280598 15.0 0.0 0.0 16.0 
230.00412966439143 0.6399174924225435 87.1787977280598 15.0 0.0 0.0 16.0 
231.0000827085934 0.43291342264011345 28.35141784888944 15.0 0.0 0.0 16.0 
232.00167236682697 0.7068961830471047 87.1787977280598 15.0 0.0 0.0 16.0 
233.00028554456782 0.4645191927867951 29.823389268694143 15.0 0.0 0.0 16.0 
234.00119150269495 0.8156434986856663 68.99443441084469 15.0 0.0 0.0 16.0 
235.00067943661765 0.8041668129669429 38.87731792393862 15.0 0.0 0.0 17.0 
236.00031062030436 0.7077711602130403 36.73727602997931 15.0 0.0 0.0 17.0 
237.00232415238858 0.7132622580427583 38.87731792393862 15.0 0.0 0.0 17.0 
238.00334314892763 0.7748385483357355 50.124761493492514 15.0 0.0 0.0 17.0 
239.0004748521349 1.2186173572579673 60.82204814530354 15.0 0.0 0.0 17.0 
240.00030092408258 1.0687870668353188 57.469874487089044 15.0 0.0 0.0 17.0 
241.00065413167545 1.3811334897430911 77.961391084718 15.0 0.0 0.0 17.0 
242.00000863389494 1.9565609623042415 80.04267390791836 15.0 0.0 0.0 18.0 
243.00265629445883 1.4971302765136647 80.04267390791836 15.0 0.0 0.0 18.0 
244.0022460025575 2.032830738898925 87.42328354747013 15.0 0.0 0.0 17.0 
245.00364231517298 2.1678032301870185 87.42328354747013 15.0 0.0 0.0 17.0 
246.00065413167545 1.9921430978824264 87.42328354747013 15.0 0.0 0.0 18.0 
247.0004788942547 2.0547455444206784 87.11311123499928 16.0 0.0 0.0 18.0 
248.00257487733603 2.2676388074819536 87.11311123499928 16.0 0.0 0.0 18.0 
249.00074605992768 3.0389498482380994 96.42068741728275 15.0 0.0 0.0 18.0 
250.00113960738244 3.2787315327465687 96.42068741728275 16.0 0.0 0.0 18.0 
251.00065413167545 3.7025142276770753 96.55429050987732 14.0 0.0 0.0 18.0 
252.0008070751543 3.5581745297836767 96.55429050987732 16.0 0.0 0.0 19.0 
253.00257177098626 3.6260884240063667 98.46739522502861 15.0 0.0 0.0 18.0 
254.00369179186444 4.396686694292816 106.44089906798268 15.0 0.0 0.0 18.0 
255.0070060080365 4.586682800398623 106.44089906798268 15.0 0.0 0.0 18.0 
256.00065413167545 5.003045337249533 112.40626508560109 15.0 0.0 0.0 18.0 
257.0018896673274 5.037835756435251 112.40626508560109 16.0 0.0 0.0 18.0 
258.0074411816385 4.808144098904714 112.40626508560109 15.0 0.0 0.0 21.0 
259.000134000468 5.197515454836117 117.36006373971782 15.0 0.0 0.0 22.0 
260.00303318161065 5.266422306069281 114.95850829973858 15.0 0.0 0.0 21.0 
261.00065413167545 5.3817045346103045 126.41653358974673 15.0 0.0 0.0 21.0 
262.0000426209843 5.6134699987359635 126.41653358974673 15.0 0.0 0.0 21.0 
263.0003634387726 5.421798038231445 126.41653358974673 14.0 0.0 0.0 20.0 
264.0002644598939 6.3080842743673635 133.81827314121733 14.0 0.0 0.0 20.0 
265.0015348624262 6.541956930255525 133.81827314121733 14.0 0.0 0.0 19.0 
266.00065413167545 6.132736703653432 129.5946882057131 14.0 0.0 0.0 19.0 
267.00522987398324 6.124552293262172 129.5946882057131 14.0 0.0 0.0 17.0 
268.0016392981135 6.318976140969529 129.5946882057131 14.0 0.0 0.0 17.0 
269.0022194744506 7.118002029528591 137.04991174479306 15.0 0.0 0.0 18.0 
270.00025069058205 7.005607661269176 144.3382331671624 15.0 0.0 0.0 17.0 
271.00065413167545 6.723811533148534 144.3382331671624 15.0 0.0 0.0 17.0 
272.0008114319117 6.778108832333237 144.3382331671624 15.0 0.0 0.0 16.0 
273.00616862656875 6.790932853500915 144.3382331671624 15.0 0.0 0.0 16.0 
274.005964513026 7.486383753618158 151.73987065525648 15.0 0.0 0.0 16.0 
275.0035553223494 6.893936603154272 148.50210424464575 15.0 0.0 0.0 16.0 
276.00065413167545 6.486266390742991 134.53587086833045 15.0 0.0 0.0 16.0 
277.00105286133726 6.368960505841575 134.53587086833045 16.0 0.0 0.0 16.0 
278.0001944256292 6.010221858242945 134.53587086833045 16.0 0.0 0.0 16.0 
279.0005098315019 6.598323651668484 141.98984336428822 16.0 0.0 0.0 16.0 
280.00004538679246 6.523509725335566 141.98984336428822 15.0 0.0 0.0 16.0 
281.00065413167545 6.485126612187889 141.98984336428822 16.0 0.0 0.0 16.0 
282.00206873945075 6.514838691024674 149.26190628312457 16.0 0.0 0.0 16.0 
283.0019412042636 6.507075123295451 149.26190628312457 16.0 0.0 0.0 16.0 
284.0013037078165 7.03642394528946 156.66364900895462 16.0 0.0 0.0 16.0 
285.00484028709633 6.8089883946578915 156.66364900895462 16.0 0.0 0.0 16.0 
286.00065413167545 6.800028417279964 156.66364900895462 15.0 0.0 0.0 16.0 
287.000155651079 6.445621471319368 151.88559602504705 16.0 0.0 0.0 16.0 
288.0001179400153 6.271927779722485 151.88559602504705 16.0 0.0 0.0 16.0 
289.001629366827 7.526135561183177 171.26979169516346 15.0 0.0 0.0 16.0 
290.00107964899985 6.837051961060447 151.3755765130221 16.0 0.0 0.0 16.0 
291.00065413167545 6.3743951263375775 166.48328260058577 15.0 0.0 0.0 16.0 
292.0009123162324 5.731110988352929 142.13541566025305 15.0 0.0 0.0 16.0 
293.0013305704412 5.849631922073155 142.13541566025305 14.0 0.0 0.0 16.0 
294.00104783973995 6.577673042008346 155.57410868106956 15.0 0.0 0.0 16.0 
295.0001611626974 6.910439473380698 155.57410868106956 15.0 0.0 0.0 16.0 
296.00063389553605 6.466505113624828 148.54707520713418 15.0 0.0 0.0 17.0 
297.0040140435776 6.177611776001659 155.57410868106956 15.0 0.0 0.0 18.0 
298.00823428644355 6.11170315105662 136.60621067941565 16.0 0.0 0.0 17.0 
299.0023553782251 6.68425538339501 144.04643714432 16.0 0.0 0.0 18.0 
300.0008180555598 6.613724136058897 144.04643714432 16.0 0.0 0.0 18.0 
301.0005558178229 6.495034177471793 144.04643714432 16.0 0.0 0.0 18.0 
302.0035393071482 6.541409289695261 136.7631586936564 16.0 0.0 0.0 21.0 
303.00285334341316 6.476376045838013 136.7631586936564 16.0 0.0 0.0 20.0 
304.0031807073395 7.182442627395392 144.15482454421556 16.0 0.0 0.0 20.0 
305.0027264673939 7.086996520887831 144.15482454421556 16.0 0.0 0.0 20.0 
306.00065413167545 7.145515940125091 144.15482454421556 16.0 0.0 0.0 19.0 
307.003263522568 7.106205404406471 136.87639934466273 18.0 0.0 0.0 19.0 
308.0018904782433 7.264812878006668 136.87639934466273 17.0 0.0 0.0 19.0 
309.0001430841478 7.970793845059758 144.17666526576375 17.0 0.0 0.0 19.0 
310.0022704725436 7.982889663011103 144.17666526576375 17.0 0.0 0.0 19.0 
311.00006932393615 8.009508834938773 137.1755070002676 17.0 0.0 0.0 19.0 
312.00085530154723 8.220687519167695 142.03404135757324 17.0 0.0 0.0 19.0 
313.00072668747066 8.25944718864482 142.03404135757324 16.0 0.00509973830903153 2.5498691545157612 19.0 
314.0004066213954 8.27279865018276 142.35079976660262 16.0 0.00509973830903153 2.5498691545157612 19.0 
315.0013235108256 8.321632390453464 142.35079976660262 16.0 0.0 0.0 19.0 
316.00065413167545 8.306831528344565 142.35079976660262 16.0 0.0 0.0 19.0 
317.00210159488984 8.290680904638098 149.72765208354002 16.0 0.0 0.0 18.0 
318.00052754043963 8.2497290411175 149.72765208354002 16.0 0.0 0.0 18.0 
319.0001869117591 8.240681385606566 150.17125265690936 16.0 0.0 0.0 18.0 
320.00032498696623 8.137691506365034 150.17125265690936 16.0 2.6055931956540495E-4 0.13027965978270117 19.0 
321.00065413167545 8.009528896749739 150.17125265690936 16.0 2.6055931956540495E-4 0.13027965978270117 19.0 
322.0014462557033 8.212871079284671 144.98892707109258 16.0 0.0 0.0 19.0 
323.0011790159038 7.262286610378837 139.37795427728452 16.0 0.0 0.0 18.0 
324.0021915924271 7.271878328534649 141.06521942209014 16.0 0.0 0.0 18.0 
325.00102500762904 7.127399328052133 143.7713579532089 15.0 0.002187390616662535 1.093695308331263 18.0 
326.00065413167545 6.633018310925321 158.0842851598561 15.0 0.002187390616662535 1.093695308331263 19.0 
327.0007501556747 5.785793539171987 143.7713579532089 15.0 0.0 0.0 19.0 
328.0005300625946 6.082494837442745 143.7713579532089 15.0 0.0 0.0 19.0 
329.0012334958649 5.089901330382286 142.8943516314788 15.0 0.0 0.0 18.0 
330.00115533004447 5.337222250931334 142.48699789487432 15.0 0.004173602320372042 2.0868011601860132 18.0 
331.0000975403265 4.375175318405332 142.48699789487432 15.0 0.007529941325702729 2.0868011601860132 17.0 
332.00736713490517 4.546070300837669 142.48699789487432 15.0 7.732468892375003E-4 0.3866234446187491 17.0 
333.00678053287197 4.026448176311397 142.48699789487432 15.0 7.732468892375003E-4 0.3866234446187491 17.0 
334.0010559003884 3.8382253807179927 140.68789284096033 15.0 7.732468892375003E-4 0.3866234446187491 17.0 
335.0005042769653 3.8494104360417136 140.68789284096033 15.0 0.0354642534191598 14.278267608901274 17.0 
336.00065413167545 3.095217773784247 138.01958133162998 15.0 0.059189217778246116 14.278267608901274 17.0 
337.0006555547028 3.3754275620944156 142.75033724098284 15.0 0.05692015244287278 14.278267608901274 16.0 
338.0000226145823 2.918020681096454 142.75033724098284 15.0 0.08702853862550868 14.278267608901274 16.0 
339.00043010008983 2.6749924968807988 51.75300140997564 15.0 0.08414922522604686 14.278267608901274 17.0 
340.0023887175709 2.799663223162247 56.048632058281044 15.0 0.10982519513623758 21.43068454355719 18.0 
341.00065413167545 2.075273786910066 51.75300140997564 14.0 0.19164267931941342 21.43068454355719 16.0 
342.00630595253307 1.9585629483133427 51.75300140997564 13.0 0.11747866340258475 20.94263795895057 17.0 
343.0011327985898 2.000451035805568 51.75300140997564 13.0 0.0 0.0 17.0 
344.00022538358814 1.7189444451739013 46.6878378056623 13.0 0.0 0.0 17.0 
345.0002366317649 1.644321017303994 46.6878378056623 13.0 0.0 0.0 17.0 
346.00065413167545 1.5749625245266252 46.6878378056623 13.0 0.0 0.0 16.0 
347.0009887770314 1.6329578844557273 46.6878378056623 13.0 0.0 0.0 16.0 
348.00021703576164 1.7037328396738112 46.6878378056623 13.0 0.0 0.0 16.0 
349.0052310267728 1.2510794895319919 37.892179285206595 13.0 0.0 0.0 15.0 
350.0010438989728 1.4739909479962616 40.38363779941341 13.0 0.0 0.0 15.0 
351.00065413167545 1.5277462634393106 40.38363779941341 13.0 0.0 0.0 15.0 
352.0001739457818 1.5884326057232538 40.38363779941341 14.0 0.0 0.0 15.0 
353.00139300565513 1.4949076610234944 40.38363779941341 14.0 0.0 0.0 15.0 
354.0001912882338 1.3852806980661825 40.38363779941341 15.0 0.0 0.0 15.0 
355.00700010887635 1.4136646989406523 39.57388878108668 15.0 0.0 0.0 15.0 
356.00065413167545 1.381371833443345 44.51335232830601 15.0 0.0 0.0 15.0 
357.000342488269 1.384656120846435 68.28503065147919 15.0 0.0 0.0 15.0 
358.00030797261235 1.3185297145934889 68.28503065147919 15.0 0.0 0.0 15.0 
359.00163268575545 0.9825038008206252 44.51335232830601 17.0 0.0 0.0 15.0 
360.00474818693 0.8484419546812554 45.94240665263058 17.0 0.0 0.0 15.0 
361.0002957414926 0.5954320333675037 43.487231923486405 18.0 0.0 0.0 15.0 
362.00024295725547 0.6174207776920929 50.77420317274556 18.0 0.0 0.0 15.0 
363.00251611327803 0.32479922513093906 41.84601716901136 18.0 0.0 0.0 15.0 
364.00102152466076 0.18337004702133228 24.2729519278503 19.0 0.0 0.0 15.0 
365.00520515642756 0.16142078955985326 31.619365056004426 19.0 0.0 0.0 15.0 
366.0003830561008 0.20948238638634753 31.619365056004426 19.0 0.0 0.0 15.0 
367.0008178610468 0.09629306904630365 19.770566588028686 19.0 0.0 0.0 15.0 
368.000441733898 0.1741946825712171 31.619365056004426 19.0 0.0 0.0 15.0 
369.0016764104071 0.07675969004061502 23.3455476144226 18.0 0.0 0.0 15.0 
370.00022122654246 0.0819114488046671 25.92142699644873 17.0 0.0 0.0 15.0 
371.00065413167545 0.0819114488046671 25.92142699644873 17.0 0.0 0.0 15.0 
372.0003486389188 0.08397580887009233 25.92142699644873 17.0 0.0 0.0 15.0 
373.0017174834551 0.05000939990105355 15.034297405884757 16.0 0.0 0.0 15.0 
374.0005913946168 0.18400305690099944 44.07162332176219 16.0 0.0 0.0 14.0 
375.0006695797929 0.023960039672475408 10.947839803524886 16.0 0.0 0.0 14.0 
376.00065413167545 0.10229722609503464 35.949885292499715 15.0 0.0 0.0 14.0 
377.0002273028664 0.10445000548294467 35.949885292499715 17.0 0.0 0.0 16.0 
378.00418871606934 0.10725374010325879 43.1254228499252 17.0 0.0 0.0 16.0 
379.00032724190424 0.2397545526363349 54.19681725193587 17.0 0.0 0.0 16.0 
380.00005096777187 0.3123901907367356 82.72755877183045 17.0 0.0 0.0 16.0 
381.00065413167545 0.23363833843557338 84.48469439178513 19.0 0.0 0.0 16.0 
382.0009863406992 0.2871187109320947 91.80055140147317 18.0 0.0 0.0 16.0 
383.0037310781931 0.2221381239602385 53.256577610932055 19.0 0.0 0.0 16.0 
384.00192608094085 0.13282774582119639 12.690150594617364 19.0 0.0 0.0 16.0 
385.01131984935535 0.1671562087873995 13.2149819360844 19.0 0.005945355378109422 2.9726776890547058 17.0 
386.00065413167545 0.3007972812104801 56.284308053772406 19.0 0.0 0.0 20.0 
387.00248297305853 0.374043623058585 56.284308053772406 19.0 0.0 0.0 20.0 
388.00175212978854 0.5685053920601175 78.89108496525898 19.0 0.0 0.0 20.0 
389.00472165758373 0.3063883737111035 63.415603650089395 19.0 0.0 0.0 20.0 
390.0099145936965 0.5412063972083296 82.00445768410333 19.0 0.0 0.0 20.0 
391.00065413167545 0.6349472304938691 81.6326860575515 19.0 0.0 0.0 20.0 
392.00066130514926 0.24214848302888634 27.873297220976895 19.0 0.0 0.0 19.0 
393.0025462673794 0.3687496663402795 73.73384154726983 18.0 0.0 0.0 18.0 
394.00203951523343 0.5186353584329951 78.02008364914252 18.0 0.0 0.0 17.0 
395.0000549675349 0.39528145017314004 70.91638854053207 18.0 0.0 0.0 17.0 
396.00065413167545 0.5993045578254864 76.93401090531881 18.0 0.0 0.0 17.0 
397.0021198371984 0.5976069008137822 76.93401090531881 19.0 0.0 0.0 17.0 
398.0000372443905 0.6669109292003993 83.91458071365292 19.0 0.0 0.0 17.0 
399.0032769567107 0.8665533589461045 94.81592600408112 19.0 0.0 0.0 17.0 
400.00016315985465 0.7404461558663287 86.8844975790667 19.0 0.0 0.0 17.0 
401.00045240562565 0.7513081016001657 86.8844975790667 18.0 0.0 0.0 17.0 
402.0011787689917 1.0575500566665188 101.92645460044281 18.0 0.0 0.0 17.0 
403.0001373079635 0.9125270830839897 93.89826486132944 18.0 0.0 0.0 17.0 
404.00255893616225 1.1267868289529248 104.93339858235987 18.0 0.0 0.0 17.0 
405.00010309069745 0.9365874421108717 96.97275916226215 18.0 0.0 0.0 17.0 
406.00065413167545 1.0020543000800783 96.97275916226215 18.0 0.0 0.0 17.0 
407.00042489158847 1.0815007349269317 104.02112858396981 18.0 0.0 0.0 17.0 
408.0026728181892 1.289665322618551 112.00725906761471 18.0 0.0 0.0 17.0 
409.003229916492 1.347860506733147 115.01751472296985 18.0 0.0 0.0 17.0 
410.0021687011551 1.1673234464638906 107.09976607661821 17.0 0.0 0.0 17.0 
411.0001878877308 1.1415990656005974 107.09976607661821 18.0 0.0 0.0 17.0 
412.00210964293746 1.2503319569680262 107.09976607661821 18.0 0.0 0.0 17.0 
413.00316047835133 1.37811793211198 122.03252106867933 18.0 0.0 0.0 16.0 
414.00145181700515 1.203487411624801 114.03785379927746 18.0 0.0 0.0 15.0 
415.00164781424974 1.1407587672065773 117.21004470639235 18.0 0.0 0.0 15.0 
416.00065413167545 1.1341177636950943 117.21004470639235 18.0 0.0 0.0 15.0 
417.00161006096675 1.1705568747873012 117.21004470639235 18.0 0.0 0.0 15.0 
418.00024573763795 1.026797491196085 81.31871379717631 18.0 0.0 0.0 15.0 
419.0063890799359 1.4144264835326967 128.33382722146143 18.0 0.0 0.0 16.0 
420.0023268943927 1.3738813603451616 85.00849181410217 19.0 0.0 0.0 17.0 
421.00065413167545 1.1881068780453283 86.25219106313051 20.0 0.0 0.0 17.0 
422.0029092821944 1.0242291700668453 91.675685815186 20.0 0.0 0.0 17.0 
423.0060119753385 0.9453966393754396 135.0215486634189 21.0 0.0 0.0 17.0 
424.0009141067348 0.5047103473900479 95.44093441998132 21.0 0.0 0.0 17.0 
425.00258095987493 0.28205284309544737 95.44093441998132 20.0 0.0 0.0 17.0 
426.00065413167545 0.3036547268777159 95.44093441998132 19.0 0.0 0.0 17.0 
427.006014921327 0.1473536447101482 18.80370720988637 19.0 0.0 0.0 17.0 
428.0015738757742 0.08545084493704158 10.004420708269492 19.0 0.0 0.0 18.0 
429.0000005112202 0.1436853212453692 17.094455504198663 20.0 0.0 0.0 19.0 
430.0052708677399 0.2691469296512022 25.932517335379146 21.0 0.0 0.0 20.0 
431.00065413167545 0.21900628349763684 20.246017022148862 21.0 0.0 0.0 20.0 
432.0027853623361 0.295546162733865 20.246017022148862 21.0 0.0 0.0 20.0 
433.00519212664136 0.295546162733865 20.246017022148862 21.0 0.0 0.0 21.0 
434.00028275646827 0.2579124646329404 25.629436854182586 21.0 0.0 0.0 21.0 
435.0045664841428 0.2342672978599074 23.371185803631363 21.0 0.0 0.0 20.0 
436.00065413167545 0.3529074637317185 24.173342631736347 21.0 0.0 0.0 19.0 
437.00240630218053 0.40373937007140187 31.756833591562298 21.0 0.0 0.0 19.0 
438.0007210986589 0.5057691827420093 53.93821212403887 21.0 0.0 0.0 19.0 
439.0004282976897 0.5803900008302968 53.93821212403887 21.0 0.0 0.0 18.0 
440.005258499877 0.57180194776529 53.93821212403887 21.0 0.0 0.0 17.0 
441.00065413167545 0.6915078367308596 61.51279922615191 21.0 0.0 0.0 17.0 
442.0072479202825 0.8845741479634078 54.043616462198 21.0 0.0 0.0 17.0 
443.0015962359546 0.8819078485602683 54.043616462198 21.0 0.0 0.0 17.0 
444.00139681972524 0.9369053259107887 54.043616462198 21.0 0.0 0.0 18.0 
445.0001152894813 0.9175545033650984 54.043616462198 21.0 0.0 0.0 17.0 
446.00065413167545 0.8844620483633077 54.043616462198 21.0 0.0 0.0 17.0 
447.00215173037185 0.8852105168041583 56.50673163988273 20.0 0.0 0.0 17.0 
448.00670339347727 0.9143280975887522 49.04693214737793 20.0 0.0 0.0 17.0 
449.00389714534987 0.9179112786896684 49.04693214737793 21.0 0.0 0.0 17.0 
450.00376860484016 0.901713775419647 49.04693214737793 20.0 0.0 0.0 17.0 
451.00065413167545 0.8610617694662103 49.04693214737793 20.0 0.0 0.0 17.0 
452.0011604658851 0.9084494207936845 51.59648647696474 20.0 0.0 0.0 17.0 
453.0004380733579 0.8307816946207716 44.240272543958156 21.0 0.0 0.0 17.0 
454.0000260997013 0.8513680508713115 44.240272543958156 22.0 0.0 0.0 17.0 
455.00165798587915 0.8588325706946413 44.240272543958156 22.0 0.0 0.0 18.0 
456.00065413167545 0.8558647713822637 44.240272543958156 22.0 0.0 0.0 18.0 
457.0019872668614 0.8151163086021492 46.961743559416675 20.0 0.0 0.0 18.0 
458.00033917005084 0.8310937127259703 39.533602723868114 20.0 0.0 0.0 18.0 
459.00040045703537 0.7510657188446661 39.533602723868114 20.0 0.0 0.0 18.0 
460.0021037752686 0.6757081379473013 39.533602723868114 21.0 0.0 0.0 18.0 
461.00065413167545 0.6006261981188216 39.533602723868114 21.0 0.0 0.0 18.0 
462.0005802106493 0.6738587591363546 42.065050673009665 21.0 0.0 0.0 19.0 
463.00297955349043 0.6861571665506124 42.065050673009665 21.0 0.0 0.0 19.0 
464.0001899843137 0.6167099776683408 42.065050673009665 23.0 0.0 0.0 22.0 
465.00690791468315 0.6166404562865193 49.41486820886641 23.0 0.0 0.0 22.0 
466.00065413167545 0.6360049937434749 49.41486820886641 23.0 0.0 0.0 21.0 
467.00240987921535 0.7200534668924371 52.35406719356368 23.0 0.0 0.0 21.0 
468.00291316871284 0.6536789325817753 52.35406719356368 22.0 0.0 0.0 20.0 
469.0040308133292 0.34180372746658905 33.18378730074576 23.0 0.0 0.0 21.0 
470.0035652825306 0.27331351167627005 31.4152339862207 22.0 0.010150317578948393 5.075158789474187 20.0 
471.00065413167545 0.20626179679999956 31.4152339862207 22.0 0.0 0.0 21.0 
472.0031975036426 0.013665853316062647 4.488745241700144 22.0 0.0 0.0 20.0 
473.00026619508196 0.013665853316062647 4.488745241700144 22.0 0.0 0.0 20.0 
474.0013084225169 0.03096924464349516 10.423920730137098 22.0 0.0 0.0 21.0 
475.0011263763696 0.03052213940203114 10.423920730137098 22.0 0.0 0.0 21.0 
476.00065413167545 0.020847841460274047 10.423920730137098 22.0 0.0 0.0 19.0 
477.0002951763005 0.0 0.0 22.0 0.0 0.0 19.0 
478.00184637092184 0.0 0.0 22.0 0.0 0.0 19.0 
479.0007777213934 0.0 0.0 22.0 0.0 0.0 19.0 
480.00026885497886 0.0 0.0 22.0 0.0 0.0 19.0 
481.0006354796475 0.0 0.0 22.0 0.0 0.0 19.0 
482.0000999807751 0.0 0.0 22.0 0.0 0.0 19.0 
483.00414050661493 0.0 0.0 22.0 0.0 0.0 19.0 
484.00204841054455 0.0 0.0 22.0 0.0 0.0 19.0 
485.0034158233182 0.0 0.0 22.0 0.0 0.0 19.0 
486.00035796335044 0.0 0.0 22.0 0.0 0.0 19.0 
487.00014134574826 0.0 0.0 22.0 0.0 0.0 19.0 
488.00127811677606 0.0 0.0 22.0 0.0 0.0 18.0 
489.0015439923293 0.0 0.0 22.0 0.0 0.0 18.0 
490.0025828896981 0.0 0.0 22.0 0.0 0.0 18.0 
491.00065413167545 0.0 0.0 22.0 0.0 0.0 18.0 
492.0092959513721 0.0 0.0 22.0 0.0 0.0 17.0 
493.0007526866178 0.0 0.0 22.0 0.0 0.0 17.0 
494.00091706609714 0.0 0.0 21.0 0.0 0.0 17.0 
495.00051544320496 0.0 0.0 21.0 0.0 0.0 17.0 
496.00015160336267 0.0 0.0 22.0 0.0 0.0 18.0 
497.0111744439292 0.0 0.0 22.0 0.0 0.0 18.0 
498.0006574055404 0.0 0.0 22.0 0.0 0.0 18.0 
499.00082987996126 0.0 0.0 22.0 0.0 0.0 18.0 
500.0096752175353 0.0 0.0 22.0 0.0 0.0 18.0 
501.00065413167545 0.0 0.0 21.0 0.0 0.0 18.0 
502.00000876468886 0.0 0.0 21.0 0.0 0.0 19.0 
503.00154211548147 0.0 0.0 21.0 0.0 0.0 19.0 
504.00297107833336 0.0 0.0 21.0 0.0 0.0 19.0 
505.00468612340615 0.0 0.0 21.0 0.0 0.0 19.0 
506.00065413167545 0.0 0.0 21.0 0.0 0.0 18.0 
507.0000549355369 0.0 0.0 21.0 0.0 0.0 18.0 
508.0030723323224 0.0 0.0 21.0 0.0 0.0 17.0 
509.00505338667693 0.0 0.0 21.0 0.0 0.0 17.0 
510.00106904112425 0.0 0.0 21.0 0.0 0.0 17.0 
511.00065413167545 0.0 0.0 21.0 0.0 0.0 17.0 
512.001502422333 0.0 0.0 21.0 0.0 0.0 17.0 
513.0008163441433 0.0 0.0 21.0 0.0 0.0 17.0 
514.0008380939697 0.005391895394997612 2.6959476974988092 21.0 0.0 0.0 17.0 
515.0002524245028 0.0 0.0 21.0 0.0 0.0 17.0 
516.0006541316754 0.0 0.0 21.0 0.0 0.0 17.0 
517.0002672642795 5.998943273411862E-4 0.2999471636705948 21.0 0.0 0.0 17.0 
518.0039004394073 0.0 0.0 21.0 0.0 0.0 18.0 
519.0008616074149 0.0 0.0 21.0 0.0 0.0 17.0 
520.0029808505707 0.004576977730617506 2.28848886530875 21.0 0.0 0.0 17.0 
521.0006541316754 0.006167104132727913 2.28848886530875 21.0 0.0 0.0 17.0 
522.0030149352045 0.02624059874081858 5.929755632053855 21.0 0.0 0.0 16.0 
523.0004888846809 0.02592941704776483 6.569227986582177 21.0 0.0 0.0 15.0 
524.0000048515766 0.03321195058125508 6.569227986582177 21.0 0.0 0.0 15.0 
525.0005481447971 0.024997967237271976 6.569227986582177 21.0 0.0 0.0 15.0 
526.0006541316754 0.024997967237271976 6.569227986582177 20.0 0.0 0.0 15.0 
527.0004129740216 0.03808488722133506 12.813316525639038 20.0 0.0 0.0 15.0 
528.0024982698214 0.03808488722133506 12.813316525639038 20.0 0.0 0.0 15.0 
529.0018220927726 0.06042219849698636 18.78034527879109 20.0 0.0 0.0 15.0 
530.0027308334865 0.05830934456053338 18.78034527879109 20.0 0.0 0.0 15.0 
531.0006541316754 0.0704494909211321 18.78034527879109 20.0 0.0 0.0 15.0 
532.0067250389761 0.14379962051884618 24.15678787620888 20.0 0.0 0.0 14.0 
533.0021132113093 0.11474396777415437 24.15678787620888 20.0 0.0 0.0 14.0 
534.0040809908545 0.14951859615455096 30.176321064645606 20.0 0.0 0.0 14.0 
535.0001726038898 0.17527309189433252 30.176321064645606 19.0 0.0 0.0 14.0 
536.0006541316754 0.1532097804192332 30.176321064645606 20.0 0.0 0.0 14.0 
537.0002535670752 0.17965567211054362 35.02540950979872 19.0 0.0 0.0 14.0 
538.0015653092346 0.18066204124104743 35.02540950979872 19.0 0.0 0.0 14.0 
539.0006266259733 0.2490222913326231 40.95288446009732 19.0 0.0 0.0 14.0 
540.000352517729 0.22279613767168344 40.95288446009732 18.0 0.0 0.0 14.0 
541.0006541316754 0.24946189413715186 40.95288446009732 18.0 0.0 0.0 14.0 
542.001695977439 0.3016511354779147 46.05511347611437 18.0 0.0 0.0 14.0 
543.0001387723782 0.3136021417414143 52.030616607864175 18.0 0.0 0.0 14.0 
544.000740284664 0.3283230732566431 52.030616607864175 18.0 0.0 0.0 14.0 
545.0009758630985 0.2990756689779546 52.030616607864175 17.0 0.0 0.0 14.0 
546.0006541316754 0.29564127118291944 52.030616607864175 17.0 0.0 0.0 14.0 
547.0000737762412 0.3812389671039018 57.156772609162545 17.0 0.0 0.0 14.0 
548.007418759726 0.3272125605013006 57.156772609162545 17.0 0.0 0.0 15.0 
549.0009837988247 0.23915295765599728 61.01391847818866 17.0 0.0 0.0 15.0 
550.0011006823561 0.25757767755089933 61.01391847818866 17.0 0.0 0.0 15.0 
551.0006541316754 0.31278539571556374 61.01391847818866 17.0 0.0 0.0 15.0 
552.0008091512907 0.42767851579489946 66.15065529717981 17.0 0.0 0.0 16.0 
553.0048812668986 0.3979355291951567 66.15065529717981 17.0 0.0 0.0 16.0 
554.0016764649328 0.3887000042433092 61.28478442861382 17.0 0.0 0.0 16.0 
555.0030937434994 0.6302270858714145 75.70143120421699 17.0 0.0 0.0 16.0 
556.0006541316754 0.657990779469072 75.70143120421699 17.0 0.0 0.0 16.0 
557.0054144744471 0.7335765697138263 81.15315902432383 18.0 0.0 0.0 16.0 
558.0013498757799 0.7384489881123654 81.15315902432383 18.0 0.0 0.0 16.0 
559.0042155515124 0.7765466729887459 81.15315902432383 18.0 0.0 0.0 16.0 
560.0000921903006 0.7941372223358141 76.45642962866896 17.0 0.0 0.0 16.0 
561.0006541316754 0.7280432502020071 76.45642962866896 17.0 0.0 0.0 16.0 
562.0057681102884 1.0624625709883813 87.1186844090679 16.0 0.0 0.0 16.0 
563.0037421828896 1.0343305987955091 87.1186844090679 16.0 0.0 0.0 17.0 
564.0002472932296 1.0714075423304223 87.1186844090679 16.0 0.0 0.0 16.0 
565.0002770141324 1.166727158288623 87.1186844090679 16.0 0.0 0.0 17.0 
566.0006541316754 1.2272560532155856 88.48461697921664 16.0 0.0 0.0 17.0 
567.0003797074753 1.3722042232819924 88.48461697921664 17.0 0.0 0.0 17.0 
568.0022309041984 1.3869419406451495 88.48461697921664 17.0 0.0 0.0 16.0 
569.005134202819 1.407659067729636 88.48461697921664 17.0 0.0 0.0 16.0 
570.0003848174103 1.2951991904019855 88.48461697921664 17.0 0.0 0.0 16.0 
571.0006541316754 1.2944734428136655 83.76077614052576 16.0 0.0 0.0 16.0 
572.0002147410562 1.4408316364683962 89.43472526497067 16.0 0.0 0.0 16.0 
573.000277660231 1.4591908124800643 89.43472526497067 16.0 0.0 0.0 16.0 
574.0000874746753 1.3909544895513313 93.32392337754021 17.0 0.0 0.0 16.0 
575.0004395502243 1.324546943869021 93.32392337754021 17.0 0.0 0.0 17.0 
576.0000151957028 1.1172563081369657 89.43472526497067 17.0 0.0 0.0 17.0 
577.001296076219 1.4847660119207668 99.12043557055921 17.0 0.0 0.0 17.0 
578.000570993976 1.5207985934031687 104.12052685133847 17.0 0.0 0.0 17.0 
579.0010069781678 1.304378059792025 89.78732362641995 17.0 0.0 0.0 17.0 
580.0006075095719 1.2947585281983995 89.78732362641995 17.0 0.0 0.0 17.0 
581.0006541316754 1.305111859680049 89.96428921670503 17.0 0.0 0.0 17.0 
582.0024234550584 1.5503323370828543 89.96428921670503 16.0 0.0 0.0 17.0 
583.0043375918484 1.5626271267588325 89.96428921670503 16.0 0.0 0.0 17.0 
584.0005028808697 1.5922137513724008 89.96428921670503 16.0 0.0 0.0 17.0 
585.0027176355906 1.5519121188599796 89.96428921670503 16.0 0.005489378376014284 2.744689188007129 17.0 
586.0002635617816 1.5267654624248521 89.96428921670503 16.0 0.0 0.0 17.0 
587.0004390664271 1.7373266460463037 99.64373916589517 16.0 0.0 0.0 17.0 
588.0007837500459 1.7372721151524582 99.64373916589517 16.0 0.0 0.0 17.0 
589.00051927158 1.737910671427258 99.64373916589517 16.0 0.0 0.0 17.0 
590.0000990587973 1.7231140071476947 99.64373916589517 16.0 0.0 0.0 18.0 
591.0006541316754 1.9810220720630822 106.80869036855262 16.0 0.0 0.0 18.0 
592.0010469334599 1.9916471246775893 110.3515555591423 15.0 0.0 0.0 19.0 
593.0000199668985 1.9894777182047552 110.3515555591423 15.0 0.0 0.0 19.0 
594.0020156183566 2.0016794269032063 110.3515555591423 15.0 0.0 0.0 18.0 
595.0036076199144 2.0560969471417825 110.3515555591423 15.0 0.0 0.0 17.0 
596.0006541316754 2.0910312280804146 110.3515555591423 16.0 0.0 0.0 18.0 
597.0016262066252 2.4965102223597686 120.69390778660215 16.0 0.0 0.0 18.0 
598.0006886060872 2.287052010996419 120.69390778660215 16.0 0.0 0.0 18.0 
599.0043492089163 2.4400706455114114 120.69390778660215 16.0 0.0 0.0 18.0 
600.0013347002476 2.338306999772346 120.69390778660215 16.0 0.0 0.0 18.0 
#####################################################################
# End of data export. Simulation finished at: 2019-02-25T20:04+0000 #
#####################################################################
