#####################################################################
# Alchemist log file - simulation started at: 2019-02-25T20:40+0000 #
#####################################################################
# seed = 172.0
#
# The columns have the following meaning: 
# time distance-rep[Mean] distance-rep[Max] leader-rep[CountDistinct] distance-share[Mean] distance-share[Max] leader-share[CountDistinct] 
0.0 NaN NaN NaN NaN NaN NaN 
1.000135902276181 0.0 0.0 496.0 0.0 0.0 72.0 
2.002039956859289 0.0 0.0 126.0 0.0 0.0 67.0 
3.0005078556319797 0.0 0.0 112.0 0.0 0.0 61.0 
4.003142631000358 0.0 0.0 107.0 0.0 0.0 54.0 
5.000122400283154 0.0 0.0 100.0 0.0 0.0 47.0 
6.000441279865949 0.0 0.0 96.0 0.0 0.0 42.0 
7.00108105674503 0.0 0.0 93.0 0.0 0.0 40.0 
8.001428583931668 0.0 0.0 85.0 0.0 0.0 37.0 
9.000717171954712 0.0 0.0 79.0 0.0 0.0 36.0 
10.003006191854112 0.0 0.0 74.0 0.0 0.0 35.0 
11.000503014665114 0.0 0.0 70.0 0.0 0.0 34.0 
12.006223965445077 0.0 0.0 67.0 0.0 0.0 37.0 
13.000560474222942 0.0 0.0 67.0 0.02307709522851524 8.390487156367612 38.0 
14.001534566120135 0.0 0.0 64.0 0.025720558719040956 12.244469024286616 32.0 
15.004687194667394 0.0 0.0 61.0 0.02767356601541907 12.244469024286616 28.0 
16.000503014665114 0.0 0.0 61.0 0.10316380717137069 16.235365285715176 28.0 
17.000837137896994 0.0 0.0 57.0 0.09388669158196915 19.712816694415608 27.0 
18.004526743882682 0.0 0.0 54.0 0.06261271535816569 19.712816694415608 26.0 
19.002478003465423 0.0 0.0 53.0 0.1424661284416592 34.03054114652571 23.0 
20.000832271285084 0.0 0.0 54.0 0.14464903539759166 37.06593655829539 23.0 
21.000503014665114 0.0 0.0 50.0 0.07051716228100095 23.665040155833253 27.0 
22.000436541500942 0.0 0.0 51.0 0.0 0.0 26.0 
23.00259874125235 0.0 0.0 50.0 0.037461983940526904 15.033335555049263 26.0 
24.003530195330963 0.0 0.0 48.0 0.037461983940526904 15.033335555049263 25.0 
25.00025697701923 0.0 0.0 49.0 0.0 0.0 24.0 
26.000503014665114 0.0 0.0 49.0 0.049280339443724154 22.464676868523185 23.0 
27.000491515863324 0.0 0.0 48.0 0.10609881172964714 38.09853271527314 19.0 
28.002295152488955 0.0 0.0 47.0 0.1376905214679707 38.09853271527314 19.0 
29.000685734417335 0.0 0.0 46.0 0.06604558839504694 33.0227941975233 16.0 
30.000333341061022 0.0 0.0 43.0 0.06604558839504694 33.0227941975233 15.0 
31.000503014665114 0.0 0.0 41.0 0.07312351640769911 36.56175820384985 15.0 
32.00264589576176 0.0 0.0 41.0 0.07312351640769911 36.56175820384985 13.0 
33.00358193129563 0.0 0.0 39.0 0.07312351640769911 36.56175820384985 13.0 
34.000615921323565 0.0 0.0 40.0 0.06146927929153333 30.73463964576655 13.0 
35.000833779255316 0.0 0.0 39.0 0.06146927929153333 30.73463964576655 13.0 
36.000503014665114 0.0 0.0 38.0 0.06146927929153333 30.73463964576655 13.0 
37.001441516928004 0.0 0.0 36.0 0.06898976535975347 34.49488267987658 14.0 
38.000381891285365 0.0 0.0 35.0 0.06898976535975347 34.49488267987658 14.0 
39.000744125991915 0.0 0.0 34.0 0.06898976535975347 34.49488267987658 14.0 
40.00477103012511 0.0 0.0 34.0 0.0583341995676403 29.167099783820078 14.0 
41.000503014665114 0.0 0.0 35.0 0.0583341995676403 29.167099783820078 14.0 
42.000784343178694 0.0 0.0 35.0 0.06802174363367197 34.01087181683596 13.0 
43.00116850440776 0.0 0.0 33.0 0.06802174363367197 34.01087181683596 13.0 
44.00506553928707 0.0 0.0 34.0 0.06802174363367197 34.01087181683596 13.0 
45.002161670439 0.0 0.0 33.0 0.057465726075123034 28.732863037561373 13.0 
46.000503014665114 0.0 0.0 33.0 0.057465726075123034 28.732863037561373 13.0 
47.00465314279308 0.0 0.0 30.0 0.06716824633731093 33.58412316865531 13.0 
48.0002937680933 0.0 0.0 29.0 0.06716824633731093 33.58412316865531 14.0 
49.00049245958943 0.0 0.0 31.0 0.06716824633731093 33.58412316865531 14.0 
50.00126103335405 0.0 0.0 30.0 0.05679912850627238 28.399564253135964 14.0 
51.000503014665114 0.0 0.0 29.0 0.05679912850627238 28.399564253135964 14.0 
52.00232414935868 0.014494024461239473 4.195555981558385 28.0 0.06641346151147552 33.20673075573802 14.0 
53.000024140040765 0.018015958674486753 4.8124233556849845 29.0 0.06641346151147552 33.20673075573802 15.0 
54.00028380604425 0.018015958674486753 4.8124233556849845 30.0 0.06641346151147552 33.20673075573802 15.0 
55.00240938433966 0.018015958674486753 4.8124233556849845 30.0 0.055630892686541165 27.81544634327045 15.0 
56.000503014665114 0.018015958674486753 4.8124233556849845 30.0 0.055630892686541165 27.81544634327045 15.0 
57.00022537204874 0.0508670470141668 13.37069878884995 30.0 0.0652684934601427 32.63424673007117 16.0 
58.000987068265125 0.05487502140038708 14.06681191134362 29.0 0.0652684934601427 32.63424673007117 16.0 
59.00097136798326 0.05487502140038708 14.06681191134362 30.0 0.0652684934601427 32.63424673007117 16.0 
60.00108426983592 0.055556510212122184 14.06681191134362 32.0 0.05283167490509526 26.41583745254772 17.0 
61.000503014665114 0.05487502140038708 14.06681191134362 29.0 0.06264179724888516 31.32089862444232 17.0 
62.00598200050749 0.04364948862281768 21.500470901717932 31.0 0.0 0.0 17.0 
63.000669105245166 0.0 0.0 29.0 0.0 0.0 18.0 
64.00127378371214 0.0 0.0 28.0 0.0 0.0 18.0 
65.00035956756756 0.0 0.0 27.0 0.0 0.0 17.0 
66.00011449403056 0.0 0.0 27.0 0.0 0.0 17.0 
67.00121174140976 0.04704465589679469 9.753124398502052 30.0 0.0 0.0 17.0 
68.00039562930978 0.058235270427678405 16.87338715311961 29.0 0.0 0.0 17.0 
69.00050868201245 0.03928869606783166 10.603372925382644 30.0 0.0 0.0 17.0 
70.00181745525116 0.0 0.0 28.0 0.0 0.0 17.0 
71.00050301466511 0.0 0.0 26.0 0.0 0.0 17.0 
72.00386012267928 0.0 0.0 27.0 0.0 0.0 17.0 
73.00056585145082 0.0 0.0 27.0 0.0 0.0 17.0 
74.0009316236023 0.0 0.0 25.0 0.0 0.0 17.0 
75.00171774126656 0.0 0.0 24.0 0.0 0.0 17.0 
76.00050301466511 0.0 0.0 24.0 0.0 0.0 17.0 
77.00085724827223 0.0 0.0 22.0 0.0 0.0 17.0 
78.00233712722249 0.0 0.0 22.0 0.0 0.0 17.0 
79.00410752456948 0.0 0.0 22.0 0.0 0.0 17.0 
80.00132677292737 0.0 0.0 22.0 0.0 0.0 17.0 
81.00050301466511 0.0 0.0 22.0 0.0 0.0 17.0 
82.00178664838649 0.0 0.0 22.0 0.0 0.0 16.0 
83.0009209734451 0.0 0.0 22.0 0.0 0.0 16.0 
84.00029865673865 0.0 0.0 22.0 0.0 0.0 16.0 
85.00310088397488 0.0 0.0 22.0 0.0 0.0 16.0 
86.00050301466511 0.0 0.0 21.0 0.0 0.0 16.0 
87.00199971576032 0.0 0.0 19.0 0.0 0.0 16.0 
88.00396264187377 0.0 0.0 20.0 0.0 0.0 16.0 
89.00003783963636 0.0 0.0 20.0 0.0 0.0 16.0 
90.00064222385531 0.0 0.0 20.0 0.0 0.0 16.0 
91.00050301466511 0.0 0.0 20.0 0.0 0.0 16.0 
92.00052158431049 0.0 0.0 20.0 0.0 0.0 16.0 
93.00156698478808 0.0 0.0 20.0 0.0 0.0 16.0 
94.00065604510512 0.0 0.0 20.0 0.0 0.0 16.0 
95.00012343612008 0.0 0.0 19.0 0.0 0.0 16.0 
96.00015580388191 0.0 0.0 19.0 0.0 0.0 16.0 
97.00198158457971 0.0 0.0 19.0 0.0 0.0 16.0 
98.00657840485584 0.0 0.0 19.0 0.0 0.0 16.0 
99.00129279977675 0.0 0.0 19.0 0.0 0.0 15.0 
100.00057291866689 0.0 0.0 19.0 0.0 0.0 15.0 
101.00050301466511 0.0 0.0 18.0 0.0 0.0 15.0 
102.00240387526797 0.0 0.0 19.0 0.0 0.0 16.0 
103.00098040927527 0.0 0.0 19.0 0.0 0.0 16.0 
104.00248902693704 0.0 0.0 20.0 0.0 0.0 16.0 
105.00203616484492 0.0 0.0 19.0 0.0 0.0 15.0 
106.00050301466511 0.0 0.0 19.0 0.0 0.0 15.0 
107.00185547809404 0.0 0.0 18.0 0.0 0.0 15.0 
108.00117276559709 0.0 0.0 19.0 0.0 0.0 15.0 
109.00100733669744 0.0 0.0 18.0 0.0 0.0 16.0 
110.00364905297711 0.0 0.0 18.0 0.0 0.0 16.0 
111.00034952365489 0.0 0.0 18.0 0.0 0.0 15.0 
112.00022355818109 0.0 0.0 18.0 0.0 0.0 15.0 
113.00057809948308 0.0 0.0 18.0 0.0 0.0 15.0 
114.00064115396954 0.0 0.0 18.0 0.0 0.0 16.0 
115.00230740666002 0.0 0.0 17.0 0.0 0.0 18.0 
116.00050301466511 0.0 0.0 18.0 0.0 0.0 17.0 
117.00041512860913 0.0 0.0 17.0 0.0 0.0 17.0 
118.00346759479581 0.0 0.0 17.0 0.0 0.0 17.0 
119.00594846965593 0.0 0.0 18.0 0.0 0.0 17.0 
120.00033532272315 0.0 0.0 18.0 0.0 0.0 17.0 
121.00050301466511 0.0 0.0 19.0 0.0 0.0 16.0 
122.00633099276186 0.0 0.0 18.0 0.0 0.0 16.0 
123.00657840485584 0.0 0.0 18.0 0.0 0.0 16.0 
124.00171045065153 0.0 0.0 18.0 0.0 0.0 16.0 
125.00241767730942 0.0 0.0 18.0 0.0 0.0 15.0 
126.00050301466511 0.0 0.0 18.0 0.0 0.0 15.0 
127.00207975731061 0.0 0.0 17.0 0.0 0.0 16.0 
128.00261220670868 0.0 0.0 17.0 0.0 0.0 16.0 
129.0032746075231 0.0 0.0 17.0 0.0 0.0 16.0 
130.00102553744668 0.01246511117740451 6.23255558870224 17.0 0.0 0.0 16.0 
131.00050301466513 0.0 0.0 17.0 0.0 0.0 16.0 
132.0004225992476 0.0 0.0 18.0 0.0 0.0 16.0 
133.00086488832912 0.011570879206553614 5.785439603276814 18.0 0.0 0.0 16.0 
134.0053365168866 0.011570879206553614 5.785439603276814 18.0 0.0 0.0 16.0 
135.00195862550248 0.06637781832521122 27.403469559328812 17.0 0.0 0.0 16.0 
136.0003345755068 0.0014504218651488878 0.7252109325744414 17.0 0.0 0.0 16.0 
137.00371104354318 0.009120018309425264 4.560009154712645 17.0 0.0 0.0 16.0 
138.00496805937712 0.019881054750275393 5.380518220425017 17.0 0.0 0.0 16.0 
139.00050722055053 0.019881054750275393 5.380518220425017 17.0 0.0 0.0 16.0 
140.00037045854887 0.010761036440850033 5.380518220425017 16.0 0.0 0.0 16.0 
141.00050301466513 0.017182938229625275 8.591469114812696 16.0 0.0 0.0 16.0 
142.001106848116 0.02553932840470423 12.769664202352175 17.0 0.0 0.0 16.0 
143.00040468548517 0.05192563545370364 12.769664202352175 17.0 0.0 0.0 16.0 
144.0017739979935 0.1139126334038111 30.99349897505354 16.0 0.0 0.0 16.0 
145.0000370213902 0.1738600959663777 30.99349897505354 15.0 0.0 0.0 17.0 
146.00050301466513 0.061986997950106974 30.99349897505354 15.0 0.0 0.0 16.0 
147.00633099276186 0.061986997950106974 30.99349897505354 15.0 0.0 0.0 16.0 
148.00051656303225 0.07154594264972397 30.99349897505354 15.0 0.0 0.0 16.0 
149.00651014200108 0.1336562919443128 33.15206462908438 16.0 0.0 0.0 16.0 
150.00322000517542 0.13188040534941803 33.15206462908438 16.0 0.0 0.0 16.0 
151.00050301466513 0.16987792719321881 33.15206462908438 16.0 0.0 0.0 16.0 
152.0036660537958 0.22464124770607932 33.15206462908438 16.0 0.0 0.0 16.0 
153.0007929318474 0.1883928152995897 28.176059332957323 17.0 0.0 0.0 16.0 
154.0019005758118 0.06320633541892261 14.126574235760984 17.0 0.0 0.0 16.0 
155.0008265922288 0.03156420844621722 8.751662285335868 17.0 0.0 0.0 16.0 
156.00050301466513 0.0 0.0 17.0 0.0 0.0 16.0 
157.00382930907958 0.0 0.0 17.0 0.0 0.0 15.0 
158.00354594975514 0.0 0.0 18.0 0.0 0.0 16.0 
159.0044734599472 0.005901219967942377 1.7201620906814696 17.0 0.0 0.0 16.0 
160.00376191284474 0.005901219967942377 1.7201620906814696 17.0 0.0 0.0 16.0 
161.00050301466513 0.02387449028502142 8.986635158539514 17.0 0.0 0.0 16.0 
162.00074798916958 0.052656797046108296 8.986635158539514 17.0 0.0 0.0 16.0 
163.0032952771881 0.052656797046108296 8.986635158539514 17.0 0.0 0.0 16.0 
164.00245380228534 0.08192003418708958 20.27825855634154 17.0 0.0 0.0 16.0 
165.00182202270238 0.08192003418708958 20.27825855634154 17.0 0.0 0.0 16.0 
166.00050301466513 0.11206912078819616 27.18317019851824 18.0 0.0 0.0 17.0 
167.0019759317104 0.15021540154493462 27.18317019851824 18.0 0.0 0.0 16.0 
168.00075302057522 0.15021540154493462 27.18317019851824 18.0 0.0 0.0 16.0 
169.0032853961724 0.14819516944167077 23.106129139707974 18.0 0.0 0.0 16.0 
170.0045961625887 0.13453302567670591 23.106129139707974 18.0 0.0 0.0 16.0 
171.00050301466513 0.10560052456198019 20.30858669842553 18.0 0.0 0.0 16.0 
172.00633099276186 0.07353110136955317 16.012359027503607 18.0 0.0 0.0 16.0 
173.00657840485584 0.07353110136955317 16.012359027503607 18.0 0.0 0.0 15.0 
174.00084316784495 0.07409930703059701 17.30553118898328 18.0 0.0 0.0 15.0 
175.0032608088481 0.07409930703059701 17.30553118898328 18.0 0.0 0.0 15.0 
176.00050301466513 0.0450342953906293 17.30553118898328 18.0 0.0 0.0 15.0 
177.00027247842343 0.11974804010988273 43.772768854216764 18.0 0.0 0.0 15.0 
178.00201010359353 0.20108117499663256 46.26802985288842 18.0 0.0 0.0 16.0 
179.00232974222178 0.27688494143762765 46.26802985288842 18.0 0.0 0.0 16.0 
180.0002561065229 0.11654289596143613 36.397771583005266 18.0 0.0 0.0 16.0 
181.00012119793126 0.10528088326170748 33.90299288520694 18.0 0.0 0.0 16.0 
182.00125904183136 0.095302006551858 28.91355453028217 18.0 0.0 0.0 16.0 
183.000683125754 0.10965913212088033 28.91355453028217 18.0 0.0 0.0 17.0 
184.00012568894098 0.1059027256618253 21.53731487334244 18.0 0.0 0.0 18.0 
185.00333582762963 0.08490776375346443 21.53731487334244 19.0 0.0 0.0 17.0 
186.00050301466513 0.09306484179312975 14.055920469408477 19.0 0.0 0.0 17.0 
187.0021692796703 0.15660609329971723 42.13675651626414 19.0 0.0 0.0 16.0 
188.00077109909682 0.1547341957982657 42.13675651626414 19.0 0.0 0.0 16.0 
189.00277122229505 0.13922776101165132 24.272835050303684 19.0 0.0 0.0 16.0 
190.00242564418323 0.12393188141272131 24.272835050303684 18.0 0.0 0.0 16.0 
191.000500963134 0.11640182833076815 24.272835050303684 18.0 0.0 0.0 16.0 
192.0031531587228 0.11975212757019334 24.272835050303684 18.0 0.0 0.0 16.0 
193.00109109681185 0.10352706027489814 24.282371725884502 18.0 0.0 0.0 16.0 
194.0022712560487 0.12148127069768835 24.282371725884502 18.0 0.0 0.0 17.0 
195.000488768281 0.11187669877386544 24.282371725884502 18.0 0.0 0.0 18.0 
196.00026622186294 0.10190088593957944 24.282371725884502 18.0 0.0 0.0 17.0 
197.0022267474346 0.10885412236137451 24.282371725884502 18.0 0.0 0.0 16.0 
198.00140723039445 0.10883352102004044 24.27207105521751 18.0 0.0 0.0 15.0 
199.0001851702309 0.12412723691731269 24.27207105521751 18.0 0.0 0.0 15.0 
200.00234052301985 0.13538411536712341 24.27207105521751 18.0 0.0 0.0 17.0 
201.00050301466513 0.15106820473796154 24.27207105521751 19.0 0.0 0.0 18.0 
202.0018140363799 0.1080381486472033 24.27207105521751 19.0 0.0 0.0 18.0 
203.00178485685163 0.11738131883262513 24.299556221662613 20.0 0.0 0.0 18.0 
204.00307863423254 0.1381167100918875 24.299556221662613 20.0 0.0 0.0 17.0 
205.00080539859863 0.19047734421298446 26.180317060548504 20.0 0.0 0.0 16.0 
206.0005019892877 0.17789907903820906 26.180317060548504 20.0 0.0 0.0 16.0 
207.00279940998624 0.11350546114340646 24.299556221662613 20.0 0.0 0.0 16.0 
208.0005765346698 0.19238898886726954 30.614038487808955 20.0 0.0 0.0 15.0 
209.00049595496543 0.1685626004296045 24.701282790795062 20.0 0.0 0.0 15.0 
210.00078737616155 0.07799227445851756 24.701282790795062 20.0 0.0 0.0 15.0 
211.00050301466513 0.07799227445851756 24.701282790795062 20.0 0.0 0.0 15.0 
212.00064938594704 0.14225949539255364 32.133610467018144 20.0 0.0 0.0 16.0 
213.00107645532597 0.1436961706157035 32.133610467018144 20.0 0.0 0.0 16.0 
214.00029729532937 0.22404856660389216 34.69294103419389 20.0 0.0 0.0 16.0 
215.0004685864396 0.2413794135281295 38.07464310388198 20.0 0.0 0.0 16.0 
216.00050301466513 0.25434090340654153 38.07464310388198 20.0 0.0 0.0 16.0 
217.00334669085535 0.2512884173465807 34.69294103419389 20.0 0.005596768906461441 2.7983844532307103 16.0 
218.00103827904198 0.3398242487432356 43.71549439791124 20.0 0.020398323482753018 10.199161741376457 16.0 
219.0021017477666 0.48644649424846176 49.5893224121333 20.0 0.0 0.0 16.0 
220.00406385440436 0.5009787224474455 49.5893224121333 20.0 0.0 0.0 16.0 
221.00027922722256 0.4426795231011228 49.5893224121333 20.0 0.0 0.0 16.0 
222.00049730035164 0.5258746390428238 51.236030086857994 19.0 0.0 0.0 17.0 
223.0031547142435 0.290829695689483 51.236030086857994 19.0 0.010727862658295598 5.3639313291478175 17.0 
224.0085646768272 0.31434059109294943 57.080895029160445 19.0 0.010727862658295598 5.3639313291478175 17.0 
225.0007389032395 0.22359458445714994 57.080895029160445 19.0 0.010727862658295598 5.3639313291478175 17.0 
226.00050301466513 0.21218319555832219 54.71639719941447 19.0 0.0 0.0 17.0 
227.00368038896727 0.1177243372681944 58.862168634096975 19.0 0.004854936533739362 2.427468266869681 17.0 
228.00114166656604 0.0 0.0 18.0 0.010749477245143881 2.947270355702244 17.0 
229.0022167945745 0.0 0.0 18.0 0.022106733453606225 8.106096371100875 17.0 
230.00023273233055 0.0 0.0 18.0 0.022106733453606225 8.106096371100875 17.0 
231.00050301466513 0.0 0.0 18.0 0.016212192742201776 8.106096371100875 17.0 
232.0012662565055 0.0 0.0 18.0 0.03494909703385626 8.709204405673688 17.0 
233.00114491945578 0.0 0.0 18.0 0.07510240788392313 14.681237325535363 16.0 
234.00359808660718 0.0 0.0 18.0 0.01628823797356928 4.240715771704572 17.0 
235.00125892961393 0.0 0.0 18.0 0.01628823797356928 4.240715771704572 16.0 
236.00050301466513 0.0 0.0 18.0 0.01628823797356928 4.240715771704572 16.0 
237.0009938758376 0.0 0.0 18.0 0.02963739819389168 9.40758061728306 16.0 
238.0061878890733 0.0 0.0 19.0 0.03805728016905767 9.40758061728306 16.0 
239.0009521275111 0.0 0.0 19.0 0.04866367801347701 8.083111736888043 16.0 
240.00050942329383 0.0 0.0 18.0 0.040067151993226344 8.083111736888043 17.0 
241.00050301466513 0.0 0.0 17.0 0.026722365340770843 8.083111736888043 17.0 
242.00317789012857 0.0 0.0 17.0 0.016166223473776 8.083111736888043 18.0 
243.00037011093968 0.0016155689139226946 0.8077844569613433 17.0 0.0 0.0 18.0 
244.00233423030824 0.0 0.0 17.0 0.0 0.0 18.0 
245.0036756501555 0.0 0.0 18.0 0.0 0.0 19.0 
246.00050301466513 0.0 0.0 18.0 0.0 0.0 19.0 
247.00154078300932 0.0 0.0 18.0 0.011947662119070954 4.0724534745252186 18.0 
248.00335476933273 0.0 0.0 18.0 0.011947662119070954 4.0724534745252186 18.0 
249.00380629889227 0.0 0.0 18.0 0.026523378764386072 9.189235907667836 18.0 
250.00163332391978 0.0 0.0 18.0 0.041106697457761 11.364112821212615 18.0 
251.00050301466513 0.0 0.0 18.0 0.041106697457761 11.364112821212615 17.0 
252.00103171163977 0.0 0.0 18.0 0.0560441843523927 16.65797935498378 17.0 
253.00036906450893 0.0 0.0 17.0 0.07098048638904922 18.832263839541014 17.0 
254.00158977383273 0.0 0.0 17.0 0.08557778896672907 23.956630643823615 17.0 
255.0020361256953 0.0 0.0 17.0 0.08557778896672907 23.956630643823615 16.0 
256.0005030146651 0.0 0.0 17.0 0.10018178233636425 26.13426052435841 17.0 
257.00105617686546 0.0 0.0 17.0 0.11521016107169899 31.47082001149093 17.0 
258.0010441118351 0.005693707985967889 2.846853992983938 17.0 0.1302376769578491 33.64801846743339 17.0 
259.0003995410223 0.00399743294125291 1.998716470626448 17.0 0.06729603693486694 33.64801846743339 17.0 
260.0011375022557 0.0 0.0 16.0 0.0 0.0 17.0 
261.0000543084577 0.008405749029255442 2.846853992983938 17.0 0.0 0.0 17.0 
262.00633099276183 0.018765889413176216 9.382944706588091 17.0 0.0 0.0 17.0 
263.00657795982266 0.055664502063643616 9.382944706588091 17.0 0.003836132213345437 1.9180661066727112 17.0 
264.00205716928707 0.04192206849561411 9.382944706588091 17.0 0.003836132213345437 1.9180661066727112 17.0 
265.0010829558541 0.055664502063643616 9.382944706588091 17.0 0.01847771354093465 9.238856770467322 17.0 
266.0005030146651 0.03812495852747467 9.382944706588091 17.0 0.01847771354093465 9.238856770467322 17.0 
267.0001565852455 0.0 0.0 17.0 0.01847771354093465 9.238856770467322 17.0 
268.0008408752465 0.005809917597412517 2.7085396805836695 17.0 0.0423470210989087 16.756045169664276 17.0 
269.0002322029939 0.008499096312197734 2.7085396805836695 17.0 0.0423470210989087 16.756045169664276 17.0 
270.0009838887848 0.00810625807595264 2.7085396805836695 17.0 0.05700759736625897 24.08633330333933 17.0 
271.0002903693089 0.045784967060737064 17.941900142026554 17.0 0.0717719374391408 24.08633330333933 17.0 
272.002513010729 0.04138218527354723 17.941900142026554 17.0 0.09751531842558353 31.490303262409327 17.0 
273.0010480056456 0.1043383328239428 25.388253002872148 17.0 0.13923618214387504 31.490303262409327 17.0 
274.00112232777917 0.11663235125771083 25.388253002872148 18.0 0.07625557561905678 19.200535487568317 17.0 
275.00163811588124 0.08311228421678044 24.09767462741911 18.0 0.0 0.0 16.0 
276.0005030146651 0.11138722757544295 24.09767462741911 18.0 0.0 0.0 16.0 
277.0019594999319 0.1189794354259824 31.433695925545607 18.0 0.0 0.0 16.0 
278.00075394891013 0.25781573528905116 31.433695925545607 19.0 0.0 0.0 16.0 
279.001094347832 0.27005975386641096 31.433695925545607 18.0 0.0 0.0 16.0 
280.00005380021975 0.268356288140763 31.41967325729172 18.0 0.0 0.0 16.0 
281.00025866035384 0.21586492049545652 31.41967325729172 18.0 0.0 0.0 17.0 
282.0010460278346 0.2748967323010399 38.72292665118013 18.0 0.0 0.0 18.0 
283.001589148543 0.22606411033138157 32.63747339845452 18.0 0.0 0.0 18.0 
284.00117441337613 0.21733817647322926 38.81635913523252 18.0 0.0 0.0 16.0 
285.00348479686676 0.22901842770849515 38.81635913523252 18.0 0.0 0.0 16.0 
286.0005030146651 0.22411784252967398 38.81635913523252 19.0 0.0 0.0 17.0 
287.0011558980388 0.2659315331228467 38.81635913523252 19.0 0.0 0.0 17.0 
288.0000475998084 0.5355209051428179 48.38403254623026 19.0 0.0 0.0 17.0 
289.0035658707588 0.3188877788461503 30.607104985797605 19.0 0.0 0.0 16.0 
290.00277128819465 0.5014330990015211 48.50727554111481 19.0 0.0 0.0 16.0 
291.0005030146651 0.4991203664291935 48.50727554111481 19.0 0.0 0.0 16.0 
292.0006887953061 0.5313288685398234 41.048984913995156 21.0 0.0 0.0 18.0 
293.00328717738546 0.4374323853282913 41.048984913995156 20.0 0.0 0.0 18.0 
294.00001838190195 0.34403937156390524 34.813236803638006 20.0 0.0 0.0 18.0 
295.00216812903585 0.34403937156390524 34.813236803638006 20.0 0.0 0.0 18.0 
296.0005030146651 0.4451613943476741 34.813236803638006 20.0 0.0 0.0 17.0 
297.00354475003724 0.39594075578422494 28.268848836681798 20.0 0.0 0.0 17.0 
298.0022251798911 0.34820622576501326 27.454082175164018 21.0 0.0 0.0 17.0 
299.0058358504292 0.30609487254983014 23.739969914844323 20.0 0.0 0.0 17.0 
300.0008457285847 0.35699620701600887 26.4845653256898 21.0 0.0 0.0 17.0 
301.0005030146651 0.3021439901370988 26.4845653256898 22.0 0.0 0.0 17.0 
302.0028188879847 0.1939578654912965 26.4845653256898 21.0 0.0 0.0 17.0 
303.0065784048559 0.16623340257273025 21.432597887084142 19.0 0.0 0.0 17.0 
304.0006957306998 0.17880548880773062 25.497271088202723 19.0 0.0 0.0 17.0 
305.0002694237995 0.16827966230398317 25.497271088202723 18.0 0.0 0.0 17.0 
306.0005030146651 0.1797130429340488 25.497271088202723 18.0 0.0 0.0 17.0 
307.0027510301188 0.1345890623290469 18.145391618110438 18.0 0.0 0.0 17.0 
308.00033012482254 0.10542213778299338 18.145391618110438 18.0 0.0 0.0 17.0 
309.0102271235313 0.1140342569956865 24.473501761184394 18.0 0.0 0.0 17.0 
310.0014758186627 0.18968785546998346 31.619091227948985 17.0 0.0 0.0 17.0 
311.0005030146651 0.22679719607718465 31.619091227948985 17.0 0.0 0.0 17.0 
312.0025808641061 0.23714904061649897 24.473501761184394 17.0 0.0 0.0 17.0 
313.0065784048559 0.21532813347000881 24.15038258941641 17.0 0.0 0.0 19.0 
314.00151098450624 0.2388564471936597 23.348830503289122 17.0 0.0 0.0 19.0 
315.0012339364342 0.3218164281806147 26.126149667640277 17.0 0.0 0.0 19.0 
316.0005030146651 0.29814464417229947 26.126149667640277 17.0 0.0 0.0 19.0 
317.0015338010081 0.3319730782820804 32.76884591809764 17.0 0.0 0.0 19.0 
318.0003480114098 0.37614641433949303 40.66115631691912 17.0 0.0 0.0 19.0 
319.00020292854174 0.37309256154049275 40.66115631691912 17.0 0.0 0.0 19.0 
320.00455537632496 0.37424271518069435 40.66115631691912 17.0 0.0 0.0 18.0 
321.0005030146651 0.3553391899073826 40.66115631691912 17.0 0.0 0.0 18.0 
322.0006268086732 0.4490384341355268 40.66115631691912 18.0 0.0 0.0 18.0 
323.00241623434624 0.46438694316636436 39.94814621085001 18.0 0.0 0.0 18.0 
324.0010508919625 0.45798391817320727 39.94814621085001 18.0 0.0 0.0 18.0 
325.0037363541792 0.5137171025233805 39.94814621085001 18.0 0.0 0.0 17.0 
326.0005030146651 0.43468536138660274 39.94814621085001 18.0 0.0 0.0 18.0 
327.0004965433489 0.8199794827880216 50.561252724542896 18.0 0.0 0.0 18.0 
328.0044948968593 0.7934395060292814 50.561252724542896 18.0 0.0 0.0 18.0 
329.0026608049248 0.7670038469987278 44.111508568260206 18.0 0.0 0.0 18.0 
330.0008598695138 1.0498721044971613 69.90589820573433 18.0 0.0 0.0 18.0 
331.0005030146651 0.9771020399449521 58.028891892273236 18.0 0.0 0.0 18.0 
332.00026830554174 1.2543707513952245 76.71827078510029 17.0 0.0 0.0 19.0 
333.0014382885311 1.3034268714900923 76.71827078510029 17.0 0.0 0.0 19.0 
334.0041112859154 1.1628685194637576 76.71827078510029 17.0 0.0 0.0 19.0 
335.00032911829044 1.289668571226322 69.21791620489307 17.0 0.0 0.0 19.0 
336.0005030146651 1.273675083991049 69.21791620489307 17.0 0.0 0.0 19.0 
337.00014115473766 1.6177701445655162 76.06005221475834 17.0 0.0 0.0 19.0 
338.00390455713904 1.557001156438244 76.06005221475834 17.0 0.0 0.0 18.0 
339.00582198608663 1.4564002497404405 76.06005221475834 17.0 0.0 0.0 18.0 
340.00249291162066 1.5843177061422349 72.53229448187665 17.0 0.0 0.0 18.0 
341.0005030146651 1.5824738147341413 68.55446257447306 17.0 0.0 0.0 18.0 
342.0012450558228 2.3814981139633336 83.93250718472962 17.0 0.0 0.0 18.0 
343.0013575249658 2.238290013091412 80.00442794812449 17.0 0.0 0.0 18.0 
344.0006116805127 1.8226084509921292 78.80880933429802 17.0 0.0 0.0 18.0 
345.002892941303 2.0148916002457393 85.24294177141434 17.0 0.0 0.0 18.0 
346.0000189737178 1.7413360735058012 74.3480661908568 17.0 0.0 0.0 18.0 
347.00054784523684 1.5957214773901653 74.3480661908568 17.0 0.0 0.0 18.0 
348.00267893462416 1.290534869361022 71.99965550473718 17.0 0.0 0.0 18.0 
349.00304454462605 1.470057917310971 71.99965550473718 17.0 0.0 0.0 18.0 
350.00006791277406 1.5073152631086748 87.10654308233649 17.0 0.0 0.0 19.0 
351.0005030146651 1.3721257293501137 75.07448847958818 17.0 0.0 0.0 19.0 
352.0024262595981 1.2676796306176876 72.66069136769534 17.0 0.0 0.0 19.0 
353.0054299555027 1.2460136227756677 72.66069136769534 17.0 0.0 0.0 19.0 
354.000909158192 1.2550720050374355 72.66069136769534 17.0 0.0 0.0 19.0 
355.00592150507157 1.279785201698795 75.73319365596439 17.0 0.0 0.0 19.0 
356.0005030146651 1.31674377695688 75.73319365596439 19.0 0.0 0.0 19.0 
357.0021277566801 1.1038059257929622 73.39374167044429 19.0 0.0 0.0 19.0 
358.000221322832 1.1037926871203403 73.39374167044429 19.0 0.0 0.0 19.0 
359.0003511136882 1.1107757600744919 73.39374167044429 19.0 0.0 0.0 19.0 
360.0002117779191 1.1487101084866302 76.5055118741326 19.0 0.0 0.0 19.0 
361.00042541224707 1.1722085357178476 76.5055118741326 19.0 0.0 0.0 19.0 
362.0003774092177 1.011437868020136 74.15143705152389 19.0 0.0 0.0 19.0 
363.0010026398972 1.0460191997359622 74.15143705152389 19.0 0.0 0.0 20.0 
364.00037893258224 1.0604882066603596 77.26623546425702 19.0 0.0 0.0 20.0 
365.0001394357811 0.9229099309053808 74.15143705152389 19.0 0.0 0.0 20.0 
366.0005030146651 1.0354315239625627 77.26623546425702 20.0 0.0 0.0 21.0 
367.00255953447856 0.7470080689966708 70.59220752514398 20.0 0.0 0.0 21.0 
368.0016881032706 0.5910278357463502 46.36036886455341 20.0 0.0 0.0 21.0 
369.00043600631653 0.5910278357463502 46.36036886455341 20.0 0.0 0.0 21.0 
370.00244122811057 0.6236175442502573 49.51075656860692 20.0 0.0 0.0 20.0 
371.0005030146651 0.6530153035297467 49.51075656860692 20.0 0.0 0.0 20.0 
372.00251627654507 0.5492984422520278 43.263039550748516 20.0 0.0 0.0 20.0 
373.005037605641 0.5191862001626263 42.8883258862667 20.0 0.0 0.0 20.0 
374.0003267360905 0.4989548721251432 42.8883258862667 20.0 0.0 0.0 20.0 
375.00046541454066 0.40293421742886193 40.38868177470627 20.0 0.0 0.0 20.0 
376.0005030146651 0.35604731980611776 47.79246601283606 21.0 0.0 0.0 20.0 
377.0005269569803 0.3644091371674333 67.76913519731852 21.0 0.0 0.0 20.0 
378.00283299203903 0.35839031916941216 67.76913519731852 21.0 0.0 0.0 20.0 
379.0010326126753 0.2228520487747758 32.5188372234592 21.0 0.0 0.0 20.0 
380.0002079987242 0.23566033463153846 32.5188372234592 21.0 0.0 0.0 22.0 
381.0005030146651 0.18015015997607667 32.5188372234592 20.0 0.0 0.0 21.0 
382.00027105920157 0.250347321793466 37.700877464008016 20.0 0.0 0.0 20.0 
383.00316629543113 0.23936672296999026 43.25819653832869 20.0 0.0 0.0 20.0 
384.0013455278166 0.19570428139560028 37.700877464008016 21.0 0.0 0.0 20.0 
385.0001118425321 0.3655502032996818 55.35631781939486 21.0 0.0 0.0 20.0 
386.0005030146651 0.21714873499976187 44.758780246977466 22.0 0.0 0.0 20.0 
387.0001470554782 0.3501607196952469 57.76159199386376 22.0 0.0 0.0 20.0 
388.0010567026391 0.46113172484707265 57.76159199386376 22.0 0.0 0.0 20.0 
389.00027632914197 0.6773269560351106 65.5550446698274 20.0 0.0 0.0 19.0 
390.00074677315723 0.4934114706089111 57.76159199386376 20.0 0.0 0.0 19.0 
391.0005030146651 0.6048687007537962 57.76159199386376 20.0 0.0 0.0 19.0 
392.0001861858566 0.7505078630284313 73.05456343677747 20.0 0.0 0.0 19.0 
393.00003151580887 0.7695817714393043 60.046014820147946 20.0 0.0 0.0 19.0 
394.0020009029548 0.8891798709182329 75.04911564514555 20.0 0.0 0.0 19.0 
395.00050356450305 1.017877967018691 70.64014097434602 20.0 0.0 0.0 19.0 
396.0005030146651 0.9381894141030954 70.64014097434602 20.0 0.0 0.0 19.0 
397.00428791224897 0.8501506185414275 68.61781482647058 20.0 0.0 0.0 22.0 
398.00019233769876 1.0608033165571016 68.61781482647058 20.0 0.0 0.0 21.0 
399.0037864846085 0.8559462213900626 68.61781482647058 21.0 0.015606902491261811 7.803451245630924 19.0 
400.00124926156684 0.6840298518115515 68.61781482647058 20.0 0.0 0.0 19.0 
401.0005030146651 0.4794881035237051 63.727869387487885 20.0 0.0 0.0 19.0 
402.005565770717 0.07903824456841656 24.392870302756535 20.0 0.0 0.0 19.0 
403.00637746959455 0.07903824456841656 24.392870302756535 20.0 0.0 0.0 18.0 
404.0029760331398 0.05966672614233822 19.903449258369562 21.0 0.0 0.0 18.0 
405.00139576381355 0.07165957364620441 19.903449258369562 21.0 0.0 0.0 19.0 
406.0005030146651 0.06227966743406713 15.926337564732705 22.0 0.0 0.0 18.0 
407.00226894092157 0.06227966743406713 15.926337564732705 21.0 0.0 0.0 18.0 
408.0011202073727 0.1550595929701379 46.38996276803513 21.0 0.0 0.0 18.0 
409.0064499398459 0.021419372802194275 10.709686401097144 21.0 0.0 0.0 18.0 
410.0012594360544 0.021419372802194275 10.709686401097144 21.0 0.0 0.0 19.0 
411.0005030146651 0.012285843120434441 6.142921560217246 20.0 0.0 0.0 18.0 
412.0052004584319 0.012285843120434441 6.142921560217246 20.0 0.0 0.0 18.0 
413.00084285431046 0.012285843120434441 6.142921560217246 20.0 0.0 0.0 20.0 
414.0001956200781 0.0028675491776624616 1.433774588831227 20.0 0.0 0.0 19.0 
415.00228383834025 0.0028675491776624616 1.433774588831227 20.0 0.0 0.0 19.0 
416.0005030146651 0.0028675491776624616 1.433774588831227 20.0 0.0 0.0 19.0 
417.0009943778757 0.0 0.0 20.0 0.0 0.0 19.0 
418.0005616059126 0.0 0.0 19.0 0.0 0.0 19.0 
419.0008045053215 0.0 0.0 18.0 0.0 0.0 19.0 
420.0005240689702 0.0 0.0 18.0 0.0 0.0 19.0 
421.0005030146651 0.0 0.0 18.0 0.0 0.0 18.0 
422.0048041949291 0.0 0.0 18.0 0.0 0.0 18.0 
423.00179336972815 0.0 0.0 18.0 0.0 0.0 18.0 
424.0002139684313 0.0035770387135060496 1.788519356753028 18.0 0.0 0.0 18.0 
425.0010120443576 0.08434521891463931 15.168329635796482 18.0 0.0 0.0 18.0 
426.00020970981893 0.11283045209126188 15.168329635796482 19.0 0.0 0.0 19.0 
427.0009411862467 0.1289695544910063 15.168329635796482 20.0 0.0 0.0 20.0 
428.0046826402045 0.1289695544910063 15.168329635796482 21.0 0.0 0.0 22.0 
429.00052703050716 0.2121460303833198 22.661063888575455 20.0 0.0 0.0 22.0 
430.00031879074237 0.168600144707752 21.14899774154881 20.0 0.0 0.0 21.0 
431.0005030146651 0.224756055530705 21.14899774154881 20.0 0.0 0.0 21.0 
432.00074911933956 0.20795927025424016 21.14899774154881 20.0 0.0 0.0 20.0 
433.00040482922213 0.26347894404113426 39.661076091744434 19.0 0.0 0.0 20.0 
434.0021708966849 0.2712794634584009 29.459255031221574 19.0 0.0 0.0 20.0 
435.0003327457756 0.33690973436928007 31.293193442066723 19.0 0.0 0.0 20.0 
436.0005030146651 0.335764244916278 30.02547533285255 20.0 0.0 0.0 21.0 
437.0005066428255 0.335764244916278 30.02547533285255 20.0 0.0 0.0 21.0 
438.00005032056123 0.3590242714633474 30.559288036830964 20.0 0.0 0.0 21.0 
439.00067602428254 0.4473523692780956 34.57777345387808 20.0 0.0 0.0 21.0 
440.00043228593313 0.5085332540292283 34.57777345387808 20.0 0.0 0.0 21.0 
441.0005030146651 0.517922615350255 37.352296733694885 20.0 0.0 0.0 21.0 
442.00155532345235 0.5176376815497199 37.352296733694885 20.0 0.0 0.0 21.0 
443.000295783352 0.5311004303266896 37.352296733694885 20.0 0.0 0.0 20.0 
444.0031608347571 0.572465024594802 37.51899282211383 20.0 0.0 0.0 20.0 
445.0000509875116 0.5931147014334428 37.51899282211383 20.0 0.0 0.0 20.0 
446.0005030146651 0.6098395990987879 37.36376652112068 20.0 0.0 0.0 20.0 
447.0014962358074 0.6986344862706146 39.279749353164334 20.0 0.0 0.0 20.0 
448.0021358403427 0.6964454632970469 39.279749353164334 20.0 0.0 0.0 19.0 
449.0026057212579 0.8469270069546472 41.455302475611234 20.0 0.0 0.0 19.0 
450.0001825311728 1.071775791746917 41.119299214667365 20.0 0.0 0.0 19.0 
451.000192192771 1.1010810563361915 41.119299214667365 20.0 0.0 0.0 19.0 
452.00069186140416 0.9881215510054893 41.119299214667365 20.0 0.0 0.0 19.0 
453.00177547750417 0.8389001468478453 41.198523744880106 20.0 0.0 0.0 19.0 
454.0004997614231 1.0466687404229007 41.86041691138598 19.0 0.0 0.0 19.0 
455.00017498785695 1.0120620352087364 43.541672095250334 19.0 0.0 0.0 19.0 
456.0004673204918 0.9541293275125499 43.541672095250334 19.0 0.0 0.0 19.0 
457.00053784368447 1.000853236024131 43.541672095250334 19.0 0.0 0.0 18.0 
458.0005930622548 0.9663169384695144 48.32997609510505 19.0 0.0 0.0 18.0 
459.0024837404136 1.152890753744498 49.3632625134681 19.0 0.0 0.0 18.0 
460.0056574750278 1.0272819607430184 50.72633165851329 20.0 0.0 0.0 18.0 
461.0005030146651 0.9121388401601419 50.72633165851329 20.0 0.0 0.0 18.0 
462.00120818216476 0.9960584737778669 74.16957889613121 19.0 0.0 0.0 18.0 
463.0023813639164 1.2148094180618485 76.35927779611387 18.0 0.0 0.0 18.0 
464.0015431454164 1.3319599160940834 76.35927779611387 19.0 0.0 0.0 18.0 
465.001734166768 1.3952144594042455 76.35927779611387 18.0 0.0 0.0 19.0 
466.0005030146651 1.3782139123628467 76.35927779611387 19.0 0.0 0.0 19.0 
467.0005468923191 1.2599610361080422 76.35927779611387 19.0 0.0 0.0 19.0 
468.0000926125107 1.0825621591777526 76.35927779611387 18.0 0.0 0.0 19.0 
469.0003485922147 1.1110761469958854 70.19298129989869 18.0 0.006501884375855659 3.2509421879278477 19.0 
470.00073383668314 0.8492489249016064 70.19298129989869 18.0 0.0 0.0 19.0 
471.0005030146651 0.8525543547147183 70.19298129989869 18.0 0.0 0.0 19.0 
472.0028896453656 0.8467523915325657 70.19298129989869 18.0 0.0 0.0 18.0 
473.00002518532045 0.959171054290762 73.44943385288127 18.0 0.0 0.0 18.0 
474.00141317998015 0.9090360812146534 74.86963990729839 18.0 0.006378647519515839 3.1893237597579116 17.0 
475.00032283530123 0.8576256107182704 74.86963990729839 18.0 0.0 0.0 17.0 
476.0000495369202 0.8450335895959826 74.86963990729839 18.0 0.0 0.0 17.0 
477.0045621671183 0.9064950924769974 74.86963990729839 18.0 0.0 0.0 17.0 
478.00240428566 1.0975344971094423 89.0306366633913 18.0 0.00637842883091787 3.1892144154589346 17.0 
479.0001527542304 1.1209155390471313 90.4307702206251 18.0 0.0 0.0 17.0 
480.00120422046643 1.0595359446969634 90.4307702206251 18.0 0.0 0.0 18.0 
481.0005030146651 1.111431496130156 90.4307702206251 19.0 0.0 0.0 17.0 
482.0001362899345 1.0417097754351397 90.4307702206251 19.0 0.0 0.0 17.0 
483.0010491866974 1.2117176845120334 83.30662306501165 20.0 0.0 0.0 17.0 
484.003629913403 1.3546309787573365 84.95715744439565 19.0 0.0 0.0 17.0 
485.0005566820996 1.4994136795195765 84.95715744439565 20.0 0.0 0.0 18.0 
486.0005030146651 1.3648142987668748 84.95715744439565 20.0 0.0 0.0 20.0 
487.0008798179869 1.3831050752764646 84.95715744439565 20.0 1.48065582371657E-4 0.07403279118582873 21.0 
488.0007206725523 1.466166014988245 77.81656068561506 20.0 0.0 0.0 20.0 
489.0009592253701 1.7099874946377243 80.80398734157103 20.0 0.0 0.0 20.0 
490.00071015863523 1.525755010264979 80.80398734157103 21.0 0.0 0.0 20.0 
491.0005030146651 1.5471745180126184 80.80398734157103 21.0 0.0 0.0 20.0 
492.0009669328084 1.5631628827433166 80.80398734157103 21.0 0.0 0.0 20.0 
493.00020011444565 1.5974899407339782 74.43798071542398 20.0 0.0 0.0 19.0 
494.0000229572455 1.8648367047698424 88.49835197880788 19.0 0.010084382158614158 5.0421910793070595 19.0 
495.0064247412233 1.866162166427679 88.49835197880788 20.0 0.0 0.0 19.0 
496.0005030146651 1.8984337130136406 88.49835197880788 19.0 0.0 0.0 19.0 
497.0047764458407 1.7965409792681624 88.49835197880788 19.0 0.0 0.0 18.0 
498.0044565445909 1.9580694809312207 88.49835197880788 19.0 0.0 0.0 16.0 
499.0006514826454 1.675994804364008 81.10988380931019 18.0 0.0 0.0 16.0 
500.0011185385067 1.425885296172954 61.593287957250766 20.0 0.0 0.0 16.0 
501.0005030146651 0.7331183316824301 59.31254279200425 18.0 0.0 0.0 16.0 
502.0006348166584 0.5525862144815961 66.21678197192972 17.0 0.0 0.0 16.0 
503.0033178196822 0.3231522559539351 66.21678197192972 17.0 0.0 0.0 16.0 
504.0017534602134 0.2528586766362127 66.21678197192972 17.0 0.0 0.0 16.0 
505.0004855349008 0.2528586766362127 66.21678197192972 16.0 0.0 0.0 16.0 
506.0005030146651 0.23510865838200673 66.21678197192972 16.0 0.0 0.0 15.0 
507.0018494661562 0.27406024276276025 73.68530784812356 16.0 0.0 0.0 15.0 
508.0020375080338 0.22800139641091044 50.65588467219885 17.0 0.0 0.0 15.0 
509.00072254729326 0.1493875272506559 50.65588467219885 17.0 0.0 0.0 15.0 
510.00097000153266 0.08573649471317729 18.8303684034596 17.0 0.0 0.0 15.0 
511.0005030146651 0.09726964657939749 25.168986752807115 17.0 0.0 0.0 15.0 
512.0017236781729 0.0445458667156127 22.244940313461456 17.0 0.0 0.0 15.0 
513.005293207422 0.06676135062450489 18.529058113625553 17.0 0.0 0.0 16.0 
514.0036378317182 0.029647248308564484 14.823624154282186 17.0 0.0010015530727139307 0.34339665244471007 16.0 
515.0052759773415 0.09785831939209504 18.529058113625553 17.0 0.0010015530727139307 0.34339665244471007 16.0 
516.0003820591719 0.031152954856279627 15.576477428139867 17.0 0.0010015530727139307 0.34339665244471007 16.0 
517.0009202832837 0.06048018118868277 21.236154419857854 17.0 0.0010015530727139307 0.34339665244471007 15.0 
518.0000041369932 0.018007872348967273 9.003936174483613 17.0 0.0 0.0 15.0 
519.0015647850056 0.008768659741714563 2.338738064788174 17.0 0.0 0.0 15.0 
520.0004052595916 0.00594328649359766 2.338738064788174 17.0 0.0018650498521333306 0.9325249260666624 15.0 
521.0005030146651 0.004677476129576371 2.338738064788174 17.0 0.0018650498521333306 0.9325249260666624 15.0 
522.0014594862046 0.0 0.0 18.0 0.0 0.0 15.0 
523.0040699236521 0.0 0.0 18.0 0.0 0.0 15.0 
524.0007108974784 0.0 0.0 18.0 0.002837456788843915 1.4187283944219473 15.0 
525.0015624211939 0.0 0.0 18.0 0.002837456788843915 1.4187283944219473 15.0 
526.0005030146651 0.007615090784650168 3.807545392325096 18.0 0.002837456788843915 1.4187283944219473 15.0 
527.0001204069567 0.007615090784650168 3.807545392325096 18.0 0.002837456788843915 1.4187283944219473 15.0 
528.0050474110133 0.007615090784650168 3.807545392325096 18.0 0.0 0.0 15.0 
529.0061803690727 0.0 0.0 18.0 0.0 0.0 15.0 
530.000207006322 0.0 0.0 18.0 0.0034842004602348283 1.7421002301174155 15.0 
531.0005030146651 0.0 0.0 18.0 0.0034842004602348283 1.7421002301174155 15.0 
532.0002190869991 0.0 0.0 18.0 0.0 0.0 15.0 
533.0027320458645 0.002198306808705802 1.0991534043529043 17.0 0.0 0.0 15.0 
534.0019144467208 0.0 0.0 17.0 0.0042360021307508225 2.1180010653754096 15.0 
535.0022832515701 0.0 0.0 17.0 0.0042360021307508225 2.1180010653754096 15.0 
536.0005030146651 0.0 0.0 17.0 0.0 0.0 15.0 
537.0063309927618 0.0 0.0 18.0 0.0 0.0 15.0 
538.0036355595684 0.0 0.0 18.0 0.0 0.0 15.0 
539.0009948871776 0.0 0.0 18.0 0.0 0.0 15.0 
540.0016306434667 0.0 0.0 18.0 0.0 0.0 15.0 
541.0005030146651 0.0 0.0 18.0 0.0 0.0 15.0 
542.0026731967158 0.0 0.0 18.0 0.0 0.0 15.0 
543.0007905671874 0.0 0.0 18.0 0.0 0.0 15.0 
544.0004658580946 0.0 0.0 18.0 0.0 0.0 15.0 
545.0025348487961 0.0 0.0 18.0 0.0 0.0 15.0 
546.0001652424446 0.0 0.0 18.0 0.0 0.0 15.0 
547.0038003166012 0.0 0.0 18.0 0.0 0.0 15.0 
548.0006122106822 0.0 0.0 18.0 0.0 0.0 15.0 
549.0002516555016 0.0 0.0 18.0 0.0 0.0 15.0 
550.0012608139854 0.0 0.0 19.0 0.0 0.0 15.0 
551.0005030146651 0.0 0.0 19.0 0.0 0.0 16.0 
552.0012273766755 0.0 0.0 19.0 0.0 0.0 16.0 
553.0022413208173 0.0 0.0 19.0 0.0 0.0 16.0 
554.0005850351245 0.0 0.0 19.0 0.11854583564882647 21.569854299464737 16.0 
555.0017785567412 0.0059192599156279325 2.959629957813945 19.0 0.16658692858824953 22.57233128962619 17.0 
556.0005030146651 0.0 0.0 19.0 0.16198531183595566 22.57233128962619 16.0 
557.0002265617074 0.0 0.0 19.0 0.1556361545589683 22.57233128962619 16.0 
558.0004364996175 0.0 0.0 19.0 0.0 0.0 19.0 
559.002763454268 0.0 0.0 19.0 0.0 0.0 19.0 
560.0050406737972 0.0 0.0 19.0 0.0 0.0 18.0 
561.0000167700691 0.0 0.0 19.0 0.0 0.0 17.0 
562.0002562720326 0.0 0.0 19.0 0.0 0.0 16.0 
563.0012079703954 0.0 0.0 19.0 0.0 0.0 16.0 
564.0002159007757 0.0 0.0 19.0 0.0 0.0 16.0 
565.0034593078237 0.0 0.0 19.0 0.0 0.0 16.0 
566.0002440023605 0.010644742078178776 5.322371039089404 19.0 0.003933857920692608 1.9669289603463085 16.0 
567.0002635591512 0.012275206161815785 6.121163176633331 19.0 0.003933857920692608 1.9669289603463085 16.0 
568.0004299738296 0.0 0.0 19.0 0.007507641952054251 3.7538209760271 16.0 
569.0015487090244 0.0014212150272496107 0.710607513624808 19.0 0.007507641952054251 3.7538209760271 17.0 
570.0015593430312 0.01498477774206235 7.4923888710311815 20.0 0.0078370743894285 3.9185371947142755 17.0 
571.000341706534 0.016365872626063045 8.182936313031576 20.0 0.0078370743894285 3.9185371947142755 17.0 
572.0029298607777 0.0 0.0 20.0 0.0 0.0 17.0 
573.0010171957127 0.021588340418719463 10.79417020935972 19.0 0.0 0.0 17.0 
574.0075304958045 0.016536904246709984 8.268452123354962 18.0 0.0 0.0 18.0 
575.002795208166 0.04167726301566045 15.112748589500882 18.0 0.0 0.0 19.0 
576.0001646138165 0.07319202079294031 15.75737888863992 18.0 0.0 0.0 18.0 
577.0063309927618 0.08837177811351815 15.75737888863992 19.0 0.0 0.0 18.0 
578.0064274172712 0.14007216082177856 17.853170495495192 20.0 0.0 0.0 18.0 
579.0001667684953 0.08664732958027684 15.112748589500882 18.0 0.0 0.0 18.0 
580.0010217295143 0.15681305222627506 21.12185723178962 20.0 0.0 0.0 18.0 
581.0005030146651 0.19395731670817157 21.12185723178962 20.0 0.0 0.0 18.0 
582.0014144814112 0.19395731670817157 21.12185723178962 18.0 0.0 0.0 18.0 
583.0005349134858 0.23960899143648529 22.82583736415677 18.0 0.0 0.0 19.0 
584.0014807287378 0.23960899143648529 22.82583736415677 18.0 0.0 0.0 17.0 
585.0064247412233 0.25433993752704714 24.629431921301773 18.0 0.0 0.0 17.0 
586.0005030146651 0.25813356989092334 24.629431921301773 18.0 0.0 0.0 18.0 
587.0017047989659 0.262069450340801 24.629431921301773 17.0 0.0 0.0 18.0 
588.00159709893 0.25787583640980494 23.372309257077347 16.0 0.0 0.0 18.0 
589.0012972516361 0.23001173112735734 23.372309257077347 16.0 0.0 0.0 18.0 
590.0004535800045 0.26777443704455944 25.611997806403195 16.0 0.0 0.0 18.0 
591.0004267790111 0.27564987971051164 27.583489234341243 16.0 0.0 0.0 18.0 
592.0024116073045 0.2984696825213517 27.583489234341243 17.0 0.0 0.0 17.0 
593.0009651029367 0.2700063189694805 27.583489234341243 17.0 0.0 0.0 17.0 
594.001145505294 0.2550813963347295 27.583489234341243 17.0 0.0 0.0 17.0 
595.0012344657306 0.27460445465481903 29.94029308142177 17.0 0.0 0.0 17.0 
596.0005030146651 0.23984008392573802 29.94029308142177 17.0 0.0 0.0 17.0 
597.0019033532297 0.19127556087958825 26.69752891863061 17.0 0.0 0.0 17.0 
598.001836865293 0.17018317493879798 26.69752891863061 18.0 0.0 0.0 17.0 
599.0001146363664 0.17339800322300247 26.69752891863061 18.0 0.0 0.0 17.0 
600.0003829371353 0.1362073802391382 21.501085835736518 17.0 0.0 0.0 17.0 
#####################################################################
# End of data export. Simulation finished at: 2019-02-25T20:44+0000 #
#####################################################################
