#####################################################################
# Alchemist log file - simulation started at: 2019-02-25T20:41+0000 #
#####################################################################
# seed = 179.0
#
# The columns have the following meaning: 
# time distance-rep[Mean] distance-rep[Max] leader-rep[CountDistinct] distance-share[Mean] distance-share[Max] leader-share[CountDistinct] 
0.0 NaN NaN NaN NaN NaN NaN 
1.0065712669621378 0.0 0.0 498.0 0.0 0.0 82.0 
2.0050382189390534 0.0 0.0 121.0 0.0 0.0 73.0 
3.0020035394463793 0.0 0.0 117.0 0.0 0.0 64.0 
4.007459953735138 0.0 0.0 111.0 0.0 0.0 50.0 
5.001366112428068 0.0 0.0 107.0 0.0 0.0 43.0 
6.0002032309089675 0.0 0.0 100.0 0.0 0.0 42.0 
7.005038218939053 0.0 0.0 91.0 0.0 0.0 41.0 
8.001750034296476 0.0 0.0 86.0 0.0 0.0 40.0 
9.004995015220441 0.0 0.0 80.0 0.0 0.0 38.0 
10.010356698839225 0.0 0.0 78.0 0.0 0.0 37.0 
11.004602189009349 0.0 0.0 76.0 0.0 0.0 35.0 
12.00226537176863 0.0 0.0 76.0 0.0 0.0 33.0 
13.000773293024263 0.0 0.0 74.0 0.0 0.0 34.0 
14.002853268792162 0.0 0.0 71.0 0.0 0.0 30.0 
15.00138941550344 0.0 0.0 65.0 0.0 0.0 31.0 
16.000642997530058 0.0 0.0 63.0 0.0 0.0 28.0 
17.00002201138141 0.0 0.0 61.0 0.0 0.0 27.0 
18.000782248262507 0.0 0.0 59.0 0.031599234218644044 15.799617109322071 25.0 
19.000416341780408 0.0 0.0 61.0 0.03371849617208707 15.799617109322071 26.0 
20.001279459150073 0.0 0.0 57.0 0.0 0.0 27.0 
21.00139260512656 0.0 0.0 58.0 0.0 0.0 23.0 
22.000913388400733 0.0 0.0 58.0 0.0 0.0 24.0 
23.002003539446378 0.0 0.0 57.0 0.0 0.0 23.0 
24.003267435656706 0.0 0.0 51.0 0.012475443059250533 6.237721529625276 23.0 
25.000611444073208 0.0 0.0 48.0 0.0 0.0 22.0 
26.001002521441876 0.0 0.0 50.0 0.0 0.0 21.0 
27.003487748925092 0.0 0.0 48.0 0.0063850698484350385 3.1925349242175116 25.0 
28.001028969075804 0.0 0.0 50.0 0.0 0.0 25.0 
29.00310728316833 0.0 0.0 48.0 0.0 0.0 23.0 
30.00002485953536 0.0 0.0 49.0 0.0 0.0 22.0 
31.00290960952696 0.0 0.0 48.0 0.0 0.0 22.0 
32.00051893545957 0.0 0.0 48.0 0.0 0.0 20.0 
33.00200353944638 0.0 0.0 46.0 0.0 0.0 20.0 
34.000059943331635 0.0 0.0 44.0 0.0 0.0 18.0 
35.00642164467547 0.0 0.0 42.0 0.0 0.0 18.0 
36.00240802835681 0.0 0.0 40.0 0.0 0.0 18.0 
37.00159986223925 0.0 0.0 42.0 0.0 0.0 18.0 
38.00200055474833 0.0 0.0 39.0 0.0 0.0 16.0 
39.000275449069655 0.0 0.0 39.0 0.0 0.0 16.0 
40.00215168326037 0.0 0.0 38.0 0.0 0.0 16.0 
41.00132978200632 0.0 0.0 38.0 0.0 0.0 16.0 
42.00410030897888 0.0 0.0 37.0 0.0 0.0 20.0 
43.00036739129184 0.0 0.0 36.0 0.0 0.0 19.0 
44.002989228265946 0.0 0.0 36.0 0.0 0.0 19.0 
45.00045036114785 0.0 0.0 34.0 0.0 0.0 19.0 
46.001180620943835 0.0 0.0 34.0 0.0 0.0 19.0 
47.00143276002905 0.0 0.0 33.0 0.0 0.0 19.0 
48.00200353944638 0.0 0.0 34.0 0.0 0.0 19.0 
49.00072264620371 0.0 0.0 34.0 0.0 0.0 19.0 
50.00485989673366 0.0 0.0 34.0 0.0 0.0 18.0 
51.002778368422156 0.0 0.0 33.0 0.0 0.0 18.0 
52.00152806128582 0.0 0.0 33.0 0.0 0.0 18.0 
53.000446667821144 0.0 0.0 34.0 0.0 0.0 18.0 
54.000596533197545 0.0 0.0 34.0 0.0 0.0 17.0 
55.00104538286378 0.0 0.0 34.0 0.0 0.0 18.0 
56.00088017385725 0.0 0.0 34.0 0.0 0.0 17.0 
57.00074130648842 0.0 0.0 32.0 0.0 0.0 17.0 
58.00200353944638 0.0 0.0 34.0 0.0 0.0 18.0 
59.00196040536794 0.0 0.0 31.0 0.0 0.0 17.0 
60.00351029105767 0.0 0.0 32.0 0.0 0.0 15.0 
61.00273232344794 0.0 0.0 32.0 0.0 0.0 15.0 
62.00304454238121 0.0 0.0 30.0 0.0 0.0 15.0 
63.00200353944638 0.0 0.0 30.0 0.0 0.0 15.0 
64.0019459484743 0.0 0.0 31.0 0.0 0.0 15.0 
65.0004351356087 0.0 0.0 31.0 0.0 0.0 15.0 
66.00137558446497 0.0 0.0 33.0 0.0 0.0 15.0 
67.00011220705689 0.017883691554266223 8.941845777133153 29.0 0.001502933713042744 0.7514668565213753 15.0 
68.00200353944638 0.0 0.0 27.0 0.015664707129507648 7.832353564753873 15.0 
69.0050098239267 0.0 0.0 27.0 0.0 0.0 16.0 
70.00296613265391 0.0 0.0 26.0 0.0 0.0 16.0 
71.00096904164232 0.0 0.0 27.0 0.0 0.0 16.0 
72.00429289433002 0.008167234818747543 4.0836174093737725 28.0 0.0 0.0 16.0 
73.00097269893956 0.029584987771893636 6.919503502175161 27.0 0.0 0.0 16.0 
74.00078708532821 0.08856228849540418 24.610128415189962 29.0 0.0 0.0 17.0 
75.00194965282265 0.03498861153691569 8.826410847494458 28.0 0.0 0.0 17.0 
76.00011015452701 0.017335789841926706 8.667894920963363 30.0 0.0 0.0 17.0 
77.00037628469323 0.005633507940857659 2.8167539704288345 28.0 0.0 0.0 17.0 
78.00030516620261 0.0 0.0 25.0 0.0 0.0 17.0 
79.00073251198732 0.0 0.0 24.0 0.0 0.0 17.0 
80.00001225126593 0.0 0.0 24.0 0.0 0.0 17.0 
81.00386413699762 0.0 0.0 24.0 0.0 0.0 17.0 
82.00016143864269 0.0 0.0 24.0 0.0 0.0 17.0 
83.00074744034289 0.0 0.0 24.0 0.0 0.0 17.0 
84.00012507039062 0.0 0.0 21.0 0.0 0.0 17.0 
85.00133959341323 0.0 0.0 21.0 0.0 0.0 17.0 
86.0009954000874 0.0 0.0 21.0 0.0 0.0 17.0 
87.00417552196981 0.0 0.0 21.0 0.0 0.0 17.0 
88.00200353944638 0.0 0.0 21.0 0.0 0.0 17.0 
89.00013959832252 0.0 0.0 21.0 0.0 0.0 17.0 
90.00423756467036 0.0 0.0 21.0 0.0 0.0 17.0 
91.00122353183848 0.0 0.0 21.0 0.0 0.0 17.0 
92.00135631308623 0.0 0.0 21.0 0.0 0.0 17.0 
93.00162548409708 0.0 0.0 21.0 0.0 0.0 17.0 
94.00275131928662 0.0 0.0 21.0 0.0 0.0 17.0 
95.00586448797615 0.0 0.0 21.0 0.0 0.0 17.0 
96.00078120671424 0.021368200817483637 10.684100408741784 21.0 0.0 0.0 17.0 
97.00149337044517 0.0 0.0 21.0 0.0 0.0 17.0 
98.00070781267596 0.0 0.0 21.0 0.0 0.0 19.0 
99.00745995373514 0.0 0.0 21.0 0.0 0.0 20.0 
100.00154887944987 0.0 0.0 21.0 0.0 0.0 19.0 
101.00132346269926 0.0 0.0 21.0 0.0 0.0 19.0 
102.00185612727549 0.0 0.0 21.0 0.0 0.0 19.0 
103.0007971303529 0.0 0.0 21.0 0.0 0.0 18.0 
104.00335652821495 0.0 0.0 20.0 0.0 0.0 18.0 
105.0058623403584 0.0 0.0 21.0 0.0 0.0 18.0 
106.0026419624433 0.0033960713667724463 1.6980356833862231 21.0 0.0 0.0 18.0 
107.00108208812526 0.0 0.0 20.0 0.0 0.0 19.0 
108.00200353944638 0.0 0.0 21.0 0.0 0.0 22.0 
109.00044147590533 0.0 0.0 21.0 0.0 0.0 22.0 
110.0001654853392 0.0 0.0 20.0 0.0 0.0 21.0 
111.00459233042356 0.0 0.0 21.0 0.0 0.0 21.0 
112.00258496172711 0.0 0.0 22.0 0.0 0.0 21.0 
113.00154423709283 0.0 0.0 20.0 0.0 0.0 21.0 
114.00053217140685 0.0 0.0 22.0 0.0 0.0 20.0 
115.00277765413522 0.0 0.0 22.0 0.0 0.0 20.0 
116.00036660572547 0.0 0.0 21.0 0.0 0.0 21.0 
117.0017649413264 0.0 0.0 21.0 0.0 0.0 23.0 
118.00200353944638 0.0 0.0 21.0 0.0 0.0 23.0 
119.00185411972977 0.0 0.0 21.0 0.0 0.0 22.0 
120.00097443531506 0.0 0.0 21.0 0.0 0.0 21.0 
121.00048526169039 0.0 0.0 21.0 0.0 0.0 21.0 
122.00503821893905 0.0015575168842046855 0.7787584421023439 22.0 0.0 0.0 20.0 
123.00043721538763 0.0 0.0 21.0 0.0 0.0 19.0 
124.00181508416087 0.0 0.0 23.0 0.0 0.0 19.0 
125.00071587475517 9.181654152114267E-4 0.4590827076057167 22.0 0.0 0.0 20.0 
126.00850493438014 0.0 0.0 22.0 0.0 0.0 20.0 
127.00065208759133 0.0 0.0 22.0 0.0 0.0 20.0 
128.0009888476757 0.0 0.0 21.0 0.0 0.0 21.0 
129.00085841744965 0.0 0.0 21.0 0.0 0.0 20.0 
130.00251508680518 0.0 0.0 21.0 0.0 0.0 20.0 
131.00213828780664 0.0 0.0 20.0 0.0 0.0 20.0 
132.00112561807447 0.0 0.0 20.0 0.0 0.0 20.0 
133.001534119117 0.0 0.0 19.0 0.0016714051723511225 0.8357025861755574 20.0 
134.00096158720916 0.0 0.0 19.0 0.0016714051723511225 0.8357025861755574 20.0 
135.00317831166714 0.0 0.0 19.0 0.0 0.0 21.0 
136.00059075143125 0.0 0.0 19.0 0.0 0.0 21.0 
137.00101859804784 0.0 0.0 19.0 0.0 0.0 21.0 
138.00200353944638 0.0 0.0 18.0 0.0 0.0 20.0 
139.00473319964357 0.0 0.0 18.0 0.0 0.0 20.0 
140.00209398683597 0.0 0.0 18.0 0.0 0.0 20.0 
141.00053565783435 0.0 0.0 18.0 0.0 0.0 20.0 
142.00057109223712 0.02060825122347226 4.913777129985675 18.0 0.0 0.0 20.0 
143.00200353944638 0.011230959609510462 4.913777129985675 18.0 0.0 0.0 20.0 
144.00442011143306 0.02100064098311855 10.466611840841779 18.0 0.0 0.0 19.0 
145.00153663291982 0.037493815805303234 10.466611840841779 18.0 0.0 0.0 19.0 
146.0023546611297 0.022404046332657697 10.466611840841779 18.0 0.0 0.0 19.0 
147.00462753256986 0.004933569994517579 2.4667849972587987 19.0 0.0 0.0 19.0 
148.00198454169382 0.0209332236816836 10.466611840841779 20.0 0.0 0.0 19.0 
149.00374210029025 0.0 0.0 18.0 0.0 0.0 19.0 
150.00030289417074 0.0 0.0 19.0 0.0 0.0 19.0 
151.00261311066265 0.0 0.0 19.0 0.0 0.0 19.0 
152.00503821893903 0.0 0.0 17.0 0.0 0.0 19.0 
153.00120171456294 0.0 0.0 17.0 0.0 0.0 19.0 
154.00194606003583 0.0 0.0 17.0 0.007413401617369394 3.7067008086846727 20.0 
155.0010604005959 0.0 0.0 16.0 0.0 0.0 18.0 
156.00013285563557 0.0 0.0 17.0 0.0 0.0 18.0 
157.00136930386626 0.0 0.0 16.0 0.0 0.0 18.0 
158.00200353944638 0.0 0.0 16.0 0.0 0.0 18.0 
159.0011025914638 0.0 0.0 16.0 0.0 0.0 18.0 
160.00111115791822 0.0 0.0 16.0 0.0 0.0 18.0 
161.00850493438014 0.0 0.0 16.0 0.0 0.0 17.0 
162.0032823129512 0.0 0.0 16.0 0.0 0.0 17.0 
163.00200353944638 0.0 0.0 16.0 0.0 0.0 17.0 
164.00207922936437 0.0 0.0 16.0 0.0 0.0 17.0 
165.00063697021477 0.0 0.0 16.0 0.0 0.0 17.0 
166.00180406614717 0.0 0.0 16.0 0.0 0.0 17.0 
167.00503821893903 0.0 0.0 16.0 0.0 0.0 16.0 
168.00200353944638 0.0 0.0 16.0 0.0 0.0 16.0 
169.00349058798355 0.0 0.0 17.0 0.0 0.0 16.0 
170.0000929677072 0.0 0.0 15.0 0.0 0.0 16.0 
171.00850493438014 0.0 0.0 15.0 0.0 0.0 16.0 
172.004201619673 0.0 0.0 15.0 0.0 0.0 16.0 
173.00200353944638 0.0 0.0 15.0 0.0 0.0 16.0 
174.00049249822393 0.0 0.0 16.0 0.0 0.0 17.0 
175.0029842299285 0.0 0.0 16.0 0.0 0.0 18.0 
176.00040602508005 0.0 0.0 16.0 0.0 0.0 20.0 
177.002406541318 0.0 0.0 16.0 0.0 0.0 18.0 
178.00200353944638 0.0 0.0 16.0 0.0 0.0 18.0 
179.0010221303972 0.0 0.0 16.0 0.0 0.0 18.0 
180.00281258460268 0.0 0.0 16.0 0.0 0.0 18.0 
181.00210833749443 0.0 0.0 16.0 0.0 0.0 18.0 
182.0004908310247 0.004819663405195709 2.40983170259787 16.0 0.0 0.0 18.0 
183.00004180122474 0.004819663405195709 2.40983170259787 17.0 0.0 0.0 18.0 
184.00158089713028 0.0 0.0 17.0 0.0 0.0 18.0 
185.0002422318009 0.0 0.0 18.0 0.0 0.0 19.0 
186.0015927827128 0.0 0.0 18.0 0.0 0.0 19.0 
187.00035972386843 0.005365204902952967 2.6826024514764697 18.0 0.0 0.0 18.0 
188.00006394178178 0.0 0.0 18.0 0.0 0.0 18.0 
189.0010249240087 0.0 0.0 18.0 0.0 0.0 19.0 
190.00031710118108 0.0 0.0 18.0 0.0 0.0 19.0 
191.0023406917844 0.0 0.0 18.0 0.0 0.0 19.0 
192.0023262800856 0.0 0.0 17.0 0.0 0.0 18.0 
193.00200353944638 0.0 0.0 17.0 0.0 0.0 18.0 
194.00193539755574 0.0 0.0 17.0 4.290498076961734E-4 0.21452490384808698 17.0 
195.00010705031505 0.0 0.0 17.0 4.290498076961734E-4 0.21452490384808698 17.0 
196.0047434467845 0.0 0.0 17.0 4.290498076961734E-4 0.21452490384808698 17.0 
197.0005316820345 0.0 0.0 17.0 4.290498076961734E-4 0.21452490384808698 17.0 
198.00200353944638 0.008088108385774201 4.044054192887131 17.0 0.010252961370039218 4.166306395742794 18.0 
199.0008910007124 0.008088108385774201 4.044054192887131 17.0 0.010252961370039218 4.166306395742794 18.0 
200.0014012997939 0.018430586249102987 5.171238931664362 17.0 0.0 0.0 19.0 
201.00150655750627 0.008088108385774201 4.044054192887131 17.0 0.0 0.0 18.0 
202.00027438433233 0.0026064056815536117 0.7549577742288136 17.0 0.0 0.0 17.0 
203.0019411177916 0.003660847067602 0.7549577742288136 17.0 0.033408632295469906 7.219549381749346 17.0 
204.00171014399905 0.0038065146428567782 0.7549577742288136 17.0 0.0 0.0 18.0 
205.00355986649657 0.004210750909670781 0.7549577742288136 17.0 0.0 0.0 18.0 
206.0018434738761 0.004210750909670781 0.7549577742288136 17.0 0.0 0.0 18.0 
207.00503821893903 0.03395527205732173 8.17111259122126 18.0 0.0 0.0 18.0 
208.00200353944638 0.049049196788080514 8.276301191810632 18.0 0.0 0.0 18.0 
209.00072623247613 0.06227491127903165 8.276301191810632 20.0 0.0 0.0 18.0 
210.00045164363692 0.03782550309430406 8.077184611008363 18.0 0.0 0.0 17.0 
211.00104376146334 0.052289357031067386 8.077184611008363 18.0 0.0 0.0 17.0 
212.00098030763067 0.09821894806000778 15.099894701148315 18.0 0.0 0.0 17.0 
213.00068637357847 0.13195792582734728 16.12554659609455 18.0 0.0 0.0 17.0 
214.00160132032272 0.09133917899051308 16.12554659609455 18.0 0.0 0.0 16.0 
215.00157189890984 0.09133917899051308 16.12554659609455 18.0 0.0 0.0 16.0 
216.0024296287921 0.09133917899051308 16.12554659609455 18.0 0.0 0.0 16.0 
217.0016397658989 0.15511950206832267 23.675244135105544 18.0 0.0 0.0 16.0 
218.0006136245012 0.2117755860323055 23.05923997440135 18.0 0.002249039017010095 1.1245195085050455 14.0 
219.00263492163262 0.24687005667513867 23.21540853611819 19.0 0.002249039017010095 1.1245195085050455 14.0 
220.00346515471372 0.20043923960290197 20.9744933953059 19.0 0.0 0.0 14.0 
221.00257371653566 0.1962682564453014 20.9744933953059 19.0 0.0 0.0 14.0 
222.00230794988272 0.27075419893937525 28.519204178461592 19.0 0.0 0.0 14.0 
223.00200353944638 0.2517790408932375 25.04954419984034 18.0 0.01399992695573474 6.999963477867368 14.0 
224.00626432617454 0.32437753009209636 31.374585581533893 17.0 0.02180418580179436 6.999963477867368 14.0 
225.00221785466783 0.2616283589290284 29.883067789088244 17.0 0.0 0.0 14.0 
226.00021486584802 0.2616283589290284 29.883067789088244 17.0 0.0 0.0 15.0 
227.00331557153086 0.34531309440329266 37.429722700258765 17.0 0.0 0.0 14.0 
228.00200353944638 0.30878970741107103 37.429722700258765 17.0 0.014057386017288426 7.02869300864424 13.0 
229.00036211472775 0.22981532578721514 26.426358081307484 17.0 0.014057386017288426 7.02869300864424 13.0 
230.0000010373045 0.22981532578721514 26.426358081307484 17.0 0.0 0.0 14.0 
231.00352347625264 0.18789419189204531 26.426358081307484 17.0 0.0 0.0 14.0 
232.00316771035335 0.16733653495466733 19.33147116491719 17.0 0.0 0.0 15.0 
233.00115392612688 0.1544132236451414 19.148661658635206 17.0 0.0235703740789366 6.919517929458777 16.0 
234.00037647944305 0.1531983984257527 19.148661658635206 17.0 0.0235703740789366 6.919517929458777 16.0 
235.00248221032302 0.1149010751084823 15.5933886257734 17.0 0.009731338220018947 2.714971256119128 16.0 
236.00157984846862 0.12190646393251667 15.5933886257734 17.0 0.009731338220018947 2.714971256119128 16.0 
237.0013310882545 0.07961932889546228 13.074539701231828 17.0 0.024338474561722064 10.018539426970705 16.0 
238.00200353944638 0.06340501994517618 12.686033166590079 17.0 0.08369086199836631 17.580595836244157 16.0 
239.00090843254392 0.08103553781519668 12.686033166590079 17.0 0.12228847802479827 19.298808013215876 16.0 
240.00209034541928 0.10104381800512696 12.686033166590079 17.0 0.15776099368492635 19.298808013215876 16.0 
241.00238460045588 0.08585387704313971 12.686033166590079 16.0 0.14353346028078331 19.298808013215876 17.0 
242.00086192975792 0.07386601266909218 17.335154368611626 16.0 0.14063647198848858 19.298808013215876 18.0 
243.00004103621708 0.0411484498788767 9.92873585028704 17.0 0.15014210146986537 26.742608493153625 18.0 
244.00480124043395 0.05933611044340631 9.92873585028704 17.0 0.17454812111143722 26.742608493153625 18.0 
245.00315649670824 0.0686723314267472 9.92873585028704 16.0 0.16705486399867334 23.328513558614446 19.0 
246.00369606723555 0.05531517011778975 9.92873585028704 17.0 0.16705486399867334 23.328513558614446 19.0 
247.00403404675262 0.0023960275954703915 0.7993143465718902 17.0 0.06691867960706917 17.678262450335836 19.0 
248.00200353944638 0.0023960275954703915 0.7993143465718902 17.0 0.06120148635712031 23.319984239043606 19.0 
249.00357642079152 0.012222433786876125 4.898185712687734 17.0 0.014561517879033129 7.2807589395165735 20.0 
250.0014771147467 0.025935501268921676 4.898185712687734 18.0 0.0 0.0 20.0 
251.00060951292906 0.11655004505969123 34.71964118876801 18.0 0.0 0.0 20.0 
252.00503821893903 0.08084993853626757 27.16223787549268 18.0 0.03178704008970114 15.893520044850419 19.0 
253.00200353944638 0.026525462785282363 12.04775985525714 18.0 0.06780359898892256 23.43359030899225 20.0 
254.00151134086846 0.10147017694363382 27.16223787549268 18.0 0.03555597527485536 10.340443386716629 21.0 
255.00209945526498 0.17113785612837695 31.78275784470779 18.0 0.0 0.0 21.0 
256.0007831197935 0.18367919417045092 31.78275784470779 18.0 0.0 0.0 22.0 
257.0035550160191 0.16342277525693472 24.22386481219462 18.0 0.0 0.0 22.0 
258.0001319548855 0.1268414379781415 24.22386481219462 18.0 0.0 0.0 22.0 
259.0008194000022 0.1689329950209221 28.978093812552117 18.0 0.0 0.0 22.0 
260.00271223181943 0.24406336761711694 36.2360026076436 18.0 0.0 0.0 22.0 
261.00034144316896 0.1848465188569109 36.2360026076436 18.0 0.0 0.0 22.0 
262.0002847104692 0.20493162082817304 36.2360026076436 18.0 0.0 0.0 21.0 
263.0014019894684 0.19923101224150966 36.2360026076436 18.0 0.0 0.0 21.0 
264.0016766000065 0.08851906940983942 22.83735604270609 19.0 0.0 0.0 21.0 
265.0020029156609 0.05410176490000987 27.05088245000499 19.0 0.0 0.0 20.0 
266.00398546396474 0.0 0.0 19.0 0.0 0.0 20.0 
267.00003833113766 0.0 0.0 18.0 0.0 0.0 20.0 
268.0020035394464 0.0 0.0 18.0 0.0 0.0 20.0 
269.00360119040425 0.0 0.0 18.0 0.0 0.0 20.0 
270.0000589652633 0.0 0.0 18.0 0.0 0.0 18.0 
271.00192768638414 8.028184244841458E-5 0.040140921224207204 19.0 0.0 0.0 18.0 
272.00055426453577 0.11849441142344075 10.176872546002272 19.0 0.0 0.0 18.0 
273.0020035394464 0.14279695070557324 11.72032227647557 19.0 0.022321464878454177 11.160732439227019 19.0 
274.0023610167589 0.20920897792966775 39.63775931733008 18.0 0.0 0.0 19.0 
275.0012512646167 0.19814822002071025 45.64070165207332 18.0 0.0 0.0 19.0 
276.0015467023178 0.18941519748473 42.42226542275969 18.0 0.0 0.0 18.0 
277.0001741644917 0.2381220753153915 42.42226542275969 19.0 0.0 0.0 17.0 
278.0015613837092 0.32251273172622996 42.42226542275969 19.0 0.0 0.0 18.0 
279.00148806930906 0.3802378537069411 42.42226542275969 20.0 0.0 0.0 18.0 
280.00038205483787 0.3627564251573161 46.203155284727785 20.0 0.0 0.0 19.0 
281.0003747058966 0.3547929596813792 46.203155284727785 21.0 0.0 0.0 18.0 
282.0016001262483 0.4521415937219822 43.0688740257431 21.0 0.0 0.0 18.0 
283.0020035394464 0.46378510889839614 43.0688740257431 21.0 0.0 0.0 18.0 
284.0035070260183 0.7062349721379502 62.11242021780521 20.0 0.0 0.0 17.0 
285.00460819144 0.6599909409723874 46.75442360478601 20.0 0.0 0.0 17.0 
286.00850493438014 0.6507200307869933 44.396309477198514 20.0 0.0 0.0 17.0 
287.00066642861356 0.7962516107699327 62.11242021780521 19.0 0.0 0.0 17.0 
288.0020035394464 0.9193063282488617 68.09947507553238 19.0 0.0 0.0 17.0 
289.0006395264385 0.960520720944365 75.3164314876102 19.0 0.0 0.0 16.0 
290.0076382047505 0.9629777364316403 75.3164314876102 19.0 0.0 0.0 16.0 
291.0006298383532 0.9635758764084676 75.3164314876102 20.0 0.0 0.0 16.0 
292.0020587525803 0.9320104016824381 75.3164314876102 21.0 0.0 0.0 16.0 
293.0008782308873 0.2447274781913722 19.716954813599557 20.0 0.0 0.0 16.0 
294.00036738119223 0.059870242754802405 15.766887053811558 20.0 0.0 0.0 16.0 
295.0003124160619 0.07418624405762318 22.924887705221778 20.0 0.0 0.0 16.0 
296.0024054325576 0.08858610072118152 22.924887705221778 20.0 0.0 0.0 15.0 
297.001179111039 0.050818404296939505 22.924887705221778 20.0 0.0 0.0 15.0 
298.00021979657083 0.06696398290490403 21.36816265536868 20.0 0.0 0.0 14.0 
299.0006539374707 0.03825551428926334 8.113993261554356 20.0 0.0 0.0 18.0 
300.00004029089354 0.045620544299442255 8.113993261554356 19.0 0.0 0.0 18.0 
301.00152221927044 0.037245880548216974 8.113993261554356 19.0 0.0 0.0 18.0 
302.0000465485788 0.04445148314363863 15.21181322427131 19.0 0.0 0.0 17.0 
303.0009132846762 0.08265389686925348 20.189492604944206 19.0 0.0 0.0 17.0 
304.0024616044397 0.0 0.0 20.0 0.0 0.0 17.0 
305.0007998010061 0.08842751281850905 20.98359788471808 20.0 0.0 0.0 17.0 
306.00000911851066 0.12718558988823267 20.98359788471808 20.0 0.0 0.0 17.0 
307.00348649877503 0.04751110661748831 9.325288036782922 21.0 0.0034054373458946336 1.7027186729472987 17.0 
308.0020035394464 0.0584321210620369 14.785795259057181 21.0 0.0034054373458946336 1.7027186729472987 17.0 
309.0047566247551 0.09470986814739983 21.64777069666559 20.0 0.0034054373458946336 1.7027186729472987 16.0 
310.0050897685967 0.16131986188313094 24.055125209907203 20.0 0.008336677680928868 4.1683388404644575 17.0 
311.0016379287023 0.31322888225198375 31.275649359561157 18.0 0.008336677680928868 4.1683388404644575 17.0 
312.0036855174239 0.17590098615184724 24.055125209907203 18.0 0.0 0.0 17.0 
313.0020035394464 0.31749076603192805 29.458174064278808 18.0 0.0 0.0 17.0 
314.0016147641006 0.35606622354059625 34.04998969732705 18.0 0.0 0.0 17.0 
315.00339032534646 0.44269215088259567 34.04998969732705 18.0 0.0 0.0 17.0 
316.00296513476457 0.5214966706344447 40.722344872201774 18.0 0.0 0.0 17.0 
317.00044934459066 0.604828885345443 43.56247987906835 18.0 0.0 0.0 17.0 
318.00109552236444 0.4837593345936676 29.123622677184272 18.0 0.0 0.0 17.0 
319.00060351862675 0.6053032436674597 46.24027426818253 18.0 0.0 0.0 17.0 
320.00276656860024 0.7944506003509504 48.78575080262158 18.0 0.0 0.0 17.0 
321.0068604330167 0.9484946941681938 56.04736424438141 18.0 0.0 0.0 17.0 
322.0037041142184 0.866505477562856 46.50070836496417 17.0 0.0 0.0 17.0 
323.00039678118117 1.076672830340942 52.030875004087534 17.0 0.0 0.0 17.0 
324.00040680081355 1.020789906617065 58.95278647156613 17.0 0.0 0.0 17.0 
325.0030566524424 1.221286580353807 56.01056376156305 17.0 0.0 0.0 18.0 
326.0004451684759 1.2686074123101307 58.95278647156613 17.0 0.0 0.0 18.0 
327.0011280693527 1.11157021329843 58.95278647156613 17.0 0.0 0.0 18.0 
328.00077220791223 1.2617159265702955 61.628802699934226 17.0 0.0 0.0 18.0 
329.0008498525072 1.252637854200847 61.628802699934226 18.0 0.0 0.0 18.0 
330.0031445801331 1.2096797004007325 71.44439098520303 18.0 0.0 0.0 18.0 
331.00369752150283 1.2397282576708377 56.58001698000771 19.0 0.0 0.0 18.0 
332.0021964960339 1.112537796920382 56.58001698000771 19.0 0.0 0.0 18.0 
333.0014680328612 1.204004554615131 48.207256149037306 19.0 0.0 0.0 18.0 
334.00164979066506 1.2817552659985867 56.58001698000771 19.0 0.0 0.0 18.0 
335.00011260239665 1.4088773567872759 64.21772690448148 19.0 0.0 0.0 18.0 
336.0025049542127 1.5731573630630573 68.77591684837387 19.0 0.0 0.0 18.0 
337.00023516599776 1.5336778683035757 65.96449649438478 18.0 0.0 0.0 18.0 
338.0016719407535 1.6380157501158532 66.54544120768776 17.0 0.0 0.0 18.0 
339.00244230304577 2.105909735921375 68.77591684837387 17.0 0.0 0.0 17.0 
340.0007184508051 2.1515616133536515 76.4457979987231 17.0 0.0 0.0 17.0 
341.004751435946 2.1627122818911255 76.4457979987231 17.0 0.0 0.0 17.0 
342.00503821893903 2.1022474018773964 76.4457979987231 17.0 0.0 0.0 17.0 
343.0020035394464 2.2357622334239284 76.4457979987231 16.0 0.0 0.0 17.0 
344.00065905535735 2.118529234733368 75.80918838550838 19.0 0.0 0.0 18.0 
345.0001005520424 1.6966989724727684 89.85140940616304 18.0 0.0 0.0 17.0 
346.00061648495716 1.4311533969810837 95.1289718696234 17.0 0.0 0.0 17.0 
347.0023004104811 2.2938024107165442 102.37569539497036 17.0 0.0 0.0 17.0 
348.0002347823579 2.488127248055636 105.70245933022596 17.0 0.0 0.0 18.0 
349.00059495440746 2.409819696233289 105.70245933022596 18.0 0.0 0.0 18.0 
350.0014189956349 2.7412796495995106 107.64523689229924 19.0 0.0 0.0 17.0 
351.00361388391815 2.8773504120675675 112.19592557669449 19.0 0.0 0.0 16.0 
352.0015422651271 2.3560177582991133 107.64523689229924 19.0 0.0 0.0 16.0 
353.0020035394464 1.8320543716117708 110.85709058995963 19.0 0.0 0.0 16.0 
354.0021770979624 1.8791133652003884 110.85709058995963 19.0 0.0 0.0 17.0 
355.0012680209227 2.0542605865741494 117.49987303820876 19.0 0.0 0.0 17.0 
356.0006499506381 1.9220090810431143 117.49987303820876 18.0 0.0 0.0 16.0 
357.0022592334264 1.4484919422869729 57.63685286142447 18.0 0.0 0.0 16.0 
358.0020035394464 1.5624653634028676 100.50429618071149 18.0 0.0 0.0 16.0 
359.0037668105421 1.5250378828975946 100.50429618071149 18.0 0.0 0.0 17.0 
360.0032260459442 1.6293619281618292 107.74486807683854 19.0 0.0 0.0 18.0 
361.00115614971594 0.9849587565926122 56.94661351080521 19.0 0.0 0.0 17.0 
362.00026392027144 1.0151112762795134 56.94661351080521 18.0 0.0 0.0 17.0 
363.0005172118116 0.9073738334799774 50.79256805705873 19.0 0.0 0.0 17.0 
364.0009702640445 1.0582517232092463 54.41392092501192 18.0 0.0 0.0 18.0 
365.0000025349093 0.8895968868251173 57.052025755502996 19.0 0.0 0.0 17.0 
366.0007758888322 0.4323970309152339 51.45064380863437 19.0 0.0 0.0 17.0 
367.0024212715129 0.5474357997997056 60.02507107187938 19.0 0.0 0.0 18.0 
368.0020035394464 0.5284624112079868 58.69129272523975 20.0 0.0 0.0 18.0 
369.00154641512455 0.5276984578806405 34.309100589203126 21.0 0.0 0.0 19.0 
370.0020916677216 0.29894426518206896 16.836841780107875 21.0 0.0 0.0 18.0 
371.0009071576264 0.14787556699934865 22.118742140810326 21.0 0.0 0.0 18.0 
372.0027607137215 0.0896457495433441 22.118742140810326 21.0 0.0 0.0 18.0 
373.00076632379654 0.015017678798553593 7.508839399276809 21.0 0.0 0.0 18.0 
374.00199378380745 0.043324281635409564 14.153301418428043 22.0 0.0 0.0 18.0 
375.0021733753012 0.05560571912865454 12.888062805868003 22.0 0.0 0.0 17.0 
376.0023695358231 0.05098417235618528 12.888062805868003 22.0 0.0 0.0 17.0 
377.00503821893903 0.03898682229115482 12.60402337222473 23.0 0.0 0.0 18.0 
378.0020035394464 0.08219651800979477 21.604847859319932 23.0 0.0 0.0 18.0 
379.00015664670366 0.06730363155954804 14.809022741312418 23.0 0.0 0.0 19.0 
380.00064333524676 0.12672991125176636 20.681768718156718 23.0 0.0 0.0 18.0 
381.0047183803454 0.16076382543565684 23.3624115390665 23.0 0.0 0.0 19.0 
382.003472878163 0.15111279567812594 23.3624115390665 23.0 0.0 0.0 19.0 
383.0003686759956 0.16124699101916143 23.3624115390665 23.0 0.0 0.0 19.0 
384.0001643417286 0.17852340100966768 23.3624115390665 23.0 0.01001344447788216 5.00672223894108 21.0 
385.001648687923 0.32084970764358606 36.75002696438773 23.0 0.0 0.0 19.0 
386.0002004160883 0.2939809063033486 36.75002696438773 24.0 0.0 0.0 19.0 
387.0004953073137 0.30423122291426646 36.75002696438773 24.0 0.0 0.0 19.0 
388.00021970115006 0.32847922157091186 36.75002696438773 24.0 0.0 0.0 19.0 
389.00031552358024 0.3292519571129199 36.75002696438773 24.0 0.0 0.0 20.0 
390.00402687821725 0.3550797322593602 35.958787299662674 24.0 0.0 0.0 19.0 
391.0035456690733 0.28727250363694073 35.958787299662674 23.0 0.0 0.0 19.0 
392.0002553816527 0.3277930538307485 35.958787299662674 21.0 0.0 0.0 19.0 
393.0007521262528 0.3118334651229552 35.958787299662674 22.0 0.0 0.0 20.0 
394.0010666342089 0.3551332837108757 37.54507362104249 22.0 0.0 0.0 20.0 
395.0004722949877 0.4010090010671141 39.241636487881124 21.0 0.0 0.0 20.0 
396.00071161053 0.4084882792385776 41.952205590368635 21.0 0.0 0.0 20.0 
397.00047551023414 0.33086726588332427 45.753972260040825 21.0 0.0 0.0 20.0 
398.00105064853227 0.29950526263175115 42.438863015445605 22.0 0.0 0.0 20.0 
399.00141911031614 0.1598261897868854 49.3630190854409 22.0 0.0 0.0 21.0 
400.00057510673753 0.15317601338998538 52.655539203723436 21.0 0.0 0.0 19.0 
401.00192209676754 0.07169268549838313 16.401957266655273 21.0 0.0 0.0 19.0 
402.0023072716453 0.11815615177246411 18.123153215964805 21.0 0.0 0.0 19.0 
403.000334930015 0.1373597606549876 23.244762847422265 21.0 0.0 0.0 19.0 
404.0028497994998 0.09119861707116203 18.123153215964805 22.0 0.0 0.0 19.0 
405.0018354032869 0.09976756451587274 18.791673986610192 21.0 0.0 0.0 19.0 
406.00053440971914 0.034724115553546944 11.0470344392441 21.0 0.0 0.0 19.0 
407.0007096959705 0.028807069347130655 11.0470344392441 21.0 0.0 0.0 19.0 
408.0015352723459 0.05749503052696799 10.692223451694048 22.0 0.0 0.0 19.0 
409.00086681856254 0.010076063296915596 5.038031648457775 22.0 0.0 0.0 20.0 
410.00959296859503 0.028812663479206663 12.326505304509425 21.0 0.0 0.0 19.0 
411.00256029406154 0.026688816426551736 12.326505304509425 21.0 0.0 0.0 19.0 
412.00259247050286 0.026688816426551736 12.326505304509425 21.0 0.0 0.0 18.0 
413.000066846098 0.04223760797432229 19.848963085039145 21.0 0.0 0.0 19.0 
414.0020000726523 0.05909797090882071 19.848963085039145 22.0 0.0 0.0 19.0 
415.00011052993364 0.10190423626163002 27.097981723133984 20.0 0.008400150815230541 1.5063754359166523 19.0 
416.000010801128 0.08377560745331046 27.097981723133984 20.0 0.0054130163942041395 1.5063754359166523 18.0 
417.0002830064534 0.07991246413679359 27.097981723133984 20.0 0.0072728410938963555 1.5063754359166523 19.0 
418.0019018241013 0.13949785828437528 34.623692227171006 21.0 0.007520271119542229 1.502713530866032 19.0 
419.0009527375893 0.16140354434971155 34.623692227171006 23.0 0.00486140221645648 1.265004845258261 20.0 
420.0020809473601 0.17596038907873598 34.623692227171006 22.0 0.01614716465400379 4.036791163500936 20.0 
421.00027346055396 0.2650461670138582 41.041352903046175 21.0 0.01614716465400379 4.036791163500936 19.0 
422.00006471589484 0.28482416733097565 43.3614266514619 22.0 0.008073582327001906 4.036791163500936 19.0 
423.00013060831986 0.19788711971160663 40.738406044874466 21.0 0.0 0.0 20.0 
424.0005638410279 0.059548184181605214 24.834207206239995 22.0 0.0 0.0 20.0 
425.00035698082587 0.0 0.0 22.0 0.0 0.0 19.0 
426.0002052939971 0.0 0.0 21.0 0.0 0.0 19.0 
427.0014273537786 0.0 0.0 21.0 0.0 0.0 17.0 
428.0005213109032 0.0 0.0 21.0 0.006126172439587855 3.0630862197939166 18.0 
429.0002888665027 0.0 0.0 22.0 0.006126172439587855 3.0630862197939166 18.0 
430.00267903232753 0.0 0.0 21.0 0.006126172439587855 3.0630862197939166 17.0 
431.0073775266375 0.0 0.0 21.0 0.006126172439587855 3.0630862197939166 17.0 
432.0009391315153 0.0 0.0 21.0 0.0 0.0 17.0 
433.0002777106586 0.0 0.0 20.0 0.042455254886031454 6.437046496420152 18.0 
434.0026508992413 0.0 0.0 22.0 0.04403627281237251 6.437046496420152 18.0 
435.0002967457868 0.0 0.0 21.0 0.0540614062907341 6.437046496420152 17.0 
436.00086560396574 0.0 0.0 20.0 0.032047012773155255 5.8194631144800155 18.0 
437.00016789808103 0.0 0.0 20.0 0.06388988885281532 10.948375776246053 17.0 
438.0020035394464 0.0 0.0 20.0 0.17752994415596587 17.83891979030892 18.0 
439.00145216149343 0.0 0.0 21.0 0.17752994415596587 17.83891979030892 18.0 
440.0023530296527 0.0 0.0 21.0 0.20402989858507045 17.83891979030892 17.0 
441.00238898650605 0.0 0.0 20.0 0.22275079231956418 17.83891979030892 17.0 
442.0040766112721 0.0 0.0 18.0 0.1364383777139286 19.68519157628259 17.0 
443.0017325938682 0.0 0.0 19.0 0.19671895189646954 22.271109456981293 17.0 
444.0001121201364 0.0 0.0 19.0 0.1969654637424221 22.271109456981293 19.0 
445.00574246907166 0.0 0.0 19.0 0.12134292717352976 27.770579789249524 19.0 
446.0080476269252 0.0 0.0 18.0 0.0 0.0 18.0 
447.00416137337425 0.0 0.0 18.0 0.0 0.0 17.0 
448.0001264002544 0.00225796819677775 1.1289840983888837 18.0 0.0 0.0 18.0 
449.00023913076393 0.00225796819677775 1.1289840983888837 19.0 0.0 0.0 18.0 
450.0006595330623 0.00225796819677775 1.1289840983888837 18.0 0.0 0.0 17.0 
451.00525413145965 0.00225796819677775 1.1289840983888837 17.0 0.0 0.0 17.0 
452.00034769547216 0.017163643642500597 8.581821821250259 15.0 0.0 0.0 17.0 
453.0020035394464 0.017163643642500597 8.581821821250259 16.0 0.0 0.0 17.0 
454.0010297766061 0.0010238938664700256 0.5119469332350093 15.0 0.0 0.0 18.0 
455.0001187363066 0.03309659925494769 16.0363526942389 15.0 0.0 0.0 17.0 
456.001179230014 0.015125484384195989 5.922853036952517 14.0 0.0 0.0 17.0 
457.0050343885333 0.03725940422207922 8.593196786445361 13.0 0.0 0.0 19.0 
458.0020035394464 0.03837009036539626 8.593196786445361 13.0 0.0 0.0 21.0 
459.00317418460895 0.04587010198363352 8.593196786445361 14.0 0.0 0.0 21.0 
460.0004952405298 0.062400623549297006 16.044411594351146 13.0 0.0 0.0 21.0 
461.0016826261142 0.03700014775836001 4.360498106949393 13.0 0.0 0.0 19.0 
462.00037206377107 0.06053762390528917 11.64245865600617 13.0 0.0 0.0 19.0 
463.0011104512717 0.10277429885122503 15.150238877478529 13.0 0.0 0.0 19.0 
464.00002931528934 0.07867987256345094 15.150238877478529 14.0 0.0 0.0 19.0 
465.0035581900957 0.04421358154737178 11.64245865600617 14.0 0.0 0.0 20.0 
466.001509456304 0.049672818705187485 15.150238877478529 14.0 0.0 0.0 21.0 
467.0019151781792 0.05381021918966327 11.077433739598519 14.0 0.0 0.0 21.0 
468.00028663601705 0.05381021918966327 11.077433739598519 14.0 0.0 0.0 21.0 
469.0054434448851 0.05990725743648089 11.077433739598519 13.0 0.0 0.0 20.0 
470.00249648202026 0.06598328359889555 11.077433739598519 13.0 0.0 0.0 18.0 
471.00850493438014 0.043828416119698545 11.036078473771653 13.0 0.0 0.0 18.0 
472.0000427644181 0.0598807816643357 15.067660107380249 13.0 0.0 0.0 19.0 
473.00076286211225 0.0925094725223614 15.067660107380249 13.0 0.0 0.0 18.0 
474.00021968603215 0.12224541374596377 21.04913062042519 13.0 0.0 0.0 18.0 
475.00010751363806 0.08014715250511362 15.067660107380249 13.0 0.0 0.0 18.0 
476.0013130906713 0.09145020298369616 15.067660107380249 13.0 0.0 0.0 18.0 
477.00234246660744 0.16708322046366547 21.04913062042519 13.0 0.0 0.0 18.0 
478.0020035394464 0.05295469397616393 16.495948673619523 13.0 0.0 0.0 18.0 
479.0007289022185 0.05295469397616393 16.495948673619523 14.0 0.0 0.0 18.0 
480.0009238130521 0.05808494030976524 16.495948673619523 14.0 0.0 0.0 18.0 
481.0003445678657 0.0643145133344927 16.495948673619523 14.0 0.0 0.0 17.0 
482.00503821893903 0.02993779287314488 6.10403345779477 16.0 0.0 0.0 17.0 
483.00159058043164 0.06960090524592777 9.451584281851297 16.0 0.0 0.0 17.0 
484.0032416493223 0.04801234366629846 9.451584281851297 16.0 0.0 0.0 17.0 
485.0019806855592 0.045064820323335246 9.451584281851297 17.0 0.0 0.0 16.0 
486.00089045801633 0.052188627894981215 13.90991773071596 18.0 0.0 0.0 16.0 
487.00503821893903 0.03931246557608446 10.592023931991207 17.0 0.0 0.0 16.0 
488.0000115651517 0.027076597437800772 9.996479803894943 17.0 0.0 0.0 18.0 
489.0016184018713 0.033577913718795406 9.996479803894943 17.0 0.0 0.0 18.0 
490.00019063912725 0.038825305276796916 9.996479803894943 17.0 0.0 0.0 17.0 
491.0016045093106 0.06747965341756079 17.428778142338757 17.0 0.0 0.0 17.0 
492.00075046146526 0.06747965341756079 17.428778142338757 17.0 0.0 0.0 17.0 
493.0020035394464 0.04502281386724707 9.926380444769649 16.0 0.0 0.0 17.0 
494.002979774812 0.07818583132316288 14.205817301332843 17.0 0.0 0.0 18.0 
495.00079477197283 0.13992605616819667 24.803715716325115 16.0 0.0 0.0 18.0 
496.0018814653903 0.10454202272409036 21.317516295604776 16.0 0.0 0.0 18.0 
497.002120089269 0.09044656087561716 21.317516295604776 16.0 0.0 0.0 18.0 
498.0020035394464 0.14874225610842112 28.680939505638634 16.0 0.002695193177733008 1.3475965888665087 18.0 
499.0006508601858 0.17309695917242818 28.680939505638634 16.0 0.002695193177733008 1.3475965888665087 18.0 
500.0003341299656 0.19098666410997323 28.680939505638634 16.0 0.002695193177733008 1.3475965888665087 18.0 
501.000765041712 0.23509884944115222 35.76093803314339 16.0 0.0 0.0 18.0 
502.0002881675813 0.23509884944115222 35.76093803314339 16.0 0.0 0.0 18.0 
503.0020035394464 0.2944628325215269 35.76093803314339 16.0 0.0 0.0 18.0 
504.0033328734571 0.3467730393531936 43.21153493876682 16.0 0.0 0.0 17.0 
505.00210942945915 0.39102154536004846 43.21153493876682 16.0 0.0 0.0 17.0 
506.00100563291306 0.39334289514833404 44.3722098329099 16.0 0.0 0.0 17.0 
507.0000729614515 0.5005074249440954 51.01912398129423 17.0 0.0 0.0 18.0 
508.00085467932 0.5466879301719071 51.01912398129423 17.0 0.0 0.0 18.0 
509.00054615463887 0.481818676218797 51.01912398129423 17.0 0.0 0.0 18.0 
510.0005382154146 0.4191017078340409 46.19989062084284 16.0 0.0 0.0 18.0 
511.0005909034511 0.3403266212982591 52.824144493677125 18.0 0.0 0.0 17.0 
512.0012192628537 0.4910978892254655 52.824144493677125 18.0 0.0 0.0 17.0 
513.0020035394464 0.5527859997928031 48.29372005074873 18.0 0.0 0.0 17.0 
514.0066355594653 0.43924807633456553 41.965467222033766 19.0 0.0 0.0 17.0 
515.0008528280123 0.5634455464049163 41.965467222033766 19.0 0.0 0.0 17.0 
516.0005054712155 0.616293927541509 41.965467222033766 19.0 0.0 0.0 17.0 
517.0045012357131 0.6192623744103353 40.406693767851976 19.0 0.0 0.0 18.0 
518.0020035394464 0.9252676603650045 40.406693767851976 19.0 0.0 0.0 18.0 
519.0005569633835 0.7261877815150334 40.58758737643615 19.0 0.0 0.0 19.0 
520.0000972853143 0.8168624452979799 40.58758737643615 19.0 0.0 0.0 18.0 
521.0068621297739 1.019192802342581 49.355584394739196 18.0 0.0 0.0 18.0 
522.0002389016105 0.9434837790980373 49.355584394739196 18.0 0.0 0.0 18.0 
523.0015170713183 1.0931879581501613 56.62655163110736 18.0 0.0 0.0 18.0 
524.0005929971741 1.1230851201015895 56.62655163110736 18.0 0.0 0.0 17.0 
525.0027844653763 1.1652715697163523 56.62655163110736 18.0 0.0 0.0 17.0 
526.000461660437 1.0817846697818125 56.62655163110736 18.0 0.0 0.0 17.0 
527.0002351870451 1.1371803726383352 63.58238435900955 18.0 0.0 0.0 18.0 
528.0009775696839 1.3162097609824495 70.90036888751348 18.0 0.0 0.0 19.0 
529.0010371329403 1.3463127266791792 63.44119149291231 18.0 0.0 0.0 17.0 
530.0017992892426 1.422030214904446 63.44119149291231 19.0 0.0 0.0 17.0 
531.0008148934407 1.5157360928796728 73.48106943586589 19.0 0.0 0.0 17.0 
532.0045359763998 1.360785532548114 63.44119149291231 19.0 0.0 0.0 17.0 
533.0020035394464 1.6825031505717207 73.55974146791738 20.0 0.0 0.0 18.0 
534.0008842090199 1.7811849235222479 73.55974146791738 20.0 0.0 0.0 19.0 
535.0033076682099 1.8351610541627805 73.55974146791738 21.0 0.0 0.0 19.0 
536.0002386112944 1.5614829832948312 73.55974146791738 22.0 0.0 0.0 18.0 
537.0007075644567 1.5544463358096086 73.55974146791738 21.0 0.0 0.0 18.0 
538.0003276461534 1.6865216165641208 80.7980572371207 21.0 0.0 0.0 18.0 
539.0025391234994 1.725296456951619 78.17218244472889 21.0 0.0 0.0 19.0 
540.0003245806612 1.4694247579545494 73.70184365481123 21.0 0.0 0.0 19.0 
541.002097575344 1.4739434890464838 73.70184365481123 22.0 0.0 0.0 19.0 
542.0010839597652 1.4714505397103086 73.70184365481123 22.0 0.0 0.0 19.0 
543.0020035394464 1.4765526663006332 73.7355268743442 22.0 0.0 0.0 19.0 
544.0006687782108 1.5894504325371193 73.7355268743442 22.0 0.0 0.0 19.0 
545.0040483409907 1.5496729685004622 73.61780927330466 22.0 0.0 0.0 19.0 
546.0025311963718 1.8579875193835556 85.65737345769156 22.0 0.0 0.0 19.0 
547.0014810126991 1.610536395753363 85.65737345769156 21.0 0.0 0.0 18.0 
548.0020035394464 1.7534247299385537 81.11208804171531 21.0 0.0 0.0 18.0 
549.0018110438824 1.7702448765445709 75.75143041057453 21.0 0.0 0.0 18.0 
550.004245995493 1.6646204179844066 73.8310423153547 21.0 0.0 0.0 18.0 
551.0013532366404 1.7035200391130307 73.8310423153547 21.0 0.0 0.0 18.0 
552.0016239116203 2.028338166316067 92.17708060301163 21.0 0.0 0.0 18.0 
553.0012617872148 2.0836590443190555 92.17708060301163 22.0 0.0 0.0 18.0 
554.0042411077576 2.1619440557246405 99.53874085045999 22.0 0.0 0.0 18.0 
555.0017169149514 2.1463603491289738 78.75962199405114 22.0 0.0 0.0 18.0 
556.0014290533912 2.3027892233295035 92.08463045509541 22.0 0.0 0.0 18.0 
557.0035813242548 2.342498763806072 92.08463045509541 21.0 0.0 0.0 18.0 
558.0000416214607 2.4046022815891095 92.08463045509541 21.0 0.0 0.0 18.0 
559.0009757298453 2.280771946894221 99.51461957589072 20.0 0.0 0.0 18.0 
560.0032280222748 2.4931700437277073 92.05242079920396 20.0 0.0 0.0 18.0 
561.0037152042072 2.4072569423750383 92.05242079920396 20.0 0.0 0.0 18.0 
562.005038218939 2.2122905132261117 92.05242079920396 20.0 0.0 0.0 18.0 
563.0020035394464 2.6351212090822065 95.19461798783863 20.0 0.0 0.0 19.0 
564.0005011225375 2.614189508507383 116.17687205849302 20.0 0.0 0.0 19.0 
565.0009498731624 2.2740355352622674 93.81494402647297 21.0 0.0 0.0 20.0 
566.0002340519909 2.3793652123192497 93.81494402647297 20.0 0.0 0.0 19.0 
567.0004578572102 2.376948860271167 93.81494402647297 20.0 0.0 0.0 18.0 
568.0018151776261 2.31553384649944 101.22021754820372 20.0 0.0 0.0 18.0 
569.0000820089434 2.328267667171921 118.46423789682694 20.0 0.0 0.0 18.0 
570.0000987008427 2.100920575222226 98.88112218569137 20.0 0.0 0.0 18.0 
571.0003007968618 2.17381874895461 98.88112218569137 20.0 0.0 0.0 18.0 
572.0022449578099 1.6754048302992404 72.51026778589488 20.0 0.0 0.0 18.0 
573.0020035394464 1.5704918935782815 73.24457152615571 20.0 0.0 0.0 18.0 
574.0005291131821 1.4672197095025508 72.51026778589488 20.0 0.0 0.0 18.0 
575.0008138801983 1.377449682092377 65.87784073976849 20.0 0.0 0.0 18.0 
576.0000139392653 1.5408456229067038 80.00775153043088 20.0 0.0 0.0 17.0 
577.0013584714371 1.3944605979325566 65.87784073976849 20.0 0.0 0.0 17.0 
578.000460902628 1.4399272662524691 73.20289444083465 20.0 0.0 0.0 17.0 
579.0001589216694 1.5546539552460066 72.04064586433122 20.0 0.0 0.0 17.0 
580.000718988665 1.4134748007786893 71.66799338212826 20.0 0.0 0.0 17.0 
581.0033912356465 1.6060891911496789 71.66799338212826 20.0 0.0 0.0 16.0 
582.0017738649858 1.6608853238087127 71.66799338212826 21.0 0.0 0.0 17.0 
583.0011867650799 1.6553177028138046 78.15520872772606 21.0 0.0 0.0 17.0 
584.0016378317702 1.5830941427791057 73.27742126871482 21.0 0.0 0.0 17.0 
585.0011072707165 1.5117353780039051 71.39362452875713 21.0 0.0 0.0 17.0 
586.0009394896823 1.708557055755363 78.52595781190666 21.0 0.0 0.0 17.0 
587.0003024218959 1.6473108313174438 78.52595781190666 19.0 0.0 0.0 17.0 
588.0016449938807 1.5301388938654994 69.1302825920157 19.0 0.0 0.0 17.0 
589.0010758341841 1.3295801379709138 63.69291719653086 19.0 0.0 0.0 17.0 
590.0044318841899 1.3893013656497828 72.33616055450528 18.0 0.0 0.0 17.0 
591.0001946383334 1.2632363120634418 57.10414909408439 18.0 0.0 0.0 17.0 
592.0002345859584 1.5687014886814403 79.00434988978691 18.0 0.0 0.0 17.0 
593.0020035394464 1.3634913625513518 60.288472110297334 18.0 0.0 0.0 17.0 
594.0017417991843 1.3318106678359019 60.288472110297334 18.0 0.0 0.0 17.0 
595.0030626429655 1.4216496870803084 64.61184733399404 18.0 0.0 0.0 17.0 
596.0017195982289 1.3202895217117812 64.61184733399404 17.0 0.0 0.0 17.0 
597.0011126573442 1.4449384021549432 63.76657827572035 17.0 0.0 0.0 17.0 
598.0009273028693 1.3378124394219704 67.58710601987292 17.0 0.0 0.0 16.0 
599.0012958348995 1.3584336366594285 67.58710601987292 17.0 0.0 0.0 16.0 
600.00055346438 1.4355353320784614 75.0259205001039 17.0 0.0 0.0 16.0 
#####################################################################
# End of data export. Simulation finished at: 2019-02-25T20:44+0000 #
#####################################################################
