#####################################################################
# Alchemist log file - simulation started at: 2019-02-25T20:04+0000 #
#####################################################################
# seed = 37.0
#
# The columns have the following meaning: 
# time distance-rep[Mean] distance-rep[Max] leader-rep[CountDistinct] distance-share[Mean] distance-share[Max] leader-share[CountDistinct] 
0.0 NaN NaN NaN NaN NaN NaN 
1.0059336204076623 0.0 0.0 498.0 0.0 0.0 64.0 
2.0013590833410166 0.0 0.0 102.0 0.0 0.0 60.0 
3.003155280448014 0.0 0.0 98.0 0.0 0.0 53.0 
4.000300799063489 0.0 0.0 94.0 0.0 0.0 47.0 
5.000993237286327 0.0 0.0 88.0 0.0 0.0 44.0 
6.007941100858714 0.0 0.0 80.0 0.0 0.0 41.0 
7.001359083341017 0.0 0.0 81.0 0.0 0.0 40.0 
8.000360375547666 0.0 0.0 77.0 0.0 0.0 37.0 
9.000300799063488 0.0 0.0 75.0 0.0 0.0 36.0 
10.000993237286327 0.0 0.0 73.0 0.0 0.0 36.0 
11.000562437050196 0.0 0.0 72.0 0.0 0.0 36.0 
12.001359083341017 0.0 0.0 71.0 0.0 0.0 37.0 
13.001025810565649 0.0 0.0 69.0 0.010431481824145343 5.215740912072647 32.0 
14.000300799063488 0.0 0.0 65.0 0.037850931775028414 16.714633933608496 29.0 
15.000993237286327 0.0 0.0 64.0 0.00442166390781128 2.210831953905654 28.0 
16.00143608978803 0.0 0.0 65.0 0.0 0.0 24.0 
17.001359083341015 0.0 0.0 57.0 0.026635683075752342 13.317841537876149 22.0 
18.00004285959911 0.0 0.0 58.0 0.013032613854986587 6.516306927493304 22.0 
19.00030079906349 0.0 0.0 55.0 0.0 0.0 22.0 
20.000239319604855 0.0 0.0 49.0 0.0 0.0 21.0 
21.00061547330073 0.0 0.0 48.0 0.0 0.0 22.0 
22.001275921788974 0.0 0.0 49.0 0.0017942024515359757 0.8971012257679831 20.0 
23.000134944270428 0.0 0.0 48.0 0.0017942024515359757 0.8971012257679831 25.0 
24.00030079906349 0.0 0.0 47.0 0.0017942024515359757 0.8971012257679831 24.0 
25.000993237286327 0.0 0.0 47.0 0.0 0.0 24.0 
26.00417362374195 0.0 0.0 45.0 0.0 0.0 25.0 
27.000635765069703 0.0 0.0 46.0 0.0 0.0 26.0 
28.000793554656443 0.0 0.0 45.0 0.0 0.0 23.0 
29.00030079906349 0.0 0.0 46.0 0.0 0.0 23.0 
30.000993237286327 0.0053074999724571715 2.6537499862285756 44.0 0.0 0.0 24.0 
31.001592997058022 0.007935998180524064 3.9679990902620546 43.0 0.0 0.0 24.0 
32.001359083341015 0.007935998180524064 3.9679990902620546 42.0 0.0 0.0 22.0 
33.000387517021586 0.007935998180524064 3.9679990902620546 41.0 0.01291859506168307 6.459297530841525 21.0 
34.00025710492181 0.008646718213520168 4.323359106760051 40.0 0.01955816102910125 9.7790805145506 22.0 
35.00099323728632 0.008646718213520168 4.323359106760051 40.0 0.05147985485229729 25.739927426148455 25.0 
36.00523138571517 0.01226435378254088 6.132176891270433 41.0 0.0 0.0 23.0 
37.001359083341015 0.01226435378254088 6.132176891270433 39.0 0.0 0.0 24.0 
38.00091578739732 0.0 0.0 40.0 0.0 0.0 24.0 
39.00030079906349 0.011079837584315095 5.539918792157579 40.0 0.0 0.0 21.0 
40.00099323728632 0.0 0.0 39.0 0.0 0.0 20.0 
41.00024775222353 0.0 0.0 40.0 0.0 0.0 20.0 
42.001359083341015 0.0 0.0 39.0 0.0 0.0 20.0 
43.00187514887802 0.0 0.0 39.0 0.0014957533370975366 0.7478766685487699 20.0 
44.00030079906349 0.0 0.0 38.0 0.0 0.0 20.0 
45.00099323728632 0.003906872893445547 1.953436446722776 39.0 0.0 0.0 22.0 
46.00349596582015 0.0035927698651689647 1.7963849325844876 39.0 0.0 0.0 21.0 
47.00043276826146 0.019074983216544383 7.741106675687718 38.0 0.0 0.0 20.0 
48.00163537037596 0.0035927698651689647 1.7963849325844876 37.0 0.0 0.0 20.0 
49.00030079906349 0.0 0.0 37.0 0.0 0.0 20.0 
50.00099323728632 0.0 0.0 36.0 0.0 0.0 20.0 
51.00498096297967 0.0 0.0 34.0 0.0 0.0 20.0 
52.001051292078685 0.0 0.0 34.0 0.0 0.0 19.0 
53.001557777093964 0.021880195508416352 10.940097754208239 34.0 0.0 0.0 19.0 
54.00030079906349 0.11440542183393632 20.281845474214435 34.0 0.0 0.0 19.0 
55.00099323728632 0.0405636909484286 20.281845474214435 32.0 0.0 0.0 19.0 
56.00553596464749 0.0 0.0 30.0 0.0 0.0 19.0 
57.001359083341015 0.0 0.0 30.0 0.0 0.0 19.0 
58.00285632973128 0.0 0.0 28.0 0.0 0.0 19.0 
59.00030079906349 0.0 0.0 29.0 0.0 0.0 19.0 
60.00099323728632 0.0 0.0 29.0 0.0 0.0 19.0 
61.00432156875359 0.0 0.0 28.0 0.0 0.0 19.0 
62.00059990617576 0.0 0.0 27.0 0.0 0.0 18.0 
63.002321143795925 0.0 0.0 25.0 0.0 0.0 18.0 
64.00006661875959 0.0 0.0 25.0 0.0 0.0 18.0 
65.00099323728632 0.0 0.0 26.0 0.0 0.0 18.0 
66.00342041340647 0.0 0.0 24.0 0.0 0.0 18.0 
67.00135908334101 0.0 0.0 24.0 0.0 0.0 18.0 
68.00247464258229 0.0 0.0 24.0 0.0 0.0 18.0 
69.0003007990635 0.0 0.0 24.0 0.0 0.0 17.0 
70.00099323728632 0.0 0.0 24.0 0.0 0.0 18.0 
71.00182999289417 0.0 0.0 24.0 0.0 0.0 20.0 
72.000681222379 0.0 0.0 22.0 0.0 0.0 19.0 
73.00490605483671 0.0 0.0 25.0 0.0 0.0 19.0 
74.0003007990635 0.0 0.0 23.0 0.0 0.0 18.0 
75.0006902802999 0.0 0.0 25.0 0.0 0.0 18.0 
76.00240045181545 4.591890746850722E-4 0.22959453734253543 24.0 0.0 0.0 18.0 
77.00135908334101 4.591890746850722E-4 0.22959453734253543 24.0 0.0 0.0 18.0 
78.00309700538898 4.591890746850722E-4 0.22959453734253543 25.0 0.0 0.0 18.0 
79.0003007990635 4.591890746850722E-4 0.22959453734253543 25.0 0.0 0.0 18.0 
80.0008230502647 0.015370402416534673 7.68520120826733 25.0 0.0 0.0 18.0 
81.0001579294263 0.015370402416534673 7.68520120826733 24.0 0.0 0.0 18.0 
82.00082344511426 0.029931167096298 14.965583548149084 25.0 0.0 0.0 18.0 
83.00239083410672 0.029931167096298 14.965583548149084 26.0 0.0 0.0 17.0 
84.0003007990635 0.0 0.0 26.0 0.0 0.0 17.0 
85.00099323728632 0.0 0.0 25.0 0.0 0.0 17.0 
86.00198378672346 0.0 0.0 24.0 0.0 0.0 17.0 
87.00135908334101 0.0 0.0 24.0 0.0 0.0 17.0 
88.0006503657054 0.0 0.0 23.0 0.0 0.0 17.0 
89.0003007990635 0.0 0.0 23.0 0.0 0.0 17.0 
90.00099323728632 0.0 0.0 23.0 0.0 0.0 16.0 
91.0011895887248 0.0 0.0 23.0 0.0 0.0 16.0 
92.00135908334101 0.0 0.0 23.0 0.0 0.0 16.0 
93.0047426683138 0.0 0.0 23.0 0.0 0.0 15.0 
94.0003007990635 0.0 0.0 23.0 0.0 0.0 15.0 
95.00084849049841 0.0 0.0 23.0 0.0 0.0 15.0 
96.00326306694808 0.0 0.0 23.0 0.0 0.0 15.0 
97.00040568399703 0.0 0.0 23.0 0.0 0.0 16.0 
98.00179160528613 0.0 0.0 23.0 0.0 0.0 17.0 
99.0003007990635 0.0 0.0 23.0 0.0 0.0 17.0 
100.00099323728632 0.0 0.0 23.0 0.0 0.0 17.0 
101.00072427804687 0.0 0.0 22.0 0.0 0.0 16.0 
102.0005042097834 0.0 0.0 23.0 0.0 0.0 18.0 
103.00093633016864 0.0 0.0 22.0 0.0 0.0 17.0 
104.00008911338166 0.0 0.0 22.0 0.0 0.0 17.0 
105.00099323728632 0.0 0.0 22.0 0.0 0.0 17.0 
106.00249207493337 0.0 0.0 22.0 0.0 0.0 17.0 
107.00065226421349 0.0 0.0 21.0 0.0 0.0 17.0 
108.00054305514072 0.0 0.0 21.0 0.0 0.0 17.0 
109.0003007990635 0.016375222295555974 8.187611147777972 21.0 0.0 0.0 17.0 
110.00060368659015 0.016375222295555974 8.187611147777972 21.0 0.0 0.0 17.0 
111.00234921310938 0.0 0.0 21.0 0.0 0.0 16.0 
112.00135908334101 0.053507528135586714 13.73911461450382 21.0 0.0 0.0 15.0 
113.00045129954833 0.04250391703863787 13.014649453289508 20.0 0.0 0.0 15.0 
114.0003007990635 0.04250391703863787 13.014649453289508 21.0 0.0 0.0 15.0 
115.00023874211269 0.051286862526409745 13.014649453289508 20.0 0.0 0.0 15.0 
116.00708348309307 0.07330509568773856 13.69833018237128 21.0 0.0 0.0 15.0 
117.00135908334101 0.07325959710742067 13.69833018237128 20.0 0.0 0.0 16.0 
118.00148473162223 0.06272327379767241 12.99190016313068 19.0 0.0 0.0 15.0 
119.00011380021881 0.06272327379767241 12.99190016313068 19.0 0.0 0.0 15.0 
120.00099323728632 0.07333537145469718 15.24561703672066 18.0 0.0 0.0 16.0 
121.00057469228105 0.08472153390440967 15.24561703672066 18.0 0.0 0.0 17.0 
122.0001712335414 0.05514697569563812 14.123249752353445 18.0 0.0 0.0 16.0 
123.00490605483671 0.08624937283722774 20.785300692572434 18.0 0.0 0.0 16.0 
124.0003007990635 0.04467877145208271 13.450238095465693 18.0 0.0 0.0 15.0 
125.00003113197424 0.04467877145208271 13.450238095465693 18.0 0.0 0.0 15.0 
126.00078405373992 0.056631749377270155 14.865636593169484 18.0 0.0 0.0 15.0 
127.00135908334101 0.05792290370201394 14.865636593169484 18.0 0.0 0.0 15.0 
128.00049849283937 0.06253590168501863 14.095815257837529 18.0 0.0 0.0 16.0 
129.00005924745327 0.046241139072966 14.095815257837529 18.0 0.0 0.0 16.0 
130.00076771173443 0.06253590168501863 14.095815257837529 18.0 0.0 0.0 16.0 
131.00020120762937 0.13417911320633366 23.002279638805334 18.0 0.0 0.0 16.0 
132.00135908334101 0.13943425353155353 28.820785694857705 18.0 0.0 0.0 16.0 
133.00069097620738 0.11899220537463213 28.820785694857705 18.0 0.0 0.0 16.0 
134.00000652811946 0.11899220537463213 28.820785694857705 18.0 0.0 0.0 16.0 
135.0009932372863 0.07265361257432873 14.399779282488169 18.0 0.0 0.0 16.0 
136.0000091634696 0.1455087985272736 29.3980366378602 18.0 0.0 0.0 16.0 
137.00135908334101 0.16875831283467524 29.3980366378602 18.0 0.0 0.0 16.0 
138.00114044324735 0.14088615628994666 29.3980366378602 18.0 0.0 0.0 16.0 
139.0003007990635 0.14792471090155077 29.3980366378602 17.0 0.0 0.0 16.0 
140.00035798593117 0.15942409948480424 29.3980366378602 19.0 0.0 0.0 16.0 
141.00165958038343 0.24285241787828588 29.882716059357847 18.0 0.0 0.0 16.0 
142.00034504131781 0.26658699104337163 29.882716059357847 18.0 0.0 0.0 15.0 
143.00044760224705 0.22716036787871827 29.882716059357847 18.0 0.0 0.0 15.0 
144.0003007990635 0.3089163920342489 29.882716059357847 19.0 0.0 0.0 14.0 
145.0009932372863 0.41409934791265046 39.13164196123378 19.0 0.0 0.0 14.0 
146.001098513682 0.4890316069767985 34.98310820525725 19.0 0.0 0.0 14.0 
147.00028984359628 0.4442143183109438 30.771715592809272 18.0 0.0 0.0 13.0 
148.00244719898856 0.4442143183109438 30.771715592809272 18.0 0.0 0.0 13.0 
149.0003007990635 0.49163288778832553 30.771715592809272 18.0 0.0 0.0 13.0 
150.0009932372863 0.6544391817385872 41.50836823011966 18.0 0.0 0.0 13.0 
151.0074327790134 0.7832441080797894 33.98184460264022 18.0 0.0 0.0 14.0 
152.00135908334101 0.8616126563792194 47.35536074274816 18.0 0.0 0.0 14.0 
153.00203997514654 0.7484607806708664 33.98184460264022 18.0 0.0 0.0 14.0 
154.0003007990635 0.8960448111106192 50.44384368645757 18.0 0.0 0.0 14.0 
155.0009932372863 1.0866650018979116 49.742525735004364 18.0 0.0 0.0 14.0 
156.0005725019948 1.1374458948185233 52.11064930995738 17.0 0.0 0.0 14.0 
157.00135908334101 1.2526447229422812 52.11064930995738 17.0 0.0 0.0 15.0 
158.0032021655067 1.0805558838965703 52.11064930995738 17.0 0.0 0.0 15.0 
159.0003007990635 0.929994267542993 52.11064930995738 17.0 0.0 0.0 15.0 
160.00013622829306 0.9174266332453428 61.51635592670169 18.0 0.0 0.0 16.0 
161.00104929683926 0.7175941977585321 68.32848076620957 19.0 0.0 0.0 17.0 
162.00098333087985 0.658392189232011 68.32848076620957 20.0 0.0 0.0 18.0 
163.0006542135196 0.4573913882670681 63.64858807075092 20.0 0.0 0.0 17.0 
164.0003007990635 0.12729717614150093 63.64858807075092 19.0 0.0 0.0 17.0 
165.0005583530949 0.0 0.0 19.0 0.0 0.0 17.0 
166.00039234621957 0.0 0.0 19.0 0.0 0.0 18.0 
167.0001048750245 0.0 0.0 19.0 0.0 0.0 17.0 
168.00163889699792 0.0 0.0 19.0 0.0 0.0 18.0 
169.0003007990635 0.0 0.0 19.0 0.0 0.0 19.0 
170.0009932372863 0.0 0.0 19.0 0.0 0.0 19.0 
171.00039858154642 0.0 0.0 19.0 0.0 0.0 19.0 
172.0007698189442 0.0 0.0 20.0 0.0 0.0 18.0 
173.00205564162408 0.001991136841041632 0.9955684205208115 20.0 0.0 0.0 18.0 
174.0003007990635 0.02395609880409242 8.170143537155866 21.0 0.0 0.0 18.0 
175.00048849258542 0.016340287074311788 8.170143537155866 21.0 0.0 0.0 18.0 
176.0005794137993 0.05745211240272795 11.725629923231395 22.0 0.0 0.0 18.0 
177.00035526356646 0.016340287074311788 8.170143537155866 23.0 0.0 0.0 18.0 
178.00059401357444 0.031173826946458844 15.586913473229401 22.0 0.0 0.0 18.0 
179.0003007990635 0.04556735947503916 22.78367973751969 22.0 0.014434556819486697 4.630281854932093 18.0 
180.0009932372863 0.008400726828440761 4.200363414220362 20.0 0.014434556819486697 4.630281854932093 18.0 
181.00192178099954 0.0 0.0 20.0 0.014434556819486697 4.630281854932093 17.0 
182.00135908334101 0.0 0.0 19.0 0.0 0.0 19.0 
183.00062221813576 0.0 0.0 19.0 0.0 0.0 19.0 
184.0003007990635 0.008531221929094557 4.265610964547307 19.0 0.0 0.0 18.0 
185.00057154714958 0.061298876272975485 26.81721072267939 19.0 0.0 0.0 18.0 
186.00023398868709 0.06996235558530288 23.74764107488187 19.0 0.0 0.0 18.0 
187.00074751297964 0.06996235558530288 23.74764107488187 20.0 0.0 0.0 19.0 
188.00120775336308 0.02246707343553889 11.23353671776951 20.0 0.0 0.0 19.0 
189.0003007990635 0.048914068753654234 18.763514712846586 20.0 0.008369710657977487 4.184855328988732 19.0 
190.0009932372863 0.060079973192885064 25.891713022823694 20.0 0.0 0.0 18.0 
191.00246472164616 0.05682725788336035 28.41362894168003 20.0 0.014521441349069974 7.260720674535008 18.0 
192.00135908334101 0.05178342604564712 25.891713022823694 20.0 0.014521441349069974 7.260720674535008 18.0 
193.0049060548367 0.05178342604564712 25.891713022823694 20.0 0.014521441349069974 7.260720674535008 17.0 
194.0003007990635 0.003562320559453733 1.160887013771685 21.0 0.02261118337523422 7.260720674535008 17.0 
195.00015575856855 0.010475107536697144 3.4563934886217282 23.0 0.04075295440834286 13.620071558338026 17.0 
196.00124251678432 0.0012405465319103594 0.6202732659551771 23.0 0.029183372847419016 10.546815410627431 17.0 
197.00030850690575 0.0012405465319103594 0.6202732659551771 22.0 0.051763221781021614 10.546815410627431 17.0 
198.00395145394373 0.010780144528644038 5.368709715909375 22.0 0.0 0.0 19.0 
199.0003007990635 0.07528563474160492 29.22565374757204 22.0 0.0 0.0 18.0 
200.0009932372863 0.02058879784966182 7.3700541462786475 22.0 0.007692632836737073 3.8463164183685024 18.0 
201.00144717614467 0.06619058452555854 23.82664026648729 23.0 0.007692632836737073 3.8463164183685024 17.0 
202.00135908334101 0.06239338882553184 23.82664026648729 23.0 0.022654243263354305 7.480805213308628 17.0 
203.0049060548367 0.06239338882553184 23.82664026648729 23.0 0.014961610426617256 7.480805213308628 17.0 
204.0003007990635 0.14713582198731406 29.75195049083638 23.0 0.029618220503431245 14.80911025171568 17.0 
205.00034565689666 0.08984949443706418 26.954717397237346 23.0 0.014650205791984826 3.657612606208204 16.0 
206.00034918215735 0.1404822037157257 32.884074476026086 23.0 0.029209378005065262 7.292014815878275 16.0 
207.00089639034837 0.1255479372408417 25.416941238584428 23.0 0.029209378005065262 7.292014815878275 17.0 
208.00013424285518 0.1255479372408417 25.416941238584428 23.0 0.02189415279264879 7.292014815878275 18.0 
209.0003007990635 0.14889973655169117 29.645929476719374 23.0 0.08814770025827592 14.810363841635194 18.0 
210.0008709897519 0.1684997225003628 29.645929476719374 22.0 0.10294124664068609 14.810363841635194 17.0 
211.0005078500091 0.15605701158487262 29.645929476719374 22.0 0.07305822025610485 14.810363841635194 17.0 
212.00135908334101 0.19428254934375358 29.645929476719374 22.0 0.07136984645746067 14.810363841635194 17.0 
213.00034002852928 0.19428254934375358 29.645929476719374 23.0 0.07136984645746067 14.810363841635194 18.0 
214.0003007990635 0.17148136343585463 37.043780512977065 24.0 0.14940812578519855 20.60264242902639 18.0 
215.0009932372863 0.13748796578193068 26.387089731602515 24.0 0.14940812578519855 20.60264242902639 17.0 
216.0002551482512 0.15241986670222635 26.387089731602515 24.0 0.11951683802100155 20.60264242902639 16.0 
217.00135908334101 0.14903101606693464 18.864770679061706 24.0 0.10881096740404896 20.60264242902639 16.0 
218.00243839700286 0.14903101606693464 18.864770679061706 23.0 0.013896117598683382 6.9480587993416805 17.0 
219.0003007990635 0.15577287550017144 23.297005814118478 23.0 0.034783882402155394 14.245633863265624 17.0 
220.0004241006278 0.32721930307418867 26.68438220489429 23.0 0.07545612744707422 20.336122522459306 17.0 
221.00111404951474 0.2955223064301591 40.06103432590473 23.0 0.06052276309370416 20.336122522459306 17.0 
222.00081236826972 0.345472761536069 40.06103432590473 22.0 0.05423014841808016 20.336122522459306 17.0 
223.0049060548367 0.3014376080483213 40.06103432590473 21.0 0.10054326592715351 23.156558754536803 16.0 
224.0003007990635 0.3261223891722967 44.58318642270308 21.0 0.10643899473629871 23.156558754536803 16.0 
225.0009932372863 0.3955105054941751 44.58318642270308 20.0 0.07443585022528343 20.178932455134117 16.0 
226.00020238120067 0.44751047954506 37.11410136022286 20.0 0.06769672622939157 20.178932455134117 16.0 
227.00135908334101 0.5091194676416932 37.11410136022286 20.0 0.10766422380234926 22.93161319105127 16.0 
228.0024958852732 0.423235990268637 37.11410136022286 20.0 0.10766422380234926 22.93161319105127 16.0 
229.0003007990635 0.529161672492146 37.11410136022286 20.0 0.12216149295140145 22.93161319105127 16.0 
230.00038982984023 0.5497894006187739 41.81464947598391 20.0 0.15713980924208332 30.28261862572927 16.0 
231.00049167454765 0.6107170298151225 48.70859337618117 19.0 0.11145973594239422 20.069829674648048 16.0 
232.00135908334101 0.6080454102157353 48.70859337618117 20.0 0.1419527084224218 22.821557763166908 16.0 
233.00159297241885 0.6216409335223025 48.70859337618117 19.0 0.1363906381833238 22.821557763166908 16.0 
234.0003007990635 0.5717469860054909 48.70859337618117 19.0 0.1957445498633363 30.23912694429734 17.0 
235.0009932372863 0.5985310667439356 53.95692334166071 19.0 0.1257296739957088 26.361158563487663 17.0 
236.0003016098155 0.612102250070815 61.20478135418426 20.0 0.09600668223155755 19.91483479400523 17.0 
237.00135908334101 0.5372912431529909 61.20478135418426 19.0 0.1414705302052598 22.731923986851427 17.0 
238.0049060548367 0.5128276568499455 61.20478135418426 19.0 0.13586065198588052 22.731923986851427 17.0 
239.0003007990635 0.625427375669258 66.73982040403843 18.0 0.1731776677321862 28.942424864183778 17.0 
240.0009932372863 0.5535021801877298 66.73982040403843 18.0 0.17761458715263828 28.942424864183778 17.0 
241.00083008589326 0.501451777124956 73.85424302271844 18.0 0.15300224957717234 28.942424864183778 17.0 
242.00117065473933 0.49496110154509865 73.85424302271844 18.0 0.1525919275737652 21.37795396338288 17.0 
243.00024447234395 0.48062498528305314 73.85424302271844 18.0 0.14946755298469824 21.37795396338288 17.0 
244.0003007990635 0.5071588207168197 79.28647159466328 18.0 0.20765213667926707 24.28892118332672 17.0 
245.0009932372863 0.48826236003612705 79.48224818278095 18.0 0.04152821447754876 9.184156957597196 17.0 
246.00140915649098 0.36255126610279975 84.76729187633958 18.0 0.07980010024551507 9.184156957597196 17.0 
247.00135908334101 0.012491045370841747 6.245522685420923 17.0 0.030804994444708016 6.805899514521968 17.0 
248.00089699191687 0.23950287039377577 84.76729187633958 18.0 0.030804994444708016 6.805899514521968 17.0 
249.0003007990635 0.1074338302024247 17.225313296074063 17.0 0.03493186876763145 9.739027564466994 17.0 
250.0009932372863 0.11808741722206718 17.225313296074063 17.0 0.03493186876763145 9.739027564466994 17.0 
251.00167225651242 0.14875096318784317 18.894470633679873 16.0 0.04853438533088876 9.739027564466994 17.0 
252.00135908334101 0.14367553368881547 18.894470633679873 16.0 0.0 0.0 17.0 
253.00012558158195 0.12706164540093137 18.894470633679873 16.0 0.0 0.0 17.0 
254.0003007990635 0.22763684685099628 26.196498518399466 17.0 0.0 0.0 17.0 
255.0009932372863 0.3167224114832156 31.479622322210474 16.0 0.0 0.0 17.0 
256.00074153108113 0.27771654625040215 37.46287058658913 16.0 0.0 0.0 17.0 
257.0003014395037 0.4681800720032311 42.559799442826204 16.0 0.0 0.0 17.0 
258.0001314657629 0.2766434236396238 33.44707816666826 16.0 0.0 0.0 17.0 
259.0003007990635 0.46272214301959425 37.46287058658913 16.0 0.0 0.0 16.0 
260.0009932372863 0.5349260562444552 50.07145648053847 16.0 0.0 0.0 16.0 
261.00350313268336 0.4454257347445077 43.2732523847761 16.0 0.0 0.0 16.0 
262.0000117711903 0.7037965986737531 54.87239463218992 16.0 0.0 0.0 16.0 
263.00032354582635 0.520499263716134 43.2732523847761 15.0 0.0 0.0 16.0 
264.0003007990635 0.5332792212869671 42.594559153368124 15.0 0.0 0.0 16.0 
265.00081487343505 0.7416202138351197 50.683535790415846 16.0 0.0 0.0 17.0 
266.0003502612902 0.7282278551344218 54.40849301325045 17.0 0.0 0.0 17.0 
267.0003619939933 0.4698191017452321 50.07896748742658 20.0 0.0 0.0 18.0 
268.00490605483674 0.6562141023895084 58.16608281205612 20.0 0.0 0.0 17.0 
269.0003007990635 0.7503555205982071 62.74039107140453 19.0 0.0 0.0 17.0 
270.0009932372863 0.7898699662506564 70.26684397239097 19.0 0.0 0.0 19.0 
271.00291366082485 0.5244059835339574 50.16098477596111 18.0 0.0 0.0 19.0 
272.00102747221615 0.5019738238951479 50.16098477596111 18.0 0.0 0.0 19.0 
273.00075748530713 0.5364388661337429 70.26684397239097 17.0 0.0 0.0 19.0 
274.0003007990635 0.49799224407120934 70.26684397239097 18.0 0.0 0.0 18.0 
275.0008764620333 0.5060615787770558 69.50507584240904 18.0 0.0 0.0 18.0 
276.00878296501855 0.42685954894515676 50.250729562827246 18.0 0.0 0.0 18.0 
277.0008647783017 0.622903193049111 76.71972310663966 19.0 0.0 0.0 19.0 
278.0021692913744 0.5371979455867025 42.743181227739285 19.0 0.0 0.0 19.0 
279.0003007990635 0.4691791635818518 42.743181227739285 19.0 0.0 0.0 19.0 
280.0009932372863 0.4845351500029962 50.26681191407687 19.0 0.0 0.0 19.0 
281.00047557186275 0.5449074463755973 50.26681191407687 19.0 0.0 0.0 19.0 
282.0007985810768 0.638237106219302 54.70652900698178 19.0 0.0 0.0 19.0 
283.0031601479833 0.7368957103416192 54.70652900698178 19.0 0.0 0.0 19.0 
284.0003007990635 0.7308396466269809 54.70652900698178 19.0 0.0 0.0 19.0 
285.0009932372863 0.789613647074198 54.70652900698178 19.0 0.0 0.0 19.0 
286.0003201589704 0.8234741495806992 69.06996604928281 19.0 0.0 0.0 18.0 
287.001359083341 0.7879954172473208 50.245675891672164 19.0 0.0 0.0 18.0 
288.00056412591283 0.7949011189719625 51.53426823899025 19.0 0.0 0.0 17.0 
289.0003007990635 0.8123413097949921 51.53426823899025 19.0 0.0 0.0 18.0 
290.00045231557544 0.8491065214589854 51.53426823899025 19.0 0.0 0.0 18.0 
291.00087391577813 1.21631450254891 90.41366670598632 19.0 0.0 0.0 17.0 
292.001359083341 1.2846235106335446 58.89063916369457 19.0 0.0 0.0 17.0 
293.0010585648661 1.4362847848336338 90.41366670598632 19.0 0.0 0.0 17.0 
294.0003007990635 1.280693745748412 66.20565353560676 19.0 0.0 0.0 19.0 
295.0009932372863 1.3298780633925757 66.20565353560676 19.0 0.0 0.0 18.0 
296.0006777482803 1.6780501620576695 90.31070131661352 20.0 0.0 0.0 18.0 
297.0008620382971 1.5315695538679437 90.31070131661352 19.0 0.0 0.0 17.0 
298.00047221565023 1.440056393359317 90.31070131661352 19.0 0.0 0.0 17.0 
299.0003007990635 1.2719472889466956 90.31070131661352 19.0 0.0 0.0 17.0 
300.0006495416673 1.2926769339396516 88.50400329854239 20.0 0.0 0.0 17.0 
301.0005428427813 1.795950532382598 90.27464740822552 19.0 0.0 0.0 17.0 
302.001359083341 1.7213950666327331 95.90294819380233 20.0 0.0 0.0 17.0 
303.00490605483674 1.7460680425153012 95.90294819380233 20.0 0.0 0.0 17.0 
304.0003007990635 1.8356025666417812 95.90294819380233 20.0 0.0 0.0 17.0 
305.0009932372863 1.906358388350733 95.90294819380233 19.0 0.0 0.0 18.0 
306.00146569639077 2.279807245571593 103.23667674385831 20.0 0.0 0.0 18.0 
307.001359083341 2.271465205888198 103.23667674385831 20.0 0.0 0.0 18.0 
308.00117177933384 2.2680623843990664 110.65965779432184 20.0 0.0 0.0 18.0 
309.0003007990635 2.519251588059136 114.76964026504095 20.0 0.0 0.0 18.0 
310.0007201815834 2.936736231431713 114.76964026504095 19.0 0.0 0.0 18.0 
311.0004058041887 3.2869363270647103 122.18169189138723 19.0 0.0 0.0 18.0 
312.001359083341 3.271692894850315 125.56400512154482 19.0 0.0 0.0 18.0 
313.00293313717975 3.254959119293556 125.56400512154482 19.0 0.0 0.0 18.0 
314.0003007990635 3.2656200098500885 125.56400512154482 19.0 0.0 0.0 18.0 
315.00009200635645 3.6807778088047374 132.91691211792335 19.0 0.0 0.0 18.0 
316.0057489714491 4.155808143765871 137.00766181236395 19.0 0.0 0.0 18.0 
317.001359083341 4.132334342293437 137.29414155476513 19.0 0.0 0.0 18.0 
318.0008495907156 4.901528376447503 137.29414155476513 19.0 0.0 0.0 18.0 
319.0003007990635 4.2254300347340035 137.00766181236395 19.0 0.0 0.0 18.0 
320.00012903633177 4.5070424854041145 137.3815858358219 19.0 0.0 0.0 19.0 
321.0025655007376 4.886874387307894 144.67171435886496 18.0 0.0 0.0 21.0 
322.0000474776958 5.093795432247112 144.67171435886496 18.0 0.0 0.0 19.0 
323.002170237233 5.638842665259536 144.7935343955819 18.0 0.0 0.0 19.0 
324.0003007990635 5.423558711578049 144.7935343955819 18.0 0.0 0.0 19.0 
325.0009932372863 5.9321151058575925 144.8368844010967 18.0 0.0 0.0 19.0 
326.000128310042 6.473428426106465 152.3326272854701 18.0 0.0 0.0 19.0 
327.001359083341 6.484404737398501 152.3326272854701 18.0 0.0 0.0 19.0 
328.00219431261723 6.2528360758604515 152.3326272854701 18.0 0.0 0.0 19.0 
329.0003007990635 6.137485329082361 151.97477196238196 18.0 0.0 0.0 19.0 
330.0009932372863 6.477247351684357 157.4857066368633 18.0 0.0 0.0 19.0 
331.00128631812237 6.591008876769322 157.62089191913248 17.0 0.0 0.0 18.0 
332.001359083341 6.608342615689801 157.4235265150469 17.0 0.0 0.0 19.0 
333.0014897424674 6.475092807072375 157.4235265150469 17.0 0.0 0.0 19.0 
334.0003007990635 6.559188240202228 157.4235265150469 17.0 0.0 0.0 18.0 
335.00090642438096 6.8476595387613255 164.65002137931685 17.0 0.0 0.0 18.0 
336.0013913141504 7.53687588933158 164.6946446087814 17.0 0.0 0.0 18.0 
337.001359083341 8.21028430089922 165.25085996633163 17.0 0.0 0.0 18.0 
338.0005127647719 8.738644740424975 164.82711519702679 17.0 0.0 0.0 18.0 
339.0003007990635 9.208279999327026 165.63901598277835 17.0 0.0 0.0 18.0 
340.0002183849202 9.775607215073471 172.36418063038354 17.0 0.0 0.0 17.0 
341.0005058186521 9.200367296472866 173.14947676695994 17.0 0.0 0.0 17.0 
342.00095921875885 6.962294644895211 173.14947676695994 17.0 0.0 0.0 17.0 
343.0009844545008 4.863372618497279 172.1757085780648 17.0 0.0 0.0 17.0 
344.0003007990635 3.353474592181966 142.29844835308893 16.0 0.0 0.0 17.0 
345.0007973218654 4.104838447028406 142.29844835308893 16.0 0.0 0.0 17.0 
346.0099483824489 3.8152817911929824 149.48141756177716 16.0 0.0 0.0 17.0 
347.001359083341 4.091689032550251 141.96406977188133 16.0 0.0 0.0 17.0 
348.0004792591187 2.8083835082975512 141.96406977188133 16.0 0.0 0.0 17.0 
349.0003007990635 1.9411151725781628 103.36389571260099 16.0 0.0 0.0 17.0 
350.0009932372863 2.088479652284555 114.24229626861302 16.0 0.0 0.0 18.0 
351.0030968320428 1.8586962843848422 114.24229626861302 16.0 0.0 0.0 17.0 
352.00098420265726 1.9188226149341665 141.66527906968025 16.0 0.0 0.0 17.0 
353.00340680781517 0.3984106034352941 40.174529670780345 16.0 0.0 0.0 17.0 
354.00027669853756 0.37109457240618215 22.935234310151742 15.0 0.0 0.0 16.0 
355.0000614456649 0.2794233791585303 24.93945952178217 16.0 0.0 0.0 16.0 
356.0066918273141 0.2993026855121001 24.93945952178217 16.0 0.0 0.0 16.0 
357.0005546705231 0.2041559524926657 23.036616024344852 16.0 0.0 0.0 16.0 
358.0006267481829 0.15815080923663383 23.036616024344852 15.0 0.0 0.0 16.0 
359.0003007990635 0.17393927674352874 23.036616024344852 16.0 0.0 0.0 16.0 
360.0009932372863 0.18213763043155676 25.20512461715009 16.0 0.0 0.0 16.0 
361.0001879192735 0.20134488377004353 27.231147700481557 16.0 0.0 0.0 16.0 
362.001359083341 0.18054870385405322 25.375179298766056 16.0 0.0 0.0 16.0 
363.00138511097424 0.12627852165447717 23.445212816128333 15.0 0.0 0.0 16.0 
364.00001551213916 0.08717883240297812 23.635528538812537 16.0 0.0 0.0 16.0 
365.0009932372863 0.14575314729657185 25.375179298766056 16.0 0.0 0.0 17.0 
366.0006271924247 0.15059396618344636 27.795588742203194 17.0 0.0 0.0 17.0 
367.001359083341 0.052129178144544396 26.064589072272042 17.0 0.0 0.0 17.0 
368.00242452696926 0.0 0.0 17.0 0.0 0.0 17.0 
369.0003007990635 0.0037387998782366957 1.8693999391183524 16.0 0.0 0.0 17.0 
370.0009932372863 0.0037387998782366957 1.8693999391183524 16.0 0.0 0.0 17.0 
371.0038648628186 0.0037387998782366957 1.8693999391183524 16.0 0.0 0.0 17.0 
372.0009632092688 0.008840894695892169 4.420447347946094 15.0 0.0 0.0 17.0 
373.00049228639557 0.008840894695892169 4.420447347946094 16.0 0.0 0.0 17.0 
374.000294277607 0.022153493597783912 11.076746798891975 15.0 0.0 0.0 17.0 
375.00083912308946 0.022153493597783912 11.076746798891975 14.0 0.0 0.0 17.0 
376.00259485485645 0.022153493597783912 11.076746798891975 14.0 0.0 0.0 16.0 
377.00122046414026 0.026559512022576424 13.279756011288185 15.0 0.0 0.0 16.0 
378.00157105840776 0.0 0.0 15.0 0.0 0.0 16.0 
379.0003007990635 0.0 0.0 15.0 0.0 0.0 16.0 
380.0009932372863 0.0 0.0 15.0 0.0 0.0 16.0 
381.0060677347954 0.0 0.0 15.0 0.0 0.0 16.0 
382.0005028431134 0.0 0.0 15.0 0.0 0.0 16.0 
383.0016377471925 0.0 0.0 15.0 0.0 0.0 16.0 
384.0003007990635 0.0 0.0 15.0 0.0 0.0 17.0 
385.0009932372863 0.0 0.0 15.0 0.0 0.0 17.0 
386.0038787124721 0.0027102667060893387 1.355133353044664 15.0 0.0 0.0 17.0 
387.0011283430256 0.0 0.0 15.0 0.0 0.0 17.0 
388.00490605483674 0.016593049868889737 8.296524934444875 15.0 0.0 0.0 17.0 
389.0000683408831 0.0 0.0 15.0 0.0 0.0 17.0 
390.0009932372863 0.01170659443849903 5.8532972192495265 15.0 0.0 0.0 17.0 
391.0019912969098 0.01170659443849903 5.8532972192495265 15.0 0.0 0.0 16.0 
392.0003457059267 0.01170659443849903 5.8532972192495265 15.0 0.0 0.0 16.0 
393.00066944816547 0.01170659443849903 5.8532972192495265 15.0 0.0 0.0 16.0 
394.0003007990635 0.01170659443849903 5.8532972192495265 15.0 9.277194793949691E-4 0.46385973969748306 16.0 
395.0009932372863 0.009834629566986046 4.917314783493055 16.0 0.0 0.0 15.0 
396.00082936800175 0.009834629566986046 4.917314783493055 16.0 0.0 0.0 15.0 
397.001359083341 0.009834629566986046 4.917314783493055 16.0 0.0 0.0 15.0 
398.00086492922173 0.009834629566986046 4.917314783493055 16.0 0.0 0.0 17.0 
399.0003007990635 0.009881902853754652 4.940951426877319 16.0 0.0 0.0 18.0 
400.0009932372863 0.009881902853754652 4.940951426877319 16.0 0.0 0.0 18.0 
401.00244731351336 0.009881902853754652 4.940951426877319 16.0 0.0 0.0 17.0 
402.0002906021345 0.009881902853754652 4.940951426877319 15.0 0.0 0.0 18.0 
403.0010432971945 0.009881902853754652 4.940951426877319 17.0 0.0 0.0 18.0 
404.0003007990635 0.012350418154271969 6.175209077136003 16.0 0.0 0.0 19.0 
405.0009932372863 0.0 0.0 16.0 0.0 0.0 18.0 
406.00763118831946 0.0 0.0 16.0 0.0 0.0 18.0 
407.00071616893683 0.0 0.0 16.0 0.060508124017107895 26.80384897713003 19.0 
408.0006670583051 0.0 0.0 16.0 0.0 0.0 18.0 
409.0003007990635 0.0 0.0 16.0 0.0 0.0 18.0 
410.0009932372863 0.0 0.0 16.0 0.0 0.0 18.0 
411.0007744648428 0.0 0.0 16.0 0.0 0.0 18.0 
412.001359083341 0.01567049823707153 6.778089101486444 16.0 0.0 0.0 18.0 
413.0008969745185 0.01567049823707153 6.778089101486444 16.0 0.0 0.0 18.0 
414.0003007990635 0.04398253192203338 17.32375333118418 16.0 0.0 0.0 17.0 
415.0009932372863 0.050035649945407 12.936279791605926 16.0 0.0 0.0 17.0 
416.00085422583675 0.0872185640004399 18.591457027516384 16.0 0.0 0.0 17.0 
417.001359083341 0.1419813292623887 20.290200892328073 16.0 0.0 0.0 17.0 
418.0014683648603 0.17254132964545363 26.969401608413705 16.0 0.0 0.0 17.0 
419.0003007990635 0.18641719070963095 26.969401608413705 16.0 0.0 0.0 17.0 
420.0002899973509 0.19539830173602876 26.969401608413705 17.0 0.0 0.0 18.0 
421.0000512048173 0.19699425690440786 29.08870312887896 17.0 0.0 0.0 17.0 
422.0001993872169 0.3426843295279102 42.83576477296731 17.0 0.0 0.0 17.0 
423.00008505766533 0.3837839242188852 46.369336156044824 17.0 0.0 0.0 17.0 
424.00004836257625 0.4872052757628716 46.369336156044824 17.0 0.0 0.0 18.0 
425.0009932372863 0.4982188916327299 44.76312142310124 17.0 0.0 0.0 19.0 
426.0007036254128 0.5248430908412924 48.82312947049428 17.0 0.0 0.0 19.0 
427.00075986454254 0.6369731209665053 56.315694038108745 17.0 0.0 0.0 19.0 
428.00032686782737 0.5524202767537676 56.93039722407718 17.0 0.0 0.0 18.0 
429.0003007990635 0.6946206359391046 56.93039722407718 17.0 0.004128523545722569 2.064261772861272 18.0 
430.0009932372863 0.5090210372147281 56.315694038108745 17.0 0.0 0.0 19.0 
431.00388908325516 0.39565813009149076 53.691097367951926 18.0 0.0 0.0 19.0 
432.0008437558103 0.35120058481021044 53.691097367951926 18.0 0.0 0.0 18.0 
433.00111066761224 0.34458736894202 58.39472291460038 18.0 0.0 0.0 18.0 
434.0003007990635 0.6426783409374275 61.19531282258305 18.0 0.0 0.0 17.0 
435.0009932372863 0.4979751779659173 61.19531282258305 18.0 0.0 0.0 17.0 
436.0047074611501 0.6186406992414867 61.19531282258305 17.0 0.0 0.0 17.0 
437.00055130821636 0.595496203634774 68.02554093032535 17.0 0.0 0.0 17.0 
438.0007211680663 0.6267915326179656 70.28629330818603 17.0 0.0 0.0 17.0 
439.0003007990635 0.5222247514686302 70.28629330818603 17.0 0.0 0.0 17.0 
440.0000482121824 0.39929256333607355 68.19646125662655 17.0 0.0 0.0 17.0 
441.0045545707888 0.4114361851445167 68.19646125662655 19.0 0.0 0.0 17.0 
442.001359083341 0.4609505128220441 75.7131445393457 20.0 0.0 0.0 17.0 
443.0011395818232 0.46935168229528373 75.7131445393457 19.0 0.0 0.0 17.0 
444.0003007990635 0.4744325478387497 75.7131445393457 19.0 0.0 0.0 17.0 
445.0005298341294 0.4445155061757436 77.54146424359902 19.0 0.0 0.0 17.0 
446.00179219359933 0.6187552065453081 78.44939219465999 19.0 0.0 0.0 17.0 
447.00106877651683 0.5651434142142816 84.98944285182557 18.0 0.0 0.0 17.0 
448.00016827360486 0.651948133874595 84.98944285182557 18.0 0.0 0.0 17.0 
449.0003007990635 0.6056996389250374 84.98944285182557 18.0 0.0 0.0 16.0 
450.0009932372863 0.450192516577405 53.687876289860924 17.0 0.0 0.0 17.0 
451.00145988071415 0.7809104265771931 86.93517116211058 17.0 0.0 0.0 18.0 
452.001359083341 0.7533492535277937 85.85857023868584 17.0 0.0 0.0 17.0 
453.0024583329812 0.7788828901432147 85.85857023868584 16.0 0.0 0.0 17.0 
454.0002182759328 0.5364175290648635 61.13224080130453 16.0 0.0 0.0 17.0 
455.0009932372863 0.7079933318988946 78.40225753514625 16.0 0.0 0.0 17.0 
456.0003201907395 0.723024632202675 78.40225753514625 16.0 0.0 0.0 16.0 
457.001359083341 0.8562538518218732 85.82265078302186 17.0 0.0 0.0 16.0 
458.00305126470556 0.8856211734791855 85.82265078302186 17.0 0.0 0.0 16.0 
459.0003007990635 0.7212481859583374 75.95057801283309 16.0 0.0 0.0 16.0 
460.0009932372863 0.8948345159116017 79.37306831121003 16.0 0.0 0.0 16.0 
461.0001880415917 0.7611366380260371 79.37306831121003 16.0 0.0 0.0 16.0 
462.001359083341 1.1007702750052282 88.95823976435236 16.0 0.0 0.0 17.0 
463.00282553960835 1.1280578656240785 88.95823976435236 15.0 0.0 0.0 17.0 
464.0003007990635 0.6288908900971598 75.7553269170773 15.0 0.0 0.0 16.0 
465.0009932372863 0.4769183158696187 61.07027535970832 15.0 0.0 0.0 16.0 
466.00124790199806 0.666073008749623 75.7553269170773 15.0 0.0 0.0 16.0 
467.001359083341 0.5765115028533763 68.44024587953379 15.0 0.0 0.0 17.0 
468.00490605483674 0.6013034572619798 69.10026847153733 15.0 0.0 0.0 18.0 
469.0003007990635 0.6381420882826784 69.10026847153733 14.0 0.0 0.0 18.0 
470.0009932372863 0.45399105760291436 69.10026847153733 15.0 0.0 0.0 20.0 
471.00087996862294 0.3405758339738942 69.10026847153733 14.0 0.0 0.0 19.0 
472.00113861723395 0.187692409333988 40.7102098494216 13.0 0.0 0.0 19.0 
473.00032489796405 0.3550228371774537 73.6035651144789 14.0 0.0 0.0 19.0 
474.0003007990635 0.25934581025194714 48.031637666153756 13.0 0.0 0.0 19.0 
475.0009932372863 0.34371686924352857 48.031637666153756 13.0 0.0 0.0 19.0 
476.00062338396134 0.36169366561952404 48.031637666153756 13.0 0.0 0.0 19.0 
477.001359083341 0.3054496563736408 55.516385669299666 13.0 0.0 0.0 19.0 
478.00279802278055 0.32875874043796727 55.516385669299666 13.0 0.0 0.0 19.0 
479.0003007990635 0.18024058070173254 36.43532418645617 13.0 0.0 0.0 18.0 
480.0004378267166 0.41334795250092266 62.79247003498415 14.0 0.0 0.0 18.0 
481.0004354764659 0.44632016864803253 62.79247003498415 14.0 0.0 0.0 18.0 
482.00045628756675 0.32360281494374427 41.757085003163155 14.0 0.0 0.0 18.0 
483.0009807002675 0.39212017114908626 43.77288408886565 14.0 0.0 0.0 18.0 
484.0000252904628 0.4301324784644404 51.259721734398795 14.0 0.0 0.0 18.0 
485.0009932372863 0.5200287719468124 51.259721734398795 14.0 0.0 0.0 18.0 
486.00134781061956 0.48433934696719505 51.259721734398795 14.0 0.0 0.0 18.0 
487.001359083341 0.5529524901732004 51.259721734398795 14.0 0.0 0.0 18.0 
488.0012486464223 0.6496348059237105 58.60737988058321 14.0 0.0 0.0 18.0 
489.0003007990635 0.5920092972028178 48.57088421786449 14.0 0.0 0.0 18.0 
490.0009307164798 0.7728440912923816 66.09513295941503 14.0 0.0 0.0 18.0 
491.00009654274305 0.7959066239063459 55.453894316975635 14.0 0.0 0.0 18.0 
492.001359083341 0.8311851841310082 55.453894316975635 15.0 0.0 0.0 18.0 
493.0016112128942 0.7617679879538802 48.298406692288495 16.0 0.0 0.0 18.0 
494.0003007990635 0.47185765289128256 48.298406692288495 17.0 0.0 0.0 18.0 
495.0006366421612 0.5255014472736924 53.58101177900832 16.0 0.0 0.0 18.0 
496.0029480829687 0.5394422985595625 53.58101177900832 18.0 0.0 0.0 18.0 
497.001359083341 0.5990530000764666 53.58101177900832 18.0 0.0 0.0 18.0 
498.0004152596496 0.5702116259477226 48.207422558234384 18.0 0.0 0.0 18.0 
499.0003007990635 0.7343773890103775 48.53592593216345 17.0 0.0 0.0 18.0 
500.0007968291499 0.9325204291778222 58.780019069542334 18.0 0.0 0.0 18.0 
501.00213184772923 0.7412590797606066 40.98429888616545 17.0 0.0 0.0 18.0 
502.0001545012992 0.8168393844763433 58.780019069542334 17.0 0.0 0.0 18.0 
503.00490605483674 0.9971883914643174 58.780019069542334 17.0 0.0 0.0 18.0 
504.0003007990635 0.9758523006063855 48.02859218097478 18.0 0.0 0.0 17.0 
505.000064757512 0.8574354402374756 47.975596272523404 17.0 0.0 0.0 17.0 
506.00413389243636 0.6908644078384267 47.975596272523404 17.0 0.0 0.0 18.0 
507.001359083341 0.5917947449255402 40.80430910026416 17.0 0.0 0.0 18.0 
508.0012362043156 0.579547378565648 40.80430910026416 17.0 0.0 0.0 18.0 
509.0003007990635 0.793050149128033 48.030091610262076 17.0 0.0 0.0 17.0 
510.0009932372863 0.7021830636243517 48.030091610262076 18.0 0.0 0.0 17.0 
511.0000421860043 0.5473399072956198 40.940959804465734 18.0 0.0 0.0 17.0 
512.0005083299801 0.469640550924841 40.940959804465734 19.0 0.0 0.0 17.0 
513.0002082917548 0.48819373853391784 45.864325685185605 18.0 0.0 0.0 17.0 
514.0002998600124 0.42572242011914774 48.256507366889565 18.0 0.0 0.0 17.0 
515.0009932372864 0.49748778286038703 47.59297927246456 18.0 0.0 0.0 17.0 
516.0002950148256 0.5654684705676127 47.59297927246456 18.0 0.0 0.0 18.0 
517.001359083341 0.3975084588396627 43.05457802860397 18.0 0.0 0.0 17.0 
518.0007406307632 0.4413745361762443 48.396182299268986 18.0 0.0 0.0 17.0 
519.0000531595734 0.4701258165700282 50.221628318766136 18.0 0.0 0.0 17.0 
520.0009932372864 0.4590100712315168 48.3164929756706 17.0 0.0 0.0 15.0 
521.0024245650518 0.3681349637073474 47.545869697187754 17.0 0.0 0.0 15.0 
522.001359083341 0.3631745530537778 47.545869697187754 17.0 0.0 0.0 15.0 
523.0045242317436 0.3813785443460313 54.79213405587603 17.0 0.0 0.0 14.0 
524.0003007990636 0.30127111512188925 52.805368940843834 17.0 0.0 0.0 14.0 
525.0009932372864 0.0986151902562763 49.30759512813796 18.0 0.0 0.0 14.0 
526.0005376741701 3.9684658973828795E-4 0.19842329486914423 17.0 0.0 0.0 14.0 
527.001359083341 3.9684658973828795E-4 0.19842329486914423 17.0 0.0 0.0 14.0 
528.0049060548367 0.027111026483692385 13.555513241846086 17.0 0.0 0.0 14.0 
529.0003007990636 0.0409766337068094 13.555513241846086 17.0 0.0 0.0 14.0 
530.0009932372864 0.0409766337068094 13.555513241846086 17.0 0.0 0.0 14.0 
531.0000188875014 0.05435055100889357 13.555513241846086 17.0 0.0 0.0 14.0 
532.0007888214493 0.07328793742179641 18.26115909254918 17.0 0.0 0.0 15.0 
533.003662957941 0.07328793742179641 18.26115909254918 17.0 0.0 0.0 15.0 
534.0003007990636 0.05883299709836467 11.695850967306882 17.0 0.0 0.0 15.0 
535.0000494034726 0.07292651008511222 18.74260746068063 17.0 0.0 0.0 15.0 
536.0009508257527 0.0826840451472446 23.621374991746848 17.0 0.0 0.0 15.0 
537.001359083341 0.11636098104454402 23.621374991746848 18.0 0.0 0.0 16.0 
538.0049060548367 0.10180750482072713 23.621374991746848 18.0 0.0 0.0 16.0 
539.0003007990636 0.05456475483723299 18.655521829685824 18.0 0.0 0.0 16.0 
540.0009932372864 0.05456475483723299 18.655521829685824 18.0 0.0 0.0 16.0 
541.0018505342312 0.04199586870493317 14.770152235578308 18.0 0.0 0.0 16.0 
542.0005105465269 0.04199586870493317 14.770152235578308 18.0 0.0 0.0 16.0 
543.000273986147 0.027526908975024463 7.5356723706238995 18.0 0.0 0.0 16.0 
544.0003007990636 0.027526908975024463 7.5356723706238995 18.0 0.0 0.0 16.0 
545.0009932372864 0.027526908975024463 7.5356723706238995 18.0 0.0 0.0 16.0 
546.004059550264 0.04175270181707598 13.340678537914101 19.0 0.0 0.0 17.0 
547.0000679567573 0.0 0.0 19.0 0.0 0.0 18.0 
548.0008495181492 0.0 0.0 19.0 0.0 0.0 17.0 
549.0003007990636 0.010622650712451623 5.311325356225808 18.0 0.0 0.0 17.0 
550.0009932372864 0.03913217141337531 19.566085706687772 19.0 0.0 0.0 17.0 
551.0030173360125 0.0 0.0 20.0 0.0 0.0 17.0 
552.001359083341 0.0043533050144669485 2.1766525072334844 20.0 0.0 0.0 18.0 
553.0003751061982 0.026056784349195866 9.294264802078999 19.0 0.0 0.0 18.0 
554.0003007990636 0.029232223713002506 9.294264802078999 19.0 0.0 0.0 18.0 
555.0009932372864 0.029232223713002506 9.294264802078999 19.0 0.0 0.0 18.0 
556.000485627368 0.08568428360262645 15.764016972183981 19.0 0.0 0.0 19.0 
557.001359083341 0.12480892738815241 16.30675967532784 19.0 0.0 0.0 18.0 
558.0032918174943 0.1117801701479751 16.30675967532784 19.0 0.0 0.0 18.0 
559.0003007990636 0.1349522563223652 16.30675967532784 19.0 0.0 0.0 18.0 
560.0006650538643 0.14967774305908854 16.30675967532784 19.0 0.0 0.0 18.0 
561.0014964621656 0.20725785860466703 22.88888404964291 18.0 0.0 0.0 18.0 
562.0001027304942 0.18478428634294897 20.706567421771354 19.0 0.0 0.0 19.0 
563.0033507645891 0.19717298288576438 22.299434558007107 19.0 0.0 0.0 19.0 
564.0003007990636 0.12472198577797738 22.299434558007107 19.0 0.0 0.0 19.0 
565.0007398417716 0.09496328811591587 22.299434558007107 20.0 0.0 0.0 20.0 
566.0009832580276 0.14405844120750314 26.41182282267195 21.0 0.0 0.0 20.0 
567.001359083341 0.08586261724431025 15.240640219883204 19.0 0.0 0.0 19.0 
568.0002012103753 0.06014057831786346 15.240640219883204 19.0 0.0 0.0 20.0 
569.0003007990636 0.06014057831786346 15.240640219883204 19.0 0.0 0.0 20.0 
570.0009349533167 0.061986527296762135 15.240640219883204 19.0 0.0 0.0 20.0 
571.0081451084403 0.09768293052137123 22.465525464456192 19.0 0.0 0.0 20.0 
572.001359083341 0.13538757173684865 21.3221410337693 19.0 0.0 0.0 19.0 
573.0005430148135 0.13860865637445988 21.3221410337693 19.0 0.0 0.0 19.0 
574.0003007990636 0.09578591617589782 21.3221410337693 19.0 0.0 0.0 18.0 
575.0009932372864 0.11387903827186525 21.3221410337693 19.0 0.0 0.0 18.0 
576.0004037936474 0.18807018834661748 28.640571775758417 20.0 0.0 0.0 19.0 
577.001359083341 0.18133213501253506 27.891823027482445 20.0 0.0 0.0 19.0 
578.0033849958329 0.19271289684852283 27.891823027482445 20.0 0.0 0.0 19.0 
579.0003007990636 0.19271289684852283 27.891823027482445 20.0 0.0 0.0 19.0 
580.0009932372864 0.1738460863151172 27.891823027482445 20.0 0.0 0.0 18.0 
581.0010569439253 0.22812791807610902 35.286753806609 20.0 0.0 0.0 18.0 
582.001359083341 0.2647617401483797 34.83653238334364 20.0 0.0 0.0 18.0 
583.0007707095936 0.2857949698804685 34.83653238334364 20.0 0.0 0.0 18.0 
584.0003007990636 0.33828313013128675 34.83653238334364 20.0 0.0 0.0 18.0 
585.0009932372864 0.33454240152977177 34.83653238334364 20.0 0.0 0.0 18.0 
586.0002113640298 0.4766416999906625 39.89924495732822 19.0 0.0 0.0 18.0 
587.0011041477536 0.23566328129492228 31.114416169294913 20.0 0.0 0.0 17.0 
588.0006697993484 0.2871743737661319 31.114416169294913 19.0 0.0 0.0 17.0 
589.0003007990636 0.2800222237122678 28.76767027430023 20.0 0.0 0.0 17.0 
590.0009932372864 0.407679394002529 38.86862951027035 23.0 0.0 0.0 19.0 
591.0002411757445 0.41639735001344597 39.668546258012924 23.0 0.0 0.0 19.0 
592.001359083341 0.3314938003006786 40.61104763562483 23.0 0.0 0.0 19.0 
593.0025154279895 0.1957171753412826 39.57899259260924 23.0 0.0 0.0 19.0 
594.0003007990636 0.061164469629617135 16.957886045754492 23.0 0.0 0.0 18.0 
595.0003532744213 0.027248697538108164 13.624348769054023 23.0 0.0 0.0 18.0 
596.0001950040996 0.0 0.0 23.0 0.0 0.0 18.0 
597.001359083341 0.0 0.0 23.0 0.0 0.0 18.0 
598.0011771194864 0.0 0.0 23.0 0.0 0.0 19.0 
599.0003007990636 0.0 0.0 23.0 0.0 0.0 20.0 
600.0009932372864 0.0 0.0 23.0 0.0 0.0 19.0 
#####################################################################
# End of data export. Simulation finished at: 2019-02-25T20:07+0000 #
#####################################################################
