#####################################################################
# Alchemist log file - simulation started at: 2019-02-25T20:47+0000 #
#####################################################################
# seed = 199.0
#
# The columns have the following meaning: 
# time distance-rep[Mean] distance-rep[Max] leader-rep[CountDistinct] distance-share[Mean] distance-share[Max] leader-share[CountDistinct] 
0.0 NaN NaN NaN NaN NaN NaN 
1.0035693798671186 0.0 0.0 497.0 0.0 0.0 79.0 
2.001504586889115 0.0 0.0 106.0 0.0 0.0 74.0 
3.006670975616803 0.0 0.0 105.0 0.0 0.0 63.0 
4.002541095005655 0.0 0.0 101.0 0.0 0.0 54.0 
5.000963631614326 0.0 0.0 94.0 0.0 0.0 49.0 
6.000956624676925 0.0 0.0 86.0 0.0 0.0 47.0 
7.000450674088456 0.0 0.0 92.0 0.0 0.0 47.0 
8.00115611606733 0.0 0.0 86.0 0.0 0.0 46.0 
9.001446949339396 0.0 0.0 82.0 0.0 0.0 45.0 
10.000159745883495 0.0 0.0 78.0 0.017446145180745897 8.723072590372965 44.0 
11.001567489638852 0.0 0.0 73.0 0.06209011417339959 16.64042556641712 42.0 
12.000124772594528 0.0 0.0 74.0 0.0 0.0 42.0 
13.000125786680465 0.0 0.0 70.0 0.0 0.0 39.0 
14.001344658348964 0.0 0.0 67.0 0.006851954956960435 3.425977478480206 36.0 
15.001092179251323 0.0 0.0 64.0 0.010521580601049829 5.260790300524889 32.0 
16.00350934981803 0.0 0.0 64.0 0.06338990047782538 13.620351247714382 32.0 
17.004252015450618 0.0 0.0 61.0 0.024487585951465916 6.280824371962041 26.0 
18.00188397346132 0.0 0.0 61.0 0.024487585951465916 6.280824371962041 25.0 
19.001020975492985 0.0 0.0 56.0 0.05644319715143489 22.258629971946505 23.0 
20.000339670848017 0.0 0.0 54.0 0.0 0.0 21.0 
21.004322557149056 0.0 0.0 50.0 0.0 0.0 21.0 
22.00014663601198 0.0 0.0 51.0 0.0 0.0 21.0 
23.01081016779512 0.0 0.0 49.0 0.02038985966397242 10.194929831986201 21.0 
24.000046731574855 0.0 0.0 48.0 0.0 0.0 22.0 
25.001092179251323 0.0 0.0 46.0 0.0 0.0 22.0 
26.000271351393494 0.0 0.0 46.0 0.0 0.0 21.0 
27.000425879351575 0.0 0.0 46.0 0.0 0.0 21.0 
28.002533932935776 0.0 0.0 43.0 0.0 0.0 22.0 
29.000864588570156 0.0 0.0 44.0 0.0 0.0 23.0 
30.00004424480376 0.0 0.0 44.0 0.0 0.0 25.0 
31.002008170978364 0.0 0.0 44.0 0.0 0.0 24.0 
32.00115516024318 0.0 0.0 45.0 0.0 0.0 23.0 
33.002904195283534 0.0 0.0 45.0 0.0 0.0 23.0 
34.00090298851791 0.0 0.0 43.0 0.0 0.0 22.0 
35.000622278612276 0.0 0.0 44.0 0.0 0.0 22.0 
36.00007881888779 0.0 0.0 42.0 0.0 0.0 22.0 
37.001027248558664 0.0 0.0 43.0 0.0 0.0 22.0 
38.004534134506116 0.0 0.0 43.0 0.0 0.0 21.0 
39.000802251206245 0.0 0.0 43.0 0.0 0.0 21.0 
40.000288023796166 0.0 0.0 43.0 0.0 0.0 21.0 
41.0080302105055 0.0 0.0 43.0 0.0 0.0 20.0 
42.001112525292484 0.0 0.0 42.0 0.0 0.0 20.0 
43.002633213849755 0.0 0.0 40.0 0.0 0.0 20.0 
44.00055215995447 0.0 0.0 39.0 0.0 0.0 21.0 
45.000453114478994 0.0 0.0 41.0 0.0 0.0 20.0 
46.00087436801593 0.0 0.0 40.0 0.0 0.0 20.0 
47.00006600750212 0.0 0.0 38.0 0.0 0.0 20.0 
48.00141676792473 0.01980044456476514 9.900222282382515 39.0 0.0 0.0 20.0 
49.00082408794705 0.007716031890351672 3.858015945175879 37.0 0.0 0.0 19.0 
50.00109217925132 0.002585120176075241 1.292560088037618 35.0 0.0 0.0 19.0 
51.000801673814344 0.0 0.0 36.0 0.0 0.0 19.0 
52.00032970990928 0.0 0.0 35.0 0.0 0.0 20.0 
53.00104784134681 0.0 0.0 36.0 0.0 0.0 21.0 
54.002541095005654 0.0 0.0 34.0 0.0 0.0 21.0 
55.00109217925132 0.0 0.0 32.0 0.0 0.0 20.0 
56.00183421887889 0.0 0.0 31.0 0.0 0.0 19.0 
57.000996608390615 0.0 0.0 32.0 0.0 0.0 18.0 
58.00327004289921 0.0 0.0 30.0 0.0 0.0 18.0 
59.00222682837202 0.0 0.0 31.0 0.0 0.0 18.0 
60.00109217925132 0.0 0.0 30.0 0.0 0.0 19.0 
61.00011090881732 0.0 0.0 30.0 0.0 0.0 19.0 
62.00478043529833 0.0 0.0 30.0 0.0 0.0 19.0 
63.000497062246566 0.0 0.0 29.0 0.0 0.0 19.0 
64.00074260039288 0.0 0.0 29.0 0.0 0.0 19.0 
65.00024000470455 0.006885402646631314 3.4427013233156742 27.0 0.0 0.0 19.0 
66.00573748780012 0.006885402646631314 3.4427013233156742 27.0 0.0 0.0 19.0 
67.00019330217683 0.004499278497049376 2.249639248524687 27.0 0.0 0.0 19.0 
68.00004935705026 0.004499278497049376 2.249639248524687 27.0 0.0 0.0 19.0 
69.00088731201049 0.004499278497049376 2.249639248524687 26.0 0.0 0.0 19.0 
70.00058191394504 0.0 0.0 26.0 0.0 0.0 19.0 
71.00323469863169 0.0 0.0 26.0 0.0 0.0 19.0 
72.00361935928119 0.0 0.0 25.0 0.0 0.0 19.0 
73.00399789323633 0.007125770552644518 3.5628852763222767 27.0 0.0 0.0 19.0 
74.00254109500565 0.021460595743786167 7.167412595570795 27.0 0.0 0.0 20.0 
75.00109217925132 0.02086641996099892 10.433209980499498 26.0 0.0 0.0 19.0 
76.00272172329244 0.013671229675314282 6.835614837657175 26.0 0.0 0.0 19.0 
77.00013164560403 0.1455147085694132 25.153798466307478 25.0 0.0 0.0 19.0 
78.00040138628889 0.0 0.0 26.0 0.0 0.0 19.0 
79.00138624953088 0.12418743614796303 25.153798466307478 26.0 0.0 0.0 18.0 
80.00109217925132 0.15299950597564801 28.70754891161738 24.0 0.0 0.0 18.0 
81.0015190589567 0.15299950597564801 28.70754891161738 24.0 0.0 0.0 18.0 
82.00044612465635 0.23874527205799953 33.63229910494127 24.0 0.0 0.0 18.0 
83.00217140380933 0.17148067384811663 30.409769933104855 25.0 0.0 0.0 18.0 
84.00141455218464 0.20175358531492346 30.409769933104855 25.0 0.0 0.0 19.0 
85.00109217925132 0.26108729029537403 34.04280591659386 25.0 0.0 0.0 20.0 
86.0008165856035 0.26108729029537403 34.04280591659386 24.0 0.0 0.0 20.0 
87.00047719651589 0.2078723827040976 36.41546763655228 25.0 0.0 0.0 20.0 
88.00164649975629 0.23792631356567737 39.98256605541218 23.0 0.0 0.0 19.0 
89.00165159860605 0.3434804945679852 41.47733004456239 25.0 0.0 0.0 19.0 
90.00109217925132 0.4189289328239679 45.19902851174322 23.0 0.0 0.0 19.0 
91.00048895740164 0.32853087580047946 43.712924377340954 24.0 0.0 0.0 19.0 
92.00007978440246 0.6518781653137238 55.74736259225017 24.0 0.0 0.0 19.0 
93.0038041720464 0.5550885319615336 52.55384351057569 23.0 0.0 0.0 19.0 
94.00088716014135 0.5927326574668357 56.44733722220434 23.0 0.0 0.0 20.0 
95.00109217925132 0.6634467894980247 56.44733722220434 22.0 0.0 0.0 19.0 
96.00062364900525 0.6929235742879103 63.77083221125645 22.0 0.0 0.0 19.0 
97.00085143327813 0.8271171188450288 66.94992433962204 22.0 0.0 0.0 19.0 
98.00286667533281 0.7261378411495873 63.77083221125645 22.0 0.0 0.0 19.0 
99.00254109500565 0.7605170953903411 63.77083221125645 22.0 0.0 0.0 19.0 
100.0008295045474 0.8205239425357006 67.72446038722109 23.0 0.0 0.0 19.0 
101.00308767796444 0.8531073119165836 70.06635525024495 23.0 0.0 0.0 19.0 
102.00253766711852 1.0146670007549918 78.18250923181392 23.0 0.0 0.0 18.0 
103.00109484982603 1.032235938935638 78.18250923181392 24.0 0.0 0.0 18.0 
104.00046561608288 0.930568964333655 77.65663663969542 24.0 0.0 0.0 19.0 
105.00037990526799 0.9900351817863451 79.12311947034755 24.0 0.0 0.0 19.0 
106.00264500079686 1.0095150541674651 79.12311947034755 24.0 0.0 0.0 19.0 
107.00256616999175 1.0014424082029199 81.45507872980158 24.0 0.0 0.0 19.0 
108.00364820950062 1.188733595136497 86.38584657477855 24.0 0.0 0.0 19.0 
109.00111874941214 1.0844379052217505 84.91638353170464 24.0 0.0 0.0 19.0 
110.00109217925132 0.9120059184249009 90.84064970241371 23.0 0.0 0.0 19.0 
111.00150277835768 1.0245886829632664 89.37982594864422 23.0 0.0 0.0 20.0 
112.00061453314797 0.4224565062024867 75.6116308166931 24.0 0.0 0.0 21.0 
113.00216148848672 0.14747151513608633 34.35218388457059 24.0 0.0 0.0 20.0 
114.00061019383466 0.15388345709093135 40.98247832904681 24.0 0.0 0.0 20.0 
115.00016421560908 0.24732690476128988 40.98247832904681 23.0 0.0 0.0 20.0 
116.00112997634767 0.18532649034700777 33.80402593859168 23.0 0.0 0.0 20.0 
117.00016574586519 0.17029503659297338 33.80402593859168 23.0 0.0 0.0 20.0 
118.00219254353235 0.17029503659297338 33.80402593859168 23.0 0.0 0.0 20.0 
119.00254109500565 0.25984419844323453 41.16222644760373 22.0 0.0 0.0 20.0 
120.00109217925132 0.3606097604160226 41.16222644760373 22.0 0.0 0.0 20.0 
121.00313500996013 0.3624850957880915 38.21801090972346 22.0 0.0 0.0 19.0 
122.00071937125635 0.3651234300570883 38.21801090972346 22.0 0.0 0.0 19.0 
123.00054260087626 0.3824027444278195 38.21801090972346 22.0 0.0 0.0 19.0 
124.00254109500565 0.4242598508642976 38.21801090972346 22.0 0.0 0.0 19.0 
125.00109217925132 0.6578992777893026 51.4302660387425 22.0 0.0 0.0 19.0 
126.00283653105949 0.6396360194233742 51.4302660387425 22.0 0.0 0.0 19.0 
127.00033369090802 0.6458561544639824 51.4302660387425 22.0 0.0 0.0 19.0 
128.0005509745271 0.6685968733602671 51.4302660387425 22.0 0.0 0.0 19.0 
129.00184534433515 0.6452921884573452 51.4302660387425 23.0 0.0 0.0 19.0 
130.00051144694353 0.8575866397760435 62.19723058709343 21.0 0.0 0.0 19.0 
131.00075227197615 0.8431757988702651 62.19723058709343 21.0 0.0 0.0 19.0 
132.00613307122114 0.8954544243053238 62.19723058709343 21.0 0.0 0.0 20.0 
133.0015404824121 0.8667899256703151 62.19723058709343 21.0 0.0 0.0 19.0 
134.00254109500565 0.784016370409455 62.19723058709343 21.0 0.0 0.0 19.0 
135.00031638811083 1.3021270018440836 80.84377832841074 20.0 0.0 0.0 19.0 
136.00089605121494 0.8644907046884668 73.23288945153985 20.0 0.0 0.0 19.0 
137.00050972416236 1.0058318109406303 82.24091419234253 20.0 0.0 0.0 18.0 
138.0083886804752 0.9693532682830883 80.01608401770142 20.0 0.0 0.0 18.0 
139.0019565131439 0.9233241093192456 82.24091419234253 20.0 0.0 0.0 18.0 
140.00109217925132 0.8271160190054129 86.25424633917976 19.0 0.0 0.0 18.0 
141.0001661122482 0.968338959429116 91.07802157017125 19.0 0.0 0.0 18.0 
142.00308600998042 0.7429968960400178 84.64750611649083 19.0 0.0 0.0 18.0 
143.00006809847355 0.7580161734295902 84.64750611649083 19.0 0.0 0.0 18.0 
144.000484156332 0.7928006107377846 89.1427967387703 19.0 0.0 0.0 18.0 
145.00109217925132 0.4833290722531335 70.47597576388472 19.0 0.0 0.0 18.0 
146.00195300422772 0.5131997755641344 70.47597576388472 19.0 0.0 0.0 18.0 
147.0002903751986 0.7063706918275205 89.1427967387703 20.0 0.0 0.0 17.0 
148.00008799039912 0.7063706918275205 89.1427967387703 20.0 0.0 0.0 16.0 
149.00019599972666 0.5414216968160078 70.47597576388472 20.0 0.0 0.0 15.0 
150.00109217925132 0.7807139849051258 95.39923220119283 19.0 0.0 0.0 16.0 
151.0033753614653 1.2434294488513427 101.4761717844018 20.0 0.0 0.0 16.0 
152.0012412807677 1.0141014138899123 95.86610032742419 20.0 0.0 0.0 16.0 
153.00256073823584 1.2676659933815888 96.91497768469537 19.0 0.0 0.0 16.0 
154.0003042825137 1.2723667367039353 96.91497768469537 20.0 0.0 0.0 16.0 
155.00109217925132 1.350787376443341 101.10154725003832 20.0 0.0 0.0 16.0 
156.00138034264984 1.305389254786355 101.10154725003832 19.0 0.0 0.0 17.0 
157.00054766358022 1.3170024874343236 101.10154725003832 19.0 0.0 0.0 16.0 
158.00093118322857 1.3170024874343236 101.10154725003832 19.0 0.0 0.0 16.0 
159.00001949679213 1.3241472827957488 101.10154725003832 18.0 0.0 0.0 17.0 
160.00109217925132 1.1900245265603304 105.18400529578622 18.0 0.0 0.0 18.0 
161.00855689854927 1.212270254807802 105.18400529578622 18.0 0.0 0.0 19.0 
162.00009478112906 1.0407970902192885 105.18400529578622 19.0 0.0 0.0 18.0 
163.00068338019153 1.063502183694887 108.20410514959838 19.0 0.0 0.0 18.0 
164.00153987394162 1.0845998121420286 108.28718853439256 19.0 0.0 0.0 18.0 
165.00049601169587 0.8966884289728139 111.84844468387854 21.0 0.0 0.0 18.0 
166.00330137582247 0.5009990923681201 106.1240927429102 22.0 0.0 0.0 18.0 
167.00142756188214 0.13940504869142292 18.11754954499878 19.0 0.0 0.0 18.0 
168.00106176892422 0.188680525498795 21.522477862504815 19.0 0.0 0.0 17.0 
169.00199680574812 0.22063572767915007 21.522477862504815 19.0 0.0 0.0 17.0 
170.00109217925132 0.19790146324821725 21.522477862504815 19.0 0.0 0.0 17.0 
171.00072187337096 0.15758307498542762 21.522477862504815 19.0 0.0 0.0 17.0 
172.00122729441873 0.11581724187389404 17.025536518812316 19.0 0.0 0.0 17.0 
173.00625037336647 0.17388513632874805 18.746599021625656 19.0 0.0 0.0 21.0 
174.0021291268588 0.16304126557785067 18.746599021625656 20.0 0.0 0.0 21.0 
175.00008627102463 0.1319726887954115 18.746599021625656 19.0 0.0 0.0 20.0 
176.0046479153506 0.10846425847504752 18.746599021625656 19.0 0.0 0.0 19.0 
177.00006302208746 0.0702615358235453 11.84918477410352 20.0 0.0 0.0 19.0 
178.0002541107665 0.12160319898389076 16.283602440905412 19.0 0.0 0.0 19.0 
179.00144667410962 0.11897991023287413 16.283602440905412 19.0 0.0 0.0 19.0 
180.00104040024465 0.15325288647363255 19.389813927632986 19.0 0.0 0.0 20.0 
181.00315771283712 0.17965178896098766 29.382767114191353 20.0 0.0 0.0 21.0 
182.00076250601995 0.1085637456204604 19.389813927632986 20.0 0.0 0.0 21.0 
183.00047639576408 0.15554252801218862 23.830404540127432 20.0 0.0 0.0 21.0 
184.0016087162812 0.23165067143506024 23.830404540127432 20.0 0.0 0.0 20.0 
185.0001093397049 0.189143005318628 18.25093906267753 20.0 0.0 0.0 20.0 
186.00084853099443 0.31900145601323077 33.68987025183151 20.0 0.0 0.0 20.0 
187.00355435586258 0.20353602796575074 20.65009943734043 20.0 0.0 0.0 20.0 
188.00317007766705 0.1710033742822237 25.65471635314185 20.0 0.0 0.0 19.0 
189.00254109500565 0.3834790017292315 34.90825247440554 20.0 0.0 0.0 19.0 
190.00109217925132 0.4855869138424801 43.686124424614576 20.0 0.0 0.0 19.0 
191.0002315778493 0.7805095667189534 52.918234277575976 20.0 0.0 0.0 19.0 
192.0004667753628 0.8991277291581463 52.918234277575976 20.0 0.0 0.0 19.0 
193.0003702941832 0.9400773809387967 52.918234277575976 20.0 0.0 0.0 18.0 
194.00000763119644 1.0440448029539997 62.82792785080784 20.0 0.0 0.0 18.0 
195.00021330750138 0.8926742451468007 59.589457117208894 20.0 0.0 0.0 16.0 
196.00337456564307 1.3698942386943007 66.22367629534455 20.0 0.0 0.0 16.0 
197.00260910794063 1.2495169242247186 62.82792785080784 20.0 0.0 0.0 16.0 
198.0024302674238 1.0511507707356367 59.589457117208894 20.0 0.0 0.0 17.0 
199.00254109500565 1.5224929637892852 68.00583965568148 21.0 0.0 0.0 16.0 
200.00041608008812 1.812899644344503 69.89322119429232 21.0 0.0 0.0 16.0 
201.00048055807636 1.523247267802313 68.23983359215953 21.0 0.0 0.0 16.0 
202.0034277652409 2.0941760875544104 71.51425645949035 20.0 0.0 0.0 16.0 
203.00335909227215 1.9873966586042695 74.93873362192227 20.0 0.0 0.0 16.0 
204.00254109500565 2.5050991462814145 80.50773318532339 20.0 0.0 0.0 17.0 
205.00109217925132 1.8823233738458576 75.62636747969617 20.0 0.0 0.0 15.0 
206.00033269813926 1.7638715774045657 79.85742959079641 19.0 0.0 0.0 15.0 
207.0008070788131 1.4540792280362391 62.640509078093544 18.0 0.0 0.0 15.0 
208.00262011515557 2.0977962634854053 84.23488430174228 18.0 0.0 0.0 15.0 
209.00015133894476 1.7183818492464227 70.04907230055466 18.0 0.0 0.0 15.0 
210.0001905340457 1.6994322247406008 70.04907230055466 18.0 0.0 0.0 15.0 
211.00251801351644 1.6942614406632577 70.04907230055466 18.0 0.0 0.0 16.0 
212.00153680353475 1.5979629023948587 63.99193995719969 19.0 0.0 0.0 18.0 
213.0030943848374 1.6095959880426494 71.28165228905681 20.0 0.0 0.0 17.0 
214.00254109500565 1.8795605103015438 71.28165228905681 20.0 6.717954218285598E-4 0.33589771091428133 17.0 
215.00058779502328 2.1284294823682264 74.90881740821561 20.0 0.0 0.0 17.0 
216.0086057567393 2.2878789215758837 78.12100654067643 20.0 0.0 0.0 17.0 
217.00057999287813 2.4407139833798093 78.12100654067643 19.0 0.0 0.0 17.0 
218.0050761183774 2.377860619480988 78.12100654067643 19.0 0.0 0.0 18.0 
219.00135181805766 2.8168482945142586 85.43798433007822 19.0 0.0 0.0 18.0 
220.00034298974026 2.522818176332685 86.727899580501 19.0 0.0 0.0 17.0 
221.0000478019417 2.351659733017303 86.727899580501 19.0 0.0 0.0 16.0 
222.00063978854834 2.153788385344207 80.15672283609996 19.0 0.0 0.0 15.0 
223.00195264918142 2.066397041520423 75.19468086952514 19.0 0.0 0.0 15.0 
224.00162801892014 1.9921730182913056 70.17611173771797 19.0 0.0 0.0 15.0 
225.00109217925132 2.0568198672786204 70.17611173771797 19.0 0.0 0.0 15.0 
226.00469394331193 1.9027616725269154 74.21939815384025 19.0 0.0 0.0 14.0 
227.00214065441224 1.8820592661680462 74.21939815384025 19.0 0.0 0.0 14.0 
228.0027331760057 1.9791405426962494 77.57451627013313 19.0 0.0 0.0 14.0 
229.00114621666688 2.076512965534464 84.98930089712707 19.0 0.0 0.0 14.0 
230.00102496087254 1.92535361509491 84.98930089712707 18.0 0.0 0.0 14.0 
231.00014766342838 1.5944875734512647 84.98930089712707 18.0 0.0 0.0 14.0 
232.00027523224347 1.1579256216708813 84.04303742301664 18.0 0.0 0.0 13.0 
233.00150660271683 0.8434714869376966 67.1967477313857 18.0 0.0 0.0 14.0 
234.00045016482713 0.6048934506740067 65.58923617310757 18.0 0.0 0.0 14.0 
235.00109217925132 0.4909775827823431 60.35491629860712 18.0 0.0 0.0 14.0 
236.00127969358076 0.5034151988151772 60.35491629860712 18.0 0.0 0.0 14.0 
237.00613307122114 0.49055445099970124 55.60960276633702 18.0 0.0 0.0 14.0 
238.00232752823757 0.5910579446082858 58.27298012341532 18.0 0.0 0.0 13.0 
239.00254109500565 0.5964850352654942 58.26795616453808 18.0 0.0 0.0 13.0 
240.00024700885152 0.5899906735357762 58.26795616453808 18.0 0.0 0.0 13.0 
241.0008875889212 0.48398242389932694 58.26795616453808 18.0 0.0 0.0 13.0 
242.00479827825828 0.3885526903719745 48.33538398455602 18.0 0.0 0.0 13.0 
243.00158925926786 0.4754803507310149 50.981881642118424 18.0 0.0 0.0 13.0 
244.00254109500565 0.4662007911710381 51.164488632951304 18.0 0.0 0.0 15.0 
245.00106547862868 0.47485970648210557 51.69460119306862 18.0 0.0 0.0 14.0 
246.00011548551782 0.48773358567553415 51.69460119306862 18.0 0.0 0.0 14.0 
247.00105882640074 0.4873765593141074 51.69460119306862 18.0 0.0 0.0 15.0 
248.00299171915105 0.4719883417101955 51.69460119306862 17.0 0.0 0.0 15.0 
249.0000072627342 0.4878894896388382 52.02028011849413 17.0 0.0 0.0 15.0 
250.00109217925132 0.37384756469899705 44.17813045690045 17.0 0.0 0.0 14.0 
251.00067894052938 0.5258809348245307 59.85784469275649 17.0 0.0 0.0 14.0 
252.00069791515762 0.4059266156772253 50.54509475464539 17.0 0.0 0.0 14.0 
253.00349959021685 0.5140965168693482 59.85784469275649 17.0 0.0 0.0 14.0 
254.0011941452196 0.525119814062171 53.32275301880017 16.0 0.0 0.0 14.0 
255.00109217925132 0.517408221708846 53.32275301880017 16.0 0.0 0.0 14.0 
256.00122614895866 0.5288097324889465 57.8863260664819 16.0 0.0 0.0 14.0 
257.00005462310986 0.6391937214743209 57.8863260664819 16.0 0.0 0.0 14.0 
258.00075104571033 0.7968277704802862 58.30051127562433 15.0 0.0 0.0 14.0 
259.00254109500565 0.7727092471286399 59.592494670380916 16.0 0.0 0.0 14.0 
260.0010921792513 0.749091469884551 65.24981357384337 16.0 0.0 0.0 14.0 
261.0031404791635 0.8104684498476539 65.24981357384337 16.0 0.0 0.0 13.0 
262.0004318483292 1.023344443416874 65.24981357384337 16.0 0.0 0.0 13.0 
263.0024575799867 0.9556716441250819 58.8477853818996 16.0 0.0 0.0 13.0 
264.00254109500565 1.0896897463260353 59.8229901349589 16.0 0.0 0.0 14.0 
265.00075989121194 1.0996716284245602 59.8229901349589 16.0 0.0 0.0 14.0 
266.0037271301314 1.0610150380679626 59.594021485437565 16.0 0.0 0.0 14.0 
267.0035910407058 1.0334584419819572 59.594021485437565 16.0 0.0 0.0 14.0 
268.0004727780175 1.1030765591262586 52.54386087456234 17.0 0.0 0.0 15.0 
269.0011893352858 1.0881112121654375 52.33247698610788 17.0 0.0 0.0 15.0 
270.0010921792513 0.9791350090318146 52.10737610788536 17.0 0.0 0.0 15.0 
271.00604623327945 0.9142975310703239 52.10737610788536 17.0 0.0 0.0 15.0 
272.00613307122114 0.8051843374827753 55.17512666531513 17.0 0.0 0.0 15.0 
273.00545807213604 0.8023167717559506 55.17512666531513 17.0 0.0 0.0 15.0 
274.00254109500565 0.7465972835315644 53.21055564813727 17.0 0.0 0.0 15.0 
275.0010921792513 0.7606678509277357 53.21055564813727 17.0 0.0 0.0 15.0 
276.0017077457077 0.7038618362499787 53.21055564813727 17.0 0.0 0.0 15.0 
277.00005144339514 0.6175578839761217 60.12618932410436 17.0 0.0 0.0 14.0 
278.00054643882146 0.6090741542145336 60.12618932410436 17.0 0.0 0.0 14.0 
279.0005799301931 0.6988637653529082 62.478237485959255 17.0 0.0 0.0 14.0 
280.00099289547103 0.6368319752083864 62.478237485959255 18.0 0.0 0.0 14.0 
281.0031072172829 0.5845072806241707 62.478237485959255 17.0 0.0 0.0 14.0 
282.00215594569767 0.1849465000527503 39.9761264644705 17.0 0.0 0.0 14.0 
283.0014883160315 0.10557617667483613 39.9761264644705 17.0 0.0 0.0 14.0 
284.00254109500565 0.0477799872205206 23.391989010824403 17.0 0.0 0.0 14.0 
285.0006019977302 0.06921127947509916 23.391989010824403 17.0 0.0 0.0 14.0 
286.0125089729402 0.06659849979076818 23.391989010824403 18.0 0.0 0.0 15.0 
287.0013709993204 0.020054088241140605 8.125092101397172 18.0 0.0 0.0 14.0 
288.0008412099549 0.020054088241140605 8.125092101397172 19.0 0.0 0.0 14.0 
289.0000830347737 0.034962542753798106 15.579319357725836 19.0 0.0 0.0 14.0 
290.0010921792513 0.06520237432092307 15.579319357725836 19.0 0.0 0.0 14.0 
291.0020292290642 0.0757590838097754 15.579319357725836 19.0 0.0 0.0 14.0 
292.00068046358035 0.07281627463747277 16.02335357417715 19.0 0.0 0.0 14.0 
293.0004980145062 0.04912163663306622 15.468139775478136 19.0 0.0 0.0 14.0 
294.00254109500565 0.03837644700597824 15.468139775478136 19.0 0.0 0.0 14.0 
295.0001321661877 0.03072101272606117 8.413348078305319 18.0 0.0 0.0 14.0 
296.0007264478248 0.03991818520812124 10.751050020516999 18.0 0.0 0.0 14.0 
297.0002092664065 0.04532290095535622 10.751050020516999 18.0 0.0 0.0 14.0 
298.00049550007066 0.054021405817931537 10.751050020516999 18.0 0.0 0.0 14.0 
299.000723735485 0.08736955862699175 10.751050020516999 18.0 0.0 0.0 14.0 
300.0010921792513 0.08023077948841405 18.29877566828887 17.0 0.0 0.0 14.0 
301.0010060757403 0.09482959094721462 9.16573656179699 18.0 0.0 0.0 14.0 
302.00152818013277 0.15983842355726174 34.49300901801493 16.0 0.0 0.0 14.0 
303.0023215687071 0.14953950825079884 34.49300901801493 15.0 0.0 0.0 14.0 
304.00254109500565 0.1115874613625951 20.041278950883196 15.0 0.0 0.0 14.0 
305.0010921792513 0.1806516192637062 41.96723218541064 15.0 0.0 0.0 14.0 
306.0045081122305 0.1926032176024088 41.96723218541064 15.0 0.0 0.0 14.0 
307.00305755558185 0.234755039346869 49.300293258245205 14.0 0.0 0.0 14.0 
308.0003697328242 0.24371327470022602 49.300293258245205 15.0 0.0 0.0 15.0 
309.00059570709163 0.08816797800730516 9.8463290621265 15.0 0.0 0.0 15.0 
310.0010921792513 0.12819784504645693 15.157669463447803 15.0 0.0 0.0 15.0 
311.00493866544116 0.11295116161509838 15.157669463447803 15.0 0.0 0.0 15.0 
312.0022698739226 0.11268212488344886 15.157669463447803 15.0 0.0 0.0 15.0 
313.00128587722185 0.08177902142644786 15.157669463447803 15.0 0.0 0.0 15.0 
314.00254109500565 0.07623248024209607 13.548156552292625 15.0 0.0 0.0 15.0 
315.0010921792513 0.10225302204505651 18.86618600322194 14.0 0.0 0.0 15.0 
316.00322953715295 0.11753566083827213 21.05863970579898 14.0 0.0 0.0 15.0 
317.0039684150554 0.11753566083827213 21.05863970579898 14.0 0.0 0.0 15.0 
318.0015105184806 0.1171951688889027 21.05863970579898 14.0 0.0 0.0 15.0 
319.00004652341704 0.11534510489184478 20.133607707269988 14.0 0.0 0.0 15.0 
320.00005322621075 0.16091405938030856 27.533240453264625 15.0 0.0 0.0 16.0 
321.0011067163018 0.17254030750772906 27.533240453264625 15.0 0.0 0.0 15.0 
322.0051397367137 0.17916878310330298 27.533240453264625 15.0 0.0 0.0 15.0 
323.0020943182393 0.17109495224924645 27.533240453264625 15.0 0.0 0.0 15.0 
324.00254109500565 0.15364065031052257 27.533240453264625 15.0 0.0 0.0 15.0 
325.00019421897093 0.18156187039989657 34.08812670002237 15.0 0.0 0.0 15.0 
326.0010718924117 0.2342033652062135 34.25850792693467 15.0 0.0 0.0 15.0 
327.0015487328616 0.22983383570251875 34.740650727856945 15.0 0.0 0.0 15.0 
328.0006195987055 0.24057914826470395 34.740650727856945 15.0 0.0 0.0 15.0 
329.0002313082001 0.21395414539094165 34.740650727856945 15.0 0.0 0.0 15.0 
330.0010921792513 0.22952296931315266 42.26621545475081 15.0 0.0 0.0 15.0 
331.00107336734516 0.2892776018836949 42.26621545475081 15.0 0.0 0.0 15.0 
332.00613307122114 0.20474517097419506 41.33014348622976 16.0 0.0 0.0 16.0 
333.0009453037204 0.20486255799737013 41.33014348622976 16.0 0.0 0.0 16.0 
334.00165750081254 0.20486583828208235 41.04233785941409 17.0 0.0 0.0 17.0 
335.0003323043336 0.23403489934141203 48.414436228321534 16.0 0.0 0.0 17.0 
336.00556688683633 0.30164441519265134 48.414436228321534 16.0 0.0 0.0 17.0 
337.00074227409976 0.3166375431863161 48.414436228321534 16.0 0.0 0.0 17.0 
338.00441883879665 0.3166375431863161 48.414436228321534 16.0 0.0 0.0 17.0 
339.00026275115795 0.3027409668202106 48.414436228321534 16.0 0.0 0.0 17.0 
340.0008479864233 0.3266446357216705 52.06583899088781 16.0 0.0 0.0 18.0 
341.0007913692789 0.42219404613913103 52.06583899088781 16.0 0.0 0.0 18.0 
342.00190753792714 0.417208754190157 55.87179517810722 16.0 0.0 0.0 18.0 
343.00411560174695 0.4148992626074111 55.87179517810722 16.0 0.0 0.0 18.0 
344.00254109500565 0.19571531224009023 26.508035991444018 15.0 0.0 0.0 18.0 
345.0004509602204 0.2496402716481812 35.157091140453275 15.0 0.0 0.0 18.0 
346.00534413631914 0.4649414557729384 51.3161073359953 15.0 0.0 0.0 18.0 
347.0000257240997 0.29422171720377566 35.157091140453275 16.0 0.0 0.0 18.0 
348.0006778027749 0.20935911697280035 35.157091140453275 18.0 0.0 0.0 17.0 
349.0003713067667 0.11260094463567169 21.34435078775735 17.0 0.0 0.0 17.0 
350.0005832726376 0.09331861857464013 21.987553972780347 17.0 0.0 0.0 17.0 
351.00220010486146 0.20386248799230894 35.57361623908591 16.0 0.0 0.0 17.0 
352.00301410811824 0.2180849922467378 35.57361623908591 16.0 0.0 0.0 17.0 
353.0001880547336 0.1534807894296319 21.987553972780347 16.0 0.0 0.0 17.0 
354.00046810650326 0.2834534113833799 38.478088958818574 16.0 0.0 0.0 18.0 
355.0010921792513 0.2861106157210632 31.179045525865035 16.0 0.0 0.0 19.0 
356.00013967679587 0.2964918949162538 38.931850610986885 16.0 0.0 0.0 19.0 
357.0051937203711 0.34091147187558335 33.91105754374095 16.0 0.0 0.0 17.0 
358.0093631449636 0.27474099976606625 31.179045525865035 16.0 0.0 0.0 17.0 
359.00119890663996 0.35353460808729614 38.931850610986885 16.0 0.0 0.0 16.0 
360.0010921792513 0.3488306875007267 33.19269682069174 16.0 0.0 0.0 16.0 
361.0035442991741 0.32076897430720736 39.46152932275987 16.0 0.0 0.0 16.0 
362.0035392619251 0.34375089359484357 39.46152932275987 16.0 0.0 0.0 17.0 
363.000651095068 0.39083723069138887 39.46152932275987 16.0 0.0 0.0 17.0 
364.00125730812687 0.38249589567139936 33.50908647586613 17.0 0.0 0.0 16.0 
365.0010921792513 0.3634039616763432 39.76851030312693 17.0 0.0 0.0 16.0 
366.0003738370462 0.44315465108024027 39.76851030312693 17.0 0.0 0.0 16.0 
367.00072287605224 0.4349759675015253 44.61456229663486 17.0 0.0 0.0 16.0 
368.0015650798535 0.459515720745396 44.61456229663486 17.0 0.0 0.0 16.0 
369.0005546568302 0.47093595079794176 44.61456229663486 17.0 0.0 0.0 16.0 
370.00078791537226 0.4798234216375107 51.07266843744759 18.0 0.0 0.0 16.0 
371.00008268872784 0.5809786317727154 51.07266843744759 18.0 0.0 0.0 16.0 
372.00042937812435 0.6972509727174553 56.40646981729975 18.0 0.0 0.0 15.0 
373.00250134460344 0.7788204936066336 57.16225494558205 18.0 0.0 0.0 15.0 
374.00025617742426 0.7615384140888732 57.16225494558205 18.0 0.0 0.0 15.0 
375.0010921792513 0.7659894159935282 57.16225494558205 19.0 0.0 0.0 15.0 
376.00171180706906 0.7395542251849632 63.74215723249887 20.0 0.0 0.0 15.0 
377.00221740732917 0.6116181520927848 56.908741714634516 20.0 0.0 0.0 15.0 
378.00005493698836 0.5696764189981878 56.908741714634516 20.0 0.0 0.0 15.0 
379.00254109500565 0.5831263669428676 56.908741714634516 20.0 0.0 0.0 16.0 
380.0010921792513 0.6314677098947895 57.195256601459846 20.0 0.0 0.0 16.0 
381.00332319767085 0.7080460365640334 60.88898847908666 20.0 0.0 0.0 16.0 
382.000955590615 0.7270303783571999 66.99002758758593 20.0 0.0 0.0 16.0 
383.0005698469003 0.750223020431359 66.99002758758593 20.0 0.0 0.0 16.0 
384.0002981596135 0.8302603749334684 66.99002758758593 20.0 0.0 0.0 16.0 
385.0010921792513 0.9015235967289436 73.56253996974795 20.0 0.0 0.0 16.0 
386.00094811954546 0.851708921118112 73.56253996974795 20.0 0.0 0.0 16.0 
387.00141778636106 0.6884665468956901 69.4758313114022 20.0 0.0 0.0 16.0 
388.000285617737 0.40154299898487655 66.41251571787569 20.0 0.0 0.0 16.0 
389.00254109500565 0.27939345874030314 57.4084752904738 20.0 0.0 0.0 16.0 
390.00018808944844 0.15872520085449487 19.904501774842515 20.0 0.0 0.0 16.0 
391.0001115722479 0.14370642808161482 19.904501774842515 20.0 0.0 0.0 16.0 
392.00008200035995 0.16830588947018157 19.904501774842515 20.0 0.0 0.0 15.0 
393.00061997197855 0.1747947192222433 19.904501774842515 20.0 0.0 0.0 15.0 
394.00022786376843 0.3221142610772243 53.983649155799014 20.0 0.0 0.0 15.0 
395.00051044206634 0.4504632755256863 52.673836421798455 20.0 0.0 0.0 15.0 
396.00552550710114 0.5154941322189495 30.80257001348761 22.0 0.0 0.0 15.0 
397.0026789765554 0.40597995997472364 32.72837734705831 22.0 0.0 0.0 15.0 
398.00152700546914 0.4251229205136257 32.72837734705831 21.0 0.0 0.0 15.0 
399.00254109500565 0.48860172731319634 32.72837734705831 21.0 0.0 0.0 15.0 
400.00067718430074 0.5867046568459724 32.72837734705831 21.0 0.0 0.0 16.0 
401.00944970846723 0.7419754442528768 40.00410604823867 21.0 0.0 0.0 16.0 
402.00192617304606 0.7783466807188975 47.11483070656345 21.0 0.0 0.0 15.0 
403.00098795183135 0.7800893833879214 47.11483070656345 21.0 0.0 0.0 15.0 
404.00080398909205 0.8724661092509971 47.11483070656345 20.0 0.0034229188721196803 1.7114594360598403 15.0 
405.00004123896974 0.9566480659006013 54.35316729495676 18.0 0.0034229188721196803 1.7114594360598403 15.0 
406.00210899332797 1.2045939197795879 54.35316729495676 18.0 0.0 0.0 16.0 
407.0000705794467 1.050697238552313 61.503144837658 18.0 0.0 0.0 16.0 
408.0003574881081 1.150839777633255 61.503144837658 18.0 0.0 0.0 16.0 
409.00180384426795 1.1668319572189987 61.503144837658 18.0 0.0 0.0 16.0 
410.0010921792513 1.3628659135164398 68.91155886373627 18.0 0.0 0.0 16.0 
411.001900147886 1.6318535570900607 68.91155886373627 18.0 0.0 0.0 16.0 
412.00145995842865 1.541042975338496 55.12192814935804 18.0 0.0 0.0 16.0 
413.0007204356554 1.4888464100869288 55.12192814935804 18.0 0.0 0.0 16.0 
414.0002457981774 1.6011327607830521 56.298860771500244 18.0 0.0 0.0 16.0 
415.0010921792513 1.66171031217536 62.58156825429853 18.0 0.0 0.0 16.0 
416.0063530307183 1.8408698889425839 63.679168769803766 18.0 0.0 0.0 16.0 
417.0000100567612 1.4772446816154665 63.679168769803766 18.0 0.0 0.0 16.0 
418.0050564085435 1.581975251945292 63.679168769803766 18.0 0.0 0.0 17.0 
419.00254109500565 1.298537434886864 55.15945935546446 18.0 0.0 0.0 18.0 
420.0003892285017 1.5130472287716719 70.8036916246316 18.0 0.0 0.0 17.0 
421.00001788436856 1.7435928526452649 57.72176948531086 18.0 0.0 0.0 17.0 
422.0002638091713 1.352842114054835 55.23340560190013 18.0 0.0 0.0 16.0 
423.00023779509763 1.3469473894904516 55.23340560190013 18.0 0.0 0.0 15.0 
424.00254109500565 1.5027984837121033 55.23340560190013 18.0 0.0 0.0 17.0 
425.00008079574934 1.6311779110809463 55.23340560190013 18.0 0.0 0.0 16.0 
426.0023473094746 1.8228082070329654 62.59269804768064 18.0 0.0 0.0 15.0 
427.0046132204368 1.881893670690651 55.279827181050536 18.0 0.0 0.0 15.0 
428.00084012069277 1.883856516163144 57.25010768096337 18.0 0.0 0.0 15.0 
429.00254109500565 1.7756804305862464 55.279827181050536 18.0 0.0 0.0 15.0 
430.0000456250337 1.7955982936988615 61.15925406882718 18.0 0.0 0.0 15.0 
431.0023348933614 2.1243894983355935 68.60189959330529 17.0 0.0 0.0 15.0 
432.00613307122114 1.8363897258610913 68.60189959330529 17.0 0.0 0.0 15.0 
433.0031440255451 1.9125310942118976 57.53651446162627 17.0 0.0 0.0 15.0 
434.0016187957431 1.8653380023138044 68.60189959330529 17.0 0.0 0.0 15.0 
435.0010921792513 1.82325019887367 68.60189959330529 17.0 0.0 0.0 15.0 
436.00017291675556 1.6551852018027424 61.95275989910334 17.0 0.0 0.0 14.0 
437.00613307122114 1.6263667827426664 61.95275989910334 17.0 0.0 0.0 15.0 
438.00199678675926 1.9740617505570388 69.5058718439999 17.0 0.0 0.0 15.0 
439.0001232431465 1.7147986504677306 62.565103473655995 17.0 0.0 0.0 16.0 
440.0010921792513 2.011127192451006 67.55929930177177 16.0 0.0 0.0 17.0 
441.00147143496713 1.9855750567374097 74.83546549423608 16.0 0.0 0.0 16.0 
442.00082097720644 1.967007355626181 74.83546549423608 16.0 0.0 0.0 16.0 
443.00548946744834 1.9750018695817768 74.83546549423608 16.0 0.0 0.0 16.0 
444.00254109500565 2.159375366422538 78.59233703654837 16.0 0.0 0.0 16.0 
445.0010921792513 2.5743522177602385 69.57334022862301 16.0 0.0061066628269728675 3.0533314134864327 16.0 
446.00489145011835 2.7493682163891062 76.92141775248808 16.0 0.0 0.0 16.0 
447.0012515110578 2.7104910800470514 76.92141775248808 16.0 0.0 0.0 16.0 
448.00037038517496 2.897619046093053 76.92141775248808 15.0 0.0 0.0 16.0 
449.00056402250374 2.8487238210676837 76.92141775248808 16.0 0.0 0.0 16.0 
450.000011144886 3.103952799022322 87.25008289911807 16.0 0.002114113914284254 1.057056957142123 15.0 
451.0019668122544 3.1837439550921958 87.25008289911807 15.0 0.002114113914284254 1.057056957142123 16.0 
452.00505044519394 3.373791477362665 121.88683722500832 16.0 0.0 0.0 16.0 
453.00138142054243 3.7746018444706797 121.88683722500832 15.0 0.0 0.0 16.0 
454.00254109500565 3.5272680903962144 105.42173009306038 15.0 0.0 0.0 16.0 
455.0009738330143 4.07448889472864 126.50719232024886 15.0 0.0 0.0 16.0 
456.00189410410127 3.4969315210054006 101.96786356332063 15.0 0.0 0.0 16.0 
457.00170766278507 3.7282806599662024 120.99648945158509 16.0 0.0 0.0 15.0 
458.00004009400084 3.988441407965869 120.99648945158509 15.0 0.0 0.0 15.0 
459.0016959413514 4.033977658500938 120.99648945158509 15.0 0.0 0.0 16.0 
460.0001418597611 4.5324114153315875 120.99648945158509 14.0 0.0 0.0 16.0 
461.0002553753874 4.304180537892998 126.8487567323175 14.0 0.0 0.0 15.0 
462.00260430039896 4.749837776401923 120.97430096659735 14.0 0.0 0.0 14.0 
463.0040406998651 5.047165987427511 143.01331697019242 14.0 0.0 0.0 14.0 
464.00036498496894 4.997676360638258 143.01331697019242 14.0 0.0 0.0 14.0 
465.0010921792513 5.313717129452196 127.1875994186463 14.0 0.008826862658524743 4.413431329262352 14.0 
466.00007748837214 5.278705826384608 149.30396136524547 14.0 0.007947822249726254 3.973911124863122 15.0 
467.0052439887398 5.179482249331457 149.30396136524547 15.0 0.007947822249726254 3.973911124863122 16.0 
468.00052858446634 4.612984835114505 121.20507656826163 15.0 0.007947822249726254 3.973911124863122 16.0 
469.00151822100975 4.216622594531062 149.3068326912516 15.0 0.007947822249726254 3.973911124863122 16.0 
470.0010921792513 4.699984885386336 149.3068326912516 15.0 0.007947822249726254 3.973911124863122 16.0 
471.00488109016425 4.449485053422132 155.68119856505598 15.0 0.0 0.0 17.0 
472.0051314056468 4.07410696524191 155.68119856505598 15.0 0.0 0.0 17.0 
473.0010389954308 4.0040995433979365 155.68119856505598 14.0 0.011574458674204651 5.78722933710236 16.0 
474.00254109500565 3.5945784706862685 121.70921435588627 14.0 0.011574458674204651 5.78722933710236 16.0 
475.0004307967396 4.305485448720528 161.42845527377978 13.0 0.011574458674204651 5.78722933710236 16.0 
476.00224211408243 4.751040109328671 167.90643049170205 13.0 0.011574458674204651 5.78722933710236 16.0 
477.00020489296867 4.178126073645599 167.90643049170205 13.0 0.023024282383783453 11.512141191891715 16.0 
478.0060203529849 4.16819175392379 173.76509633014143 13.0 0.0 0.0 17.0 
479.0017351277252 4.17829920694512 173.76509633014143 13.0 0.0 0.0 17.0 
480.0000190969927 4.7716679459195435 180.31249072367257 13.0 0.0 0.0 17.0 
481.0027969504208 4.924032658062384 180.31249072367257 13.0 0.0 0.0 17.0 
482.0024055040354 5.326325250387905 180.31249072367257 13.0 0.0 0.0 17.0 
483.0006134697761 4.7130750886441986 186.4017475618066 13.0 0.0 0.0 17.0 
484.00116074992263 5.309530769046821 186.4017475618066 13.0 0.0 0.0 17.0 
485.00015214041997 5.372003847685518 169.26492081027237 13.0 0.0 0.0 16.0 
486.00436471511955 5.50429793660411 193.02875375408797 12.0 0.0 0.0 16.0 
487.00303667886266 5.141574887040988 169.26492081027237 12.0 0.0 0.0 16.0 
488.000764350863 5.458967940537911 169.26492081027237 12.0 0.0 0.0 16.0 
489.00161608270463 5.412631113878012 165.48495963734513 12.0 0.0 0.0 17.0 
490.0010921792513 5.869967871744952 197.46833327959592 12.0 0.0 0.0 17.0 
491.0016551728023 5.987086006012913 169.75825437154123 12.0 0.0 0.0 17.0 
492.00052538406203 5.940141705328667 169.75825437154123 12.0 0.0 0.0 17.0 
493.0003446564913 6.347842900917668 193.8600480020341 12.0 0.0 0.0 17.0 
494.00254109500565 6.390272474040984 195.0952890947255 13.0 0.0 0.0 17.0 
495.0010121523624 6.583384903193718 197.34637330361267 14.0 0.0 0.0 17.0 
496.00132541411847 6.650781345612046 197.34637330361267 14.0 0.0 0.0 17.0 
497.00341313372974 7.029449364513811 197.34637330361267 14.0 0.0 0.0 17.0 
498.00170811953706 6.979184922204775 194.68175405301753 14.0 0.0 0.0 17.0 
499.00254109500565 7.402237937906839 203.68926358561015 13.0 0.0 0.0 17.0 
500.0010921792513 7.136489322667927 198.04775859213527 13.0 0.0 0.0 17.0 
501.0063221956491 7.1897771706248 198.04775859213527 13.0 0.0 0.0 17.0 
502.0014261600501 6.857596490276931 198.04775859213527 13.0 0.0 0.0 17.0 
503.00269093804144 7.1004999313407495 193.8541040610616 14.0 0.0 0.0 17.0 
504.00254109500565 7.336912719209282 213.14290449622433 14.0 0.0 0.0 17.0 
505.0010921792513 7.558520884796451 200.513271539124 14.0 0.0 0.0 18.0 
506.00818389851554 7.681667870072423 200.513271539124 14.0 0.0 0.0 17.0 
507.00002240717816 7.71511519586705 200.513271539124 14.0 0.0 0.0 17.0 
508.0036014410936 7.433348141012642 204.25422922326044 14.0 0.0 0.0 17.0 
509.00254109500565 7.868137319507588 204.25422922326044 14.0 0.0025209287654332124 1.2604643827166058 16.0 
510.0010921792513 7.5395943398584 211.5570785874508 14.0 0.0 0.0 16.0 
511.0011465098195 8.075989590784111 211.5570785874508 14.0 0.0 0.0 16.0 
512.0002193089995 7.380895337779682 211.5570785874508 14.0 0.0 0.0 15.0 
513.0004388138752 7.385216106463 211.5570785874508 14.0 0.002399215801700149 1.1996079008500828 15.0 
514.0004421288223 6.653809242285339 197.26696736739302 14.0 0.002399215801700149 1.1996079008500828 15.0 
515.0010921792514 6.664109828789572 204.52488931548066 14.0 0.0 0.0 15.0 
516.0044859721904 6.327408889241346 170.89703095949773 15.0 0.0 0.0 15.0 
517.0034352964518 6.22751133032731 197.2536766144674 15.0 0.0 0.0 15.0 
518.0022436226959 5.830832852272973 169.0327540497767 15.0 0.0022781768875602027 1.1390884437801105 16.0 
519.0023632773093 5.8633956947443115 169.0327540497767 15.0 0.0022781768875602027 1.1390884437801105 16.0 
520.0008536937202 6.255846848556124 172.5020169880774 15.0 0.0 0.0 16.0 
521.0003372148005 7.4180854125479305 200.83629766338248 15.0 0.0 0.0 15.0 
522.0004821595165 6.632356017720034 172.5020169880774 15.0 0.0 0.0 15.0 
523.0018166424305 7.187778960140045 187.6936916196782 15.0 0.0020006134066668955 1.0003067033334503 14.0 
524.0025410950057 6.958545780018001 187.6936916196782 15.0 0.0020006134066668955 1.0003067033334503 13.0 
525.0010921792514 7.547794653265234 195.0784368289003 15.0 0.0 0.0 13.0 
526.0007156997106 8.102213873906873 202.79488035723966 15.0 0.002633754583589973 1.316877291794981 13.0 
527.001653500532 8.09285330112 202.79488035723966 15.0 0.002633754583589973 1.316877291794981 13.0 
528.0051011186746 7.682120853358289 194.00180213407185 15.0 0.01749105248821762 8.745526244108817 13.0 
529.0013451510715 8.305214636358812 202.79488035723966 15.0 0.019551696213119543 8.745526244108817 13.0 
530.0010921792514 8.714355061250966 210.15830400015506 15.0 0.01749105248821762 8.745526244108817 13.0 
531.0016745110472 8.520983367183028 204.76700883152347 15.0 0.0026937851604318906 1.3468925802159504 13.0 
532.0037741585103 8.174995332582025 204.76700883152347 15.0 0.0026937851604318906 1.3468925802159504 13.0 
533.0037867355015 8.820553400278287 204.76700883152347 15.0 0.022549366047515215 8.81461502367165 13.0 
534.0018002434969 8.601220196669841 204.76700883152347 15.0 0.03734577862815723 8.81461502367165 13.0 
535.0010921792514 8.779460387865834 212.14249289528289 15.0 0.0511622975555091 15.367163993114389 13.0 
536.0033253150466 9.19549565513855 210.36448818950606 16.0 0.020427969569280127 8.63647256744514 13.0 
537.0015011997532 8.760577467985991 210.36448818950606 16.0 0.020105201579897054 8.63647256744514 13.0 
538.0040378717518 8.14408132213981 210.36448818950606 14.0 0.03184504831768339 8.87361668290319 14.0 
539.0016573819389 8.781534387689971 210.36448818950606 14.0 0.0 0.0 13.0 
540.0010921792514 7.781937609013695 221.38733426347 14.0 0.0 0.0 13.0 
541.0036938209842 7.851882360929301 223.1012968062572 14.0 0.0 0.0 13.0 
542.003734974524 4.088496123748207 210.9923844958979 14.0 0.0 0.0 13.0 
543.0003375085569 4.828949804200456 210.9923844958979 14.0 0.0 0.0 12.0 
544.002235236038 2.5948409286253025 208.8006068820647 13.0 0.0 0.0 13.0 
545.0010921792514 2.3780026177387454 205.35087765918325 13.0 0.0 0.0 13.0 
546.0005648002963 1.7997523908474775 205.35087765918325 13.0 0.0 0.0 13.0 
547.0015820810428 2.008497566922427 210.5756431762207 13.0 0.0 0.0 14.0 
548.001651577373 0.6273151619530984 207.16968975221164 13.0 0.0 0.0 18.0 
549.0025410950057 0.151552664622227 32.591173021455006 12.0 0.0 0.0 18.0 
550.0001495753506 0.1664088396837054 32.591173021455006 13.0 0.0 0.0 17.0 
551.002215722032 0.16963621134125764 33.97485056420055 13.0 0.0 0.0 18.0 
552.0018636631288 0.17987297680417597 38.519487792296786 14.0 0.0 0.0 18.0 
553.0003946524116 0.16519183685829986 38.519487792296786 14.0 0.0 0.0 17.0 
554.0009893417903 0.032311034108245776 16.15551705412284 14.0 0.0 0.0 16.0 
555.0010921792514 0.06745101186449226 23.719646343016592 14.0 0.0 0.0 16.0 
556.001158059391 0.08118274455624948 23.719646343016592 14.0 0.0 0.0 15.0 
557.0008712440979 0.0818346603691641 16.50644553502198 15.0 0.0 0.0 15.0 
558.000921855874 0.11791799340990514 18.134986449458324 15.0 0.0 0.0 15.0 
559.001132844064 0.06487124943813152 16.50644553502198 15.0 0.0 0.0 15.0 
560.0010921792514 0.15492425454679387 24.102776128119814 15.0 0.0 0.0 15.0 
561.0004188053819 0.18789002407648592 24.102776128119814 15.0 0.0 0.0 15.0 
562.0038531851563 0.17208299828331017 16.592072268055972 15.0 0.0 0.0 15.0 
563.0017658015411 0.17243010958835991 16.592072268055972 15.0 0.0 0.0 15.0 
564.001289335211 0.18345596742905712 16.592072268055972 15.0 0.0 0.0 15.0 
565.000295062663 0.2875046392554429 24.030319738160017 15.0 0.0 0.0 15.0 
566.0008969542135 0.31462715289437293 24.030319738160017 15.0 0.0 0.0 15.0 
567.0005599884275 0.30443169508747153 23.065867074949608 15.0 0.0 0.0 15.0 
568.0004084224877 0.31558207746409606 23.065867074949608 15.0 0.0 0.0 15.0 
569.0025410950057 0.28513276254102393 23.065867074949608 15.0 0.0 0.0 15.0 
570.0010921792514 0.39077727234069637 30.474892814698933 15.0 0.0 0.0 15.0 
571.0022143193988 0.329827486711298 26.070945906844997 15.0 0.0 0.0 15.0 
572.0004359472547 0.39760312870099535 32.6610707137184 15.0 0.0 0.0 15.0 
573.0018113370389 0.36007844690424295 30.741536029457222 15.0 0.0 0.0 15.0 
574.0025410950057 0.3645681027535134 30.741536029457222 15.0 0.0 0.0 15.0 
575.0010921792514 0.4242355638684664 36.85958048018969 15.0 0.0 0.0 14.0 
576.0012453827784 0.4233822211840695 33.230905761463504 15.0 0.0 0.0 14.0 
577.0000213287021 0.48273883130698614 33.230905761463504 15.0 0.0 0.0 13.0 
578.0013946882405 0.5601110799756615 35.13502742812267 15.0 0.0 0.0 13.0 
579.0004765312848 0.5220286496111427 35.13502742812267 15.0 0.0 0.0 13.0 
580.0009556961293 0.5395592306125018 37.20278176506355 15.0 0.0 0.0 13.0 
581.0003538132302 0.5463761834397866 37.20278176506355 15.0 0.0 0.0 13.0 
582.0003235787293 0.5460044850378598 36.65671197648592 15.0 0.0 0.0 13.0 
583.0026526929819 0.5631564705478949 38.573198549156444 15.0 0.0 0.0 13.0 
584.000830365854 0.5145122969369762 41.87779765542891 15.0 0.0 0.0 13.0 
585.0010921792514 0.6248308512324068 43.52149740834008 15.0 0.0 0.0 13.0 
586.0007146030741 0.531101921955437 41.0962397790332 15.0 0.0 0.0 13.0 
587.0024228615157 0.5571130822249567 43.52149740834008 15.0 0.0 0.0 13.0 
588.0027890622332 0.4869984071158673 43.52149740834008 15.0 0.0 0.0 13.0 
589.0005403260577 0.43121005779000204 42.22662385217669 15.0 0.0 0.0 13.0 
590.0004132593454 0.37932338166973867 47.91970263157529 15.0 0.0 0.0 13.0 
591.0049549448336 0.2872984196813281 47.91970263157529 15.0 0.0 0.0 13.0 
592.0036398070106 0.23323602110261468 47.91970263157529 15.0 0.0 0.0 13.0 
593.0004822977719 0.3769214099059798 56.349263517519205 15.0 0.014546080910699455 7.273040455349701 13.0 
594.002456317485 0.08023997492383297 9.554152180180807 15.0 2.8015407076429694E-4 0.14007703538214855 13.0 
595.0010921792514 0.24074728801884987 61.73827401097742 17.0 0.0 0.0 13.0 
596.0009387005379 0.129156246784036 21.44874641402663 16.0 0.0 0.0 13.0 
597.0001354516787 0.18161601484872555 62.10843027170836 16.0 0.0041950189439647146 1.8325849749234635 13.0 
598.0016404966007 0.11688378727413505 17.286193517150053 15.0 0.004392602663723389 1.8325849749234635 12.0 
599.0025410950057 0.12725684208146865 20.517431184116447 15.0 0.004392602663723389 1.8325849749234635 13.0 
600.0010921792514 0.1694526178442176 27.976927563263246 15.0 0.003862753669605729 1.8325849749234635 13.0 
#####################################################################
# End of data export. Simulation finished at: 2019-02-25T20:50+0000 #
#####################################################################
