#####################################################################
# Alchemist log file - simulation started at: 2019-02-25T20:41+0000 #
#####################################################################
# seed = 178.0
#
# The columns have the following meaning: 
# time distance-rep[Mean] distance-rep[Max] leader-rep[CountDistinct] distance-share[Mean] distance-share[Max] leader-share[CountDistinct] 
0.0 NaN NaN NaN NaN NaN NaN 
1.0016897605895174 0.0 0.0 497.0 0.0 0.0 66.0 
2.000756504026805 0.0 0.0 102.0 0.0 0.0 63.0 
3.0002733563206982 0.0 0.0 100.0 0.0 0.0 56.0 
4.000863211365174 0.0 0.0 96.0 0.0 0.0 49.0 
5.00066241810705 0.0 0.0 89.0 0.0 0.0 47.0 
6.004087984465178 0.0 0.0 88.0 0.0 0.0 42.0 
7.002182022205185 0.0 0.0 77.0 0.0 0.0 36.0 
8.002246692997355 0.0 0.0 77.0 0.0 0.0 33.0 
9.000162179225816 0.0 0.0 71.0 0.0 0.0 33.0 
10.001670641708419 0.0 0.0 72.0 0.0 0.0 32.0 
11.00823504063571 0.0 0.0 67.0 0.008628852697917279 4.314426348958619 33.0 
12.002297607999513 0.0 0.0 63.0 0.026659892301189706 8.302589747026332 30.0 
13.001732662663525 0.0 0.0 61.0 0.04392241417464717 16.26882737055871 30.0 
14.004814917215876 0.0 0.0 60.0 0.10757040683853196 22.04310875952706 30.0 
15.002333318660728 0.0 0.0 57.0 0.0705283498215254 16.39380002281385 34.0 
16.008325272886623 0.0 0.0 56.0 0.07146601105327603 13.288478130152157 26.0 
17.000225138020376 0.0 0.0 54.0 0.07128167785709656 11.104288279941386 30.0 
18.000220536829815 0.0 0.0 53.0 0.0 0.0 25.0 
19.00112823728985 0.0 0.0 51.0 0.0 0.0 23.0 
20.00140819050302 0.0 0.0 47.0 0.0 0.0 22.0 
21.002606220654346 0.0 0.0 51.0 0.0 0.0 21.0 
22.002784251844187 0.0 0.0 47.0 0.012178676807663776 6.089338403831874 20.0 
23.002266272555865 0.0 0.0 44.0 0.05073472605414221 14.77022475022676 22.0 
24.001680113043797 0.0 0.0 42.0 0.021530646121158462 7.3187402832724615 19.0 
25.001206944559726 0.0 0.0 42.0 0.0 0.0 19.0 
26.00225734807414 0.0 0.0 37.0 0.0 0.0 19.0 
27.000762657248238 0.0 0.0 39.0 0.0 0.0 20.0 
28.002075468133967 0.0 0.0 34.0 0.0 0.0 19.0 
29.00050347698184 0.0 0.0 35.0 0.0 0.0 19.0 
30.000748651180224 0.0 0.0 35.0 0.0 0.0 19.0 
31.00583320411586 0.0 0.0 34.0 0.0 0.0 18.0 
32.00483541937701 0.0 0.0 34.0 0.0 0.0 17.0 
33.00162092851923 0.0 0.0 34.0 0.0 0.0 16.0 
34.00042087196402 0.0 0.0 35.0 0.0 0.0 16.0 
35.00233331866073 0.0 0.0 34.0 0.0 0.0 16.0 
36.00088099347903 0.0 0.0 33.0 0.0 0.0 16.0 
37.00528262844158 0.0 0.0 31.0 0.0 0.0 16.0 
38.000685533482304 0.0 0.0 29.0 0.0 0.0 16.0 
39.0007226507954 0.0 0.0 29.0 0.0 0.0 16.0 
40.000263379712486 0.0 0.0 32.0 0.0 0.0 16.0 
41.0004480892796 0.0 0.0 32.0 0.0 0.0 16.0 
42.00015322299509 0.0 0.0 31.0 0.0 0.0 16.0 
43.00277406608297 0.0 0.0 30.0 0.0 0.0 16.0 
44.00035080249433 0.0 0.0 29.0 0.0 0.0 15.0 
45.0013290151373 0.0 0.0 29.0 0.0 0.0 15.0 
46.00310272214093 0.0 0.0 29.0 0.0 0.0 15.0 
47.0033126339048 0.0 0.0 27.0 0.0 0.0 14.0 
48.00445571774061 0.0 0.0 25.0 0.0 0.0 14.0 
49.000190773902084 0.0 0.0 24.0 0.0 0.0 14.0 
50.00117558359573 0.0 0.0 24.0 0.0 0.0 14.0 
51.00248119164645 0.0 0.0 25.0 0.0 0.0 14.0 
52.000093051381754 0.0 0.0 23.0 0.0 0.0 14.0 
53.00326109417198 0.0 0.0 23.0 0.0 0.0 14.0 
54.002946642330045 0.0 0.0 24.0 0.0 0.0 14.0 
55.000627329379924 0.0 0.0 24.0 0.0 0.0 14.0 
56.00288701191466 0.0 0.0 24.0 0.0 0.0 14.0 
57.00387449358601 0.0 0.0 23.0 0.0 0.0 14.0 
58.0076227712975 0.0 0.0 23.0 0.0 0.0 14.0 
59.00087713556413 0.0 0.0 21.0 0.0 0.0 14.0 
60.002141209432395 0.0 0.0 22.0 0.0 0.0 15.0 
61.00158560858347 0.0 0.0 23.0 0.0 0.0 16.0 
62.00067413373735 0.0 0.0 23.0 0.0 0.0 16.0 
63.00177155813695 0.0 0.0 22.0 0.0 0.0 17.0 
64.00040693156235 0.0 0.0 19.0 0.0 0.0 17.0 
65.00113498994924 0.0 0.0 18.0 0.0 0.0 17.0 
66.00832527288662 0.0 0.0 18.0 0.0 0.0 17.0 
67.00071737652155 0.0 0.0 18.0 0.0 0.0 17.0 
68.00026481102365 0.0 0.0 18.0 0.0 0.0 17.0 
69.00132936162686 0.0 0.0 18.0 0.0 0.0 17.0 
70.0009404432918 0.0 0.0 18.0 0.0 0.0 18.0 
71.00258538713851 0.0 0.0 18.0 0.0 0.0 18.0 
72.00105722019849 0.0 0.0 18.0 0.0 0.0 18.0 
73.00071528758664 0.0 0.0 18.0 0.0 0.0 18.0 
74.00073655219491 0.0 0.0 18.0 0.0 0.0 16.0 
75.00039511483524 0.0 0.0 18.0 0.0 0.0 16.0 
76.00298670513597 0.0 0.0 18.0 0.0 0.0 17.0 
77.00277277432507 0.0 0.0 17.0 0.0 0.0 17.0 
78.00071215023188 0.0 0.0 16.0 0.0 0.0 17.0 
79.00091956740201 0.0 0.0 18.0 0.0 0.0 17.0 
80.00107805785626 0.0 0.0 19.0 0.0 0.0 17.0 
81.00065846618602 0.0 0.0 19.0 0.0 0.0 17.0 
82.00486875343181 0.0 0.0 18.0 0.0 0.0 17.0 
83.00032331801422 0.0 0.0 18.0 0.0 0.0 17.0 
84.0044006159437 0.0 0.0 18.0 0.0 0.0 17.0 
85.00004127274882 0.005239379519527989 2.6196897597640145 18.0 0.0 0.0 17.0 
86.00329088048503 0.012888534805466378 3.8245776429691603 18.0 0.0 0.0 17.0 
87.00065103419837 0.009981670889773833 2.6196897597640145 18.0 0.0 0.0 19.0 
88.00062420250015 0.009981670889773833 2.6196897597640145 18.0 0.0 0.0 18.0 
89.00010347689053 0.0381452932438773 9.900622163575747 18.0 0.0 0.0 18.0 
90.00022948869743 0.024879618553550108 9.900622163575747 18.0 0.0 0.0 18.0 
91.0011952784837 0.024879618553550108 9.900622163575747 17.0 0.0 0.0 18.0 
92.00036917444994 0.009659666507377745 2.53918711319929 17.0 0.0 0.0 17.0 
93.00053243149188 0.009659666507377745 2.53918711319929 17.0 0.0 0.0 17.0 
94.0039257367579 0.024603839709329462 9.806111556248396 17.0 0.0 0.0 17.0 
95.00065139893731 0.03814841453810531 9.806111556248396 17.0 0.0 0.0 17.0 
96.00374251968591 0.004991616596832671 2.4958082984163354 17.0 0.0 0.0 17.0 
97.0012903331626 0.009486167067811168 2.4958082984163354 17.0 0.0 0.0 17.0 
98.00188327430025 0.0 0.0 17.0 0.0 0.0 17.0 
99.0000862553795 0.0 0.0 17.0 0.0 0.0 16.0 
100.00233331866073 0.0 0.0 17.0 0.0 0.0 16.0 
101.0020823033494 0.0 0.0 17.0 0.0 0.0 16.0 
102.00315879031322 0.0 0.0 17.0 0.0 0.0 16.0 
103.00269402159157 0.0 0.0 17.0 0.0 0.0 16.0 
104.0000832113462 0.0 0.0 17.0 0.0 0.0 16.0 
105.00212519532526 0.0 0.0 17.0 0.0 0.0 16.0 
106.00174608342226 0.0 0.0 17.0 0.0 0.0 16.0 
107.00048556513794 0.0 0.0 17.0 0.0 0.0 16.0 
108.00139869367642 0.0056745096981576345 2.8372548490788176 17.0 0.0 0.0 16.0 
109.00092928457482 0.0 0.0 17.0 0.0 0.0 16.0 
110.0014075241549 0.0 0.0 17.0 0.0 0.0 16.0 
111.00183798506376 0.002474285613077657 1.2371428065388272 17.0 0.0 0.0 16.0 
112.00389098659807 0.002474285613077657 1.2371428065388272 17.0 0.0 0.0 17.0 
113.00287058686538 0.009424982903547223 4.712491451773616 17.0 0.0 0.0 17.0 
114.00247958973443 0.007504770381756526 3.7523851908782717 16.0 0.0 0.0 17.0 
115.0012557712019 0.014737869876433928 3.7523851908782717 17.0 0.0 0.0 17.0 
116.00432536225821 0.014737869876433928 3.7523851908782717 16.0 0.0 0.0 17.0 
117.00300346566453 0.007233099494677335 3.6165497473386665 17.0 0.0 0.0 16.0 
118.00121591333028 0.0 0.0 18.0 0.0 0.0 16.0 
119.00116702129779 0.0 0.0 18.0 0.0 0.0 16.0 
120.00091060184006 0.0 0.0 18.0 0.0 0.0 15.0 
121.00295281229103 0.0 0.0 18.0 0.0 0.0 15.0 
122.00105650393334 0.018536181841513687 9.268090920756805 18.0 0.0 0.0 15.0 
123.00062610756044 0.0 0.0 19.0 0.0 0.0 15.0 
124.00276437107253 0.002525115402572567 1.2625577012862834 19.0 0.0 0.0 16.0 
125.00086463018957 0.0 0.0 19.0 0.0 0.0 16.0 
126.0001282094243 0.0 0.0 19.0 0.0 0.0 15.0 
127.00050336708881 0.0 0.0 19.0 0.0 0.0 15.0 
128.00004895452665 0.0 0.0 19.0 0.0 0.0 15.0 
129.00181748536926 0.0 0.0 19.0 0.0 0.0 15.0 
130.0002622212831 0.0 0.0 19.0 0.0 0.0 15.0 
131.0005293501129 0.0 0.0 19.0 0.0 0.0 15.0 
132.00022576406423 0.0 0.0 19.0 0.0 0.0 15.0 
133.00149161148371 0.0 0.0 19.0 0.0 0.0 15.0 
134.00115922465622 0.0 0.0 19.0 0.0 0.0 15.0 
135.00233331866073 0.0 0.0 19.0 0.0 0.0 15.0 
136.0000182480077 0.0 0.0 18.0 0.0 0.0 15.0 
137.00008035214873 0.0 0.0 18.0 0.0 0.0 15.0 
138.00106756561271 0.0 0.0 17.0 0.0 0.0 15.0 
139.00058543144544 0.0 0.0 17.0 0.0 0.0 15.0 
140.0003165090073 0.0 0.0 17.0 0.0 0.0 15.0 
141.00198982572735 0.0 0.0 17.0 0.0 0.0 16.0 
142.00159728291618 0.0 0.0 18.0 0.0 0.0 16.0 
143.0029767065587 0.0 0.0 17.0 0.0 0.0 15.0 
144.00221075590594 0.0 0.0 17.0 0.0 0.0 15.0 
145.00233331866073 0.0 0.0 17.0 0.0 0.0 15.0 
146.00084329866328 0.0 0.0 17.0 0.0 0.0 15.0 
147.0020352044482 0.0 0.0 17.0 0.0 0.0 15.0 
148.00094387743175 0.0 0.0 17.0 0.0 0.0 15.0 
149.0033008849363 0.0 0.0 17.0 0.0 0.0 15.0 
150.00233331866073 0.0 0.0 17.0 0.0 0.0 15.0 
151.0000822723583 0.0 0.0 18.0 0.0 0.0 15.0 
152.0024414008528 0.0 0.0 18.0 0.0 0.0 15.0 
153.00002645585215 0.0 0.0 18.0 0.0 0.0 15.0 
154.00197294805793 0.0 0.0 18.0 0.0 0.0 15.0 
155.0010677547318 0.0 0.0 18.0 0.0 0.0 15.0 
156.00095559994796 0.0 0.0 18.0 0.0 0.0 15.0 
157.00109939724544 0.0 0.0 18.0 0.0 0.0 15.0 
158.00038370274294 0.0 0.0 18.0 0.0 0.0 15.0 
159.00045611898233 0.0 0.0 18.0 0.0 0.0 14.0 
160.00072720194598 0.0 0.0 18.0 0.0 0.0 14.0 
161.0031836156151 0.0 0.0 18.0 0.0 0.0 14.0 
162.00252768890147 0.0 0.0 18.0 0.0 0.0 14.0 
163.00240090503607 0.0 0.0 18.0 0.0 0.0 14.0 
164.00501209348226 0.0 0.0 18.0 0.0 0.0 14.0 
165.00052603954103 0.0 0.0 18.0 0.0 0.0 15.0 
166.00031859200067 0.0 0.0 18.0 0.0 0.0 13.0 
167.00173523036244 0.0 0.0 17.0 0.0 0.0 13.0 
168.00248778035743 0.0 0.0 18.0 0.0 0.0 13.0 
169.00099226800899 0.0 0.0 17.0 0.0 0.0 13.0 
170.00121930514845 0.0 0.0 18.0 0.0 0.0 13.0 
171.0007749319287 0.010413788189812371 5.206894094906147 17.0 0.0 0.0 13.0 
172.0048488222484 0.01871838501253582 5.206894094906147 17.0 0.0 0.0 13.0 
173.000858136821 0.01871838501253582 5.206894094906147 16.0 0.0 0.0 13.0 
174.00332087396464 0.01871838501253582 5.206894094906147 16.0 0.0 0.0 13.0 
175.00077890039228 0.033485481389163206 10.031019746454376 16.0 0.0 0.0 13.0 
176.0046662069365 0.0 0.0 16.0 0.0 0.0 13.0 
177.00003391807337 0.0 0.0 16.0 0.0 0.0 13.0 
178.0011728140084 0.0 0.0 16.0 0.0 0.0 13.0 
179.00144071101516 0.0 0.0 16.0 0.0 0.0 13.0 
180.00009637754292 0.01292190872555886 6.460954362779432 16.0 0.0 0.0 13.0 
181.0001282101142 0.0 0.0 16.0 0.0 0.0 13.0 
182.00215852011465 0.0 0.0 17.0 0.0 0.0 13.0 
183.0024464592801 0.0 0.0 17.0 0.0 0.0 13.0 
184.00267060969324 0.0 0.0 17.0 0.0 0.0 13.0 
185.00233331866073 0.0 0.0 17.0 0.0 0.0 12.0 
186.00087670768704 0.0 0.0 17.0 0.0 0.0 13.0 
187.00042273207606 0.0 0.0 17.0 0.0 0.0 12.0 
188.0048946886704 0.0 0.0 17.0 0.0 0.0 13.0 
189.00020859835513 0.0 0.0 17.0 0.0 0.0 13.0 
190.00233331866073 0.0 0.0 17.0 0.0 0.0 13.0 
191.0023007973734 0.0 0.0 17.0 0.0 0.0 13.0 
192.00026846926326 0.0 0.0 17.0 0.0 0.0 12.0 
193.0019413428122 0.0 0.0 17.0 0.0 0.0 12.0 
194.00031337025848 0.0 0.0 17.0 0.0 0.0 12.0 
195.00233331866073 0.005804977622023824 2.9024888110119207 17.0 0.0 0.0 17.0 
196.00829569550208 0.005804977622023824 2.9024888110119207 17.0 0.0 0.0 17.0 
197.0014368280098 0.021661223552297944 10.307129619650254 17.0 0.0 0.0 15.0 
198.00148168965552 0.03159092890726024 10.307129619650254 18.0 0.0 0.0 14.0 
199.00251192657672 0.039208317876451175 14.115824104245775 17.0 0.0 0.0 14.0 
200.00229553143774 0.039208317876451175 14.115824104245775 18.0 0.0 0.0 14.0 
201.00218878011364 0.01622526105603867 7.2619837700241305 17.0 0.0 0.0 15.0 
202.0007103194771 0.04494784818064164 21.623277332325614 18.0 0.0 0.0 16.0 
203.0011886098171 0.06938846589338847 21.623277332325614 17.0 0.0 0.0 16.0 
204.00006533684646 0.17490493563901918 26.2033482755175 16.0 0.0 0.0 16.0 
205.00120311815624 0.1282176971572707 25.61240042439772 15.0 0.0 0.0 15.0 
206.00393697535915 0.07932500989690734 22.657900048130102 15.0 0.0 0.0 16.0 
207.0013226573884 0.16963966129291763 32.33114975867585 15.0 0.0 0.0 16.0 
208.00267798821068 0.2789876776692887 33.07059978594049 15.0 0.0 0.0 16.0 
209.0000673339275 0.2964133084299458 36.66098015940585 16.0 0.0 0.0 16.0 
210.00233331866073 0.3686928068602486 38.029950244475486 16.0 0.0 0.0 16.0 
211.0003326292087 0.2612983743567181 29.14797565097257 16.0 0.0 0.0 16.0 
212.00084468872961 0.27805758449780554 38.029950244475486 16.0 0.0 0.0 16.0 
213.00033619176838 0.296390959131654 29.14797565097257 16.0 0.0 0.0 16.0 
214.00004094289366 0.4377750435750894 44.34819347808934 16.0 0.0 0.0 15.0 
215.00121204059906 0.4503809769861422 36.832635865240405 16.0 0.0 0.0 15.0 
216.00012367862675 0.40396598118693666 36.832635865240405 16.0 0.0 0.0 15.0 
217.0003736716059 0.4243752004167587 36.832635865240405 16.0 0.0 0.0 15.0 
218.0026547728263 1.025078575625108 54.19831537994199 16.0 0.0 0.0 17.0 
219.0002091466483 1.1300832913147627 55.80122963513685 15.0 0.0 0.0 14.0 
220.0018706469036 1.3684414392377784 60.239577584263714 16.0 0.0 0.0 14.0 
221.0009199562721 1.4516740060226396 60.92424652266806 16.0 0.0 0.0 14.0 
222.00444228196264 1.5490943612617254 60.239577584263714 15.0 0.0 0.0 14.0 
223.0031564056294 1.995012080631207 69.52913721403758 15.0 0.0 0.0 14.0 
224.00013143913506 1.7315685078727292 61.318141584016985 15.0 0.0 0.0 14.0 
225.00233331866073 1.8868183534309049 67.99693799208433 15.0 0.0 0.0 14.0 
226.00187698591392 1.7219221704372134 73.30410182431649 15.0 0.0 0.0 14.0 
227.00069567404157 1.9514776331077768 73.30410182431649 15.0 0.0 0.0 13.0 
228.00171376172102 2.104601973009634 85.28547490585856 15.0 0.0 0.0 13.0 
229.00184226092802 1.9714158116755955 85.28547490585856 15.0 0.0 0.0 13.0 
230.0000306561642 2.0001303746318198 91.47961125126739 15.0 0.0 0.0 13.0 
231.00069799699182 1.5906361498482413 77.58751590423765 15.0 0.0 0.0 13.0 
232.00034188745428 1.5906968319047643 91.47961125126739 16.0 0.0 0.0 13.0 
233.00017156152387 1.058339294387297 77.58751590423765 16.0 0.0 0.0 13.0 
234.00220769926136 0.8114727404441495 71.36784845831784 16.0 0.0 0.0 13.0 
235.00204431174316 0.2989983133950841 42.592789857789626 16.0 0.0 0.0 15.0 
236.00460853597977 0.7604747839349868 78.96516613825105 16.0 0.0 0.0 19.0 
237.00096896503192 0.14493067699833093 26.723967486530654 16.0 0.0 0.0 19.0 
238.0008571649835 0.19007675453352146 26.723967486530654 16.0 0.0 0.0 18.0 
239.0003522118766 0.26900434271658297 33.569362817168695 16.0 0.0 0.0 17.0 
240.0006496332573 0.29939269086515 26.340821473172895 17.0 0.0 0.0 17.0 
241.0008496630122 0.4014788518938658 32.1857775476156 17.0 0.0 0.0 16.0 
242.0039559622474 0.5247330525911327 27.24564953642283 17.0 0.0 0.0 16.0 
243.00014920375827 0.4627601812915619 33.37240440033986 16.0 0.0 0.0 17.0 
244.00161484127923 0.5802622722442843 33.37240440033986 16.0 0.0 0.0 17.0 
245.00233331866073 0.5534136743440022 37.23518140104326 15.0 0.0 0.0 17.0 
246.00068610762165 0.5560981377799668 52.796917434435755 15.0 0.0 0.0 17.0 
247.00104289336625 0.6386934978956774 33.66868849219972 15.0 0.0 0.0 17.0 
248.0005233401598 0.6163835701245771 50.264442455998505 15.0 0.0 0.0 17.0 
249.0002955347443 0.5719841456324463 50.264442455998505 15.0 0.0 0.0 17.0 
250.00193615937448 0.5131594530960916 50.264442455998505 15.0 0.0 0.0 17.0 
251.00492066284704 0.48927735139484346 50.264442455998505 15.0 0.0 0.0 17.0 
252.00032074842227 0.5794808340887582 57.75343017723793 15.0 0.0 0.0 17.0 
253.00194326326854 0.577112725461278 50.53480468439298 15.0 0.0 0.0 16.0 
254.00005758505844 0.5737709974998036 50.53480468439298 15.0 0.0 0.0 15.0 
255.00233331866073 0.49097711943413075 50.53480468439298 15.0 0.0 0.0 15.0 
256.00217956605803 0.48486584080785383 58.08517339556926 15.0 0.0 0.0 15.0 
257.00498679814933 0.6779926939143448 50.88298643637492 15.0 0.0 0.0 15.0 
258.0013305099441 0.6027192795670713 50.88298643637492 15.0 0.0 0.0 15.0 
259.00139410838983 0.6189332373084193 50.88298643637492 15.0 0.0 0.0 16.0 
260.00204530180326 0.66356103012925 50.88298643637492 15.0 0.0 0.0 15.0 
261.00263640430575 0.7582545905574194 50.88298643637492 15.0 0.0 0.0 15.0 
262.00170272852483 0.6989930189878439 38.85952069377228 15.0 0.0 0.0 15.0 
263.0003406976688 0.9240355876716797 51.24505592562713 16.0 0.0 0.0 15.0 
264.00346128606446 0.8917965180014532 51.24505592562713 17.0 0.0 0.0 15.0 
265.0023333186607 0.7598180252169277 46.6377257391224 16.0 0.0 0.0 15.0 
266.00126631905476 0.878765057683043 46.6377257391224 17.0 0.0 0.0 15.0 
267.00185315621025 1.1099509063191884 51.0620092057319 17.0 0.0 0.0 15.0 
268.0005792917255 1.2981348501213776 51.62095319497092 17.0 0.0 0.0 15.0 
269.0017485478036 1.2178696882022457 48.69861506353476 16.0 0.0 0.0 16.0 
270.0009720701617 1.1007041049955781 48.69861506353476 16.0 0.0 0.0 18.0 
271.0018769157092 1.2526280175249094 50.790272892736766 16.0 0.0 0.0 20.0 
272.0012719198589 1.436564717251848 55.61201748204948 16.0 0.0 0.0 19.0 
273.0002050176676 1.6986618867696623 53.9985954763996 17.0 0.0 0.0 19.0 
274.0000640656121 1.326232832284221 53.9985954763996 17.0 0.0 0.0 19.0 
275.00074773385796 1.359997467452337 53.9985954763996 17.0 0.0 0.0 18.0 
276.005754498641 1.391693100839728 56.082447413631485 17.0 0.0 0.0 17.0 
277.0002499804341 1.7038469848973194 65.56548794105834 17.0 0.0 0.0 17.0 
278.00211161218584 1.6789402333609855 65.56548794105834 18.0 0.0 0.0 17.0 
279.00082550699204 1.6722732401519669 65.56548794105834 19.0 0.0 0.0 17.0 
280.0007978252843 1.7086679947115444 65.56548794105834 19.0 0.0 0.0 17.0 
281.0009952481475 1.1533331439385675 66.81367869821548 19.0 0.0 0.0 18.0 
282.00749344029504 1.021732849659596 70.5799370500369 19.0 0.0 0.0 18.0 
283.00105071612404 0.6451716408464658 70.5799370500369 19.0 0.0 0.0 18.0 
284.002808050064 0.6506296263947271 70.39151679876596 19.0 0.0 0.0 17.0 
285.00039676549585 0.375892718149262 58.055000786135054 19.0 0.0 0.0 17.0 
286.0028295314767 0.4930769469472376 70.5799370500369 19.0 0.0 0.0 17.0 
287.0012516382593 0.545773807789008 71.49227111821205 19.0 0.0 0.0 17.0 
288.0015672302124 0.39240708105160865 71.49227111821205 19.0 0.0 0.0 17.0 
289.0055195160821 0.25679377497096206 44.106202045832845 19.0 0.0 0.0 17.0 
290.0023333186607 0.19346449910025026 32.89903015204521 19.0 0.0 0.0 17.0 
291.0008656954086 0.0914375338101664 28.100585121646816 18.0 0.0 0.0 18.0 
292.0055611918436 0.03520941718452473 17.49510252179047 18.0 0.0 0.0 18.0 
293.0002752886973 0.042657562154362845 17.61818178343634 18.0 0.0 0.0 17.0 
294.00206259546263 0.03545557570781681 17.61818178343634 18.0 0.0 0.0 17.0 
295.00098663428344 0.05012998223580795 17.49510252179047 18.0 0.0 0.0 17.0 
296.00103007189597 0.05608286034940843 28.041430174704402 18.0 0.0 0.0 17.0 
297.00082499082697 0.06504265858421862 17.555705525961997 19.0 0.0 0.0 18.0 
298.0030278875848 0.029931247532294408 14.965623766147246 19.0 0.0 0.0 18.0 
299.00081469535706 0.021357079730575802 10.678539865287945 19.0 0.0 0.0 18.0 
300.0004914443101 0.033038425779727036 10.678539865287945 19.0 0.0 0.0 18.0 
301.0051044453841 0.033038425779727036 10.678539865287945 19.0 0.0 0.0 18.0 
302.00200027394374 0.033038425779727036 10.678539865287945 17.0 0.0 0.0 17.0 
303.00281454281304 0.04462353140673645 22.31176570336831 17.0 0.0 0.0 17.0 
304.0016695915275 0.0 0.0 17.0 0.0 0.0 17.0 
305.00052464024196 0.008946564602610568 4.473282301305261 16.0 0.0 0.0 16.0 
306.00063830411824 0.06676571754397805 28.90957647068376 17.0 0.0 0.0 16.0 
307.0009434323646 0.008946564602610568 4.473282301305261 17.0 0.0 0.0 15.0 
308.00155278852066 0.02117694505802996 10.588472529015093 17.0 0.0 0.0 15.0 
309.00516548753876 0.02117694505802996 10.588472529015093 17.0 0.0 0.0 15.0 
310.0023333186607 0.02117694505802996 10.588472529015093 17.0 0.0 0.0 16.0 
311.0016189768419 0.03305043454557117 16.52521727278574 17.0 0.0 0.0 16.0 
312.0028027723709 0.03305043454557117 16.52521727278574 17.0 0.0 0.0 16.0 
313.0001097796309 0.07782517523833284 22.387370346380663 17.0 0.0 0.0 16.0 
314.0016263250827 0.04443097868590978 22.21548934295481 17.0 0.0 0.0 16.0 
315.0002582074654 0.14778705117154112 29.29066589643503 16.0 0.0 0.0 16.0 
316.0002976523204 0.1560268244249141 28.100733390702487 16.0 0.0 0.0 16.0 
317.0008738347545 0.16700914757865995 31.515648138206615 16.0 0.0 0.0 17.0 
318.0019288135486 0.20889688470180603 35.227749972920066 16.0 0.0 0.0 16.0 
319.00493106386455 0.19774411184112425 35.227749972920066 16.0 0.0 0.0 16.0 
320.0000789439543 0.28720060092305666 35.227749972920066 16.0 0.0 0.0 16.0 
321.00185532962183 0.21263197224816704 35.227749972920066 17.0 0.0 0.0 16.0 
322.0000053841014 0.23127755152248972 41.66904920850749 17.0 0.0 0.0 16.0 
323.00628507038454 0.2815913897177097 47.93191836913624 18.0 0.0 0.0 17.0 
324.0041674060883 0.18559899487391682 33.74737480585523 18.0 0.0 0.0 17.0 
325.0023333186607 0.24620690911678467 33.74737480585523 18.0 0.0018343412675483192 0.9171706337741625 17.0 
326.00025268712966 0.21444080016571934 32.639028294825806 18.0 0.0 0.0 20.0 
327.00003412420006 0.1813225820807244 29.818182392724538 18.0 0.0 0.0 19.0 
328.00151268170356 0.32800212687032965 34.287714552198906 18.0 0.0 0.0 19.0 
329.0004032069981 0.33179598085976736 34.287714552198906 18.0 0.0 0.0 19.0 
330.000032107347 0.37215360929012664 34.287714552198906 20.0 0.0 0.0 19.0 
331.0031811547695 0.39392768431249703 34.287714552198906 21.0 0.0 0.0 18.0 
332.00357537420854 0.48812474383610754 34.287714552198906 22.0 0.0 0.0 18.0 
333.00062159145375 0.5317448515040002 30.731734075144118 21.0 0.0 0.0 17.0 
334.00199627149874 0.48958203303068765 30.731734075144118 21.0 0.0 0.0 18.0 
335.0001163564415 0.6340199143323723 45.559796036643405 21.0 0.0 0.0 19.0 
336.00228740091575 0.6033669796612967 29.93499950335638 22.0 0.0 0.0 19.0 
337.00289425853043 0.7752698230898394 54.16173727467174 21.0 0.0 0.0 19.0 
338.0027760132651 0.5187299561258264 48.3501496807562 21.0 0.0 0.0 19.0 
339.00006218973397 0.44529826133856704 48.3501496807562 22.0 0.0 0.0 19.0 
340.00101118788217 0.49189261437204246 48.3501496807562 22.0 0.0 0.0 19.0 
341.00138887020347 0.4800833277987415 48.3501496807562 22.0 0.0 0.0 19.0 
342.0048043174683 0.5436512746004184 54.33166646164682 21.0 0.0 0.0 17.0 
343.0046941237661 0.5771080515337109 48.72929305158934 22.0 0.0 0.0 18.0 
344.0000026830707 0.5771080515337109 48.72929305158934 22.0 0.0 0.0 18.0 
345.0012753841786 0.7053211426071069 51.61668228401521 22.0 0.0 0.0 18.0 
346.0002300373681 0.6956064257978863 51.61668228401521 21.0 0.0 0.0 18.0 
347.0012193436193 0.8777824991202173 57.713893519367616 21.0 0.0 0.0 18.0 
348.0008195927629 0.9300738084367681 57.713893519367616 21.0 0.0 0.0 18.0 
349.00294095082995 0.9332523010933012 57.713893519367616 21.0 0.0 0.0 19.0 
350.0023333186607 0.9436393282087253 63.49918902386872 21.0 0.0 0.0 18.0 
351.0003902890633 0.8476387261424282 50.19036922166862 21.0 0.0 0.0 18.0 
352.00022739325743 0.9939411809667819 55.59713256818358 21.0 0.0 0.0 18.0 
353.00245054275734 1.0549907661950588 50.691947385350346 21.0 0.0 0.0 19.0 
354.0059231505912 0.9233106158101398 50.691947385350346 22.0 0.0 0.0 19.0 
355.0023333186607 0.9338549607313684 50.41477187044475 22.0 0.0 0.0 20.0 
356.00267356200413 0.9576495097709125 53.74858779173471 22.0 0.0 0.0 20.0 
357.0009779234028 0.9271155133132997 46.23891174326255 22.0 0.0 0.0 20.0 
358.0044678348473 1.0249880708049532 53.30588264129673 22.0 0.0 0.0 19.0 
359.00161199877107 1.0163106121653185 53.30588264129673 22.0 0.0 0.0 19.0 
360.00124743093704 1.0613457045680201 53.30588264129673 21.0 0.0 0.0 19.0 
361.00180088805774 0.8053934006741722 53.30588264129673 21.0 0.0 0.0 19.0 
362.0002377755465 0.6383619732125484 58.56619292448681 22.0 0.0 0.0 19.0 
363.00256171630946 0.6017032197936519 50.244121731000575 22.0 0.0 0.0 19.0 
364.00124361376743 0.6660472151343823 50.244121731000575 22.0 0.0 0.0 19.0 
365.0013590196809 0.6287468003899516 50.244121731000575 22.0 0.0 0.0 19.0 
366.0018128951623 0.5743472480249954 50.244121731000575 22.0 0.0 0.0 19.0 
367.0025064410439 0.5564083810167582 64.31440690030132 22.0 0.0 0.0 19.0 
368.00341264032716 0.6287218162390348 64.31440690030132 22.0 0.0 0.0 18.0 
369.00316368808717 0.43859847603172303 52.91786444002719 22.0 0.0 0.0 18.0 
370.0012641418148 0.430358004050387 59.904646074629625 22.0 0.0 0.0 18.0 
371.00218602904886 0.3640955383041249 58.55108816324952 22.0 0.0 0.0 18.0 
372.00186691710707 0.5123684054471006 67.0905877578968 22.0 0.0 0.0 18.0 
373.00140811559004 0.18562590838388948 40.32975055079129 21.0 0.0 0.0 21.0 
374.00328195454074 0.21765509994285054 40.32975055079129 21.0 0.0 0.0 21.0 
375.00009882798906 0.2462232462037017 40.32975055079129 21.0 0.0 0.0 21.0 
376.0002529704415 0.16131900220316564 40.32975055079129 21.0 0.0 0.0 20.0 
377.00014154150216 0.2886864606942433 40.32975055079129 21.0 0.0 0.0 20.0 
378.0014240034091 0.24661480784589687 46.40166761432931 21.0 0.0 0.0 20.0 
379.0004575432043 0.3272562169274676 46.40166761432931 21.0 0.0 0.0 20.0 
380.0023333186607 0.1709771552827906 39.0590476214783 21.0 0.0 0.0 20.0 
381.00102247092866 0.17121928351017882 33.25509846255022 21.0 0.0 0.0 20.0 
382.001021836842 0.24752671487140004 39.50158475972239 21.0 0.0 0.0 20.0 
383.00011662996644 0.2664413469874738 39.50158475972239 21.0 0.0 0.0 19.0 
384.00205810031804 0.24752671487140004 39.50158475972239 21.0 0.0 0.0 19.0 
385.00008707899707 0.24634669947694776 39.50158475972239 21.0 0.0 0.0 18.0 
386.0015941844432 0.24260124955985876 33.87699497790251 21.0 0.0 0.0 18.0 
387.00166748732585 0.30022596743431584 39.93593194485754 20.0 0.0 0.0 18.0 
388.0001079504676 0.3824040430107917 39.93593194485754 20.0 0.0 0.0 19.0 
389.004199706254 0.3824040430107917 39.93593194485754 20.0 0.0 0.0 18.0 
390.00089947894844 0.3946061092530526 39.93593194485754 20.0 0.0 0.0 19.0 
391.0029304806991 0.34984597547868423 35.97841156042176 20.0 0.0 0.0 19.0 
392.0014624978403 0.45790517506256956 42.052185229445655 19.0 0.0 0.0 18.0 
393.00083047226406 0.4749102992628233 47.62406602453527 19.0 0.0 0.0 18.0 
394.0009680023109 0.5394226128357403 47.62406602453527 19.0 0.0 0.0 18.0 
395.00213442160504 0.5617590467139788 47.62406602453527 19.0 0.0 0.0 18.0 
396.00204198235633 0.5076385248338962 47.62406602453527 19.0 0.0 0.0 18.0 
397.001178297157 0.7196526979422088 59.663762776918304 19.0 0.0 0.0 18.0 
398.00230498376084 0.7850449203822565 59.663762776918304 19.0 0.0 0.0 18.0 
399.0164382684936 0.8247094025942117 59.663762776918304 18.0 0.0 0.0 18.0 
400.0023333186607 0.851120672005447 59.663762776918304 18.0 0.0 0.0 18.0 
401.0019415278648 0.9498234278018572 59.663762776918304 18.0 0.0 0.0 18.0 
402.00224192846304 1.3016800914275328 70.57546137585899 18.0 0.0 0.0 18.0 
403.0021496319156 1.363494609349395 61.03533280799007 18.0 0.0 0.0 18.0 
404.0026904079395 1.3289134079140072 61.03533280799007 18.0 0.0 0.0 18.0 
405.00081598109733 1.7016581807327882 76.7744539192513 18.0 0.0 0.0 18.0 
406.0014762741086 1.5153381380677289 70.1007359862391 18.0 0.0 0.0 18.0 
407.00178267808104 1.9260263474752353 81.62685944204975 18.0 0.0 0.0 18.0 
408.0076227712975 2.3683939324653838 95.73208974698696 18.0 0.0 0.0 18.0 
409.00715910243946 2.185446712680304 87.99433270803269 18.0 0.0 0.0 18.0 
410.00020668304256 2.1089850562991397 87.99433270803269 17.0 0.0 0.0 17.0 
411.0038543588193 2.348539514673703 87.99433270803269 17.0 0.0 0.0 18.0 
412.0012031221345 2.6258434387489236 81.24509875426986 17.0 0.0 0.0 17.0 
413.0076227712975 2.73721771908971 81.24509875426986 16.0 0.0 0.0 16.0 
414.00091770019145 2.829317349847358 87.56085877993985 17.0 0.0 0.0 16.0 
415.0023333186607 2.9291922518883426 87.56085877993985 17.0 0.0 0.0 16.0 
416.00074537081696 2.9275385219030285 80.80114854742351 18.0 0.0 0.0 16.0 
417.0012632723045 3.0769344159958965 80.80114854742351 18.0 0.0 0.0 16.0 
418.0071396268111 3.4287998450654014 87.19325714553531 17.0 0.0 0.0 15.0 
419.0023145321398 3.5298264997131987 87.19325714553531 18.0 0.0 0.0 15.0 
420.0002608350225 3.679174509695797 87.19325714553531 17.0 0.0 0.0 15.0 
421.0038452537924 3.377592538977222 80.34096193678579 17.0 0.0 0.0 15.0 
422.0002200620477 3.8447070509112575 84.65283711345643 17.0 0.0 0.0 15.0 
423.00117244244393 3.9623942473137017 87.04201835394042 17.0 0.0 0.0 14.0 
424.00060408127285 3.8665197702521805 83.81957286010146 18.0 0.0 0.0 14.0 
425.0019287821264 3.9129970093501774 83.81957286010146 18.0 0.0 0.0 14.0 
426.00518402858063 3.74768485459103 82.71573410625695 18.0 0.0 0.0 14.0 
427.0007823480477 4.011662367460143 82.71573410625695 18.0 0.0 0.0 14.0 
428.0002270800987 4.603597928173794 89.19389550972267 18.0 0.0 0.0 14.0 
429.0013124251048 4.996040819634064 89.19389550972267 18.0 0.0 0.0 14.0 
430.00173696896644 5.089777473197347 89.19389550972267 19.0 0.0 0.0 15.0 
431.00031072246156 4.8854668344750705 88.84250571511672 20.0 0.0 0.0 15.0 
432.00622848012125 5.376124521585365 100.34704207508378 19.0 0.0 0.0 15.0 
433.0045200486118 3.4092929561638683 95.09027262089762 19.0 0.0 0.0 15.0 
434.00132386767655 3.5043418395569486 100.34704207508378 19.0 0.0 0.0 15.0 
435.0002447385105 3.458684571640233 100.34704207508378 19.0 0.0 0.0 14.0 
436.00038169563254 3.169671463460291 92.92991689038212 19.0 0.0 0.0 15.0 
437.0014164324168 3.5373234857400093 111.8537869550928 19.0 0.0 0.0 15.0 
438.0007839358703 3.5208551496882596 104.19113443830213 19.0 0.0 0.0 15.0 
439.0030716589703 3.6938631507287476 111.8537869550928 19.0 0.0 0.0 15.0 
440.0007617019472 3.72210916949777 111.8537869550928 19.0 0.0 0.0 15.0 
441.0013257128047 3.537656835141961 104.19113443830213 19.0 0.0 0.0 15.0 
442.00212810714925 4.063016725736851 123.66202163168862 19.0 0.0 0.0 15.0 
443.00635201955976 3.905902841969763 115.89718995788644 19.0 0.0 0.0 15.0 
444.0025698907098 4.008395653006203 115.89718995788644 20.0 0.0 0.0 15.0 
445.0017413327853 4.393989574278311 123.66202163168862 18.0 0.0 0.0 15.0 
446.00092567641786 4.109041741445866 115.89718995788644 18.0 0.0 0.0 15.0 
447.0021913065064 4.313007514841484 127.12650011767539 19.0 0.0 0.0 16.0 
448.00070602835996 4.6778814492675815 127.12650011767539 19.0 0.0 0.0 16.0 
449.00560472041883 4.740688080664523 127.12650011767539 19.0 0.0 0.0 16.0 
450.00080499076995 4.956140000687505 127.12650011767539 19.0 0.0 0.0 16.0 
451.00282434560404 5.0049382553213295 132.46000861486147 19.0 0.0 0.0 16.0 
452.0024721148438 5.19983706573104 138.28820968635148 19.0 0.0 0.0 16.0 
453.0031211019118 5.66995079781067 138.28820968635148 18.0 0.0 0.0 16.0 
454.0001159267918 5.854498667935228 138.28820968635148 18.0 0.0 0.0 16.0 
455.00006139323455 5.761461569419311 138.28820968635148 18.0 0.0 0.0 16.0 
456.0053585868343 5.865717469843056 138.28820968635148 18.0 0.0 0.0 16.0 
457.000004223979 5.819838979115198 140.02994921305054 18.0 0.0 0.0 16.0 
458.00064016815827 6.498196251638394 149.38205656483 18.0 0.0 0.0 16.0 
459.00135718984836 6.613950985118281 149.38205656483 18.0 0.0 0.0 16.0 
460.00203367278306 6.647898880626519 149.38205656483 19.0 0.0 0.0 16.0 
461.00230855050955 6.846777102623112 149.38205656483 20.0 0.0 0.0 17.0 
462.0008482666042 7.257253660235987 160.58641481121265 20.0 0.0 0.0 18.0 
463.00406312158714 7.806937785270537 160.55813508768193 20.0 0.002003963821632411 0.7381976844127109 18.0 
464.000389324858 8.06346662601543 160.58641481121265 20.0 0.002003963821632411 0.7381976844127109 17.0 
465.0019971691706 8.211496615585613 181.19634296654124 20.0 0.002003963821632411 0.7381976844127109 17.0 
466.00008125152397 8.990341138353337 181.19634296654124 20.0 0.002003963821632411 0.7381976844127109 17.0 
467.0004712095493 9.583962953907431 181.14756605223164 20.0 0.014788504251826881 5.299506749100942 17.0 
468.00014422481433 10.425768940916166 182.09457872041315 19.0 0.043755672458372745 7.842843780857635 16.0 
469.00404929836486 11.002548725268337 182.09457872041315 20.0 0.043755672458372745 7.842843780857635 15.0 
470.0000979049004 10.243426467770952 182.09457872041315 20.0 0.043755672458372745 7.842843780857635 15.0 
471.00021508116515 10.662264401085102 182.09457872041315 21.0 0.047787170077697394 7.842843780857635 16.0 
472.0009551921042 11.167301808037276 182.54085519122327 20.0 0.10915538081008319 14.765071172219791 16.0 
473.0000471871859 12.085198917659534 182.54085519122327 18.0 0.11806772533675569 15.909706856602185 17.0 
474.0012000405125 12.460988739716978 182.54085519122327 18.0 0.13295433248593197 15.909706856602185 17.0 
475.00001829938026 12.61298301257145 182.54085519122327 18.0 0.1769869925937304 15.909706856602185 17.0 
476.0080481039279 13.16724750632849 182.54085519122327 18.0 0.1769869925937304 15.909706856602185 17.0 
477.0051838588433 12.987063047707109 193.83189061101035 18.0 0.26845920716278193 22.856333970011917 17.0 
478.0004184189179 14.042967436846986 193.83189061101035 18.0 0.2666276541191487 22.856333970011917 17.0 
479.00642336176327 13.899648580052615 193.83189061101035 18.0 0.27912832371771973 22.856333970011917 17.0 
480.0023333186607 15.012654989734425 193.83189061101035 18.0 0.31763493273439014 22.93910036739635 17.0 
481.00262883818306 14.434201603964274 193.83189061101035 18.0 0.36892076790475564 25.64291758518229 16.0 
482.0002608149198 14.603422507784936 205.3404465852816 18.0 0.49513564122162046 33.17054027117817 16.0 
483.00235953280026 15.640412879684769 205.3404465852816 19.0 0.5976484405101582 34.73456514103745 16.0 
484.00169041679305 15.22543994211827 205.3404465852816 20.0 0.6770589034295854 36.824266080689455 17.0 
485.00151969323633 15.478900450278225 205.3404465852816 19.0 0.689286569457939 36.824266080689455 17.0 
486.00359109609735 15.107680245474036 205.3404465852816 19.0 0.6836246447840361 36.824266080689455 17.0 
487.0011165250782 15.22397192666872 201.43180910235554 19.0 0.672262596287367 36.824266080689455 17.0 
488.00216151627563 14.457715814658549 201.43180910235554 19.0 0.6100622591786002 35.06010758156188 17.0 
489.00141079644965 14.692421420132707 201.43180910235554 18.0 0.6158642120689781 35.06010758156188 17.0 
490.00040367182004 14.246418342546049 201.43180910235554 18.0 0.6484342317615112 35.14856932498952 17.0 
491.00350711231914 12.64795968337981 204.18414019776463 19.0 0.644326529740095 35.14856932498952 18.0 
492.002853310994 12.958380469947011 198.97885650316158 18.0 0.6309756216229901 36.25229121787066 22.0 
493.0045049108676 12.678196297467649 198.97885650316158 19.0 0.5003416961134943 34.95381531900139 22.0 
494.00261545863015 12.645767902879646 198.97885650316158 19.0 0.43059765908959974 34.95381531900139 21.0 
495.0006730556787 12.368816748555867 204.59557485737747 19.0 0.18348229909077451 32.47153156446447 20.0 
496.0040334786685 12.056706612716471 204.59557485737747 19.0 0.1259576590156015 32.47153156446447 20.0 
497.0013590067506 12.738366826052301 198.98428792277576 19.0 0.06754432924830085 33.77216462415029 20.0 
498.0004094254863 12.486411163445421 198.98428792277576 19.0 0.0 0.0 19.0 
499.0009428537851 10.911887299152426 198.98428792277576 18.0 0.0 0.0 19.0 
500.0018422029936 11.894567784001614 204.7163799219614 18.0 0.0 0.0 19.0 
501.0008888548098 12.711108674780212 204.7163799219614 18.0 0.0 0.0 19.0 
502.0050652692092 12.716169043294187 203.7163467038028 18.0 0.0 0.0 20.0 
503.0007027209141 11.664371555561594 203.7163467038028 19.0 0.0 0.0 20.0 
504.00158363914295 11.678058132599315 203.7163467038028 19.0 0.0 0.0 19.0 
505.0023333186607 10.55460478427155 203.7163467038028 20.0 0.0 0.0 19.0 
506.00052424353566 9.347358004882448 209.64506631049755 20.0 0.0 0.0 19.0 
507.00260207907723 9.359631247181113 186.6706441422616 20.0 0.0 0.0 20.0 
508.0012213460336 9.727536773306303 194.041806584124 20.0 0.0 0.0 19.0 
509.0022784212604 9.373928981860841 194.041806584124 20.0 0.0 0.0 19.0 
510.00057861777805 9.643239789589884 194.041806584124 20.0 0.0 0.0 19.0 
511.00089213637693 8.8282353031634 186.5266051334907 20.0 0.0 0.0 19.0 
512.0011868443086 8.933253951886432 187.19747379772224 20.0 0.0 0.0 19.0 
513.0005765656474 8.356771962944665 193.9022172473135 20.0 0.0 0.0 19.0 
514.0008762141548 8.238151305617206 189.04300972702003 20.0 0.0 0.0 18.0 
515.0010614024171 7.2721325813921025 189.04300972702003 20.0 0.0 0.0 18.0 
516.0004914262587 8.436685030491331 189.72775186856762 20.0 0.0 0.0 18.0 
517.0000513792131 7.5373819514037335 189.04300972702003 19.0 0.0 0.0 17.0 
518.0004875558478 7.255533384597037 196.80095472834802 19.0 0.0 0.0 17.0 
519.0007675241591 8.124156560563508 196.80095472834802 20.0 0.0 0.0 17.0 
520.0013063029351 8.180779013965745 194.45468857341677 19.0 0.0 0.0 17.0 
521.0037030507971 8.101854570145644 187.03505886846068 19.0 0.0 0.0 17.0 
522.0022090192997 7.36048210469647 183.7307070793181 21.0 0.0 0.0 18.0 
523.0013089568549 7.183690587661897 183.7307070793181 21.0 0.0 0.0 18.0 
524.0007357360561 7.646112699827985 236.80903621632513 21.0 0.0 0.0 18.0 
525.0003772113985 7.6369934182663695 241.7349150917845 20.0 0.0 0.0 18.0 
526.000552529886 7.460483398327763 241.7349150917845 20.0 0.0 0.0 18.0 
527.0009550819 7.848351847811064 238.82884933478448 20.0 0.0 0.0 20.0 
528.0009856122524 7.803946917613454 238.82884933478448 20.0 0.0 0.0 23.0 
529.0051187141223 7.985922908834201 238.82884933478448 20.0 0.0 0.0 22.0 
530.0000880270267 7.6201634168751 178.90685777201838 21.0 0.0 0.0 24.0 
531.000593506446 6.512452974883092 178.90685777201838 24.0 0.0 0.0 24.0 
532.0008651800332 6.27975519599953 175.97049636411742 23.0 0.0 0.0 24.0 
533.0025753199715 6.159521399403709 175.97049636411742 22.0 0.0 0.0 24.0 
534.0013864189114 5.399989862979917 172.20380721393434 21.0 0.0 0.0 23.0 
535.0006626247442 5.456693980584096 172.20380721393434 21.0 0.0 0.0 23.0 
536.0035681089147 4.977402060493989 172.20380721393434 22.0 0.0 0.0 24.0 
537.0032220294643 5.6067885722391475 171.86936794564662 22.0 0.0 0.0 23.0 
538.0004454747428 5.996092397645871 171.86936794564662 22.0 0.0 0.0 23.0 
539.0006527745925 5.566637427773848 171.86936794564662 22.0 0.0 0.0 23.0 
540.0011227743859 5.736938129217632 171.86936794564662 22.0 0.0 0.0 22.0 
541.0010300997952 5.775656952313915 171.86936794564662 22.0 0.0 0.0 21.0 
542.0068162058025 5.476389740519347 160.16336898214 22.0 0.0 0.0 21.0 
543.0028673440966 6.046830991816593 172.4623148574541 22.0 0.0 0.0 21.0 
544.0004204349395 5.532214207437561 149.58360705923093 22.0 0.0 0.0 21.0 
545.0004456576517 5.2539696757596985 156.61908891055816 22.0 0.0 0.0 21.0 
546.0005107041354 5.453762080279649 156.61908891055816 22.0 0.0 0.0 21.0 
547.0016132820351 5.454431006588873 154.3842084781691 22.0 0.0 0.0 21.0 
548.0000608961695 5.590661284761513 145.3287900527004 22.0 0.0 0.0 21.0 
549.0028741493417 5.151536011712451 145.3287900527004 22.0 0.0 0.0 21.0 
550.0013205941501 5.30026550127306 145.3287900527004 22.0 0.0 0.0 21.0 
551.004369371843 5.334550921397559 143.6253194371464 20.0 0.0 0.0 21.0 
552.0004299135629 5.354469034525222 150.5350509928137 20.0 0.0 0.0 21.0 
553.0031399503905 5.666865547620525 150.5350509928137 20.0 0.0 0.0 21.0 
554.0014798984902 5.648452546896534 150.5350509928137 20.0 0.0 0.0 21.0 
555.0023333186607 6.450575113677904 156.26092908824506 20.0 0.0 0.0 21.0 
556.0026475400754 6.063960448965755 151.05436222846106 20.0 0.0 0.0 21.0 
557.0036202443687 5.7997930810620515 157.93793026561372 19.0 0.0 0.0 21.0 
558.0009880879088 6.141518962439912 157.93793026561372 19.0 0.0 0.0 20.0 
559.0025485608656 6.605460414782302 161.07079543601793 19.0 0.0 0.0 19.0 
560.0023333186607 6.327745139841158 161.07079543601793 19.0 0.0 0.0 19.0 
561.0057711384569 6.205647463768944 161.07079543601793 19.0 0.0 0.0 19.0 
562.0026270951194 4.199007132199764 132.69326581834503 19.0 0.0 0.0 19.0 
563.0004556464596 4.990054647906001 132.5483665619006 19.0 0.0 0.0 18.0 
564.0033038025988 4.95550874662169 132.5483665619006 19.0 0.0 0.0 18.0 
565.0001811461891 4.8346443580710545 132.5483665619006 19.0 0.0 0.0 19.0 
566.0011881160154 4.762538021631498 127.19901258110627 19.0 0.0 0.0 19.0 
567.0004503720753 4.570064269747337 133.473573025725 19.0 0.0 0.0 19.0 
568.0016574137636 5.033025653507119 133.473573025725 19.0 0.0 0.0 19.0 
569.0004297424766 5.022848554913093 145.63759980531302 19.0 0.0 0.0 19.0 
570.0000154669002 4.693376909767305 128.1761297063673 19.0 0.0 0.0 19.0 
571.0013698704636 4.730652645617923 128.1761297063673 19.0 0.0 0.0 19.0 
572.0025351813127 4.903036913035709 134.6493703976916 19.0 0.0 0.0 19.0 
573.000077137558 5.32158568789309 146.52973376377236 19.0 0.0 0.0 19.0 
574.0015436266368 4.991323472674326 146.52973376377236 20.0 0.0 0.0 17.0 
575.0000026260905 4.381225283424053 146.52973376377236 20.0 0.0 0.0 17.0 
576.001146998211 4.002805454101329 137.87752963962896 20.0 0.0 0.0 17.0 
577.0006182443731 4.54861991822725 144.50252911552963 20.0 0.0 0.0 17.0 
578.0012671619074 3.9139625991841944 147.49509137229046 20.0 0.0 0.0 18.0 
579.0030405509594 4.192970839607637 150.02945419636956 20.0 0.0 0.0 18.0 
580.0017520519596 3.1847992204925752 150.02945419636956 21.0 0.0 0.0 18.0 
581.0010002625628 3.1870048543407115 153.9558814441786 22.0 0.0 0.0 19.0 
582.0033678613505 2.4628970352195747 153.9558814441786 22.0 0.0 0.0 19.0 
583.0023745579877 1.9234753639025204 91.51438700637004 21.0 0.0 0.0 20.0 
584.0000889646936 1.5568544336840717 71.07989532191408 21.0 0.0 0.0 20.0 
585.0023265877246 1.144274347909656 71.07989532191408 21.0 0.0 0.0 20.0 
586.0023676337123 1.1441429505196299 77.02269919485917 21.0 0.0 0.0 21.0 
587.0033581387019 0.8797720664911254 74.01488995143603 21.0 0.0 0.0 20.0 
588.0030334997707 0.47736611263794065 43.06739817463301 20.0 0.0 0.0 20.0 
589.0012384874523 0.1823687320948626 44.22169881330146 20.0 0.0 0.0 20.0 
590.0023333186607 0.1179842305199914 51.29282090495644 21.0 0.0 0.0 20.0 
591.0051330267693 0.031776586341015156 5.026527285139224 20.0 0.0 0.0 19.0 
592.0017747695745 0.022136269191355584 5.026527285139224 20.0 0.0 0.0 21.0 
593.0001678142004 0.02409950712518026 5.994062240406379 20.0 0.0 0.0 21.0 
594.0023936842365 0.024836433841987353 5.994062240406379 20.0 0.0 0.0 20.0 
595.0023333186607 0.024836433841987353 5.994062240406379 20.0 0.0 0.0 20.0 
596.0043188933246 0.03516458156636579 12.880228073896774 20.0 0.0 0.0 19.0 
597.0043698725842 0.03516458156636579 12.880228073896774 20.0 0.0 0.0 19.0 
598.0025084222069 0.05261502638810511 15.283702731655069 20.0 0.0 0.0 18.0 
599.0018620038227 0.038529049604927645 15.283702731655069 19.0 0.0 0.0 18.0 
600.0009373996885 0.05298509256225825 15.283702731655069 19.0 0.0 0.0 18.0 
#####################################################################
# End of data export. Simulation finished at: 2019-02-25T20:44+0000 #
#####################################################################
