#####################################################################
# Alchemist log file - simulation started at: 2019-02-25T20:01+0000 #
#####################################################################
# seed = 28.0
#
# The columns have the following meaning: 
# time distance-rep[Mean] distance-rep[Max] leader-rep[CountDistinct] distance-share[Mean] distance-share[Max] leader-share[CountDistinct] 
0.0 NaN NaN NaN NaN NaN NaN 
1.004459069292429 0.0 0.0 499.0 0.0 0.0 65.0 
2.0010094443331745 0.0 0.0 111.0 0.0 0.0 63.0 
3.0030474623823875 0.0 0.0 106.0 0.0 0.0 58.0 
4.001769737396842 0.0 0.0 102.0 0.0010133566816135178 0.5066783408067579 54.0 
5.000847995230437 0.0 0.0 97.0 0.0 0.0 48.0 
6.002114509698518 0.0 0.0 94.0 0.0 0.0 47.0 
7.000467070362207 0.0 0.0 87.0 0.0 0.0 45.0 
8.001720789675238 0.0 0.0 87.0 0.0 0.0 40.0 
9.000932729561928 0.0 0.0 79.0 0.0 0.0 38.0 
10.000680181488526 0.0 0.0 75.0 0.0 0.0 37.0 
11.000572787814967 0.0 0.0 79.0 0.0 0.0 33.0 
12.00117177703851 0.0 0.0 70.0 0.01844095218145786 9.220476090728937 32.0 
13.000427858091344 0.0 0.0 69.0 0.01844095218145786 9.220476090728937 28.0 
14.003373097068604 0.0 0.0 64.0 0.0 0.0 32.0 
15.001029596506712 0.0 0.0 61.0 0.0 0.0 31.0 
16.000894785325706 0.0 0.0 60.0 0.0 0.0 29.0 
17.002805909260925 0.0 0.0 57.0 0.0 0.0 30.0 
18.00244789353757 0.0 0.0 57.0 0.0 0.0 29.0 
19.000499846325305 0.0 0.0 55.0 0.005744672016111078 2.8723360080555267 27.0 
20.00102959650671 0.0 0.0 53.0 0.02381669920053742 8.685949426587655 23.0 
21.004056629586543 0.0 0.0 52.0 0.006444800347362197 3.2224001736810806 22.0 
22.002001660985965 0.0 0.0 50.0 0.009444410762324815 3.2224001736810806 21.0 
23.000003547712698 0.0 0.0 49.0 0.04844682890649145 19.50120907208344 21.0 
24.00055914134449 0.0 0.0 46.0 0.07214026936483482 19.50120907208344 22.0 
25.00102959650671 0.0 0.0 46.0 0.018817380898923274 7.393581792890245 23.0 
26.004127888641754 0.0 0.0 43.0 0.0 0.0 22.0 
27.001549129927128 0.0 0.0 43.0 0.0 0.0 22.0 
28.003047462382387 0.0 0.0 42.0 0.0 0.0 20.0 
29.002012453552474 0.0 0.0 42.0 1.6023109382768885E-4 0.08011554691384504 18.0 
30.00025836314157 0.0 0.0 38.0 1.6023109382768885E-4 0.08011554691384504 19.0 
31.00218371145863 0.0 0.0 39.0 0.028984324063307598 9.979178581755576 19.0 
32.00138653985895 0.0 0.0 39.0 0.028824092969479964 9.979178581755576 19.0 
33.00120607218604 0.0 0.0 40.0 0.028824092969479964 9.979178581755576 19.0 
34.00349275381121 0.0 0.0 38.0 0.008865735805968626 4.432867902984327 17.0 
35.00102959650671 0.0 0.0 38.0 0.0 0.0 19.0 
36.00510616283449 0.0 0.0 37.0 0.0 0.0 19.0 
37.00033450226214 0.0 0.0 38.0 0.0 0.0 19.0 
38.00128271864347 0.0 0.0 38.0 0.0 0.0 18.0 
39.00621137379423 0.0 0.0 38.0 0.0 0.0 18.0 
40.00102959650671 0.008461241717486728 4.23062085874335 38.0 0.0 0.0 18.0 
41.00242206828848 0.0 0.0 36.0 0.0 0.0 18.0 
42.00276740286415 0.0 0.0 36.0 0.0 0.0 18.0 
43.00241366683958 0.007198307904706146 3.599153952353049 36.0 0.0 0.0 19.0 
44.00035149966165 0.026387802363194296 9.594747229244092 37.0 0.0 0.0 19.0 
45.00102959650671 0.04113226989753371 10.97138771952271 35.0 0.0 0.0 19.0 
46.00167370624581 0.0041771320572200656 2.088566028610046 36.0 0.0 0.0 19.0 
47.000093371964056 0.02155585737399488 10.777928686997484 38.0 0.0 0.0 18.0 
48.00304746238238 0.0 0.0 37.0 0.0 0.0 18.0 
49.00065593283718 0.0 0.0 37.0 0.0 0.0 17.0 
50.000726242254125 0.0 0.0 38.0 0.0 0.0 17.0 
51.0004321846774 0.03642527024138681 18.212635120693562 39.0 0.0 0.0 17.0 
52.000045688523514 0.034847656169433174 17.423828084716774 36.0 0.0 0.0 18.0 
53.00007440339754 0.06056800687450991 17.423828084716774 36.0 0.0 0.0 19.0 
54.00159031635577 0.0 0.0 35.0 0.0 0.0 19.0 
55.00102959650671 0.0 0.0 34.0 0.0 0.0 18.0 
56.00126198549878 0.0 0.0 32.0 0.0 0.0 18.0 
57.00033439615866 0.0 0.0 30.0 0.0 0.0 17.0 
58.00069911617229 0.0 0.0 28.0 0.0 0.0 17.0 
59.00004005660877 0.0 0.0 28.0 0.0 0.0 17.0 
60.00102959650671 0.0 0.0 29.0 0.0 0.0 17.0 
61.00009754535412 0.0 0.0 29.0 0.0 0.0 17.0 
62.001429500516124 0.0 0.0 28.0 0.0 0.0 17.0 
63.00035787243514 0.0 0.0 28.0 0.0 0.0 18.0 
64.00021942311366 0.0 0.0 28.0 0.0 0.0 18.0 
65.00075849801998 0.0 0.0 28.0 0.0 0.0 18.0 
66.00401455590575 0.0 0.0 26.0 0.0 0.0 18.0 
67.00081113286322 0.0 0.0 27.0 0.0 0.0 18.0 
68.00034566696169 0.0 0.0 25.0 0.0 0.0 18.0 
69.00258628783708 0.0 0.0 25.0 0.0 0.0 17.0 
70.00102959650671 0.0 0.0 25.0 0.0 0.0 16.0 
71.00047196462496 0.0 0.0 25.0 0.0 0.0 16.0 
72.00118543548506 0.0 0.0 25.0 0.0 0.0 16.0 
73.00044476540737 0.0 0.0 23.0 0.0 0.0 16.0 
74.00118521283122 0.0 0.0 23.0 0.0 0.0 16.0 
75.00102959650671 0.0 0.0 23.0 0.0 0.0 16.0 
76.00029935822745 0.0 0.0 22.0 0.0 0.0 16.0 
77.00313569602122 0.0 0.0 23.0 0.0 0.0 16.0 
78.00131362943172 0.0 0.0 22.0 0.0 0.0 17.0 
79.00008469369575 0.0 0.0 23.0 0.0 0.0 17.0 
80.00102959650671 0.0 0.0 22.0 0.0 0.0 17.0 
81.00164917174163 0.0 0.0 23.0 0.0 0.0 16.0 
82.00430102931278 0.0 0.0 24.0 0.0 0.0 18.0 
83.00119489297985 0.0 0.0 23.0 0.0 0.0 18.0 
84.00056523294302 0.0 0.0 24.0 0.0 0.0 18.0 
85.00054972313748 0.0 0.0 23.0 0.0 0.0 18.0 
86.00032102189654 0.0 0.0 23.0 0.0 0.0 18.0 
87.0010199724429 0.0 0.0 23.0 0.0 0.0 18.0 
88.00098516486358 0.0 0.0 23.0 0.0 0.0 18.0 
89.00362231672321 0.0 0.0 23.0 0.0 0.0 18.0 
90.00102959650671 0.0 0.0 23.0 0.0 0.0 18.0 
91.00441919643205 0.0 0.0 23.0 0.0 0.0 17.0 
92.00950593997163 0.0 0.0 23.0 0.0 0.0 18.0 
93.00064820119789 0.0 0.0 23.0 0.0 0.0 17.0 
94.00109901920655 0.0 0.0 23.0 0.0 0.0 18.0 
95.00026356022764 0.0 0.0 24.0 0.0 0.0 18.0 
96.00444420789121 0.0 0.0 24.0 0.0 0.0 18.0 
97.00167349955291 0.0 0.0 23.0 0.0 0.0 18.0 
98.00010526385186 0.0 0.0 24.0 0.0 0.0 18.0 
99.00136241515014 0.0 0.0 22.0 0.0 0.0 18.0 
100.00102959650671 0.0011003917025777716 0.5501958512888905 21.0 0.0 0.0 18.0 
101.00151093513476 0.005487636472369969 2.193622384896088 21.0 0.0 0.0 18.0 
102.00157047732192 0.00696913205878335 2.193622384896088 21.0 0.0 0.0 18.0 
103.00304746238238 0.05041671474766857 9.41306901343566 21.0 0.0 0.0 18.0 
104.00784574633023 0.01598153846124692 7.990769230623471 21.0 0.0 0.0 18.0 
105.00004006798167 0.0 0.0 21.0 0.0 0.0 18.0 
106.00098245608979 0.0 0.0 21.0 0.0 0.0 18.0 
107.00037879738436 0.0 0.0 21.0 0.0 0.0 19.0 
108.00074118231299 0.0 0.0 21.0 0.0 0.0 19.0 
109.0016341082694 0.0 0.0 21.0 0.0 0.0 19.0 
110.00102959650671 0.0 0.0 21.0 0.0 0.0 19.0 
111.00581975118925 0.0 0.0 21.0 0.0 0.0 19.0 
112.00455742656388 0.0 0.0 21.0 0.0 0.0 19.0 
113.00304746238238 0.0 0.0 21.0 0.0 0.0 19.0 
114.002395005726 0.0 0.0 21.0 0.0 0.0 20.0 
115.00028080988763 0.0 0.0 21.0 0.0 0.0 19.0 
116.00091547606168 0.0 0.0 21.0 0.0 0.0 19.0 
117.00963314179114 0.0 0.0 21.0 0.0 0.0 18.0 
118.00164548625209 0.0 0.0 21.0 0.0 0.0 18.0 
119.00094499082992 0.0 0.0 21.0 0.0 0.0 20.0 
120.00041841439929 0.0 0.0 21.0 0.0 0.0 20.0 
121.0000215545061 0.0 0.0 20.0 0.0 0.0 19.0 
122.00057373424407 0.0 0.0 21.0 0.0 0.0 20.0 
123.0006728149853 0.0 0.0 21.0 0.0 0.0 20.0 
124.00099584771655 0.0 0.0 21.0 0.0 0.0 20.0 
125.00102959650671 0.0 0.0 21.0 0.0 0.0 20.0 
126.00250461115347 0.05852695867488017 29.263479337440003 21.0 0.0 0.0 20.0 
127.00161233848813 0.05852695867488017 29.263479337440003 20.0 0.0 0.0 20.0 
128.0007200658228 0.11483285907604789 29.263479337440003 20.0 0.0 0.0 20.0 
129.0022162831236 0.05086403825075905 21.196825712341024 20.0 0.0 0.0 20.0 
130.00102959650673 0.0645602517434572 21.196825712341024 20.0 0.0 0.0 20.0 
131.0005460949236 0.05086403825075905 21.196825712341024 20.0 0.0 0.0 20.0 
132.00028604349083 0.05086403825075905 21.196825712341024 20.0 0.0 0.0 20.0 
133.00304746238237 0.05854894269105154 21.255713926867287 20.0 0.0 0.0 20.0 
134.00017201987225 0.07297835376634097 21.255713926867287 20.0 0.0 0.0 20.0 
135.00102959650673 0.06827158578964135 21.255713926867287 20.0 0.0 0.0 20.0 
136.0016167052195 0.06827158578964135 21.255713926867287 20.0 0.0 0.0 20.0 
137.00368899198938 0.09096378720905876 21.255713926867287 20.0 0.0 0.0 20.0 
138.00145155638458 0.2180685681575211 43.76187037191022 20.0 0.0 0.0 20.0 
139.00597629553968 0.08893650726225803 21.367974440508135 20.0 0.0 0.0 20.0 
140.00001206517595 0.19998307205708882 36.8729589114009 20.0 0.0 0.0 20.0 
141.00380215075342 0.3155872372369959 42.06983142983336 19.0 0.0 0.0 20.0 
142.0006926310917 0.3155872372369959 42.06983142983336 19.0 0.0 0.0 20.0 
143.00076379304852 0.3767767107246055 49.47294875678591 19.0 0.0 0.0 20.0 
144.01011162361533 0.34972352704859117 49.47294875678591 20.0 0.0 0.0 21.0 
145.00102959650673 0.3350516116181516 49.47294875678591 20.0 0.0 0.0 21.0 
146.0014796069432 0.0 0.0 20.0 0.0 0.0 20.0 
147.00183511275847 0.0 0.0 19.0 0.0 0.0 20.0 
148.00304746238237 0.0 0.0 19.0 0.0 0.0 20.0 
149.00199184952677 0.0 0.0 20.0 0.0 0.0 19.0 
150.00102959650673 0.0 0.0 20.0 0.0 0.0 19.0 
151.00154344377975 0.0 0.0 20.0 0.0 0.0 19.0 
152.0037621732691 0.0 0.0 20.0 0.0 0.0 19.0 
153.0008134329674 0.0 0.0 21.0 0.0 0.0 20.0 
154.00046917137743 0.0 0.0 21.0 0.0 0.0 20.0 
155.00102959650673 0.0 0.0 21.0 0.0 0.0 20.0 
156.00324042178386 0.0 0.0 21.0 0.0 0.0 20.0 
157.0030617806041 0.0 0.0 21.0 0.0 0.0 20.0 
158.0008026707234 0.0 0.0 21.0 0.0 0.0 20.0 
159.0007891231937 0.0 0.0 21.0 0.0 0.0 20.0 
160.00073714708046 0.012709588001919056 3.9969664397610245 21.0 0.0 0.0 20.0 
161.0001623205458 0.012709588001919056 3.9969664397610245 20.0 0.0 0.0 20.0 
162.00103883863656 0.012709588001919056 3.9969664397610245 21.0 0.0 0.0 20.0 
163.00008027849267 0.02284595152663593 5.0681817623583925 21.0 0.0 0.0 20.0 
164.00443180541302 0.03321852490292477 7.544114249342897 21.0 0.0 0.0 21.0 
165.00102959650673 0.063519887155943 15.521329909970206 20.0 0.0 0.0 20.0 
166.00254103098837 0.07005050457684571 15.521329909970206 21.0 0.0 0.0 20.0 
167.00170923833647 0.09292982863939954 15.521329909970206 21.0 0.0 0.0 20.0 
168.00228525732837 0.10333887280779215 16.644184115473564 21.0 0.0 0.0 19.0 
169.0002364142682 0.06683091082073107 16.644184115473564 21.0 0.0 0.0 19.0 
170.00102959650673 0.029067947027566834 7.474059152861457 21.0 0.0 0.0 19.0 
171.0021840127067 0.014119828721843952 7.059914360921994 20.0 0.0 0.0 19.0 
172.00078538759408 0.014119828721843952 7.059914360921994 20.0 0.0 0.0 19.0 
173.00050558432466 0.0 0.0 20.0 0.0 0.0 20.0 
174.00064671248697 0.0 0.0 20.0 0.0 0.0 23.0 
175.00102959650673 2.6491881478705215E-6 0.001324594073935259 21.0 0.0 0.0 21.0 
176.00064205494297 5.298376295741043E-6 0.001324594073935259 21.0 0.0 0.0 21.0 
177.00035435600793 2.6491881478705215E-6 0.001324594073935259 20.0 0.0 0.0 20.0 
178.00044948852292 0.0 0.0 20.0 0.0 0.0 20.0 
179.0000700362804 5.008524524688499E-4 0.2504262262344241 21.0 0.0 0.0 20.0 
180.00102959650673 0.0 0.0 23.0 0.0 0.0 21.0 
181.00025709981844 0.0 0.0 22.0 0.0 0.0 21.0 
182.00229392138235 0.0 0.0 22.0 0.0 0.0 21.0 
183.000037855407 0.0 0.0 22.0 0.0 0.0 21.0 
184.00049828479496 1.8615574556054182E-4 0.09307787278027035 22.0 0.0 0.0 21.0 
185.0007401575227 0.0 0.0 22.0 0.0 0.0 21.0 
186.00256869330994 0.0 0.0 22.0 0.0 0.0 21.0 
187.00885002573912 0.0 0.0 21.0 0.0 0.0 21.0 
188.00093414733982 0.0 0.0 21.0 0.0 0.0 21.0 
189.0076233157462 0.0 0.0 21.0 0.0 0.0 22.0 
190.00102959650673 0.01041761937957725 5.208809689788637 21.0 0.0 0.0 22.0 
191.0006645309753 0.01041761937957725 5.208809689788637 20.0 0.0 0.0 22.0 
192.00061234633606 0.01041761937957725 5.208809689788637 20.0 0.0 0.0 22.0 
193.00304746238237 0.01563379972469631 5.208809689788637 20.0 0.0 0.0 21.0 
194.00004596983996 0.011782380423058084 3.2609645208450786 21.0 0.0 0.0 21.0 
195.000076912866 0.011782380423058084 3.2609645208450786 21.0 0.0 0.0 21.0 
196.00596424194833 0.018362418424746736 3.2609645208450786 22.0 0.0 0.0 21.0 
197.0025267784273 0.02185114098065256 3.2609645208450786 22.0 0.0 0.0 21.0 
198.0000559084847 0.07907031570151085 10.00940484185125 21.0 0.0 0.0 21.0 
199.00146840555323 0.10635208819022937 10.358036683042286 21.0 0.0 0.0 21.0 
200.00102959650673 0.08563601482414451 10.00940484185125 21.0 0.0 0.0 21.0 
201.0016585314437 0.14238055506949376 14.397363500666387 21.0 0.0 0.0 21.0 
202.00186948986286 0.14659165677087205 14.725639662423305 21.0 0.0 0.0 21.0 
203.0022113457453 0.19597431100074697 18.31150185683265 21.0 0.0 0.0 21.0 
204.00005638861245 0.375583829503351 22.757995558884403 21.0 0.0 0.0 22.0 
205.00102959650673 0.27794124135186477 21.64574276152362 21.0 0.0 0.0 22.0 
206.00153864243936 0.42567533296007437 25.195138549516855 21.0 0.0 0.0 21.0 
207.00133272185334 0.31569860492604107 21.041289454467403 21.0 0.0 0.0 21.0 
208.00182092466463 0.5227314983538575 32.066659787667334 21.0 0.0 0.0 21.0 
209.00287535220784 0.5006655339340783 32.066659787667334 21.0 0.0 0.0 20.0 
210.00102959650673 0.5648583890188926 34.21565442346767 21.0 0.0 0.0 20.0 
211.00424572619093 0.5614380385864967 34.21565442346767 20.0 0.0 0.0 20.0 
212.00590796726712 0.5692759101450899 34.21565442346767 20.0 0.0 0.0 20.0 
213.00231893685975 0.6395326050211985 36.876165713081036 20.0 0.0 0.0 19.0 
214.00224419617263 0.7401783868094975 46.21543387499352 18.0 0.0 0.0 19.0 
215.00102959650673 0.7975243822283662 46.21543387499352 17.0 0.0 0.0 18.0 
216.00154971247164 0.648192597490798 38.96490101833061 17.0 0.0 0.0 18.0 
217.0010712501397 0.7514427029482413 73.0419349413574 17.0 0.0 0.0 18.0 
218.00008692556113 0.9141234964601782 79.67642970104328 17.0 0.0 0.0 18.0 
219.00138503486224 0.9868854177364976 79.67642970104328 17.0 0.0 0.0 18.0 
220.00024178457576 0.902692818050135 79.67642970104328 17.0 0.0 0.0 18.0 
221.00007373175754 1.0591085149243018 80.10329760801176 17.0 0.0 0.0 18.0 
222.00016375888342 1.0495409816154158 80.10329760801176 17.0 0.0 0.0 18.0 
223.0011944645148 1.0358228154954696 86.78340891564284 17.0 0.0 0.0 19.0 
224.0038991523098 1.080972044199047 86.78340891564284 17.0 0.0 0.0 19.0 
225.00068158273163 0.9074052263677617 79.47113281948782 17.0 0.0 0.0 19.0 
226.00197946699836 1.0701211054480788 79.83509321285203 17.0 0.0 0.0 19.0 
227.00157943748914 1.0673673734090214 79.83509321285203 17.0 0.0 0.0 19.0 
228.00304746238237 1.1119657734413058 79.83509321285203 17.0 0.0 0.0 19.0 
229.00048020853845 1.3190308883722195 86.00706096931577 17.0 6.990070973674882E-4 0.34950354868374234 19.0 
230.00102959650673 1.1432219879979848 84.76776276936101 17.0 0.0 0.0 19.0 
231.00671236000517 1.1399756883728642 84.76776276936101 16.0 0.0 0.0 19.0 
232.0019237953885 1.231083827029834 77.9222270574304 16.0 0.0 0.0 19.0 
233.00086612968624 1.2682504780474315 77.9222270574304 16.0 0.0 0.0 19.0 
234.00164909792863 1.1790803681097022 81.19986722446902 16.0 0.0 0.0 19.0 
235.00102959650673 1.3023562946115042 81.19986722446902 16.0 0.0 0.0 19.0 
236.00182542882092 1.2348505181396492 81.19986722446902 16.0 0.0 0.0 19.0 
237.00072018168 1.0992968109076222 78.51757475884853 16.0 0.0 0.0 19.0 
238.00304746238237 1.1435990759882886 82.66347865427178 16.0 0.0 0.0 19.0 
239.00018548945414 1.1780962440924958 82.66347865427178 16.0 0.0 0.0 19.0 
240.00000610822627 1.2014833451154534 84.0089267413885 16.0 0.0 0.0 19.0 
241.00219670265673 1.2456759686606216 84.0089267413885 17.0 0.0065739873476319734 3.2869936738159993 18.0 
242.00056975332006 1.2546109848124383 84.0089267413885 17.0 0.0065739873476319734 3.2869936738159993 18.0 
243.0012263922651 1.4180647166131644 88.2268025410574 17.0 0.008271036054585077 4.135518027292505 18.0 
244.00131285200638 1.3594046406618026 88.2268025410574 17.0 0.008271036054585077 4.135518027292505 17.0 
245.00061854841886 1.5023030439539264 84.23177208940638 17.0 0.008271036054585077 4.135518027292505 16.0 
246.00105676053417 1.517099005897326 85.13618247775605 17.0 0.022766300200890197 11.383150100445164 16.0 
247.00052319087615 1.4012092039253137 85.37808326672763 17.0 0.022766300200890197 11.383150100445164 16.0 
248.00007671885916 1.0311984933163316 87.60978834681362 18.0 0.02510363842639555 12.551819213197831 16.0 
249.00005195393044 0.8712866319918826 90.47698696510122 19.0 0.02510363842639555 12.551819213197831 17.0 
250.00102959650673 1.0209979616934517 90.47698696510122 19.0 0.02510363842639555 12.551819213197831 17.0 
251.00312907556952 1.0144601857462532 93.00055678004867 19.0 0.0 0.0 18.0 
252.00142024529427 0.6747077051255647 90.47698696510122 18.0 0.0 0.0 18.0 
253.0004473719599 0.3202755582036447 85.02630850735585 18.0 0.0 0.0 17.0 
254.00208706767123 0.24734306855291022 34.47254830475296 18.0 0.0 0.0 17.0 
255.00089756631928 0.2071104497832581 36.33851400627603 18.0 0.0 0.0 17.0 
256.0000751156793 0.06702597690926877 33.51298845463444 19.0 0.0 0.0 17.0 
257.0009233038498 0.0 0.0 20.0 0.0 0.0 17.0 
258.00304746238237 0.0 0.0 20.0 0.0 0.0 17.0 
259.00093025129604 0.0 0.0 20.0 0.0 0.0 17.0 
260.0010295965067 0.0 0.0 20.0 0.0 0.0 17.0 
261.00057178415256 0.0 0.0 20.0 0.0 0.0 16.0 
262.0011737688415 0.0 0.0 20.0 0.0 0.0 16.0 
263.0009976067829 0.0 0.0 20.0 0.0 0.0 15.0 
264.00582752290785 0.0 0.0 20.0 0.0 0.0 15.0 
265.0010295965067 0.0 0.0 20.0 0.0 0.0 15.0 
266.000218681273 0.0 0.0 20.0 0.0 0.0 16.0 
267.0010862268928 0.0 0.0 19.0 0.0 0.0 17.0 
268.0013612264613 0.0 0.0 20.0 0.0 0.0 16.0 
269.00023777604156 0.0 0.0 20.0 0.0 0.0 16.0 
270.0010295965067 0.0 0.0 18.0 0.0 0.0 16.0 
271.00199124820426 0.0 0.0 19.0 0.0 0.0 16.0 
272.0018669940478 0.0062695022480688724 3.1347511240344375 19.0 0.0 0.0 16.0 
273.0006501904847 0.0062695022480688724 3.1347511240344375 18.0 0.0 0.0 16.0 
274.0018754373329 0.0 0.0 20.0 0.0 0.0 16.0 
275.0010295965067 0.0 0.0 19.0 0.0 0.0 16.0 
276.00359618630915 0.008347602889835068 4.17380144491753 21.0 0.0 0.0 16.0 
277.0004392583605 0.023277666337470002 11.638833168735033 20.0 0.0 0.0 17.0 
278.0023914621507 0.025775859821485236 12.887929910742741 20.0 0.0 0.0 16.0 
279.0000671850217 0.0 0.0 20.0 0.0 0.0 16.0 
280.0010295965067 0.02740220146141232 13.701100730706116 20.0 0.0 0.0 16.0 
281.00072566381897 0.04554442416841857 20.924861538916446 21.0 0.0 0.0 17.0 
282.00447719538687 0.04531634462068109 20.924861538916446 21.0 0.0 0.0 17.0 
283.00287262841636 0.09197224829878244 23.32795183905077 21.0 0.0 0.0 17.0 
284.0033958196568 0.09882750520606207 23.32795183905077 21.0 0.0 0.0 17.0 
285.0010295965067 0.09197224829878244 23.32795183905077 21.0 0.0 0.0 16.0 
286.0017661015263 0.09699220683775656 23.181103681912617 20.0 0.0 0.0 17.0 
287.00179282059764 0.13974662134250265 23.622853148414038 19.0 0.0 0.0 17.0 
288.00278373611985 0.13974662134250265 23.622853148414038 19.0 0.0 0.0 17.0 
289.0040032358676 0.15467186656660553 23.622853148414038 19.0 0.0 0.0 16.0 
290.0005158076035 0.15467186656660553 23.622853148414038 19.0 0.0 0.0 16.0 
291.00152467361903 0.18339426263354142 23.865026505441392 19.0 0.0 0.0 16.0 
292.00007603811656 0.21292904185734457 31.12860063799741 19.0 0.0 0.0 16.0 
293.0000919611407 0.3162311116258815 51.65103488426874 18.0 0.0 0.0 16.0 
294.00924229844986 0.3310951528137617 51.65103488426874 18.0 0.0 0.0 16.0 
295.00046483368385 0.3418596480246898 44.23654248786403 18.0 0.0 0.0 16.0 
296.0004682893823 0.40475561566219875 51.46626368167577 17.0 0.0 0.0 16.0 
297.0010799186812 0.4633282224184442 51.46626368167577 17.0 0.0 0.0 16.0 
298.0025450570534 0.5930761950893253 64.87398633544109 17.0 0.0 0.0 16.0 
299.000950685215 0.4633282224184442 51.46626368167577 17.0 0.0 0.0 16.0 
300.00018444474784 0.691636887117486 57.4628669916205 17.0 0.010518057393837642 5.25902869691879 17.0 
301.00570468029844 0.7307109758171652 57.4628669916205 17.0 0.0 0.0 18.0 
302.0041728797961 0.9197450077984486 64.83196533252959 18.0 0.0 0.0 18.0 
303.00127523295566 0.9024158309696205 64.83196533252959 18.0 0.0 0.0 18.0 
304.00101747310487 0.8856197873861256 60.63515044999889 18.0 0.0 0.0 18.0 
305.0001294696851 0.7835187779856907 60.63515044999889 19.0 0.0 0.0 18.0 
306.00177304089124 0.7898520806079117 64.91161117320331 19.0 0.0 0.0 18.0 
307.0037038630993 0.6973804402783859 65.82696818566342 19.0 0.0 0.0 18.0 
308.0002028652163 0.957601280023209 75.59942024239922 19.0 0.0 0.0 18.0 
309.00192391222544 0.800538769815307 65.82696818566342 18.0 0.0 0.0 18.0 
310.00066716516744 0.9444748120517771 75.59942024239922 18.0 0.0 0.0 18.0 
311.0020281595806 1.0950636669942575 83.87891821041353 19.0 0.0 0.0 18.0 
312.0007835050213 1.1845558365104853 83.87891821041353 19.0 0.0 0.0 18.0 
313.00102844844935 1.2701450302417392 83.87891821041353 19.0 0.0 0.0 19.0 
314.003381205444 0.9489971725542237 61.18748974184689 17.0 0.0 0.0 20.0 
315.0010295965067 1.1466680593178338 76.54078800666485 16.0 0.0 0.0 18.0 
316.0007426766754 1.359168019096204 76.54078800666485 16.0 0.0 0.0 18.0 
317.0006380201733 1.448713111343053 84.0071863392335 17.0 0.0 0.0 18.0 
318.0013199556409 1.3472645750685688 84.0071863392335 17.0 0.0 0.0 18.0 
319.0020660967367 1.7788525325716555 84.0071863392335 16.0 0.0 0.0 18.0 
320.0010295965067 1.5321054157945406 80.15803437777737 16.0 0.0 0.0 19.0 
321.00240156140313 1.9114196514473518 80.15803437777737 16.0 0.0 0.0 18.0 
322.0015382115723 2.0276204929458945 87.62417433311623 16.0 0.0 0.0 18.0 
323.00045656562577 1.9915488219399071 87.62417433311623 16.0 0.0 0.0 18.0 
324.0066713438919 2.06288562587157 87.62417433311623 16.0 0.0 0.0 16.0 
325.0010295965067 1.6857438168715881 76.72963789644763 16.0 0.0 0.0 16.0 
326.0009124603577 1.6306146087296636 84.12387960220934 16.0 0.0 0.0 16.0 
327.001717293149 1.7445951259114676 84.12387960220934 16.0 0.0 0.0 16.0 
328.00083131040947 2.029745627177365 87.96605714731601 16.0 0.0 0.0 16.0 
329.00155176686525 1.9939884285772094 87.96605714731601 16.0 0.0 0.0 16.0 
330.0010295965067 1.7447699299450998 87.96605714731601 16.0 0.0 0.0 16.0 
331.00291768327963 1.822296654353392 90.53192514585879 16.0 0.0 0.0 16.0 
332.0014428039785 2.076062101304503 95.36132975020035 16.0 0.0 0.0 17.0 
333.0007288046126 2.093385719752001 102.91304487643487 16.0 0.0 0.0 17.0 
334.00007256130897 2.3918946266620003 102.91304487643487 16.0 0.0 0.0 17.0 
335.0010295965067 2.37609060402452 102.91304487643487 16.0 0.0 0.0 17.0 
336.0004058351981 2.432910094687012 102.91304487643487 16.0 0.0 0.0 17.0 
337.00006063828476 2.4998412148015263 110.30985150834749 16.0 0.0 0.0 17.0 
338.00304746238237 2.252585602184247 101.87356400462215 16.0 0.0 0.0 17.0 
339.00092903354823 2.694265764286187 101.87356400462215 16.0 0.0 0.0 16.0 
340.0010295965067 2.548559610079759 101.87356400462215 16.0 0.0 0.0 16.0 
341.00349906528174 2.7833681975047773 116.72022685113029 16.0 0.0 0.0 16.0 
342.0019381837131 2.888903229179608 116.72022685113029 16.0 0.0 0.0 16.0 
343.0009975419151 3.03119886279008 116.72022685113029 16.0 0.0 0.0 16.0 
344.00830157046994 3.1454944210829243 116.72022685113029 16.0 0.0 0.0 16.0 
345.0010295965067 3.123982183528669 116.72022685113029 17.0 0.0 0.0 16.0 
346.00017278437855 2.855056351157384 121.22819415687309 18.0 0.0 0.0 16.0 
347.00086657551924 2.7190716765125886 128.71340974549815 18.0 0.0 0.0 16.0 
348.000454043503 2.3700787383089206 131.64318409414994 18.0 0.0 0.0 16.0 
349.0048777829199 3.074588931730562 124.44154824165855 17.0 0.0 0.0 16.0 
350.00005731390587 3.158980258542195 128.71340974549815 16.0 0.0 0.0 15.0 
351.00281264354464 3.107267582657043 94.0403509957888 16.0 0.0 0.0 15.0 
352.00108714954655 2.930619528566837 94.0403509957888 16.0 0.0 0.0 15.0 
353.0017690574859 3.595384851212173 98.46155189264499 15.0 0.0 0.0 15.0 
354.001697207954 3.6147995052974875 98.46155189264499 15.0 0.012686644249439282 6.343322124719606 15.0 
355.00066860735706 3.6147866069067653 98.46155189264499 15.0 0.0 0.0 14.0 
356.0023365974466 3.4139354050672726 106.18791143263815 16.0 0.007449766231334656 2.115841146972059 14.0 
357.00017165320793 3.452803064736461 106.18791143263815 15.0 0.007449766231334656 2.115841146972059 14.0 
358.00304746238237 3.3690524755762823 106.18791143263815 15.0 0.007449766231334656 2.115841146972059 14.0 
359.00113227353165 4.121368679095374 120.96597501302602 15.0 0.0 0.0 15.0 
360.0010295965067 3.93812883575024 113.50129541092036 15.0 0.0 0.0 17.0 
361.0000495355138 3.730701601267494 113.50129541092036 15.0 0.0 0.0 16.0 
362.00105081555483 3.9827104114255873 113.50129541092036 15.0 0.0 0.0 16.0 
363.00106183514066 3.8713259422343356 119.66128239041734 15.0 0.0 0.0 17.0 
364.0008183027274 3.635728401404161 119.66128239041734 15.0 0.0 0.0 16.0 
365.0004700836549 3.8839623328471458 128.42234150908382 15.0 0.0 0.0 16.0 
366.00148997082476 3.6286549633756935 128.42234150908382 15.0 0.0 0.0 16.0 
367.0014585747835 3.7169620079379158 128.42234150908382 15.0 0.0 0.0 16.0 
368.00304746238237 3.8880364970825654 135.773426080646 16.0 0.0 0.0 15.0 
369.0001529748122 3.976361865263901 134.54122711504328 16.0 0.0 0.0 16.0 
370.0010295965067 3.674081550356667 134.54122711504328 16.0 0.0 0.0 16.0 
371.0000452851745 2.860203446911255 134.54122711504328 17.0 0.0 0.0 15.0 
372.00103098857164 2.8856390828423457 100.62830370064671 17.0 0.0 0.0 15.0 
373.00236674799544 3.382388586432673 134.90925110409864 18.0 0.0 0.0 15.0 
374.00343092684324 2.9160515519762558 102.68833098725037 19.0 0.0 0.0 15.0 
375.00085501805506 1.9070843917395652 80.12751849728863 19.0 0.0 0.0 14.0 
376.0037014639856 1.5531435326587353 70.5064273435002 19.0 0.004263779400579434 2.131889700289719 14.0 
377.00230329193124 1.3101995969464568 74.75853031378989 19.0 0.0 0.0 14.0 
378.0026712929899 2.043494312659226 87.13885050813741 19.0 0.004263779400579434 2.131889700289719 14.0 
379.0007978546223 1.8169527595609314 92.90682740576085 19.0 0.0 0.0 14.0 
380.00101014973427 1.72013782040619 86.25951163197476 19.0 0.0 0.0 14.0 
381.00287703235216 2.0215913302679707 96.56129340698976 19.0 0.0044869190141011255 1.9197231064305527 14.0 
382.00052895935414 2.2655733730269763 92.90682740576085 19.0 0.0 0.0 14.0 
383.00147768016694 3.09612591177662 96.2344236692777 19.0 0.0 0.0 14.0 
384.0001645634331 3.2592560353051785 101.2783746368101 19.0 6.474728012400453E-4 0.32373640062002096 14.0 
385.0010295965067 2.798706913186929 97.55007745955908 19.0 6.474728012400453E-4 0.32373640062002096 15.0 
386.001630242818 3.199920187726774 101.53516243221088 19.0 0.0034186030026740195 1.709301501336995 15.0 
387.00078675281753 2.92294747942132 101.53516243221088 19.0 0.0034186030026740195 1.709301501336995 15.0 
388.00155205348034 2.545833818065964 98.76220294317312 19.0 0.0034186030026740195 1.709301501336995 15.0 
389.00352944069687 2.925616318183137 107.3000976564399 19.0 0.0034186030026740195 1.709301501336995 16.0 
390.0010295965067 2.833390024930662 110.69132409795435 19.0 0.0034186030026740195 1.709301501336995 16.0 
391.0076569213971 1.983152918988938 99.41669652825908 19.0 0.006368497159144949 3.1842485795724826 16.0 
392.0056870524859 1.901047205064337 97.15009148131622 19.0 0.006368497159144949 3.1842485795724826 16.0 
393.0006508040299 1.751971539350941 97.91958373648077 19.0 0.006368497159144949 3.1842485795724826 17.0 
394.0011842472223 2.1022401111634554 110.30120485495132 19.0 0.006368497159144949 3.1842485795724826 16.0 
395.00005409154784 1.871034585061381 103.66037194793103 19.0 0.006368497159144949 3.1842485795724826 15.0 
396.0058398945513 1.757355537702331 103.66037194793103 20.0 0.01242182649767667 4.041740648597141 15.0 
397.00208807972285 1.7676716477637964 103.66037194793103 19.0 0.0032216561615018326 1.610828080750906 17.0 
398.00304746238237 1.7200493901740905 104.09907361314555 19.0 0.0 0.0 19.0 
399.00137690887044 1.8340918537603372 109.98974518277379 19.0 0.0 0.0 17.0 
400.00063825501854 1.8340918537603372 109.98974518277379 19.0 0.0 0.0 18.0 
401.01489986435166 1.8340918537603372 109.98974518277379 19.0 0.003657695193990296 1.828847596995132 18.0 
402.0006383343404 1.6248820423147483 96.26376270617874 19.0 0.0 0.0 18.0 
403.00090509273014 1.5886728529606513 95.86586616286729 19.0 0.0 0.0 18.0 
404.00111617689595 1.8988993486655452 109.52727338013995 18.0 0.0 0.0 18.0 
405.0001921695401 1.8988993486655452 109.52727338013995 18.0 0.0 0.0 18.0 
406.007358954614 2.0731492634286344 109.52727338013995 18.0 0.0 0.0 19.0 
407.00349625536546 1.8317625032345273 100.43119043008619 18.0 0.0 0.0 19.0 
408.00304746238237 2.0561822100202396 106.88998265723978 19.0 0.0 0.0 19.0 
409.00305937953334 2.171483782975998 112.49260470715478 19.0 0.0 0.0 19.0 
410.0009943415818 2.171483782975998 112.49260470715478 19.0 0.0 0.0 19.0 
411.0000845256323 2.5336577093095722 112.49260470715478 20.0 0.0 0.0 19.0 
412.00048735262726 2.3201813101932305 108.99168087131864 20.0 0.0 0.0 19.0 
413.00304746238237 2.3366827935507994 114.02765594693784 20.0 0.0 0.0 18.0 
414.00434588406443 2.4071846125210157 119.09013741684925 20.0 0.0 0.0 18.0 
415.00091728874315 1.7286099081651431 104.30200627117068 20.0 0.0 0.0 18.0 
416.00330657506623 1.63900693429609 119.97616950309043 20.0 0.0 0.0 18.0 
417.00166332699666 1.2282549991793268 101.82728575883493 20.0 0.0 0.0 17.0 
418.0026454786143 1.0373271518923723 101.82728575883493 19.0 0.0 0.0 17.0 
419.00153394550114 0.6574552054571637 106.50510001071365 19.0 0.0 0.0 17.0 
420.0002453328991 0.745424933829856 106.50510001071365 19.0 0.0 0.0 17.0 
421.00009114531355 0.35327745498878427 104.60588042553428 19.0 0.0 0.0 17.0 
422.007326008494 0.1404603864795729 25.101477107263605 18.0 0.0 0.0 17.0 
423.0007421021504 0.1400112862741506 25.101477107263605 18.0 0.0 0.0 17.0 
424.00022695439543 0.1559419972986081 25.101477107263605 18.0 0.0 0.0 17.0 
425.0010295965067 0.18482258365752854 32.32411394486331 18.0 0.0 0.0 17.0 
426.0011195699942 0.29458450170927797 40.44694838874037 18.0 0.0 0.0 17.0 
427.00008100789347 0.30569135932317104 40.44694838874037 18.0 0.0 0.0 17.0 
428.0011965168217 0.3125415493504705 39.57028379740444 18.0 0.0 0.0 17.0 
429.0048111445132 0.4253917460903037 44.7740504697814 18.0 0.0 0.0 17.0 
430.0004134837016 0.4064892608133026 46.82272310371812 18.0 0.0 0.0 17.0 
431.00436293722146 0.6776494546158066 55.25366743435566 18.0 0.0 0.0 17.0 
432.0046093389468 0.6814116652824502 55.25366743435566 18.0 0.0 0.0 18.0 
433.00071722645976 0.7354294019699972 55.25366743435566 20.0 0.0 0.0 18.0 
434.0003604060898 0.7862457620242269 64.9772268343063 20.0 0.0 0.0 18.0 
435.0000558923632 0.5673196019303404 55.37870830239993 20.0 0.0 0.0 17.0 
436.00040263407215 0.0854639456051778 21.847543428452752 18.0 0.0 0.0 17.0 
437.00701342274664 0.041768858748272485 20.1080659697559 19.0 0.0 0.0 17.0 
438.00304746238237 0.08791549174834645 23.07331650003721 17.0 0.0 0.0 17.0 
439.0001633267088 0.041768858748272485 20.1080659697559 17.0 0.0 0.0 17.0 
440.0010295965067 0.112522287852373 23.07331650003721 17.0 0.0 0.0 17.0 
441.0013918335437 0.12480303929691103 23.07738505614151 17.0 0.0 0.0 17.0 
442.00014540283735 0.13846993205758756 23.07738505614151 17.0 0.0 0.0 17.0 
443.00304746238237 0.12251533413807064 23.07738505614151 17.0 0.0 0.0 17.0 
444.0002043346683 0.14358723327118203 23.07738505614151 17.0 0.0 0.0 17.0 
445.00078459687194 0.26011475655626465 30.329247316109132 17.0 0.0 0.0 17.0 
446.0013996972346 0.23005384429537148 25.349004408525843 19.0 0.0 0.0 18.0 
447.00045969670424 0.24487982814184378 28.139216772239195 19.0 0.0 0.0 18.0 
448.00278137286955 0.3223921346390326 38.75615324859362 20.0 0.0 0.0 19.0 
449.0002292598662 0.33655700615073636 28.139216772239195 19.0 0.0 0.0 19.0 
450.0010295965067 0.4347175426132335 39.722557141964444 19.0 0.0 0.0 19.0 
451.0010963401686 0.43813816288307056 39.722557141964444 19.0 0.0 0.0 18.0 
452.0003459859016 0.36732831011242373 39.722557141964444 19.0 0.0 0.0 18.0 
453.0000475448109 0.5605409119455607 42.875678015307756 19.0 0.0 0.0 18.0 
454.00189629009566 0.5003678641408744 39.722557141964444 19.0 0.0 0.0 18.0 
455.0010295965067 0.6048518331793975 51.551076353479345 19.0 0.0 0.0 17.0 
456.00215113079355 0.2898193466258716 46.72292526634604 19.0 0.0 0.0 16.0 
457.00052281780796 0.3060021559131402 50.27675027724894 19.0 0.0 0.0 17.0 
458.002161770098 0.24999948116994378 51.551076353479345 19.0 0.0 0.0 17.0 
459.00132335088995 0.3606753680642315 50.27675027724894 19.0 0.0 0.0 17.0 
460.0010295965067 0.21362478644175872 45.94310934130601 20.0 0.0 0.0 17.0 
461.00022241611765 0.17834903392893764 45.94310934130601 20.0 0.0 0.0 17.0 
462.00051916583936 0.2523771930409245 44.455486842190254 20.0 0.0 0.0 17.0 
463.00304746238237 0.23239826929060817 38.50170205510918 20.0 0.0 0.0 17.0 
464.00089077337356 0.2511237121037996 38.50170205510918 20.0 0.0 0.0 17.0 
465.0010295965067 0.3424730055907449 38.50170205510918 19.0 0.0 0.0 17.0 
466.0004588810998 0.28794559875215503 45.757970986502386 20.0 0.0 0.0 19.0 
467.00018528941774 0.29740770788449816 45.757970986502386 20.0 0.0 0.0 18.0 
468.00304746238237 0.3209753482118124 38.42278257214841 20.0 0.0 0.0 19.0 
469.000393276598 0.43064813012349723 42.04776489694885 20.0 0.0 0.0 19.0 
470.0001781307374 0.5318768208387776 45.75255822703025 20.0 0.0 0.0 19.0 
471.00402910313187 0.44767369583558747 45.75255822703025 21.0 0.0 0.0 19.0 
472.0044545372128 0.4695188272824262 41.14771418655229 22.0 0.0 0.0 20.0 
473.00304746238237 0.37726341605152147 48.556764022879605 22.0 0.0 0.0 20.0 
474.0021320193292 0.3923075448129507 48.556764022879605 22.0 0.0 0.0 20.0 
475.00088714131897 0.5500084426821652 55.83203138358897 22.0 0.0 0.0 20.0 
476.00281270502967 0.5689441528686779 55.83203138358897 21.0 0.0 0.0 20.0 
477.00045141554176 0.5842531670151512 55.83203138358897 21.0 0.0 0.0 20.0 
478.00132871098083 0.7559681777008032 79.15205848160929 21.0 0.0 0.0 20.0 
479.00274163564944 0.7542152411388426 79.15205848160929 21.0 0.0 0.0 20.0 
480.00004018209074 0.8356151474412362 81.64565093066602 21.0 0.0 0.0 20.0 
481.00072559587835 1.0495369929324658 94.68226558156022 21.0 0.0 0.0 20.0 
482.0017137214553 1.0614469252052041 94.68226558156022 21.0 0.0 0.0 21.0 
483.0012270125766 1.0054827450848742 94.68226558156022 21.0 0.0 0.0 21.0 
484.00294911649917 1.262293314777094 100.84250832696176 21.0 0.0 0.0 21.0 
485.0010295965067 1.3451604499917817 102.45247869676547 21.0 0.0 0.0 20.0 
486.00252156821983 1.3260462481157398 102.45247869676547 21.0 0.0 0.0 20.0 
487.0023227387498 1.339084777242675 95.26536625527746 20.0 0.0 0.0 19.0 
488.000440618948 1.3345466032515623 95.26536625527746 20.0 0.0 0.0 19.0 
489.00171763792144 1.345544578604961 95.26536625527746 20.0 0.0 0.0 19.0 
490.0001760446664 1.4330610576006482 97.09721406959818 20.0 0.0 0.0 19.0 
491.00597733172464 1.4246407654552686 97.09721406959818 20.0 0.0 0.0 19.0 
492.00282908951783 1.4398164985687083 97.09721406959818 20.0 0.0 0.0 19.0 
493.00040292246194 1.51258453918893 91.49215514471007 20.0 0.0 0.0 19.0 
494.00125469244693 1.4691393980386176 91.49215514471007 19.0 0.0 0.0 19.0 
495.0010295965067 1.874323443054422 126.36543073022415 19.0 0.0 0.0 18.0 
496.0041981448185 1.9441512323904042 122.52314408544885 19.0 0.0 0.0 18.0 
497.00011625140195 2.3355368973626147 125.88726138615283 20.0 0.0 0.0 18.0 
498.00304746238237 2.380732055689851 125.88726138615283 20.0 0.0 0.0 18.0 
499.00461330315943 2.531645505907156 144.64449759799982 20.0 0.0 0.0 18.0 
500.0010295965067 2.8515115586205892 132.24742981355132 20.0 0.0 0.0 18.0 
501.00177480099353 2.860207220212124 132.24742981355132 20.0 0.0 0.0 18.0 
502.0036539262714 2.8651328146226027 132.24742981355132 20.0 0.0 0.0 18.0 
503.00177567279474 2.569150480621417 130.81008310465114 20.0 0.0 0.0 18.0 
504.0014352987818 2.6150366046751223 132.24742981355132 20.0 0.0 0.0 18.0 
505.0010295965067 2.729672296617565 147.77250252270034 20.0 0.0 0.0 18.0 
506.00149376473786 3.056560591048368 147.77250252270034 21.0 0.0 0.0 16.0 
507.00250329044496 2.813271713387393 147.77250252270034 21.0 0.0 0.0 15.0 
508.0004672050358 2.7675382606610217 147.77250252270034 20.0 0.0 0.0 15.0 
509.0074318582842 3.0651776050081723 140.80655466851908 20.0 0.0 0.0 15.0 
510.00041386100776 3.1765847446753983 142.91672201903936 20.0 0.0 0.0 15.0 
511.000040998074 2.8379964938441673 142.91672201903936 19.0 0.0 0.0 15.0 
512.0012272287642 2.8359065800097096 142.91672201903936 20.0 0.0 0.0 15.0 
513.0030474623824 3.2526771263416268 142.91672201903936 19.0 0.0 0.0 15.0 
514.0004009109355 3.2526771263416268 142.91672201903936 19.0 0.0 0.0 15.0 
515.0010295965067 3.086433294492756 141.87186751975457 19.0 0.0 0.0 15.0 
516.0016557137948 3.2954669647571855 141.87186751975457 19.0 0.0 0.0 15.0 
517.0011289692511 3.3229453639250663 148.7781856613085 19.0 0.0 0.0 15.0 
518.0024408388348 3.4797829531652456 148.7781856613085 19.0 0.0 0.0 15.0 
519.0005418804466 3.1244747787336475 148.7781856613085 19.0 0.0 0.0 15.0 
520.0010295965067 3.3403013670963904 151.13889221378707 20.0 0.0 0.0 15.0 
521.0002353754098 2.824648381253759 140.15568224574008 20.0 0.0 0.0 15.0 
522.000095392314 2.5892602715091395 158.0109869059787 20.0 0.0 0.0 15.0 
523.0000627380308 2.553066451841186 158.0109869059787 20.0 0.01136066841366778 5.680334206833891 15.0 
524.0002541804191 1.7788728526102457 146.90891842033096 19.0 0.0 0.0 15.0 
525.0010295965067 2.049329050418876 160.47264263999614 20.0 0.0 0.0 15.0 
526.0014617461907 0.46345722342336776 133.34580701098525 20.0 0.0 0.0 15.0 
527.0006927762395 0.8619113401796165 150.38915981725302 21.0 0.0 0.0 16.0 
528.0004248041965 0.0 0.0 21.0 0.0 0.0 16.0 
529.0008307294298 0.0 0.0 21.0 0.0 0.0 16.0 
530.0003434305123 0.0 0.0 20.0 0.0 0.0 16.0 
531.0015015065296 0.0 0.0 20.0 0.0 0.0 16.0 
532.0003059609045 0.0 0.0 20.0 0.0 0.0 17.0 
533.0008799298828 0.0 0.0 20.0 0.0 0.0 20.0 
534.002182809022 0.0015280249904844768 0.7640124952422411 20.0 0.0 0.0 21.0 
535.0010295965067 0.0 0.0 21.0 0.0 0.0 20.0 
536.0004113399881 0.0015280249904844768 0.7640124952422411 21.0 0.0 0.0 20.0 
537.0015096187602 0.0015280249904844768 0.7640124952422411 21.0 4.2893797492155413E-4 0.21446898746077636 20.0 
538.0030474623824 0.0 0.0 23.0 4.2893797492155413E-4 0.21446898746077636 21.0 
539.0019945777503 0.0 0.0 23.0 0.0 0.0 23.0 
540.0010295965067 0.0 0.0 23.0 0.0 0.0 22.0 
541.0008034494986 0.0 0.0 23.0 0.0 0.0 21.0 
542.0016759548791 0.0 0.0 23.0 0.0 0.0 22.0 
543.0004457970907 0.0028885642245672035 1.444282112283588 23.0 0.0 0.0 22.0 
544.0030959161909 0.0028885642245672035 1.444282112283588 23.0 0.0 0.0 22.0 
545.0010295965067 0.0 0.0 23.0 0.0 0.0 22.0 
546.0026485639279 0.0 0.0 23.0 0.0 0.0 22.0 
547.0001064653483 0.0 0.0 23.0 0.0 0.0 22.0 
548.0019947307384 0.0 0.0 23.0 0.0 0.0 23.0 
549.0027486290546 0.0 0.0 23.0 0.0 0.0 23.0 
550.0001327046642 0.0 0.0 22.0 0.0 0.0 24.0 
551.0009243357418 0.0 0.0 22.0 0.0 0.0 24.0 
552.0026204636115 0.0 0.0 22.0 0.0 0.0 24.0 
553.0011376481574 0.0 0.0 23.0 0.0 0.0 25.0 
554.0042163356125 0.0 0.0 23.0 0.0 0.0 24.0 
555.0010295965067 0.0 0.0 23.0 0.0 0.0 24.0 
556.0031685145493 0.0 0.0 23.0 0.0 0.0 24.0 
557.0010672026078 0.0 0.0 23.0 0.0 0.0 24.0 
558.0030474623824 0.0 0.0 23.0 0.0 0.0 23.0 
559.0015049411408 0.0 0.0 23.0 0.0 0.0 23.0 
560.0008092744413 0.0 0.0 23.0 0.0 0.0 22.0 
561.0000174268786 0.0 0.0 23.0 0.0 0.0 22.0 
562.0002852254077 0.0 0.0 22.0 0.0 0.0 22.0 
563.0017384812336 0.0 0.0 22.0 0.0 0.0 22.0 
564.0005577071768 0.0 0.0 21.0 0.0 0.0 23.0 
565.0010295965067 0.0 0.0 21.0 0.0 0.0 23.0 
566.0033954058248 0.0 0.0 21.0 0.0 0.0 23.0 
567.0007179424318 0.0 0.0 21.0 0.0 0.0 22.0 
568.0003487765129 0.0 0.0 21.0 0.0 0.0 23.0 
569.0000344513371 0.0 0.0 22.0 0.0 0.0 24.0 
570.0010295965067 0.0 0.0 22.0 0.0 0.0 24.0 
571.0002384979709 0.0 0.0 22.0 0.0 0.0 24.0 
572.0056711382132 0.0 0.0 22.0 0.0 0.0 23.0 
573.0002692860778 0.0 0.0 22.0 0.0 0.0 23.0 
574.0011496574949 0.0 0.0 22.0 0.0 0.0 23.0 
575.0002191517208 0.0 0.0 22.0 0.0 0.0 23.0 
576.0001320815412 0.0 0.0 22.0 0.0 0.0 24.0 
577.0022388340507 0.0 0.0 22.0 0.0 0.0 23.0 
578.0026795616228 0.0 0.0 21.0 0.0 0.0 22.0 
579.0015606667425 0.0 0.0 21.0 0.0 0.0 22.0 
580.0010295965067 0.0 0.0 22.0 0.0 0.0 22.0 
581.0021242912197 0.0 0.0 22.0 0.0 0.0 22.0 
582.0029031415419 0.0 0.0 22.0 0.0 0.0 22.0 
583.0026675583223 0.0 0.0 22.0 0.0 0.0 22.0 
584.0020612835978 0.0 0.0 22.0 0.0 0.0 22.0 
585.001026733937 0.0 0.0 22.0 0.0 0.0 21.0 
586.0003025465699 0.011183589292946678 5.591794646473346 22.0 0.0 0.0 21.0 
587.0000600405282 0.0 0.0 21.0 0.0 0.0 21.0 
588.0019771396986 0.0 0.0 21.0 0.0 0.0 21.0 
589.0007334644881 0.0 0.0 21.0 0.0 0.0 20.0 
590.0010295965067 0.0 0.0 21.0 0.0 0.0 20.0 
591.000665793387 0.0 0.0 21.0 0.0 0.0 20.0 
592.0025645441357 0.0 0.0 21.0 0.0 0.0 20.0 
593.0007749218657 0.0 0.0 21.0 0.0 0.0 20.0 
594.0002032955393 0.0 0.0 20.0 0.0 0.0 20.0 
595.0010295965067 0.0 0.0 20.0 0.0 0.0 20.0 
596.004521088707 4.879115742245995E-4 0.2439557871122986 20.0 0.0 0.0 21.0 
597.0001481774276 0.0 0.0 20.0 0.0 0.0 20.0 
598.000104044779 0.0 0.0 20.0 0.0 0.0 19.0 
599.0046451360793 0.0 0.0 21.0 0.0 0.0 20.0 
600.0010295965067 0.0 0.0 21.0 0.0 0.0 20.0 
#####################################################################
# End of data export. Simulation finished at: 2019-02-25T20:04+0000 #
#####################################################################
