#####################################################################
# Alchemist log file - simulation started at: 2019-02-25T20:34+0000 #
#####################################################################
# seed = 146.0
#
# The columns have the following meaning: 
# time distance-rep[Mean] distance-rep[Max] leader-rep[CountDistinct] distance-share[Mean] distance-share[Max] leader-share[CountDistinct] 
0.0 NaN NaN NaN NaN NaN NaN 
1.0038486866668943 0.0 0.0 498.0 0.0 0.0 75.0 
2.0037485596396047 0.0 0.0 112.0 0.0 0.0 67.0 
3.001198787547451 0.0 0.0 105.0 0.0 0.0 59.0 
4.001190759455759 0.0 0.0 101.0 0.0 0.0 52.0 
5.000429433723993 0.0 0.0 89.0 0.0 0.0 50.0 
6.001773516895907 0.0 0.0 82.0 0.0 0.0 47.0 
7.001550370376603 0.0 0.0 79.0 0.0 0.0 46.0 
8.002022986456186 0.0 0.0 71.0 0.0 0.0 44.0 
9.000863505586302 0.0 0.0 75.0 0.0 0.0 44.0 
10.002323252600704 0.0 0.0 72.0 0.0 0.0 42.0 
11.006599683765025 0.0 0.0 69.0 0.0 0.0 43.0 
12.000485715063126 0.0 0.0 64.0 0.0 0.0 42.0 
13.004212886157028 0.0 0.0 66.0 0.0 0.0 39.0 
14.001275750288526 0.0 0.0 63.0 0.0 0.0 33.0 
15.000390909487725 0.0 0.0 59.0 0.0 0.0 33.0 
16.00062522836689 0.0 0.0 59.0 0.03726650817992678 10.446078167496438 31.0 
17.00121632774799 0.0 0.0 59.0 0.032058376785974146 10.446078167496438 30.0 
18.001023667657133 0.0 0.0 54.0 0.03245015443118607 10.446078167496438 29.0 
19.000279081151835 0.0 0.0 55.0 0.01155799809619286 5.778999048096466 26.0 
20.004990412506437 0.0 0.0 54.0 0.01155799809619286 5.778999048096466 24.0 
21.004775234005194 0.0 0.0 50.0 0.020582862302879673 10.29143115143981 22.0 
22.006565876918053 0.0 0.0 50.0 0.050956721558973614 12.74747643083441 21.0 
23.00241423494324 0.0 0.0 50.0 0.050956721558973614 12.74747643083441 21.0 
24.000494471358007 0.0 0.0 48.0 0.04659334655957586 12.74747643083441 20.0 
25.00226074742263 0.0 0.0 49.0 0.04481850443962129 11.860055370857282 19.0 
26.002548645871407 0.0 0.0 48.0 0.1034371202216571 19.1166880111156 19.0 
27.003387194621745 0.0 0.0 46.0 0.12065575149742604 19.1166880111156 19.0 
28.00067792550289 0.0 0.0 44.0 0.11713000476097292 19.1166880111156 18.0 
29.00030106799035 0.0 0.0 47.0 0.12427254889723156 19.1166880111156 18.0 
30.002233864391915 0.0 0.0 43.0 0.12427254889723156 19.1166880111156 19.0 
31.0003255865431 0.0 0.0 43.0 0.16724406791133428 25.44842171018061 21.0 
32.000416283769724 0.0 0.0 42.0 0.16405466718922176 25.44842171018061 21.0 
33.002711998698494 0.0 0.0 41.0 0.12729399590554458 25.44842171018061 21.0 
34.00127575028853 0.0 0.0 40.0 0.1271091764545801 25.44842171018061 20.0 
35.00012754890345 0.0 0.0 40.0 0.13096094243207707 25.44842171018061 20.0 
36.00473478877607 0.0 0.0 40.0 0.1744433684432987 32.22128039770408 20.0 
37.00014756697973 0.0 0.0 39.0 0.1744433684432987 32.22128039770408 20.0 
38.00024300151495 0.0 0.0 38.0 0.10614904167039328 31.1538384408141 20.0 
39.00127575028853 0.0 0.0 37.0 0.0 0.0 20.0 
40.00197777711987 0.0 0.0 37.0 0.0 0.0 20.0 
41.00017409683397 0.0 0.0 35.0 0.0 0.0 20.0 
42.005296388326975 0.0 0.0 34.0 0.0 0.0 20.0 
43.000368778555575 0.0 0.0 33.0 0.0 0.0 19.0 
44.00112515876459 0.0 0.0 34.0 0.0 0.0 18.0 
45.000731973500216 0.0 0.0 35.0 0.0 0.0 18.0 
46.0036890439217 0.0 0.0 34.0 0.0 0.0 16.0 
47.00065644622732 0.0 0.0 33.0 0.0 0.0 16.0 
48.00164755591185 0.0 0.0 32.0 0.0 0.0 16.0 
49.001208986412124 0.0 0.0 30.0 0.0 0.0 16.0 
50.00134873210323 0.0 0.0 32.0 0.0 0.0 16.0 
51.00183350838078 0.0035664757951926903 1.7832378975963366 33.0 0.0 0.0 16.0 
52.000337654712915 0.0035664757951926903 1.7832378975963366 29.0 0.0 0.0 16.0 
53.002950334691064 0.0 0.0 31.0 0.0 0.0 17.0 
54.00127575028853 0.0 0.0 31.0 0.0 0.0 17.0 
55.00073829887346 0.0 0.0 31.0 0.0 0.0 17.0 
56.003003997651874 0.0 0.0 31.0 0.0 0.0 17.0 
57.00199697061843 0.0 0.0 30.0 0.0 0.0 17.0 
58.00699944489192 0.0 0.0 30.0 0.0 0.0 17.0 
59.00127575028853 0.0 0.0 28.0 0.0 0.0 18.0 
60.00258306921377 0.0 0.0 28.0 0.0 0.0 18.0 
61.003293821571006 0.0 0.0 27.0 0.0 0.0 18.0 
62.000748775219144 0.0020588261207539022 1.0294130603769531 28.0 0.0 0.0 18.0 
63.0053907732023 0.012416579840793127 5.178876860019614 29.0 0.0 0.0 18.0 
64.00127575028853 0.010357753720039234 5.178876860019614 29.0 0.0 0.0 18.0 
65.00176968984407 0.0031006754617605025 1.5503377308802442 27.0 0.0 0.0 19.0 
66.00288038666368 0.0 0.0 28.0 0.0 0.0 19.0 
67.00521855364933 0.0 0.0 27.0 0.0 0.0 19.0 
68.00114473999899 0.0 0.0 26.0 0.0 0.0 18.0 
69.00127575028853 0.0 0.0 24.0 0.0 0.0 18.0 
70.00178233201504 0.0 0.0 23.0 0.0 0.0 18.0 
71.00069274247087 0.0 0.0 22.0 0.0 0.0 19.0 
72.00160483254128 0.0 0.0 22.0 0.0 0.0 18.0 
73.00259366754588 0.0 0.0 21.0 0.0 0.0 16.0 
74.00014881833505 0.0 0.0 20.0 0.0 0.0 16.0 
75.00267185674873 0.0 0.0 21.0 0.0 0.0 16.0 
76.00565901229483 0.0 0.0 21.0 0.0 0.0 16.0 
77.00089968028351 0.0 0.0 21.0 0.0 0.0 16.0 
78.0024402787961 0.0 0.0 21.0 0.0 0.0 16.0 
79.00127575028853 0.0 0.0 22.0 0.0 0.0 16.0 
80.00262786730228 0.0 0.0 23.0 0.0 0.0 16.0 
81.00339010510807 0.0 0.0 23.0 0.0 0.0 16.0 
82.00007608645035 0.0 0.0 23.0 0.0 0.0 16.0 
83.00329559250906 0.0 0.0 23.0 0.0 0.0 16.0 
84.0003343843531 0.0 0.0 23.0 0.0 0.0 16.0 
85.00005409011965 0.0 0.0 23.0 0.0 0.0 16.0 
86.00252772071262 0.0 0.0 22.0 0.0 0.0 16.0 
87.00072677298414 0.0 0.0 23.0 0.0 0.0 17.0 
88.00058544866148 0.0 0.0 22.0 0.0 0.0 17.0 
89.00065715380568 0.0 0.0 22.0 0.0 0.0 17.0 
90.00024317522747 0.0 0.0 22.0 0.0 0.0 18.0 
91.00737325450092 0.0 0.0 22.0 0.0 0.0 18.0 
92.00379239722739 0.0 0.0 22.0 0.0 0.0 18.0 
93.00130264684667 0.0 0.0 22.0 0.0 0.0 18.0 
94.00005296723299 0.0 0.0 22.0 0.0 0.0 18.0 
95.00168479746468 0.0 0.0 22.0 0.0 0.0 18.0 
96.00234123388228 0.0 0.0 22.0 0.0 0.0 18.0 
97.00310708589515 0.0 0.0 22.0 0.0 0.0 18.0 
98.00156342873234 0.0 0.0 21.0 0.0 0.0 18.0 
99.0010760496482 0.0 0.0 21.0 0.0 0.0 18.0 
100.0003256963012 0.0 0.0 21.0 0.0 0.0 18.0 
101.00017834968534 0.0 0.0 21.0 0.0 0.0 18.0 
102.00251611825524 0.0 0.0 21.0 0.0 0.0 19.0 
103.00023624719746 0.0 0.0 21.0 0.0 0.0 18.0 
104.00127575028853 0.0 0.0 21.0 0.0 0.0 18.0 
105.0005203469626 0.00840299104597333 4.201495522986647 21.0 0.0 0.0 18.0 
106.00288824707236 0.01262551385049227 6.312756925246134 21.0 0.0 0.0 18.0 
107.00312118085836 0.023189161782601306 7.393085368314075 21.0 0.0 0.0 18.0 
108.0005014666958 0.01732883040903907 7.393085368314075 21.0 0.0 0.0 19.0 
109.00127575028853 0.03124942587264215 8.231627568006985 21.0 0.0 0.0 19.0 
110.00026854945749 0.03858935811410706 11.063051489046586 22.0 0.0 0.0 19.0 
111.00070362330938 0.04494162810982223 11.063051489046586 22.0 0.0 0.0 19.0 
112.00068930692937 0.04494162810982223 11.063051489046586 22.0 0.0 0.0 19.0 
113.0011444687327 0.0 0.0 21.0 0.0 0.0 19.0 
114.00015371254229 0.0 0.0 22.0 0.0 0.0 19.0 
115.00013625708057 0.0 0.0 21.0 0.0 0.0 19.0 
116.00029853348991 0.0 0.0 21.0 0.0 0.0 19.0 
117.00656587691805 0.0 0.0 21.0 0.0 0.0 19.0 
118.00135851174821 0.0 0.0 21.0 0.0 0.0 19.0 
119.00017774756212 0.0 0.0 21.0 0.0 0.0 19.0 
120.00030316115802 0.0 0.0 21.0 0.0 0.0 19.0 
121.00066245477805 0.0 0.0 21.0 0.0 0.0 19.0 
122.00094237574316 0.033453138008577986 16.726569004289075 21.0 0.0 0.0 19.0 
123.00124027855216 0.0 0.0 21.0 0.0 0.0 19.0 
124.00069685516495 0.0 0.0 21.0 0.0 0.0 19.0 
125.00241893364648 0.04691071929821777 23.455359649108914 21.0 0.0 0.0 19.0 
126.00035025852273 0.04691071929821777 23.455359649108914 21.0 0.0 0.0 20.0 
127.00044638410213 0.0 0.0 21.0 0.0 0.0 20.0 
128.00094482113198 0.0 0.0 21.0 0.0 0.0 20.0 
129.00127575028853 0.0 0.0 21.0 0.0 0.0 20.0 
130.00032850864332 0.0 0.0 21.0 0.0 0.0 19.0 
131.00087927558525 0.0 0.0 22.0 0.0 0.0 20.0 
132.00290881714218 0.0 0.0 22.0 0.0 0.0 20.0 
133.00122247457628 0.0 0.0 22.0 0.0 0.0 20.0 
134.00127575028853 0.0 0.0 22.0 0.0 0.0 20.0 
135.0005145012156 0.0 0.0 22.0 0.0 0.0 21.0 
136.0008181112356 0.0063586918152583275 3.1793459076291697 22.0 0.0 0.0 21.0 
137.00030282418325 0.00990657401532031 3.1793459076291697 22.0 0.0 0.0 21.0 
138.0000165767278 0.0063586918152583275 3.1793459076291697 23.0 0.0 0.0 22.0 
139.00127575028853 0.019833348228442987 9.91667411422145 23.0 0.0 0.0 22.0 
140.00040453354833 0.019833348228442987 9.91667411422145 23.0 0.0 0.0 22.0 
141.00146719870082 0.03436126416497463 17.180632082487364 22.0 0.0 0.0 21.0 
142.0010150466552 0.03436126416497463 17.180632082487364 22.0 0.0 0.0 21.0 
143.00044431097064 0.03436126416497463 17.180632082487364 22.0 0.0 0.0 21.0 
144.00127575028853 0.07259460507010251 24.040797508898407 22.0 0.0 0.0 20.0 
145.00275681332386 0.07400253762912537 24.040797508898407 22.0 0.0 0.0 19.0 
146.0007832493695 0.05832122183559756 16.90410589164614 23.0 0.0 0.0 19.0 
147.00118889632236 0.05882917026339897 16.90410589164614 23.0 0.0 0.0 18.0 
148.0069994448919 0.08848938054248699 16.90410589164614 23.0 0.0 0.0 18.0 
149.00081050165198 0.20842011960048173 25.08769159739998 23.0 0.0 0.0 18.0 
150.00702452570636 0.21606279582418111 25.08769159739998 23.0 0.0 0.0 18.0 
151.00526190984115 0.21465509916463651 25.08769159739998 23.0 0.0 0.0 18.0 
152.00200428054612 0.2316977792572082 25.08769159739998 23.0 0.0 0.0 18.0 
153.00141820901328 0.1701752749601588 19.537356192019956 23.0 0.0 0.0 18.0 
154.00127575028853 0.41344337932926 33.38917300288702 23.0 0.0 0.0 18.0 
155.00588436978538 0.3245831981443952 33.38917300288702 23.0 0.0 0.0 18.0 
156.00379182732843 0.4305687031448456 33.38917300288702 23.0 0.0 0.0 18.0 
157.00165204046414 0.46475270360398235 33.38917300288702 21.0 0.0 0.0 19.0 
158.00088270360183 0.6075007320206661 57.293754171914884 22.0 0.0 0.0 20.0 
159.00127575028853 0.6212067968022418 57.293754171914884 22.0 0.0 0.0 20.0 
160.00168463090384 0.5281468487303793 42.07814719976054 21.0 0.0 0.0 19.0 
161.00187203967204 0.5508774110493443 42.07814719976054 22.0 0.0 0.0 19.0 
162.00281647626636 0.9153989706404723 59.32535931992078 21.0 0.0 0.0 19.0 
163.00313161746072 0.7752914016289607 57.96329627147975 22.0 0.0 0.0 19.0 
164.000558397495 0.9162858804650248 58.24050743513112 22.0 0.015824697306518296 7.9123486532591585 19.0 
165.00006974056976 0.6377144094380087 58.24050743513112 22.0 0.0 0.0 19.0 
166.00001928243816 0.06698542259513547 33.49271129756758 21.0 0.0 0.0 19.0 
167.0000737537058 0.0 0.0 21.0 0.0 0.0 19.0 
168.00033687776542 0.03951247033776122 13.679418613052462 21.0 0.0 0.0 19.0 
169.0003169748627 0.0568221962154634 13.679418613052462 21.0 0.0 0.0 19.0 
170.00512772988444 0.06698542259513547 33.49271129756758 21.0 0.0 0.0 19.0 
171.00053752807608 0.0 0.0 22.0 0.0 0.0 18.0 
172.00233075298166 0.0 0.0 22.0 0.0 0.0 18.0 
173.00138736950532 0.0063151895753735966 3.157594787686776 22.0 0.007820831571611469 3.910415785805725 18.0 
174.0009137666366 0.018922278173496874 6.303544299061741 21.0 0.015159871874690877 3.910415785805725 18.0 
175.00489998959702 0.012607088598123452 6.303544299061741 21.0 0.015159871874690877 3.910415785805725 18.0 
176.00007034648021 0.01769509248075291 8.847546240376545 21.0 0.015159871874690877 3.910415785805725 18.0 
177.0013617397251 0.06251720140213674 11.267160222588444 21.0 0.009879321821027092 3.910415785805725 18.0 
178.00111515827066 0.02552046840941197 11.267160222588444 21.0 0.0 0.0 20.0 
179.00127575028853 0.1645685375643562 29.22799401361496 21.0 0.0 0.0 19.0 
180.0020317758988 0.09805645193766131 22.094243446369944 20.0 0.0 0.0 20.0 
181.00603487361442 0.1466184712656301 24.9898193930224 21.0 0.0 0.0 21.0 
182.0011121645664 0.07750392580912185 15.626698966638429 20.0 0.030140542053581933 10.604141815939641 21.0 
183.00444579646862 0.05059529471230227 15.626698966638429 20.0 0.023912460036430952 11.956230018215422 21.0 
184.00127575028853 0.1325941456066791 18.991421661329355 20.0 0.023912460036430952 11.956230018215422 21.0 
185.00043134309698 0.17022686393453573 25.651408672437555 20.0 0.03907467244428357 11.956230018215422 20.0 
186.00574178957498 0.09554533070631634 14.523224673036168 20.0 0.16531076580123227 45.022026929169726 20.0 
187.0023041671252 0.1475174908628084 25.65100794762222 20.0 0.2258756549417448 49.393557807506824 20.0 
188.00087521093005 0.15857796601572308 25.65100794762222 20.0 0.10014070564085172 24.837429222905456 19.0 
189.0003761014779 0.15544060271383367 25.65100794762222 20.0 0.11085688992197848 24.837429222905456 19.0 
190.00032624023285 0.174082805364636 24.909085288182553 20.0 0.11085688992197848 24.837429222905456 19.0 
191.0021302537215 0.3701792895695039 64.34825815735297 20.0 0.21192291347604442 50.53301177703304 19.0 
192.00159141674217 0.35734531766498223 64.34825815735297 21.0 0.15265869643350166 27.321807273291085 19.0 
193.00085550975183 0.37939032633836367 71.84147711921003 21.0 0.09801508188691943 23.520616834145216 19.0 
194.00127575028853 0.40719139995388925 71.84147711921003 21.0 0.19295015225378262 34.212414501259246 19.0 
195.00106730319655 0.25351170614556945 23.689634993348477 21.0 0.2536369882103398 34.78688038771929 19.0 
196.00288831281765 0.26003061528124116 30.606191231645738 20.0 0.2585166616655432 34.78688038771929 18.0 
197.00096028896934 0.25865275173411056 38.10330856203413 20.0 0.3840773219664054 53.537523528718935 19.0 
198.00074681633356 0.30789125240198206 38.10330856203413 20.0 0.5916784818715587 57.039099037460346 19.0 
199.00127575028853 0.34041033654134967 38.10330856203413 19.0 0.679324563873081 57.039099037460346 18.0 
200.0003947271844 0.25918291855912184 41.04204958532978 19.0 0.756441957534736 55.39524380395724 18.0 
201.00169027388944 0.31899688579940033 42.69316149808898 20.0 0.8770738545358182 57.17219013031297 17.0 
202.00202398160803 0.16517798688889476 18.64581689506906 20.0 0.7385115522053665 74.5104923837697 18.0 
203.00112587143178 0.15593676665203504 17.09205499307572 20.0 0.0 0.0 17.0 
204.00127575028853 0.18385885748187078 17.781743067607295 20.0 0.0 0.0 18.0 
205.0011658404668 0.2140106376532328 21.300191276386897 21.0 0.0 0.0 18.0 
206.00674631584693 0.1714102551004588 17.781743067607295 21.0 0.0 0.0 18.0 
207.00384355056084 0.16575338282685956 18.667528152425035 21.0 0.0 0.0 18.0 
208.00120056089796 0.20988034958351967 24.358881765645606 21.0 0.0 0.0 18.0 
209.0005558846902 0.15111598929209702 12.829236778828545 21.0 0.0 0.0 18.0 
210.00331259458866 0.17449784268001245 18.58689971524862 21.0 0.0 0.0 18.0 
211.00096992339442 0.18547081447961217 21.230937353027088 22.0 0.0 0.0 18.0 
212.00630356956145 0.1656590514565941 16.812153828125105 22.0 0.0 0.0 18.0 
213.0069994448919 0.17757606729405612 24.314234943579663 21.0 0.0 0.0 18.0 
214.00127575028853 0.16483783403507038 24.314234943579663 21.0 0.0 0.0 18.0 
215.0003128750042 0.18379601918152566 24.314234943579663 21.0 0.0 0.0 18.0 
216.00182876682797 0.16231709063745023 24.314234943579663 21.0 0.0 0.0 18.0 
217.00043082329006 0.10212922043775151 23.94236900495929 21.0 0.0 0.0 18.0 
218.00079739324187 0.11587855513660977 31.39607178772974 21.0 0.0 0.0 18.0 
219.0003653528744 0.13245878993701268 31.39607178772974 21.0 0.0 0.0 18.0 
220.0012143157938 0.11755679998037546 31.39607178772974 20.0 0.0 0.0 18.0 
221.002499190479 0.1324479139779251 31.39607178772974 20.0 0.0 0.0 18.0 
222.00204045517637 0.19565311104713012 35.203265985384235 20.0 0.0 0.0 18.0 
223.0025852255004 0.2124518907555502 35.203265985384235 19.0 0.0 0.0 18.0 
224.00127575028853 0.20880474116580292 38.859080857332 19.0 0.0 0.0 18.0 
225.00319820785455 0.2005966944149513 38.859080857332 19.0 0.0 0.0 18.0 
226.00051891745701 0.20875515077304374 38.859080857332 18.0 0.0 0.0 18.0 
227.00010544926752 0.19937012239205587 39.039497654053406 17.0 0.0 0.0 17.0 
228.00056881253198 0.21160999279214662 46.49784518310827 18.0 0.0 0.0 16.0 
229.00082222840288 0.19450255772283281 46.49784518310827 19.0 0.0 0.0 17.0 
230.00016600187894 0.19450255772283281 46.49784518310827 18.0 0.0 0.0 17.0 
231.00037812055933 0.21047081612116283 46.96080045412566 18.0 0.0 0.0 16.0 
232.00020430183642 0.22815709929969538 46.96080045412566 19.0 0.0 0.0 16.0 
233.0018092697306 0.22815709929969538 46.96080045412566 20.0 0.0 0.0 17.0 
234.00005650700095 0.12812381592466074 35.01412684936608 21.0 0.0 0.0 16.0 
235.00071971379907 0.12812381592466074 35.01412684936608 21.0 0.0 0.0 18.0 
236.00080247976442 0.06343709163904256 18.02964228335793 21.0 0.0 0.0 18.0 
237.00093932499615 0.13877843903092735 26.611217266626028 21.0 0.0 0.0 18.0 
238.00152359739175 0.14347441512588296 25.852591530292898 20.0 0.0 0.0 18.0 
239.00052969358904 0.13423470598279413 25.852591530292898 21.0 0.0 0.0 18.0 
240.00143532426085 0.17943185301066145 25.852591530292898 21.0 0.0 0.0 18.0 
241.00608775460847 0.1802646540577747 22.598573513933843 21.0 0.0 0.0 18.0 
242.0004147688517 0.22657167221586902 26.412043582844035 21.0 0.0 0.0 18.0 
243.00009950464167 0.24752301777080218 26.412043582844035 21.0 0.0 0.0 18.0 
244.00003515990807 0.23613437143738578 26.412043582844035 21.0 0.0 0.0 21.0 
245.00484673144916 0.22810093076097318 25.652784626322898 21.0 0.0 0.0 21.0 
246.00276038683603 0.24194612637147905 25.652784626322898 21.0 0.0 0.0 21.0 
247.00434029876484 0.21269905321196916 19.489266310313667 22.0 0.0 0.0 21.0 
248.00019812824016 0.22121626876384165 21.313373818507557 22.0 0.0 0.0 21.0 
249.00127575028853 0.21853863618926012 21.313373818507557 22.0 0.0 0.0 23.0 
250.002381512627 0.2308470082745211 21.313373818507557 23.0 0.0 0.0 24.0 
251.00205823980164 0.22589722769819265 24.882034083187676 23.0 0.0 0.0 24.0 
252.00417368021579 0.1926959273372565 18.24814953097507 23.0 0.0 0.0 24.0 
253.0002713172111 0.15772744836185582 18.24814953097507 22.0 0.0 0.0 24.0 
254.00051871057013 0.19204448077494246 21.61731355365768 22.0 0.0 0.0 24.0 
255.0045830415947 0.15811877305663857 21.61731355365768 22.0 0.0 0.0 23.0 
256.0020535570047 0.1348618383260449 25.048929139693996 23.0 0.0 0.0 23.0 
257.0011408681481 0.17404793670651758 25.59301582454765 23.0 0.0 0.0 24.0 
258.00074318609734 0.05474751439611977 19.317047859431653 23.0 0.0 0.0 23.0 
259.0007812431899 0.01611341867725641 8.056709338628167 24.0 0.0 0.0 22.0 
260.00001103583406 0.01611341867725641 8.056709338628167 24.0 0.0 0.0 22.0 
261.00394846938326 0.0 0.0 23.0 0.0 0.0 22.0 
262.0014209220911 0.10331978001188584 31.75407333472333 23.0 0.0 0.0 22.0 
263.0003013444912 0.06540371592012081 19.90581667121978 23.0 0.0 0.0 21.0 
264.0012757502885 0.04232226267184488 19.90581667121978 22.0 0.0 0.0 21.0 
265.0013259746893 0.02559208257768137 11.540726624137847 22.0 0.0 0.0 21.0 
266.00109472331707 0.0 0.0 22.0 0.0 0.0 20.0 
267.00656587691805 0.06775006136439025 23.45116058816319 21.0 0.0 0.0 20.0 
268.0018181734335 0.11548376400536657 32.21109502036097 21.0 0.0 0.0 20.0 
269.00052206795755 0.11548376400536657 32.21109502036097 21.0 0.0 0.0 20.0 
270.00104470041373 0.11548376400536657 32.21109502036097 21.0 0.0 0.0 20.0 
271.0003971453262 0.025244376652499047 12.622188326249557 21.0 0.0 0.0 21.0 
272.0024038461591 0.14668546165533178 25.473659122828337 21.0 0.0 0.0 20.0 
273.00098103793795 0.06356161741852276 25.473659122828337 21.0 0.0 0.0 20.0 
274.000161184158 0.1031958992479498 25.473659122828337 21.0 0.0 0.0 20.0 
275.000116383792 0.019615837644683824 9.807918822341861 21.0 0.0 0.0 20.0 
276.00308898876017 0.09789232395729028 25.473659122828337 22.0 0.0 0.0 20.0 
277.00304036346824 0.10716851896507215 20.78193902292196 22.0 0.0 0.0 20.0 
278.0044387791333 0.10716851896507215 20.78193902292196 22.0 0.0 0.0 21.0 
279.0012757502885 0.15556093609685673 24.196208565892505 22.0 0.0 0.0 21.0 
280.0030457941387 0.059584727263387156 16.407897267716322 22.0 0.0 0.0 22.0 
281.0040821577573 0.10305469481464345 21.734983775628052 22.0 0.0 0.0 22.0 
282.002986323406 0.16556242635070492 28.944206089733825 22.0 0.0 0.0 21.0 
283.0048254754052 0.06642829018981079 23.632112689927567 21.0 0.0 0.0 21.0 
284.00121455624304 0.06642829018981079 23.632112689927567 20.0 0.0 0.0 21.0 
285.00041437209916 0.06805660898516533 17.218916170808996 20.0 0.0 0.0 22.0 
286.0003142860597 0.08277216667902762 17.218916170808996 20.0 0.0 0.0 22.0 
287.00600958999615 0.1263261424502119 24.472900827595453 20.0 0.0 0.0 24.0 
288.0008209835496 0.1263261424502119 24.472900827595453 20.0 0.0 0.0 22.0 
289.0012757502885 0.1263261424502119 24.472900827595453 21.0 0.0 0.0 22.0 
290.0023232383347 0.1833128566543225 28.49335710205517 22.0 0.0 0.0 22.0 
291.00129309675316 0.15156001894902657 28.49335710205517 22.0 0.0 0.0 22.0 
292.0000185315005 0.18049478015487394 31.737121552473297 21.0 0.0 0.0 22.0 
293.0008502841884 0.25670787409649654 36.36844666099941 21.0 0.0 0.0 21.0 
294.00023445442145 0.20690311427134064 28.528178216507484 21.0 0.0 0.0 21.0 
295.004555356475 0.20860667874069244 28.528178216507484 21.0 0.0 0.0 21.0 
296.00148174916126 0.23940251781065752 28.528178216507484 21.0 0.0 0.0 20.0 
297.0041848098831 0.43727773080240334 37.40815461604936 21.0 0.0 0.0 20.0 
298.0001898610018 0.5273106878013716 37.40815461604936 21.0 0.0 0.0 20.0 
299.0012757502885 0.5660657426428816 37.40815461604936 21.0 0.0 0.0 20.0 
300.0007437411338 0.5198767682629224 37.40815461604936 21.0 0.0 0.0 19.0 
301.0098447841955 0.5904603906673215 37.40815461604936 21.0 0.0 0.0 19.0 
302.00027441494717 0.5904018975937305 41.00143240752956 21.0 0.0 0.0 19.0 
303.0003723119074 0.7210498199008373 45.95057456955658 21.0 0.0 0.0 19.0 
304.0005133442014 0.8650766309530069 50.19705052469641 21.0 0.0 0.0 19.0 
305.0013696870284 0.8008779482842042 45.95057456955658 21.0 0.0 0.0 19.0 
306.0010973529592 0.880846326297817 53.60763988326943 21.0 0.0 0.0 19.0 
307.0029975042254 1.0204207282946394 53.60763988326943 21.0 0.0 0.0 19.0 
308.0035884665232 0.9545479629167699 51.72393067785589 21.0 0.0 0.0 19.0 
309.0012757502885 1.0146154745240232 51.72393067785589 21.0 0.0 0.0 20.0 
310.0017727981374 1.0074012455250443 51.72393067785589 21.0 0.0 0.0 20.0 
311.0004456700315 1.0119193043362782 51.72393067785589 21.0 0.0 0.0 20.0 
312.00399535294 0.9489211440931147 51.258380921581136 21.0 0.0 0.0 20.0 
313.0046097536601 1.0493228482045358 59.525640115500266 21.0 0.0 0.0 20.0 
314.0012757502885 0.8600338020987232 55.25767409921451 20.0 0.0 0.0 20.0 
315.0006463879372 1.3149744480659453 67.25556431113677 20.0 0.0 0.0 20.0 
316.0007539987036 1.0951895133108371 67.25556431113677 20.0 0.0 0.0 20.0 
317.00464321925955 1.1755801897310023 68.08547065189214 20.0 0.0 0.0 20.0 
318.00421958806743 1.0086708036046146 61.24085898394145 20.0 0.0 0.0 19.0 
319.0012757502885 0.9048208010876493 68.08547065189214 20.0 0.0 0.0 19.0 
320.0049762110371 1.200079146802333 66.58216362203854 19.0 0.0 0.0 20.0 
321.00135869256354 1.349396922526178 67.64608710071712 19.0 0.0 0.0 20.0 
322.00656587691805 1.2157139907548973 86.33928767745385 19.0 0.0 0.0 20.0 
323.00136038279277 1.1791590555643636 70.75884467296999 19.0 0.0 0.0 19.0 
324.0012757502885 1.2506577320838321 86.08622946918206 18.0 0.0 0.0 18.0 
325.00161382217226 1.6314820682288773 99.45831430727156 18.0 0.0 0.0 18.0 
326.0024310326661 1.1745512388497794 99.45831430727156 18.0 0.0 0.0 18.0 
327.00656587691805 1.1947143104110634 75.74558530886537 18.0 0.0 0.0 18.0 
328.0019963921131 0.7813190130744043 75.74558530886537 18.0 0.0 0.0 18.0 
329.00116383497436 1.1302683924519688 81.32130983295798 18.0 0.0 0.0 18.0 
330.0024282273262 1.030638874704234 91.05945542867897 18.0 0.0 0.0 18.0 
331.0008768103826 0.9097147277090321 71.26871164792215 18.0 0.0 0.0 18.0 
332.0031984302452 1.3621144058486228 85.44533716579718 18.0 0.0 0.0 18.0 
333.00053793532805 1.1306568000431725 74.87890191870656 18.0 0.0 0.0 18.0 
334.0005359502793 1.0047636837871652 74.87890191870656 18.0 0.0 0.0 18.0 
335.0002848596892 0.7619470549796509 73.50436094643436 18.0 0.0 0.0 18.0 
336.000247385406 0.6412799066060946 90.76948729533717 17.0 0.0 0.0 18.0 
337.00656587691805 0.2360526607409236 59.597858180706794 17.0 0.0 0.0 18.0 
338.0024564602887 0.5119003162021181 86.88946117809644 18.0 0.0 0.0 17.0 
339.0012757502885 0.6252621332199716 91.34005107010728 19.0 0.0 0.0 17.0 
340.000738412605 0.3955637340434077 92.03549320012536 18.0 0.0 0.0 17.0 
341.0006317337856 0.31251732414345046 59.597858180706794 17.0 0.0 0.0 17.0 
342.00003007757823 0.2730773519090878 48.06276839790172 17.0 0.0 0.0 17.0 
343.00188301265837 0.2730773519090878 48.06276839790172 17.0 0.0 0.0 18.0 
344.00097721943644 0.18950154711911615 48.06276839790172 17.0 0.0 0.0 18.0 
345.0078666192005 0.09612553679580366 48.06276839790172 17.0 0.0 0.0 18.0 
346.00347406773074 0.0 0.0 17.0 0.0 0.0 18.0 
347.0008078492448 0.0 0.0 17.0 0.0 0.0 18.0 
348.0014791991778 0.0 0.0 17.0 0.0 0.0 18.0 
349.00038565187435 0.0 0.0 17.0 0.0 0.0 18.0 
350.00163370684606 0.0 0.0 17.0 0.0 0.0 17.0 
351.0020569394666 0.09743240822219913 48.71620411109981 17.0 0.0 0.0 17.0 
352.0012469917248 0.0 0.0 18.0 0.0 0.0 16.0 
353.0001316835043 0.0 0.0 19.0 0.0 0.0 16.0 
354.0008725715186 0.0 0.0 19.0 0.0 0.0 16.0 
355.00075344525294 0.0 0.0 20.0 0.0 0.0 16.0 
356.0005389730937 0.0 0.0 19.0 0.0 0.0 15.0 
357.0031050915311 0.0 0.0 19.0 0.0 0.0 15.0 
358.005082561321 0.0 0.0 20.0 0.0 0.0 16.0 
359.0012757502885 0.0 0.0 20.0 0.0 0.0 16.0 
360.00204142261134 0.0 0.0 20.0 0.0 0.0 16.0 
361.0009676853924 0.0 0.0 20.0 0.0 0.0 16.0 
362.00235597581286 0.0 0.0 20.0 0.0 0.0 16.0 
363.00132181605085 0.0 0.0 19.0 0.0 0.0 16.0 
364.0012757502885 0.0 0.0 19.0 0.0 0.0 16.0 
365.002779863878 0.0 0.0 19.0 0.0 0.0 16.0 
366.00246494527227 0.0 0.0 19.0 0.0 0.0 16.0 
367.0002552100078 0.0 0.0 19.0 0.0 0.0 16.0 
368.00141284448915 0.0 0.0 18.0 0.0 0.0 17.0 
369.0012757502885 0.0 0.0 18.0 0.0 0.0 17.0 
370.00637951213406 0.0 0.0 18.0 0.0 0.0 17.0 
371.0014006548846 0.0 0.0 18.0 0.0 0.0 16.0 
372.00582012391715 0.0 0.0 18.0 0.0 0.0 16.0 
373.0000809497571 0.006201097324369536 3.1005486621847638 19.0 0.0 0.0 15.0 
374.0012757502885 0.0 0.0 19.0 0.0 0.0 15.0 
375.0010016919768 0.0 0.0 20.0 0.0 0.0 16.0 
376.00033465270775 0.0 0.0 20.0 0.0 0.0 16.0 
377.0043507459751 0.0 0.0 20.0 0.0 0.0 16.0 
378.0036919427985 0.0 0.0 20.0 0.0 0.0 16.0 
379.0003091907374 0.011260897209493966 5.630448604746988 20.0 0.0 0.0 16.0 
380.0002027530852 0.0 0.0 20.0 0.0 0.0 16.0 
381.0005096736824 0.0 0.0 20.0 0.0 0.0 16.0 
382.00098007884316 0.0 0.0 20.0 0.0 0.0 18.0 
383.00315576515345 0.0 0.0 20.0 0.0 0.0 18.0 
384.00018429722365 0.0 0.0 20.0 0.0 0.0 18.0 
385.0000709335134 0.0 0.0 20.0 0.0 0.0 18.0 
386.00028940090056 0.0 0.0 20.0 0.0 0.0 18.0 
387.00116315357315 0.0 0.0 20.0 0.0 0.0 18.0 
388.0003563383051 0.0 0.0 20.0 0.0 0.0 18.0 
389.0012757502885 0.0 0.0 20.0 0.0 0.0 18.0 
390.0001814333899 0.0 0.0 20.0 0.0 0.0 18.0 
391.0038040857841 0.0 0.0 20.0 0.0 0.0 19.0 
392.0006027780058 0.0 0.0 20.0 0.0 0.0 20.0 
393.0029952927729 0.0 0.0 20.0 0.0 0.0 18.0 
394.0005904988016 0.0 0.0 19.0 0.0 0.0 18.0 
395.0001269337058 0.007497380630947825 3.7486903154739366 19.0 0.0 0.0 18.0 
396.0005335458029 0.0 0.0 19.0 0.0 0.0 18.0 
397.0027443134278 0.0 0.0 19.0 0.0 0.0 18.0 
398.0001954421207 0.0 0.0 19.0 0.0 0.0 18.0 
399.0012757502885 0.0 0.0 19.0 0.0 0.0 18.0 
400.0001384577071 0.0 0.0 18.0 0.0 0.0 18.0 
401.0022123595095 0.0 0.0 18.0 0.0 0.0 17.0 
402.0021157952561 0.0 0.0 18.0 0.0 0.0 17.0 
403.00277031869683 0.0 0.0 18.0 0.0 0.0 17.0 
404.00017815946273 0.0 0.0 18.0 0.0 0.0 17.0 
405.00972809013854 0.007739309056119044 3.8696545280595274 18.0 0.0 0.0 17.0 
406.00445844235594 0.007739309056119044 3.8696545280595274 17.0 0.0 0.0 17.0 
407.0000173933287 0.007739309056119044 3.8696545280595274 18.0 0.0 0.0 17.0 
408.0045365109378 0.03792964706327923 8.74471283761929 17.0 0.0 0.0 16.0 
409.0004789457922 0.0 0.0 17.0 0.0 0.0 16.0 
410.00041858641004 0.014466791863365278 7.233395931682566 17.0 0.0 0.0 17.0 
411.0003301164604 0.0 0.0 17.0 0.0 0.0 16.0 
412.0036359634784 0.0 0.0 17.0 0.0 0.0 16.0 
413.0028227686892 0.0015564187688078199 0.7782093844039082 17.0 0.0 0.0 16.0 
414.0012757502885 0.0 0.0 16.0 0.0 0.0 15.0 
415.00015244590674 0.0 0.0 17.0 0.0 0.0 16.0 
416.00054530513336 0.0 0.0 17.0 0.0 0.0 16.0 
417.0035010218024 0.0 0.0 18.0 0.0 0.0 17.0 
418.0038575591541 0.0 0.0 17.0 0.0 0.0 17.0 
419.0006254236814 0.0 0.0 17.0 0.0 0.0 17.0 
420.0059021858293 0.0 0.0 17.0 0.0 0.0 18.0 
421.00411313861724 0.0 0.0 17.0 0.0 0.0 18.0 
422.0009255361899 0.0 0.0 17.0 0.0 0.0 18.0 
423.0012950411527 0.0 0.0 17.0 0.0 0.0 17.0 
424.0012757502885 0.0 0.0 17.0 0.0 0.0 17.0 
425.00282840225657 0.08316047379199451 41.58023689599739 17.0 0.0 0.0 17.0 
426.0025131634504 0.08316047379199451 41.58023689599739 17.0 0.0 0.0 17.0 
427.00526429495346 0.0 0.0 16.0 0.0 0.0 16.0 
428.00155358592247 0.0 0.0 16.0 0.0 0.0 16.0 
429.0012757502885 0.0 0.0 16.0 0.0 0.0 15.0 
430.0000396146388 0.0 0.0 16.0 0.0 0.0 15.0 
431.00069838429914 0.0 0.0 16.0 0.0 0.0 15.0 
432.0001531879582 0.0 0.0 16.0 0.0 0.0 15.0 
433.0010760289595 0.0 0.0 16.0 0.0 0.0 15.0 
434.00032711071776 0.0 0.0 16.0 0.0 0.0 15.0 
435.00019203753465 0.0 0.0 16.0 0.0 0.0 15.0 
436.00236773836724 0.0 0.0 16.0 0.0 0.0 15.0 
437.00273644324136 0.0 0.0 17.0 0.0 0.0 16.0 
438.00562638138865 0.0 0.0 17.0 0.0 0.0 16.0 
439.0012757502885 0.0 0.0 17.0 0.0 0.0 16.0 
440.00766963183514 0.0019845594441546916 0.9922797220773418 17.0 0.0 0.0 16.0 
441.0052111983483 0.013973393080526744 6.986696540263438 17.0 0.0 0.0 16.0 
442.00138991615177 0.013973393080526744 6.986696540263438 17.0 0.0 0.0 16.0 
443.00307326766193 0.013973393080526744 6.986696540263438 17.0 0.0 0.0 16.0 
444.0012757502885 0.013973393080526744 6.986696540263438 17.0 0.0 0.0 16.0 
445.0004370322882 0.0 0.0 17.0 0.0 0.0 16.0 
446.0015045589118 0.0 0.0 17.0 0.0 0.0 16.0 
447.00239651989534 0.0 0.0 17.0 0.0 0.0 16.0 
448.0015199446962 0.0 0.0 17.0 0.0 0.0 16.0 
449.00015731063826 0.0 0.0 17.0 0.0 0.0 16.0 
450.0005507033281 0.006550807874300915 3.275403937150486 16.0 0.0 0.0 16.0 
451.00038723344477 0.006550807874300915 3.275403937150486 17.0 0.0 0.0 17.0 
452.00235810166987 0.006550807874300915 3.275403937150486 17.0 0.0 0.0 17.0 
453.0006575770518 0.006550807874300915 3.275403937150486 17.0 0.0 0.0 17.0 
454.00060325591295 0.006550807874300915 3.275403937150486 17.0 0.0 0.0 17.0 
455.00223508383175 0.0 0.0 17.0 0.0 0.0 17.0 
456.00074607050726 0.026372653109641694 13.186326554820766 17.0 0.0 0.0 17.0 
457.0008640774629 0.0 0.0 17.0 0.0 0.0 17.0 
458.0000180486635 0.024270112962369455 7.163099786799734 18.0 0.0 0.0 17.0 
459.0012757502885 0.009943913388770032 4.971956694385028 17.0 0.0 0.0 17.0 
460.0005644115934 0.009943913388770032 4.971956694385028 18.0 0.0 0.0 17.0 
461.00146806656113 0.009943913388770032 4.971956694385028 18.0 0.0 0.0 17.0 
462.0001000861865 0.058443611233658294 9.03684752755953 18.0 0.0 0.0 16.0 
463.0004644520236 0.05174736281415516 6.826901609257817 17.0 0.0 0.0 16.0 
464.00045362276126 0.05625895347075774 12.36493871846426 17.0 0.0 0.0 16.0 
465.0016746218327 0.09780424505571528 16.580969976410415 17.0 0.0 0.0 15.0 
466.00993612650956 0.06464230510289437 12.36493871846426 17.0 0.0 0.0 15.0 
467.0009650810086 0.1589059152150031 19.81923163460644 17.0 0.0 0.0 15.0 
468.00109462582617 0.16455172220473915 21.01774080416442 16.0 0.0 0.0 16.0 
469.000755292344 0.18063133259155478 21.01774080416442 16.0 0.0 0.0 17.0 
470.00682725403504 0.13661253417040004 21.01774080416442 16.0 0.0 0.0 17.0 
471.000603543086 0.1512623931165146 14.635702371622017 16.0 0.0 0.0 17.0 
472.0044905508807 0.2999395557793635 22.983338797618217 16.0 0.0 0.0 17.0 
473.00289948272996 0.2938537397750814 22.983338797618217 16.0 0.0 0.0 17.0 
474.0012757502885 0.2938537397750814 22.983338797618217 16.0 0.0 0.0 16.0 
475.000172231319 0.20748171972566162 22.983338797618217 16.0 0.0 0.0 16.0 
476.00197697046417 0.2247412304314413 23.9882489044073 16.0 0.0 0.0 16.0 
477.00203540069606 0.4339775376051686 31.968188468452183 17.0 0.0 0.0 18.0 
478.0015893405261 0.4322382188909323 31.968188468452183 18.0 0.0 0.0 21.0 
479.0012757502885 0.431147296972182 31.47948234280483 19.0 0.0 0.0 19.0 
480.00030043845305 0.49049113935875555 50.24643059509353 18.0 0.0 0.0 18.0 
481.0036949602196 0.4095237691529312 38.11302206995367 18.0 0.0 0.0 18.0 
482.00343354411115 0.5148469403789541 52.51522273527348 18.0 0.0 0.0 18.0 
483.0001719315482 0.5148469403789541 52.51522273527348 17.0 0.0 0.0 18.0 
484.0012757502885 0.5446968932152639 45.185038744249965 17.0 0.0 0.0 18.0 
485.00475632385195 0.5317058321078795 45.185038744249965 17.0 0.0 0.0 18.0 
486.0027997747053 0.4893846577764494 45.185038744249965 17.0 0.0 0.0 18.0 
487.0001323189357 0.5258215004576672 45.46669289875044 16.0 0.0 0.0 18.0 
488.00098321880625 0.5167908842591341 45.46669289875044 16.0 0.0 0.0 19.0 
489.0012757502885 0.5896763144323989 55.80554780590904 16.0 0.0 0.0 18.0 
490.0013889687681 0.5895957897943822 55.80554780590904 16.0 0.0 0.0 18.0 
491.0010414846685 0.580583849376549 48.5403672609078 17.0 0.0 0.0 18.0 
492.00194168079264 0.6288450204599354 49.0355330712957 17.0 0.0 0.0 18.0 
493.0011895398938 0.6329236329956449 49.0355330712957 17.0 0.0 0.0 18.0 
494.00065076523896 0.6557736421728702 49.0355330712957 17.0 0.0 0.0 18.0 
495.0031966345701 0.667331325049124 41.77689490944596 17.0 0.0 0.0 18.0 
496.00222033785826 0.6867102875623581 41.77689490944596 16.0 0.0 0.0 17.0 
497.0000296623983 0.6933759616609219 42.679291091964615 16.0 0.0 0.0 17.0 
498.00119752099823 0.7080573647235479 42.679291091964615 16.0 0.0 0.0 18.0 
499.0012757502885 0.7461625703309772 42.679291091964615 16.0 0.0 0.0 16.0 
500.00584799886485 0.7606884716153404 42.679291091964615 16.0 0.0 0.0 16.0 
501.00134832754674 0.7485852876616064 35.413243049158524 16.0 0.0 0.0 17.0 
502.00001296512147 0.7641550791995373 38.80284493021489 16.0 0.0 0.0 17.0 
503.00249788242377 0.7641550791995373 38.80284493021489 16.0 0.0 0.0 16.0 
504.0012757502885 0.7180636414040402 41.527450550454375 16.0 0.0 0.0 16.0 
505.00073635711414 0.8066327850496475 41.527450550454375 16.0 0.0 0.0 16.0 
506.00004417918564 0.7171416152821317 42.98441516788546 16.0 0.0 0.0 16.0 
507.0024561326237 0.7454661233795141 42.98441516788546 16.0 0.0 0.0 16.0 
508.00090798942176 0.7634526516796103 49.94557775728495 16.0 0.0 0.0 16.0 
509.0012757502885 0.6294698714058624 49.94557775728495 16.0 0.0 0.0 15.0 
510.00137407060373 0.6099611703243629 49.94557775728495 16.0 0.0 0.0 15.0 
511.00641528220297 0.40793097701678854 49.94557775728495 16.0 0.0 0.0 15.0 
512.0000452339752 0.4282337137112152 51.47246309636617 16.0 0.0 0.0 16.0 
513.0008614809067 0.3474805952262983 37.35086980489584 16.0 0.0 0.0 17.0 
514.0000957358304 0.3778825669186418 35.92356623165463 16.0 0.0 0.0 18.0 
515.0015884740696 0.41957938124995564 35.92356623165463 16.0 0.0 0.0 18.0 
516.0002036126227 0.541751056512129 35.14495955766873 16.0 0.0 0.0 18.0 
517.0017956882191 0.6030042047027943 36.59262346098791 16.0 0.0 0.0 18.0 
518.0013155290155 0.5458012897484101 36.59262346098791 17.0 0.0 0.0 17.0 
519.0003359928764 0.6123394419703733 35.404928377514864 17.0 0.0 0.0 17.0 
520.0010571600761 0.5504677563954384 37.00092089778002 18.0 0.0 0.0 16.0 
521.0001041001407 0.5324420439758398 37.00092089778002 17.0 0.0 0.0 15.0 
522.0030654727453 0.6276892553386059 38.724229517040555 17.0 0.0 0.0 15.0 
523.0022513414175 0.6122618786107724 38.724229517040555 17.0 0.0 0.0 15.0 
524.0012757502885 0.6180334512099173 46.13194023029678 17.0 0.006505902713455877 3.2529513567279196 15.0 
525.0009533582123 0.6136035877631748 43.63640004653527 16.0 0.006505902713455877 3.2529513567279196 15.0 
526.0009934169842 0.6488703703533213 43.63640004653527 17.0 0.023319071893517354 10.591588165195418 15.0 
527.0001591102408 0.7918360362858514 46.0444888700826 16.0 0.023319071893517354 10.591588165195418 15.0 
528.002783483718 0.8056608477980786 46.0444888700826 16.0 0.023319071893517354 10.591588165195418 15.0 
529.0005877998536 0.8811466455598891 46.0444888700826 16.0 0.038173856689740646 18.018980563307082 15.0 
530.0000874549835 0.8312071279733603 45.67504232316662 17.0 0.01698101357460731 8.490506787303701 16.0 
531.0021561072501 0.9107710416208483 45.67504232316662 19.0 0.0 0.0 17.0 
532.0039168421353 1.1166593149351176 53.984630879970894 18.0 0.0 0.0 17.0 
533.0069994448919 1.1910873523876493 53.984630879970894 19.0 0.0 0.0 17.0 
534.0012757502885 0.8043827995931552 53.984630879970894 18.0 0.0 0.0 17.0 
535.0036492777855 0.7849188034825083 53.984630879970894 19.0 0.0 0.0 17.0 
536.0004880983245 0.7582894854283238 53.984630879970894 19.0 0.0 0.0 17.0 
537.0013527646282 0.7749527311543507 59.440239314363566 18.0 0.0 0.0 17.0 
538.0049374381038 0.7985907434125701 67.59748254819277 18.0 0.0 0.0 18.0 
539.0012757502885 0.830405494398934 67.59748254819277 18.0 0.0 0.0 18.0 
540.0001713293979 0.830405494398934 67.59748254819277 17.0 0.0 0.0 18.0 
541.000328408798 0.8036679942965257 67.59748254819277 17.0 0.0 0.0 18.0 
542.0065658769181 0.7932836234497954 63.03713966701264 17.0 0.0 0.0 17.0 
543.0020027830161 0.7882443591302941 65.41850537791265 16.0 0.0 0.0 17.0 
544.0012757502885 0.6792143908806836 65.41850537791265 16.0 0.0 0.0 17.0 
545.0039794644355 0.7952294622721849 65.41850537791265 16.0 0.0 0.0 16.0 
546.0022913115907 0.6144419045200643 65.41850537791265 17.0 0.0 0.0 16.0 
547.0012461587753 0.8347102019412884 72.23379995252742 18.0 0.0 0.0 18.0 
548.0027592212227 0.6829356866410788 72.23379995252742 18.0 0.0 0.0 18.0 
549.0012757502885 0.32936971651369007 64.58971884473016 18.0 0.0 0.0 18.0 
550.0013817874784 0.0534093200524143 16.525129044949836 18.0 0.0 0.0 18.0 
551.0073383993065 0.040559268635318266 16.525129044949836 18.0 0.0 0.0 18.0 
552.0019262044808 0.04291903124851021 10.755534831173463 18.0 0.0 0.0 18.0 
553.0010104288104 0.05142644182786898 10.755534831173463 18.0 0.0152589397914392 4.492655533823552 18.0 
554.0006620847514 0.07686402469317265 16.972496722331073 18.0 0.0152589397914392 4.492655533823552 17.0 
555.0008751884023 0.07905105378869973 16.972496722331073 18.0 0.0152589397914392 4.492655533823552 18.0 
556.0015920741516 0.06602299343207486 16.972496722331073 18.0 0.0152589397914392 4.492655533823552 17.0 
557.0002014146766 0.12560809492049363 23.959808822543323 18.0 0.0 0.0 17.0 
558.0069994448919 0.11971648473660912 18.828946494376765 17.0 0.018866657444880235 4.981871859696895 17.0 
559.0012757502885 0.12797030217083216 25.006748350436027 17.0 0.012581202892809588 4.981871859696895 17.0 
560.000749911945 0.1143784970666335 25.006748350436027 18.0 0.00996374371939391 4.981871859696895 17.0 
561.0014604810169 0.12327858729402662 25.006748350436027 18.0 0.00996374371939391 4.981871859696895 17.0 
562.0006215220799 0.19477362429495634 32.09431899464931 18.0 0.00996374371939391 4.981871859696895 17.0 
563.0007619680727 0.18177367737658331 32.09431899464931 18.0 0.01435731883755194 7.178659418775908 17.0 
564.0009208548332 0.1308754363876025 23.77228126959463 18.0 0.0 0.0 17.0 
565.000237399649 0.12552022004314195 23.77228126959463 17.0 0.0 0.0 17.0 
566.0010380648877 0.13891636885631684 23.77228126959463 18.0 0.0 0.0 17.0 
567.0019279870024 0.22633008263943935 30.672190348677333 17.0 0.0 0.0 17.0 
568.0007462042546 0.3224865364854749 46.838521138247756 17.0 0.0 0.0 17.0 
569.0004684315435 0.3188253398506164 46.838521138247756 17.0 0.0 0.0 18.0 
570.0002283176087 0.386398586412776 46.838521138247756 16.0 0.0 0.0 18.0 
571.0034821456318 0.35173835440734297 39.4002146571824 16.0 0.009245599311509008 4.394741249079914 18.0 
572.0001448378518 0.3628891820646146 41.44568877638034 16.0 0.02402752672465214 7.619022113246189 18.0 
573.0032646967787 0.5054532391172688 71.28202852632558 16.0 0.015238044226492399 7.619022113246189 19.0 
574.0008713045191 0.4025187676916625 71.28202852632558 16.0 0.0 0.0 18.0 
575.002613376941 0.3557670865145429 41.37033737316216 17.0 0.0 0.0 18.0 
576.0002598349554 0.3843408762055549 47.6587022384835 17.0 0.0 0.0 18.0 
577.0009905767894 0.3435697802466224 44.65504567152007 17.0 0.0 0.0 18.0 
578.0020696409364 0.384735512533058 50.82617471555028 17.0 0.0 0.0 18.0 
579.0005117939513 0.2959264346306445 44.65504567152007 17.0 0.0 0.0 18.0 
580.0007819836813 0.28712021024889794 44.65504567152007 17.0 0.0 0.0 18.0 
581.0017467202724 0.26246333106764314 38.715924600956924 17.0 0.0 0.0 18.0 
582.000582710413 0.33481680222802973 44.27226951323024 17.0 0.0 0.0 17.0 
583.0011063922705 0.40992591975686166 50.81991290997428 17.0 0.0 0.0 17.0 
584.0000865751131 0.42267788667191725 50.81991290997428 17.0 0.0 0.0 17.0 
585.000018938622 0.4283823592195566 53.67214918379298 16.0 0.0 0.0 17.0 
586.0021961045849 0.3186101239770007 50.81991290997428 16.0 0.0 0.0 19.0 
587.0000196910463 0.5235139082861667 54.4158320603201 16.0 0.0 0.0 19.0 
588.0007645256466 0.6454137844142059 57.21042420101509 16.0 0.0 0.0 19.0 
589.000459052257 0.6292736026393427 53.7988942514059 16.0 0.0 0.0 18.0 
590.0011315041982 0.6151542508918726 53.7988942514059 16.0 0.0 0.0 18.0 
591.0001313539507 0.6402603313650377 59.677132908370425 16.0 0.0 0.0 18.0 
592.0032702959301 0.8443051637176712 63.33902104072729 16.0 0.0 0.0 18.0 
593.0005828276076 0.729439257990659 55.19960900508789 16.0 0.0 0.0 17.0 
594.0001359699986 0.897553583741279 63.33902104072729 17.0 0.0 0.0 17.0 
595.0038859784743 0.9055164892359159 63.33902104072729 17.0 0.0 0.0 16.0 
596.0005316617074 0.9170197127410754 63.33902104072729 18.0 0.0 0.0 17.0 
597.0015358671951 1.3160809244614746 76.25309618177039 18.0 0.0 0.0 17.0 
598.001565015921 1.1084936316569642 76.25309618177039 18.0 0.0 0.0 17.0 
599.0010819369202 1.3125310194045403 76.25309618177039 18.0 0.0 0.0 17.0 
600.0041523105899 1.3137953572604224 76.25309618177039 18.0 0.0 0.0 17.0 
#####################################################################
# End of data export. Simulation finished at: 2019-02-25T20:37+0000 #
#####################################################################
