#####################################################################
# Alchemist log file - simulation started at: 2019-02-25T20:37+0000 #
#####################################################################
# seed = 161.0
#
# The columns have the following meaning: 
# time distance-rep[Mean] distance-rep[Max] leader-rep[CountDistinct] distance-share[Mean] distance-share[Max] leader-share[CountDistinct] 
0.0 NaN NaN NaN NaN NaN NaN 
1.0004272504433565 0.0 0.0 498.0 0.0 0.0 69.0 
2.002391253413435 0.0 0.0 110.0 0.0 0.0 62.0 
3.0019287841907456 0.0 0.0 98.0 0.0 0.0 58.0 
4.001461171581474 0.0 0.0 95.0 0.0 0.0 49.0 
5.000190601748184 0.0 0.0 88.0 0.0 0.0 46.0 
6.001315105205999 0.0 0.0 84.0 0.0 0.0 42.0 
7.001019136979112 0.0 0.0 79.0 0.0 0.0 39.0 
8.000225069176599 0.0 0.0 76.0 0.0 0.0 40.0 
9.00089708138403 0.0 0.0 75.0 0.0 0.0 40.0 
10.000037749958468 0.0 0.0 71.0 0.0 0.0 38.0 
11.00022767575051 0.0 0.0 68.0 0.0 0.0 33.0 
12.005037614261601 0.0 0.0 61.0 0.0 0.0 31.0 
13.000399251897088 0.0 0.0 61.0 0.010256538941134003 5.128269470567005 26.0 
14.001664441630162 0.0 0.0 58.0 0.011198770929944972 5.128269470567005 28.0 
15.000638447978128 0.0 0.0 53.0 0.010256538941134003 5.128269470567005 31.0 
16.002273805755575 0.0 0.0 56.0 0.0 0.0 29.0 
17.000959323132996 0.0 0.0 51.0 0.0 0.0 28.0 
18.000303185930726 0.0 0.0 50.0 0.0 0.0 25.0 
19.003294573048056 0.0 0.0 53.0 0.0 0.0 23.0 
20.002938589278326 0.0 0.0 48.0 0.0 0.0 22.0 
21.002273805755575 0.0 0.0 50.0 0.04343202577537017 19.556965655337336 22.0 
22.003372636331356 0.0 0.0 49.0 0.004318094464695591 2.1590472323478025 22.0 
23.002813956429147 0.0 0.0 45.0 0.0 0.0 21.0 
24.003821997920674 0.0 0.0 47.0 0.0 0.0 21.0 
25.000083852921364 0.0 0.0 46.0 0.0 0.0 20.0 
26.001525046100635 0.0 0.0 46.0 0.0 0.0 17.0 
27.00065021586633 0.0 0.0 43.0 0.0 0.0 17.0 
28.001417429589313 0.0 0.0 44.0 0.0 0.0 17.0 
29.00163414821245 0.0 0.0 40.0 0.0 0.0 17.0 
30.00336753165447 0.0 0.0 41.0 0.0 0.0 17.0 
31.000473860244334 0.0 0.0 38.0 0.0 0.0 17.0 
32.00075593513665 0.0 0.0 38.0 0.0 0.0 17.0 
33.00149518499301 0.0 0.0 37.0 0.0 0.0 17.0 
34.001770471586916 0.0 0.0 32.0 0.0 0.0 17.0 
35.00260343490049 0.0 0.0 32.0 0.0 0.0 17.0 
36.00002057841237 0.0 0.0 32.0 0.0 0.0 16.0 
37.00132414760343 0.0 0.0 31.0 0.0 0.0 16.0 
38.00159508236727 0.0012528651650575832 0.6264325825287926 30.0 0.008102023090177693 4.051011545088869 15.0 
39.00349326479993 0.0012528651650575832 0.6264325825287926 30.0 0.023109520560949066 7.503748735385642 15.0 
40.00054993293796 0.0 0.0 31.0 0.008102023090177693 4.051011545088869 17.0 
41.00227380575558 0.0 0.0 31.0 0.0 0.0 15.0 
42.00168588749535 0.0 0.0 31.0 0.0 0.0 15.0 
43.00366486831197 0.0 0.0 32.0 0.0 0.0 16.0 
44.001567720352206 0.006583160701778503 3.2915803508892623 32.0 0.0 0.0 16.0 
45.002156016593105 0.006583160701778503 3.2915803508892623 31.0 0.0 0.0 16.0 
46.00227380575558 0.0 0.0 31.0 0.0 0.0 16.0 
47.002254610937335 0.0 0.0 30.0 0.0 0.0 16.0 
48.00073023850175 0.0 0.0 29.0 0.0 0.0 16.0 
49.000608146896695 0.02093392629287523 10.466963146437536 30.0 0.0 0.0 16.0 
50.00003286801526 0.02093392629287523 10.466963146437536 29.0 0.0 0.0 16.0 
51.00121114846136 0.0 0.0 30.0 0.0 0.0 16.0 
52.00103379792094 0.0 0.0 30.0 0.0 0.0 16.0 
53.006624636014166 0.0 0.0 30.0 0.0 0.0 16.0 
54.00019144852681 0.0 0.0 29.0 0.0 0.0 16.0 
55.00077870099823 0.0 0.0 28.0 0.0 0.0 16.0 
56.00227380575558 0.0 0.0 28.0 0.0 0.0 18.0 
57.000200232219676 0.0 0.0 26.0 0.0 0.0 17.0 
58.00246609154797 0.0 0.0 25.0 0.0 0.0 17.0 
59.000152575164954 0.00876353994358598 4.381769971792977 25.0 0.0 0.0 17.0 
60.00243322562243 0.0 0.0 26.0 0.0 0.0 18.0 
61.00011295423677 0.0 0.0 26.0 0.0 0.0 18.0 
62.004245525833646 0.0 0.0 27.0 0.0 0.0 19.0 
63.00064645244142 0.0 0.0 26.0 0.0 0.0 19.0 
64.0039948255547 0.0 0.0 24.0 0.0 0.0 19.0 
65.00081307781541 0.0 0.0 24.0 0.0 0.0 19.0 
66.00009931036202 0.0 0.0 24.0 0.0 0.0 19.0 
67.0025099420011 0.0 0.0 23.0 0.0 0.0 19.0 
68.00016807861702 0.0010117013109718262 0.505850655485915 23.0 0.0 0.0 19.0 
69.00037725036474 0.0010117013109718262 0.505850655485915 23.0 0.0 0.0 19.0 
70.00634210929006 0.0157303404788212 7.865170239410645 23.0 0.0 0.0 19.0 
71.00227380575558 0.0157303404788212 7.865170239410645 23.0 0.0 0.0 20.0 
72.00250271432309 0.0157303404788212 7.865170239410645 23.0 0.0 0.0 20.0 
73.00069723597416 0.030596427535203474 15.298213767601624 23.0 0.0 0.0 20.0 
74.00067209124751 0.030596427535203474 15.298213767601624 23.0 0.0 0.0 20.0 
75.00196740281098 0.030596427535203474 15.298213767601624 24.0 0.0 0.0 20.0 
76.00227380575558 0.0 0.0 24.0 0.0 0.0 20.0 
77.00074814994385 0.045470850256074634 22.73542512803712 24.0 0.0 0.0 21.0 
78.00062787522165 0.005739186577149699 2.8695932885748334 24.0 0.0 0.0 21.0 
79.00060192556451 0.020736034818704816 10.368017409352404 24.0 0.0 0.0 21.0 
80.00179957193801 0.020736034818704816 10.368017409352404 24.0 0.0 0.0 21.0 
81.000498662546 0.020736034818704816 10.368017409352404 24.0 0.0 0.0 21.0 
82.00064937242749 0.020736034818704816 10.368017409352404 23.0 0.0 0.0 21.0 
83.00394449893828 0.035545732546680905 17.772866273340583 24.0 0.0 0.0 22.0 
84.00114119407436 0.04531118463645302 22.037427854454876 24.0 0.0 0.0 22.0 
85.00057837687356 0.04531118463645302 22.037427854454876 24.0 0.0 0.0 22.0 
86.00141618288873 0.04531118463645302 22.037427854454876 24.0 0.0 0.0 22.0 
87.00231867582085 0.04531118463645302 22.037427854454876 23.0 0.0 0.0 22.0 
88.00040369628526 0.02184165237783108 10.920826188915527 24.0 0.0 0.0 23.0 
89.00061101026361 0.08631773801786265 32.23804282001561 23.0 0.0 0.0 23.0 
90.000207419277 0.02184165237783108 10.920826188915527 24.0 0.0 0.0 23.0 
91.00227380575558 0.08631773801786265 32.23804282001561 23.0 0.0 0.0 23.0 
92.00207478933204 0.08631773801786265 32.23804282001561 23.0 0.0 0.0 23.0 
93.00088496907698 0.042940078046558514 21.470039023279384 23.0 0.0 0.0 23.0 
94.00018531984821 0.042940078046558514 21.470039023279384 23.0 0.0 0.0 22.0 
95.00669110357856 0.042940078046558514 21.470039023279384 23.0 0.0 0.0 22.0 
96.00227380575558 0.04441272914588565 21.470039023279384 23.0 0.0 0.0 21.0 
97.0003627306031 0.04441272914588565 21.470039023279384 23.0 0.0 0.0 20.0 
98.00818404686176 0.07294626719086825 32.14020010130244 23.0 0.0 0.0 20.0 
99.00105127596406 0.07547782002294541 32.14020010130244 23.0 0.0 0.0 20.0 
100.00038849280102 0.08973825388706773 32.14020010130244 23.0 0.0 0.0 20.0 
101.00096622868173 0.10406461764351667 32.14020010130244 24.0 0.0 0.0 19.0 
102.00103729579075 0.10406461764351667 32.14020010130244 24.0 0.0 0.0 18.0 
103.00049619263942 0.05271230309687293 15.245010842102431 24.0 0.0 0.0 18.0 
104.00078224806448 0.06026715094998181 15.245010842102431 24.0 0.0 0.0 18.0 
105.00095498841905 0.0930445851559412 19.355635097754146 24.0 0.0 0.0 18.0 
106.00150845906145 0.12607222415264793 22.436439788941186 24.0 0.0 0.0 18.0 
107.00007367424983 0.1618367197796435 22.436439788941186 24.0 0.0 0.0 18.0 
108.00088879068561 0.17738445799105734 23.19657416077942 24.0 0.0 0.0 18.0 
109.00023058680617 0.19296239925735684 26.248773638403748 24.0 0.0 0.0 18.0 
110.0010210378129 0.2502366454557874 30.21117745626549 24.0 0.0 0.0 18.0 
111.00002289063325 0.35276021949991104 33.27390389801786 23.0 8.814430056253834E-4 0.44072150281269273 18.0 
112.00056447374213 0.427636569305879 33.27390389801786 23.0 8.814430056253834E-4 0.44072150281269273 18.0 
113.00069966553573 0.3023839114533826 25.169454663846295 23.0 0.0 0.0 18.0 
114.00036342042968 0.2913097055904883 34.16971878508659 23.0 0.0 0.0 18.0 
115.00130901330832 0.1890368643220491 31.67001240934502 23.0 0.0 0.0 17.0 
116.00067535976073 0.04994712409213568 14.497975125637623 22.0 0.0 0.0 17.0 
117.00144583965738 0.14194797854889712 29.72955904758203 22.0 0.0 0.0 17.0 
118.00135976342949 0.10234096867625939 14.497975125637623 22.0 0.0 0.0 17.0 
119.00150062636361 0.10650552543442955 14.497975125637623 21.0 0.0 0.0 18.0 
120.00137301503669 0.1073590242252342 14.497975125637623 20.0 0.0 0.0 17.0 
121.00227380575558 0.1671079407589562 29.4117503852477 20.0 0.0 0.0 17.0 
122.00302153488792 0.2614359512511947 29.4117503852477 21.0 0.0 0.0 17.0 
123.00103164388538 0.28273204134286084 29.4117503852477 21.0 0.0 0.0 17.0 
124.00545856472553 0.29737807310594394 29.4117503852477 21.0 0.0 0.0 18.0 
125.0001644062786 0.2703675360687396 29.4117503852477 20.0 0.0 0.0 15.0 
126.00014527902762 0.2854465829721911 30.368919764697495 20.0 0.0 0.0 14.0 
127.00290773998992 0.4265077038868352 44.28587570908209 19.0 0.0 0.0 14.0 
128.0014518044437 0.45593339062322463 44.28587570908209 20.0 0.0 0.0 14.0 
129.00158568728963 0.45593339062322463 44.28587570908209 19.0 0.0 0.0 14.0 
130.00158857865048 0.47069073538483075 44.28587570908209 19.0 0.0 0.0 17.0 
131.00227380575558 0.5306835543220257 51.38418509021744 17.0 0.0 0.0 16.0 
132.0025863883472 0.6647675697994733 59.20371469882076 17.0 0.0 0.0 16.0 
133.00013513788093 0.6940900098782172 59.20371469882076 18.0 0.0 0.0 17.0 
134.0008905324925 0.6940900098782172 59.20371469882076 18.0 0.0 0.0 19.0 
135.00195448113283 0.6035090876203347 59.20371469882076 19.0 0.0 0.0 20.0 
136.00227380575558 0.7657673763764116 59.20371469882076 20.0 0.0 0.0 19.0 
137.00091858306027 0.7545979629525875 66.25639378763094 20.0 0.0 0.0 19.0 
138.0027528327454 0.49564551725459766 60.12253247848133 20.0 0.0 0.0 19.0 
139.00194997676317 0.5119249297324382 60.12253247848133 20.0 0.0 0.0 19.0 
140.0033527807193 0.3823746178941675 59.194760477585135 20.0 0.0 0.0 20.0 
141.00227380575558 0.44383124580961386 66.74119896778797 19.0 0.0 0.0 19.0 
142.004584568019 0.10831466521352993 49.949000450022766 19.0 0.0 0.0 17.0 
143.00026296960104 0.004347376237269117 2.1736881186345443 19.0 0.0 0.0 17.0 
144.00305240834825 0.0991259520014121 15.096406741968195 19.0 0.0 0.0 17.0 
145.0002579975109 0.012681804982876195 6.340902491438101 20.0 0.0 0.0 20.0 
146.0002344604307 0.012681804982876195 6.340902491438101 21.0 0.0 0.0 18.0 
147.00077496111817 0.012681804982876195 6.340902491438101 21.0 0.0 0.0 17.0 
148.0013130620531 0.012681804982876195 6.340902491438101 19.0 0.0 0.0 17.0 
149.0010375532845 0.04239290899335565 11.625877703833481 20.0 0.0 0.0 17.0 
150.00069302094846 0.027426017519286555 9.57057679284435 19.0 0.0 0.0 18.0 
151.00227380575558 0.022306319819901832 9.57057679284435 19.0 0.0 0.0 17.0 
152.00236366091008 0.045558075227569134 11.625877703833481 19.0 0.0 0.0 17.0 
153.00028205518413 0.04885122901995261 11.625877703833481 18.0 0.0 0.0 17.0 
154.00578076597495 0.0803752399687727 11.625877703833481 18.0 0.0 0.0 17.0 
155.00240326649327 0.1099524816566939 9.900174902554795 18.0 0.0 0.0 18.0 
156.00227380575558 0.09359669545174279 9.900174902554795 17.0 0.0 0.0 17.0 
157.00226281542015 0.20266048758885 38.379211104336235 19.0 0.0 0.0 17.0 
158.00108834617876 0.10404570281354843 16.90600603939839 19.0 0.0 0.0 17.0 
159.00059238156638 0.09392576961712797 15.941417148725407 19.0 0.0 0.0 17.0 
160.00126069179888 0.08703462521877796 15.440022750676349 19.0 0.0 0.0 17.0 
161.00227380575558 0.051222358622206206 14.02206104514454 19.0 0.0 0.0 17.0 
162.00067385909765 0.022153449192190026 5.111620303733616 19.0 0.0 0.0 17.0 
163.00094466089158 0.08277871777164196 15.440022750676349 19.0 0.0 0.0 17.0 
164.00162692485927 0.09917078640394134 18.493618454311218 19.0 0.0 0.0 17.0 
165.00217679857295 0.11735871303141589 12.063621996685953 19.0 0.0 0.0 17.0 
166.00227380575558 0.05724371279228334 9.441910582206873 19.0 0.0 0.0 18.0 
167.0013816632755 0.056904811462856815 9.238429437398537 19.0 0.0 0.0 20.0 
168.00436990872473 0.037047037848653624 9.238429437398537 19.0 0.0 0.0 18.0 
169.00257057105358 0.0753878063719476 10.22673686551687 19.0 0.0 0.0 18.0 
170.0007293787005 0.24583428309571548 15.710814670421115 19.0 0.0 0.0 19.0 
171.00173975187042 0.19165115812953923 15.710814670421115 19.0 0.0 0.0 19.0 
172.00464643957696 0.19756604221857793 15.710814670421115 19.0 0.0 0.0 19.0 
173.00378650715604 0.2200929010045532 15.710814670421115 20.0 0.0 0.0 20.0 
174.00243987019925 0.28044392352280484 22.66561825288835 19.0 0.0 0.0 20.0 
175.0007218913878 0.18171043513214127 21.38834786036537 19.0 0.0 0.0 21.0 
176.00225159577786 0.20575053621251632 21.38834786036537 19.0 0.0 0.0 21.0 
177.00100361749128 0.22051283462326968 21.38834786036537 20.0 0.0 0.0 22.0 
178.00489670120896 0.232319879796224 24.11072690939227 20.0 0.0 0.0 22.0 
179.00042469388387 0.2970681796122585 24.11072690939227 20.0 0.0 0.0 21.0 
180.0031504738644 0.29373722081811116 26.490579168740823 20.0 0.0 0.0 19.0 
181.0006183187142 0.35535558609395124 30.805170896193772 20.0 0.0 0.0 19.0 
182.0010098105683 0.32790609757875905 30.805170896193772 20.0 0.0 0.0 19.0 
183.00199421610387 0.3332876847559511 30.805170896193772 20.0 0.00401570511415684 2.0078525570784223 19.0 
184.00078537671914 0.39969025909975764 33.639090138257984 20.0 0.00401570511415684 2.0078525570784223 19.0 
185.00128785351464 0.5984122327926278 36.35139929443312 20.0 0.00401570511415684 2.0078525570784223 19.0 
186.00185790733607 0.6146254623089387 36.35139929443312 20.0 0.005906410020352248 2.9532050101761342 20.0 
187.00452879419436 0.6239186539677417 36.35139929443312 20.0 0.005906410020352248 2.9532050101761342 20.0 
188.00410078013655 0.5776219767174408 35.27820219022536 21.0 0.0 0.0 20.0 
189.00061470598513 0.7192920661799944 42.04767635637256 22.0 0.0 0.0 20.0 
190.0032400153459 0.648190523755257 42.04767635637256 21.0 0.0 0.0 19.0 
191.00082573496482 0.8421288920592035 46.134963805861986 21.0 0.0 0.0 19.0 
192.00290511913846 0.6684742967035968 43.687504518967415 23.0 0.0 0.0 18.0 
193.00094035447324 0.4391279352315618 43.687504518967415 22.0 0.0 0.0 18.0 
194.00161219784763 0.33918748623521416 43.687504518967415 23.0 0.0 0.0 18.0 
195.0041014123354 0.24251232896462097 27.259432214954558 21.0 0.0 0.0 18.0 
196.00030426286676 0.18747659157678234 37.43942778607271 21.0 0.0 0.0 18.0 
197.0004198885192 0.20493805463430967 34.75090590993668 21.0 0.0 0.0 18.0 
198.00043751733946 0.17390124816546743 27.259432214954558 21.0 0.0 0.0 18.0 
199.0005463558659 0.2342135024732122 34.75090590993668 21.0 0.0 0.0 18.0 
200.0015596381275 0.3011495694347184 41.979407975058535 21.0 0.0 0.0 18.0 
201.0002823024364 0.29782331327003486 52.122518839220874 21.0 0.0 0.0 18.0 
202.0006421769657 0.19299695956781926 39.78658285763862 20.0 0.0 0.0 18.0 
203.0013659476322 0.036826644965885204 18.41332248294262 20.0 0.0 0.0 18.0 
204.00103948089634 0.13137368265008906 47.273518842101964 20.0 0.0 0.0 18.0 
205.00216251460506 0.036826644965885204 18.41332248294262 21.0 0.0 0.0 18.0 
206.00221081001666 0.051895538851179875 25.94776942559008 22.0 0.0 0.0 20.0 
207.0007813736373 0.051895538851179875 25.94776942559008 22.0 0.0 0.0 20.0 
208.00010504291456 0.0505511880725736 25.275594036286776 23.0 0.0 0.0 20.0 
209.002731823093 0.0505511880725736 25.275594036286776 23.0 0.0 0.0 20.0 
210.00150032329927 0.06561108819933922 32.80554409966976 23.0 0.0 0.0 20.0 
211.00103620938887 0.06561108819933922 32.80554409966976 23.0 0.0 0.0 20.0 
212.00067799641053 0.0 0.0 23.0 0.0 0.0 20.0 
213.00334505225547 0.0 0.0 22.0 0.0 0.0 20.0 
214.00347454859838 0.0 0.0 22.0 0.0 0.0 20.0 
215.0009552420464 0.0 0.0 21.0 0.0 0.0 20.0 
216.00227380575558 0.0 0.0 21.0 0.0 0.0 20.0 
217.00130185160006 0.09064560726831955 45.32280363416001 21.0 0.0 0.0 20.0 
218.00376761251223 0.0 0.0 21.0 0.0 0.0 20.0 
219.00184314486745 0.09285955820991361 46.429779104956935 21.0 0.0 0.0 20.0 
220.0030458486841 0.0 0.0 21.0 0.0 0.0 21.0 
221.0001103573767 0.3555196388032747 59.359410426225 21.0 0.0 0.0 21.0 
222.00239354504888 0.23250920453314947 51.15288388115056 22.0 0.0 0.0 21.0 
223.0026883742559 0.3435325188765001 56.15021116219401 22.0 0.0 0.0 21.0 
224.00285258034185 0.3435325188765001 56.15021116219401 21.0 0.0 0.0 20.0 
225.0009101059832 0.35753122095280326 56.15021116219401 21.0 0.0 0.0 20.0 
226.00227380575558 0.303649869828102 63.644914732036625 22.0 0.0 0.0 20.0 
227.0045422108437 0.1727714310533243 56.88176825844778 23.0 0.0 0.0 20.0 
228.0006548911853 0.05897060906036564 29.08517091794971 23.0 0.0 0.0 20.0 
229.0020584486628 0.0 0.0 23.0 0.0 0.0 20.0 
230.00000500538533 4.032060896461745E-4 0.20160304482308788 23.0 0.0 0.0 20.0 
231.0005597458652 4.032060896461745E-4 0.20160304482308788 23.0 0.0 0.0 20.0 
232.0018562622882 0.0 0.0 23.0 0.0 0.0 20.0 
233.00099781467966 0.03447129289399626 12.69771939552058 23.0 0.0 0.0 20.0 
234.00004734085184 0.06028826236704963 19.18460376580012 23.0 0.0 0.0 20.0 
235.00763031268906 0.021919054835449373 10.959527417724644 22.0 0.0 0.0 20.0 
236.00129561627347 0.021919054835449373 10.959527417724644 22.0 0.0 0.0 20.0 
237.00122367936532 0.06028826236704963 19.18460376580012 22.0 0.0 0.0 20.0 
238.0021413517262 0.04615171559175812 12.116330378154458 22.0 0.0 0.0 19.0 
239.00353165876646 0.037025264468725366 18.51263223436277 22.0 0.0 0.0 19.0 
240.00351220228404 0.08548509883890783 24.229917185091153 23.0 0.0 0.0 20.0 
241.0000954783611 0.08548509883890783 24.229917185091153 22.0 0.0 0.0 20.0 
242.00543830003227 0.037025264468725366 18.51263223436277 22.0 0.0 0.0 21.0 
243.00284042127817 0.0251491499327879 12.574574966393897 22.0 0.0 0.0 21.0 
244.00082893943895 0.03807709653977578 19.03854826988777 22.0 0.0 0.0 21.0 
245.00253870932133 0.03807709653977578 19.03854826988777 22.0 0.0 0.0 21.0 
246.00227380575558 0.03807709653977578 19.03854826988777 22.0 0.0 0.0 20.0 
247.01356774766106 0.03807709653977578 19.03854826988777 21.0 0.0 0.0 19.0 
248.0048941776302 0.03279711174085627 16.398555870428197 21.0 0.0 0.0 20.0 
249.0044214039607 0.050963833741441186 23.055234216481608 21.0 0.0 0.0 20.0 
250.00018310048665 0.050963833741441186 23.055234216481608 21.0 0.0 0.0 20.0 
251.00158187798513 0.06482906765486153 23.055234216481608 21.0 0.0 0.0 20.0 
252.0030011589307 0.06482906765486153 23.055234216481608 21.0 0.0 0.0 20.0 
253.00160374834832 0.058504626771431034 19.893013774766217 21.0 0.0 0.0 20.0 
254.00149210716353 0.08782764569879524 19.893013774766217 21.0 0.0 0.0 20.0 
255.00150486397868 0.1978278242612875 40.50327745020064 19.0 0.0 0.0 20.0 
256.00217311371864 0.3963120416640571 55.01223819144312 20.0 0.0 0.0 20.0 
257.00221109244245 0.38959664677780187 49.927487682712524 19.0 0.0 0.0 20.0 
258.0064232768766 0.41405839122158566 55.01223819144312 20.0 0.0 0.0 19.0 
259.0021894762974 0.1832359275306836 23.56932212755038 21.0 0.0 0.0 19.0 
260.00096000008034 0.022522010211815473 10.339631805146183 21.0 0.0 0.0 19.0 
261.0022738057556 0.022522010211815473 10.339631805146183 21.0 0.0 0.0 19.0 
262.00062602140144 0.022522010211815473 10.339631805146183 21.0 0.0 0.0 19.0 
263.00039263279024 0.007913788214767207 3.03552080662206 21.0 0.0 0.0 19.0 
264.0006864107157 0.029922213629460855 10.57082542692811 21.0 0.0 0.0 19.0 
265.00026774055806 0.05970659474107234 11.914947909162208 21.0 0.0 0.0 19.0 
266.0022738057556 0.05970659474107234 11.914947909162208 21.0 0.0 0.0 19.0 
267.000934445522 0.014735048068891537 7.028610810237382 21.0 0.0 0.0 19.0 
268.00001222773784 0.03511629966756859 14.500350831194282 21.0 0.0 0.0 19.0 
269.00049022363135 0.04990111749259455 21.89275974370713 21.0 0.0 0.0 20.0 
270.00405041391514 0.07303839410398075 21.89275974370713 21.0 0.0 0.0 20.0 
271.00175255985835 0.10844435986574297 21.89275974370713 20.0 0.0 0.0 20.0 
272.0022334368472 0.10844435986574297 21.89275974370713 21.0 0.0 0.0 20.0 
273.0039276808192 0.08623229709851464 21.89275974370713 22.0 0.0 0.0 20.0 
274.004019287345 0.11318873925548921 28.794006019298905 21.0 0.0 0.0 21.0 
275.00014554504656 0.18217168702651274 36.1843952092475 21.0 0.0 0.0 21.0 
276.0002549296701 0.17273614440290508 36.1843952092475 21.0 0.0 0.0 21.0 
277.0009630062845 0.17273614440290508 36.1843952092475 21.0 0.0 0.0 22.0 
278.00050223859654 0.1509987328953378 36.1843952092475 22.0 0.0 0.0 22.0 
279.0002473444799 0.17428590023046744 35.55926331513044 22.0 0.0 0.0 22.0 
280.0003767838804 0.25793971279110395 42.930131754106526 22.0 0.0 0.0 23.0 
281.0013669699978 0.24765743184444647 42.930131754106526 21.0 0.0 0.0 23.0 
282.0003549163555 0.24498827391184322 42.930131754106526 20.0 0.0 0.0 23.0 
283.00546567841934 0.2441642328130101 42.51811120468972 20.0 0.0 0.0 23.0 
284.00071144046353 0.2441642328130101 42.51811120468972 21.0 0.0 0.0 23.0 
285.00090218070784 0.4080102306116463 49.884675158124935 21.0 0.0 0.0 22.0 
286.00144074775505 0.4252425497229891 49.884675158124935 21.0 0.0 0.0 22.0 
287.0037244854499 0.44668117219959524 49.884675158124935 21.0 0.0 0.0 22.0 
288.0026204844287 0.43262039017877507 49.884675158124935 21.0 0.0 0.0 22.0 
289.0053201047598 0.4498499912744429 49.698394671830755 21.0 0.0 0.0 21.0 
290.00152413799685 0.6813225397809063 57.01653555836032 21.0 0.0 0.0 21.0 
291.0003872451208 0.6765204658174805 57.01653555836032 21.0 0.0 0.0 21.0 
292.00372331747826 0.7177206530961766 57.01653555836032 21.0 0.0 0.0 20.0 
293.00065178420675 0.7387181996423872 57.01653555836032 21.0 0.0 0.0 20.0 
294.0036655463979 0.9007004518604348 57.11870590524393 22.0 0.0 0.0 20.0 
295.00003139080974 1.0410762132965081 47.34725626790893 22.0 0.0 0.0 20.0 
296.00088573297376 1.219894931752525 51.019022356287195 22.0 0.0 0.0 20.0 
297.000894902901 1.271344877005776 51.019022356287195 23.0 0.0 0.0 20.0 
298.00194910009856 1.1748602688453567 47.34283305419913 24.0 0.0 0.0 21.0 
299.0014231020612 1.7751667641115545 70.79457675517199 24.0 0.0 0.0 20.0 
300.00064146632207 1.759682013995116 65.10298854280592 23.0 0.032015448118703604 12.552634494388457 20.0 
301.00153569936776 1.9709253945264784 77.85283917406059 22.0 0.032015448118703604 12.552634494388457 19.0 
302.00014943749056 1.9931253323901423 77.85283917406059 21.0 0.026994559170528894 12.552634494388457 20.0 
303.00064118272707 2.088690514864216 72.43772992301251 21.0 0.001889290181751913 0.9446450908759516 20.0 
304.00369697868103 2.1578447120242354 77.44833110995484 20.0 0.001889290181751913 0.9446450908759516 20.0 
305.00138276289033 2.5315946732770227 77.44833110995484 20.0 0.01668715609852578 8.343578049262902 20.0 
306.00002613021104 2.6909270839920727 86.71218703679097 21.0 0.01668715609852578 8.343578049262902 20.0 
307.00120753358425 2.153401628294808 77.44833110995484 21.0 0.001874972006849583 0.9374860034247945 20.0 
308.00033399267477 1.829197059523149 77.44833110995484 19.0 0.002734400744766217 0.9374860034247945 20.0 
309.00206334433034 2.019853554928857 69.99339452838353 19.0 0.002734400744766217 0.9374860034247945 19.0 
310.00064861940587 2.1825676223227957 77.02573801229266 19.0 0.03577638980122051 8.399806640058273 19.0 
311.0022738057556 2.2105984140160246 77.02573801229266 19.0 0.03577638980122051 8.399806640058273 19.0 
312.0023688706125 2.1345145649708686 77.02573801229266 19.0 0.01897677652110403 7.971159874188885 18.0 
313.00186330176933 2.122673096756307 69.45551997778767 19.0 0.03361607564159158 15.290809434432674 18.0 
314.00045329299246 2.4754553214489468 76.48714310282594 19.0 0.04823615000969087 15.290809434432674 18.0 
315.0020357574622 2.556120763993376 76.48714310282594 19.0 0.09116315374979699 22.89656680812905 18.0 
316.0017157078578 2.5156721828787334 76.48714310282594 20.0 0.09116315374979699 22.89656680812905 18.0 
317.0026246744708 2.603549200392686 76.48714310282594 20.0 0.09116315374979699 22.89656680812905 18.0 
318.00014019549633 2.503419478864804 76.48714310282594 21.0 0.10573376417110592 30.181872018783537 19.0 
319.0007162088235 2.8664401890298294 82.89963387287867 22.0 0.0 0.0 20.0 
320.0005878830742 3.0492786150340048 89.96506304621613 22.0 0.0 0.0 20.0 
321.0022557722904 3.175641506622036 89.96506304621613 22.0 0.0 0.0 20.0 
322.00223257269283 3.2190729178952253 89.96506304621613 23.0 0.0 0.0 21.0 
323.0000547768835 3.4394988098412544 89.96506304621613 22.0 0.0 0.0 21.0 
324.00377141008903 3.8915577781492785 103.40913957198791 22.0 0.0 0.0 21.0 
325.0017420947661 3.961164198830282 110.5117599301708 22.0 0.0 0.0 21.0 
326.0022738057556 4.0942914924836495 104.40076205292678 22.0 0.0 0.0 21.0 
327.0039403319552 4.409544749282892 110.5117599301708 22.0 0.0 0.0 21.0 
328.0015088969018 4.532065419754713 110.5117599301708 22.0 0.0 0.0 21.0 
329.0012027056362 4.441561335257852 104.01572624462261 22.0 0.0025277859445663304 1.2638929722831733 21.0 
330.00097026971923 4.759913105216149 110.09186979004522 22.0 0.02745006325040243 4.723266429150755 21.0 
331.0022738057556 4.735040798187289 110.09186979004522 22.0 0.02827807531218487 5.131987172709529 21.0 
332.00044415077053 4.465149315164615 110.09186979004522 22.0 0.026391443559851076 5.131987172709529 21.0 
333.0007681468059 3.9220326010426896 110.09186979004522 23.0 0.026391443559851076 5.131987172709529 21.0 
334.00032139392846 3.6885827995728677 134.02437153668603 23.0 0.044779623600949885 12.629713908733208 21.0 
335.0034933263831 3.2212551615178024 103.75048338014466 22.0 0.07894638728768634 13.347703043601598 21.0 
336.0022738057556 3.0260593411092205 126.60297302581773 22.0 0.07894638728768634 13.347703043601598 21.0 
337.00094214871194 3.0157111427621928 126.60297302581773 22.0 0.07729652774437551 13.347703043601598 21.0 
338.000145199664 2.8626547806887506 126.60297302581773 22.0 0.07729652774437551 13.347703043601598 21.0 
339.0001462078209 2.739830198979452 126.60297302581773 22.0 0.07430945239123662 13.347703043601598 21.0 
340.0021793353602 2.563658904312333 124.45217089981008 22.0 0.08004909061519751 20.511369004812508 21.0 
341.0000610350372 2.874079274382869 124.45217089981008 22.0 0.08004909061519751 20.511369004812508 21.0 
342.0016864619413 2.8067011145982943 117.02894340202818 22.0 0.03642115547049498 18.210577735247426 21.0 
343.0033707712272 2.7931662317475676 146.25254593831397 22.0 0.03642115547049498 18.210577735247426 21.0 
344.002245094531 3.0017954826386974 143.14293687398822 22.0 0.03400015369412827 17.00007684706415 21.0 
345.00763031268906 2.871780556929518 143.14293687398822 22.0 0.051711128045163327 24.525872925893253 22.0 
346.0004335808347 3.0091235562567693 145.87552449902432 22.0 0.051711128045163327 24.525872925893253 22.0 
347.0011779523149 3.147170881133844 145.87552449902432 21.0 0.04905174585178673 24.525872925893253 22.0 
348.00028174105745 3.1062293105617025 145.87552449902432 21.0 0.04905174585178673 24.525872925893253 22.0 
349.00035507257394 2.737744198801861 145.87552449902432 21.0 0.003327471976844652 1.6637359884223315 21.0 
350.0014411778565 2.3949573436143896 142.7612868851108 21.0 0.005806612744664344 1.6637359884223315 21.0 
351.000591492411 2.6231633345026455 142.7612868851108 21.0 0.005806612744664344 1.6637359884223315 20.0 
352.00356952502904 2.535429977625079 145.51054877489594 21.0 0.003327471976844652 1.6637359884223315 20.0 
353.0019686506092 2.5540444466328847 145.51054877489594 21.0 0.003327471976844652 1.6637359884223315 20.0 
354.00013595955085 2.5828175613261593 145.51054877489594 21.0 0.03318583239812803 16.59291619906412 20.0 
355.00043443162855 2.9706063417035726 152.67005370623627 21.0 0.03588796510374938 16.59291619906412 20.0 
356.0022738057556 2.8864413519001264 152.67005370623627 21.0 0.002702132705620886 1.3510663528104487 20.0 
357.00183567460164 2.872986470858779 152.67005370623627 22.0 0.0 0.0 20.0 
358.00134494737557 2.47093646951416 152.67005370623627 23.0 0.0 0.0 20.0 
359.0027388043643 2.4720287026103414 157.46571819210033 23.0 0.0 0.0 20.0 
360.0034888399922 2.3692905821616046 153.22190261113224 23.0 0.0 0.0 20.0 
361.0014736131302 2.4211491444603825 153.22190261113224 23.0 0.0 0.0 20.0 
362.0042731915661 2.260054043863226 153.22190261113224 22.0 0.0 0.0 20.0 
363.00384980493857 2.327173582026215 153.22190261113224 22.0 0.0 0.0 19.0 
364.0022912181838 2.3670201805168443 153.22190261113224 21.0 0.0 0.0 19.0 
365.00061779299847 2.2025043716949 159.5371631708511 22.0 0.0 0.0 19.0 
366.00137538907194 2.277155921985784 159.01075016857072 20.0 0.0 0.0 19.0 
367.0021617494189 2.2412606064390195 159.01075016857072 20.0 0.0 0.0 19.0 
368.00155422736873 2.3244979493201994 159.01075016857072 20.0 0.0 0.0 18.0 
369.00263026425614 2.2335057327275503 165.56371733637155 20.0 0.0 0.0 18.0 
370.0062313797653 2.452473466623201 165.56371733637155 20.0 0.0 0.0 18.0 
371.0022738057556 2.427895120876074 169.8634031101251 20.0 0.0 0.0 17.0 
372.0013282757107 2.5003462572249613 169.8634031101251 21.0 0.0 0.0 17.0 
373.00075438854697 2.6574243411071787 169.8634031101251 21.0 0.0 0.0 17.0 
374.00367816170916 3.0162835055249064 199.3506713916786 20.0 0.0 0.0 17.0 
375.0035251413824 2.7602736889744097 192.9672875814029 21.0 0.0 0.0 17.0 
376.0012369127279 2.439712430472437 192.9672875814029 20.0 0.0 0.0 17.0 
377.00444960877934 2.493664526296687 192.9672875814029 20.0 0.0 0.0 17.0 
378.0016069247445 2.4133337287492007 192.9672875814029 20.0 0.0 0.0 17.0 
379.00088306472827 2.442472287686153 188.48124245833918 20.0 0.0 0.0 18.0 
380.0013819525789 1.016758336465969 183.52152236410313 20.0 0.0 0.0 18.0 
381.0012414722591 0.6359116092542838 183.52152236410313 20.0 0.0 0.0 18.0 
382.0005735244012 0.25687993265395637 37.370256396778785 20.0 0.0 0.0 18.0 
383.00469406349714 0.2612198827961585 30.306850901958597 20.0 0.0 0.0 18.0 
384.0023630730336 0.2714096311612606 30.306850901958597 20.0 0.011614632272756662 5.807316136378319 18.0 
385.00006796285606 0.25992654566198053 27.724467093474914 20.0 0.03222964806481722 10.307507896030245 18.0 
386.001116655581 0.2580579507296947 27.724467093474914 20.0 0.03222964806481722 10.307507896030245 20.0 
387.00072992967415 0.1984097886805344 27.724467093474914 19.0 0.03222964806481722 10.307507896030245 21.0 
388.00152826175326 0.21164639836827437 21.47868773532852 19.0 0.06219866273470237 17.814415167909317 21.0 
389.001746685293 0.21071301371598405 22.093680371449693 19.0 0.06219866273470237 17.814415167909317 21.0 
390.0036385748619 0.21071301371598405 22.093680371449693 19.0 0.03445933046862762 10.68882344467437 21.0 
391.00079161653053 0.20820559025071259 21.8451911888462 18.0 0.03445933046862762 10.68882344467437 20.0 
392.0001417246026 0.21560412880781626 21.8451911888462 18.0 0.03445933046862762 10.68882344467437 21.0 
393.0006520647511 0.1807324338828607 19.50246773866084 18.0 0.0 0.0 21.0 
394.0007471351756 0.17110314205500726 22.02001858395394 18.0 0.0 0.0 21.0 
395.00763031268906 0.2416952250100329 22.84009550748371 18.0 0.0 0.0 21.0 
396.0007013937147 0.28176622377850213 22.84009550748371 17.0 0.0 0.0 20.0 
397.00480560038187 0.32626469106620526 22.84009550748371 17.0 0.0 0.0 20.0 
398.0036385146299 0.39759467033809087 22.84009550748371 17.0 0.0 0.0 20.0 
399.0003159078063 0.3100984249329635 26.66967855706133 17.0 0.0 0.0 20.0 
400.0015285061845 0.37808123494102924 27.34388396938715 17.0 0.0 0.0 20.0 
401.0022738057556 0.45363114556045675 27.34388396938715 16.0 0.0 0.0 20.0 
402.00034519276835 0.6715243771557377 28.990769539733833 16.0 0.0 0.0 21.0 
403.0021921781722 0.6655675194091927 28.990769539733833 16.0 0.0 0.0 21.0 
404.0005460315105 0.6101182614653408 24.603779090469033 17.0 0.0 0.0 21.0 
405.0014013409075 0.6941132245880732 32.13318395136034 17.0 0.0 0.0 21.0 
406.00019509684523 0.7374948358485142 28.533009151591813 17.0 0.0 0.0 21.0 
407.00766285190366 0.8815951909536088 31.347972129423482 17.0 0.0 0.0 21.0 
408.00163751909423 0.6977234201451259 50.38409149552453 17.0 0.0 0.0 21.0 
409.00534463397565 0.7848348486744726 30.49493121952017 17.0 0.0 0.0 21.0 
410.0012703107698 0.7840949132156869 41.377380751742464 17.0 0.0 0.0 21.0 
411.0022738057556 0.8855349019081407 57.863354423945566 17.0 0.0 0.0 21.0 
412.00068644568256 0.9813930108338882 53.25053149280595 17.0 0.0 0.0 21.0 
413.00377956770745 0.9125123284816213 53.25053149280595 18.0 0.0 0.0 21.0 
414.00159050185266 0.6135407046638982 60.746467593884745 18.0 0.0 0.0 21.0 
415.00059863584164 0.6793000530732468 60.746467593884745 17.0 0.0 0.0 21.0 
416.0022738057556 0.7215649491219577 60.746467593884745 18.0 0.0 0.0 21.0 
417.00100699364333 0.8385620316392468 63.498032782397615 18.0 0.0 0.0 21.0 
418.0009101366166 0.5554550378325522 57.343386930553834 16.0 0.0 0.0 20.0 
419.0000644952075 0.591068162867121 57.343386930553834 17.0 0.0 0.0 20.0 
420.0039594815672 0.6806976089591292 64.91104460178775 17.0 0.0 0.0 19.0 
421.0022738057556 0.5818090626343968 57.684753049812684 17.0 0.0 0.0 19.0 
422.003675919017 0.28657332586997913 57.684753049812684 17.0 0.0 0.0 19.0 
423.00006183411574 0.22942918075969368 28.56709373484648 17.0 0.0 0.0 18.0 
424.00200843299154 0.23527508365904953 28.699202857015706 17.0 0.04546956815020696 12.93824352299481 19.0 
425.0002936234803 0.18084875800984768 23.27020878370743 17.0 0.0 0.0 18.0 
426.0017584773772 0.36908086167064147 31.649984238098767 17.0 0.0 0.0 18.0 
427.00023381839037 0.37550737229234554 31.649984238098767 18.0 0.0 0.0 20.0 
428.00079975655734 0.36164412457207434 31.649984238098767 18.0 0.0 0.0 20.0 
429.0003203961474 0.3685036046334992 31.649984238098767 18.0 0.0 0.0 20.0 
430.0001230232654 0.41806624439196927 38.3793786049219 18.0 0.0 0.0 20.0 
431.00205125629367 0.5209094328211321 34.30326451383792 18.0 0.0 0.0 20.0 
432.0044317901605 0.5010159511354894 34.30326451383792 17.0 0.0 0.0 20.0 
433.0007833436328 0.47739334096902325 34.30326451383792 17.0 0.0 0.0 21.0 
434.00780463297673 0.59902077429588 45.245661416642974 18.0 0.0 0.0 21.0 
435.0019120250474 0.7184831738770739 52.03000318812863 18.0 0.0 0.0 21.0 
436.0022738057556 0.8391151996416909 53.60416316693764 18.0 0.0 0.0 21.0 
437.0025662126595 0.707003329392206 39.40287897461323 18.0 0.0 0.0 21.0 
438.00498805438536 0.5342639459166804 42.4907380483038 18.0 0.0 0.0 21.0 
439.0009059516639 0.6007871511579763 47.581500078809995 17.0 0.0 0.0 21.0 
440.00138743441954 0.7647273257998519 56.213367933684935 17.0 0.0 0.0 21.0 
441.0002973878391 0.8385226674684005 59.34503969299385 17.0 0.0 0.0 20.0 
442.00198570796806 0.5556073004469256 53.83326635822303 17.0 0.0 0.0 20.0 
443.00099464155466 0.6876308599600065 56.213367933684935 17.0 0.0 0.0 20.0 
444.0001323503459 0.8077500011542517 56.213367933684935 17.0 0.0 0.0 20.0 
445.0001094628031 0.7421521648602787 57.696557221025444 17.0 0.0 0.0 20.0 
446.0022738057556 0.8513603254380079 61.277512151591225 17.0 0.0 0.0 20.0 
447.0028663737914 0.5236646061919032 59.99496103870865 17.0 0.0 0.0 20.0 
448.00080488637053 0.6416228228597192 61.277512151591225 17.0 0.0 0.0 20.0 
449.0023936526496 0.4091994138329708 60.11115076626902 17.0 0.0 0.0 20.0 
450.00300732455435 0.31670105552646877 56.673974547094815 17.0 0.0 0.0 20.0 
451.00017273261847 0.458091145450123 67.07895822501274 17.0 0.0 0.0 20.0 
452.0008622294004 0.37397380577382344 67.07895822501274 17.0 0.0 0.0 20.0 
453.0005015350346 0.4547667215799684 67.07895822501274 17.0 0.0 0.0 20.0 
454.0024667267816 0.3738321613585034 67.07895822501274 17.0 0.0 0.0 20.0 
455.00162697139484 0.369338830101543 67.01088551523912 17.0 0.0 0.0 20.0 
456.0000956291186 0.2827008680256446 66.51220743768926 17.0 0.0 0.0 20.0 
457.0004711382612 0.39286166068914363 66.51220743768926 17.0 0.0 0.0 21.0 
458.00017930956517 0.4255140573079314 66.51220743768926 17.0 0.0 0.0 22.0 
459.0007449766726 0.4539293154663587 66.51220743768926 17.0 0.0 0.0 22.0 
460.0004290564532 0.4778461803815648 66.2559421571205 17.0 0.0 0.0 22.0 
461.0022738057556 0.49262328515991843 66.2559421571205 17.0 0.0 0.0 21.0 
462.0002501189661 0.5116471224802169 66.2559421571205 17.0 0.0 0.0 21.0 
463.00196915671756 0.5595885931250377 66.2559421571205 17.0 0.0 0.0 21.0 
464.00071871533805 0.5837586860745256 67.05969276451384 17.0 0.0 0.0 21.0 
465.0016888613589 0.6484405507300641 66.89172673202125 17.0 0.0 0.0 21.0 
466.0022738057556 0.514657097266021 47.723564717210735 18.0 0.0 0.0 22.0 
467.0002803823701 0.5337777651412 47.723564717210735 18.0 0.0 0.0 21.0 
468.00142577451044 0.5960340488149679 47.723564717210735 19.0 0.006010206213536694 3.0051031067683596 21.0 
469.0007178141071 0.6173600337223996 49.96947578570831 19.0 0.0 0.0 21.0 
470.00050249430876 0.6856018841313994 50.481191675899794 19.0 0.0 0.0 21.0 
471.00035941289036 0.7706935923249926 50.969512086418945 19.0 0.00450374804163429 2.251874020817155 20.0 
472.0024053971702 0.5031872799559334 39.27798584381449 19.0 0.0 0.0 21.0 
473.00153338448564 0.555493985929152 50.481191675899794 19.0 0.0 0.0 20.0 
474.00147216485556 0.3654512055736197 46.38995140573874 19.0 0.0 0.0 20.0 
475.0017483365395 0.30701237870672593 41.24943422503165 19.0 0.0 0.0 19.0 
476.0015809516102 0.08514078378785245 36.728261952640594 18.0 0.0 0.0 19.0 
477.00129950050365 0.17284236239848896 36.774048557429325 18.0 0.0 0.0 19.0 
478.00051145714093 0.04114747057642689 11.206465587187125 18.0 0.0 0.0 19.0 
479.0001693514105 0.042765991807210385 11.206465587187125 18.0 0.0 0.0 21.0 
480.00052651385414 0.020353060632835967 6.657763390260982 18.0 0.0 0.0 21.0 
481.00069679574176 0.0875639450676141 18.511158045246646 18.0 0.0 0.0 21.0 
482.0000722754871 0.03733997306149243 7.87220541288238 18.0 0.0 0.0 21.0 
483.00085299377 0.08525226095877024 9.331966586931514 17.0 0.0 0.0 21.0 
484.0016137389719 0.14919395087612383 23.387183876318318 17.0 0.0 0.0 21.0 
485.0064449471454 0.12232986602543354 15.109809539170271 17.0 0.0 0.0 21.0 
486.00107879771025 0.10560347437072373 16.998537157915507 17.0 0.0 0.0 21.0 
487.00121360799113 0.051741613041075184 16.998537157915507 17.0 0.0 0.0 21.0 
488.00432835626077 0.12943846200099773 27.613141902625102 17.0 0.0 0.0 21.0 
489.00203571529426 0.04732501758054105 14.081324080340863 16.0 0.0 0.0 20.0 
490.0014367298898 0.08492725800769459 15.443163498297508 18.0 0.0 0.0 20.0 
491.0022738057556 0.05713112349626688 15.443163498297508 18.0 0.0 0.0 20.0 
492.0047908220676 0.030886326996595066 15.443163498297508 17.0 0.0 0.0 19.0 
493.00012553173985 0.026244796499672013 13.122398249835982 16.0 0.0 0.0 19.0 
494.00482552720985 0.0414300174421739 20.406965048779796 16.0 0.0 0.0 19.0 
495.0006803363525 6.160873446143592E-4 0.30804367230717844 15.0 0.0 0.0 20.0 
496.00029591370816 0.0 0.0 16.0 0.0 0.0 19.0 
497.00044758314436 0.03941616497475569 19.708082487377908 16.0 0.0 0.0 19.0 
498.00255447353936 0.0 0.0 15.0 0.0 0.0 18.0 
499.0071904628041 0.0012961060301266774 0.6480530150633399 15.0 0.0 0.0 18.0 
500.00030529740604 6.998959846036399E-4 0.3499479923018214 15.0 0.0 0.0 18.0 
501.00023139570817 0.004261479853019484 2.130739926509733 15.0 0.0 0.0 18.0 
502.0029446918059 0.004261479853019484 2.130739926509733 15.0 0.0 0.0 18.0 
503.004204076979 0.020454654628735792 6.4027332731256195 15.0 0.0 0.0 18.0 
504.00359952582005 0.007649188082484572 1.925595120920292 15.0 0.0 0.0 18.0 
505.00159808913725 0.0363198437009006 13.410920317106076 15.0 0.0 0.0 18.0 
506.00207092682973 0.03457013254183644 13.410920317106076 16.0 0.0 0.0 17.0 
507.0019300370875 0.011934007311727885 3.3655243218533144 17.0 0.0 0.0 19.0 
508.0015652058059 0.00718845788626792 2.174458234882195 17.0 0.0 0.0 19.0 
509.00027446857035 4.53612176088937E-4 0.22680608804446933 17.0 0.0 0.0 19.0 
510.00303422823947 0.002839541416503547 1.4197707082517752 17.0 0.0 0.0 19.0 
511.0022738057556 0.040204836936045596 8.479695373322386 17.0 0.0 0.0 19.0 
512.0012512164543 0.03226879093941554 8.479695373322386 17.0 0.0 0.0 19.0 
513.0005349549757 0.018887305727440816 9.443652863720388 17.0 0.0 0.0 19.0 
514.0001646593993 0.016959390746644775 8.479695373322386 17.0 0.0 0.0 19.0 
515.0011129956465 0.0 0.0 17.0 0.0 0.0 18.0 
516.0022738057555 0.0 0.0 17.0 0.0 0.0 17.0 
517.0037754344264 0.0 0.0 17.0 0.0 0.0 17.0 
518.0070784661151 0.009538773912699656 4.769386956349848 17.0 0.0 0.0 17.0 
519.000023119299 0.02394619404490658 7.20371006610344 17.0 0.0 0.0 17.0 
520.0016801977523 0.0 0.0 17.0 0.0 0.0 17.0 
521.0009384429334 0.0 0.0 16.0 0.0 0.0 17.0 
522.000728778062 0.0026232592157967973 1.3116296078983964 17.0 0.0 0.0 16.0 
523.0026345742937 0.0 0.0 15.0 0.0 0.0 16.0 
524.0056153848894 0.0 0.0 15.0 0.0 0.0 16.0 
525.0009446879961 0.0 0.0 15.0 0.0 0.0 16.0 
526.0007988791167 0.0063050941478120705 3.152547073906021 15.0 0.0 0.0 18.0 
527.0065768673733 0.009335499779237873 4.66774988961896 15.0 0.0 0.0 19.0 
528.0034399406348 0.009335499779237873 4.66774988961896 14.0 0.0 0.0 20.0 
529.0012162413191 0.0 0.0 14.0 0.0 0.0 19.0 
530.0018100820855 0.0 0.0 14.0 0.0 0.0 18.0 
531.0013614519306 0.0 0.0 14.0 0.0 0.0 18.0 
532.0014982309293 0.0 0.0 14.0 0.0 0.0 18.0 
533.0009826584709 0.0 0.0 14.0 0.0 0.0 17.0 
534.0005803790801 0.004434502782868486 2.217251391434246 14.0 0.0 0.0 17.0 
535.0007055571415 0.023293815328574136 6.412096929389605 14.0 0.0 0.0 17.0 
536.0005261717921 0.00900521046147039 2.2853538393009387 14.0 0.0 0.0 18.0 
537.0030024030236 0.021829404320249563 6.412096929389605 14.0 0.0 0.0 18.0 
538.000829034409 0.021829404320249563 6.412096929389605 14.0 0.0 0.0 17.0 
539.0001273356022 0.03942375209761108 9.587346817258776 14.0 0.0 0.0 17.0 
540.0028777733329 0.07226882448874383 13.932700025050053 14.0 0.0 0.0 16.0 
541.0006898891007 0.044403424438644264 11.15958260576329 14.0 0.0 0.0 16.0 
542.0010088078006 0.07226882448874383 13.932700025050053 14.0 0.0 0.0 16.0 
543.0001804199011 0.05561407861099627 13.932700025050053 14.0 0.0 0.0 14.0 
544.0031896234749 0.053505172281641464 13.932700025050053 14.0 0.0 0.0 14.0 
545.0010865006561 0.04046608084109533 20.23304042054778 14.0 0.0 0.0 14.0 
546.0022009416908 0.04046608084109533 20.23304042054778 14.0 0.0 0.0 14.0 
547.0022527154288 0.08350179523728961 21.51078881493129 14.0 0.0 0.0 14.0 
548.001303550028 0.008942678389790779 4.471339194895393 14.0 0.0 0.0 14.0 
549.0025964076523 0.0 0.0 14.0 0.0 0.0 14.0 
550.0008941134647 0.02213816861081494 11.0690843054075 14.0 0.0 0.0 14.0 
551.0022738057555 0.0 0.0 14.0 0.0 0.0 14.0 
552.001270596157 0.02213816861081494 11.0690843054075 14.0 0.0 0.0 14.0 
553.0067543635239 0.024542387867747595 7.24578648694802 14.0 0.0 0.0 15.0 
554.0005112823858 0.02810621410050482 7.24578648694802 14.0 0.0 0.0 13.0 
555.0006830421291 0.05396292245751988 13.795102528832047 14.0 0.0 0.0 13.0 
556.0022738057555 0.0705873474438976 13.795102528832047 14.0 0.0 0.0 13.0 
557.0002003601024 0.04827548856419996 10.053037659124385 14.0 0.0 0.0 13.0 
558.0006124606749 0.053368779576644675 12.223192656380036 14.0 0.0 0.0 13.0 
559.003866165301 0.028922394263884564 7.822112174952679 14.0 0.0 0.0 13.0 
560.0050448487424 0.10245210634172364 16.032465543674505 14.0 0.0 0.0 13.0 
561.0022738057555 0.06662427603059876 16.032465543674505 14.0 0.0 0.0 13.0 
562.001228014063 0.061537826717216464 12.010188876670185 15.0 0.0 0.0 13.0 
563.0015856938194 0.06292325407322766 12.010188876670185 13.0 0.0 0.0 13.0 
564.003755174724 0.0651102030900351 12.545963353086307 13.0 0.0 0.0 13.0 
565.0000747592143 0.1110573305778423 23.174865423110532 13.0 0.0 0.0 13.0 
566.0015193399211 0.10487287292569267 30.66609111178073 13.0 0.0 0.0 13.0 
567.0011914142101 0.07532875264250845 19.941913633088376 13.0 0.0 0.0 13.0 
568.0010850615331 0.07582699419618565 19.941913633088376 13.0 0.0 0.0 13.0 
569.0009694054645 0.11411643631556707 19.941913633088376 13.0 0.0 0.0 13.0 
570.0032129120555 0.12903289750366542 24.66958908517219 13.0 0.020798042567233478 10.399021283616719 13.0 
571.0003463994399 0.15330204875976675 32.03996955553711 14.0 0.011995915178490519 5.99795758924526 12.0 
572.0002559524291 0.11317483679133633 18.12740842200384 14.0 0.011995915178490519 5.99795758924526 12.0 
573.0013756495812 0.11317483679133633 18.12740842200384 16.0 0.011995915178490519 5.99795758924526 12.0 
574.000830196418 0.1726811886336344 18.12740842200384 16.0 0.011995915178490519 5.99795758924526 12.0 
575.0011990797192 0.1334236394218271 18.12740842200384 16.0 0.03207479085268933 13.394642829664178 13.0 
576.0011232654089 0.13757354626433937 25.51664082478993 16.0 0.031023237118387195 12.868865962513212 13.0 
577.0011415867737 0.23449016231054837 24.437746522795692 16.0 0.031023237118387195 12.868865962513212 13.0 
578.0003765281075 0.19364707192710187 24.437746522795692 16.0 0.031023237118387195 12.868865962513212 13.0 
579.0057996720693 0.2379191011841417 24.437746522795692 16.0 0.031023237118387195 12.868865962513212 13.0 
580.0044667347393 0.3160323006602246 24.437746522795692 17.0 0.0461963733496102 20.331121643313224 12.0 
581.0004077859883 0.3939288144323337 31.845669975288473 17.0 0.005534130062983739 2.7670650314918817 12.0 
582.0051647185097 0.40707337174752045 30.991077072277164 17.0 0.04543323420143383 19.949552069225007 12.0 
583.0002289839621 0.40707337174752045 30.991077072277164 18.0 0.03989910413844986 19.949552069225007 13.0 
584.00025872492 0.36270467202360124 30.991077072277164 18.0 0.0 0.0 13.0 
585.0005868800087 0.3615647449269484 30.991077072277164 18.0 0.02098775069970883 4.658888378025182 13.0 
586.0000963683995 0.3650187908774381 38.06095290286703 18.0 0.01166997394365846 2.972561554473458 13.0 
587.0009346617712 0.3642580963484814 38.06095290286703 18.0 0.011291566644873914 2.86242541735578 13.0 
588.001549638095 0.3642580963484814 38.06095290286703 18.0 0.011607899795181356 2.86242541735578 14.0 
589.0020378881686 0.39685571492372673 38.79811694977701 18.0 0.022706324218496627 8.569804204167127 14.0 
590.0022388930053 0.47780611347039875 38.79811694977701 18.0 0.05581553352949738 8.93805015658242 14.0 
591.0022738057555 0.5573257707769467 46.226978905837456 18.0 0.04961349574879011 8.93805015658242 14.0 
592.0029704365663 0.6202788960334551 46.226978905837456 18.0 0.0648312342470244 12.154471595927333 14.0 
593.0022014167872 0.5824216402322617 46.226978905837456 19.0 0.0648312342470244 12.154471595927333 14.0 
594.0021220519657 0.6125734983317873 47.214334856143694 20.0 0.047691625838690355 12.154471595927333 14.0 
595.0076303126891 0.7735565259692627 47.50222009300785 20.0 0.005562742216259505 2.781371108129747 14.0 
596.0002552005786 0.45812476104028865 51.537815617425565 20.0 0.0 0.0 14.0 
597.0013996775274 0.49056372131735826 51.59502354277407 20.0 0.0 0.0 14.0 
598.0013746875366 0.38737367423180963 28.958205411300128 20.0 0.0 0.0 13.0 
599.0014500655304 0.4031129901384758 28.958205411300128 20.0 0.0038492540348219325 1.9246270174109839 13.0 
600.0011156504216 0.4700141112305816 38.88944829364462 20.0 0.0 0.0 13.0 
#####################################################################
# End of data export. Simulation finished at: 2019-02-25T20:40+0000 #
#####################################################################
