#####################################################################
# Alchemist log file - simulation started at: 2019-02-25T20:47+0000 #
#####################################################################
# seed = 197.0
#
# The columns have the following meaning: 
# time distance-rep[Mean] distance-rep[Max] leader-rep[CountDistinct] distance-share[Mean] distance-share[Max] leader-share[CountDistinct] 
0.0 NaN NaN NaN NaN NaN NaN 
1.002685392995017 0.0 0.0 498.0 0.0 0.0 72.0 
2.0000096129744542 0.0 0.0 100.0 0.0 0.0 67.0 
3.0018400284447044 0.0 0.0 94.0 0.0 0.0 58.0 
4.000498347183858 0.0 0.0 95.0 0.0 0.0 54.0 
5.000101653435682 0.0 0.0 91.0 0.0 0.0 47.0 
6.001485193433215 0.0 0.0 85.0 0.0 0.0 43.0 
7.002706376364353 0.0 0.0 80.0 0.0 0.0 39.0 
8.001328591750443 0.0 0.0 77.0 0.0 0.0 38.0 
9.000498347183857 0.0 0.0 71.0 0.0 0.0 35.0 
10.004400797837166 0.0 0.0 70.0 0.0 0.0 31.0 
11.000253076981746 0.0 0.0 66.0 0.0 0.0 30.0 
12.000398368523811 0.0 0.0 63.0 0.0 0.0 30.0 
13.001840028444704 0.0 0.0 60.0 0.0 0.0 32.0 
14.000498347183857 0.0 0.0 60.0 0.0 0.0 35.0 
15.001359066370426 0.0 0.0 58.0 0.01860994935701749 9.304974678508756 33.0 
16.00183126018684 0.0 0.0 58.0 0.0 0.0 32.0 
17.00074534796879 0.0 0.0 55.0 0.0 0.0 29.0 
18.00003260686166 0.0 0.0 52.0 0.014930270800721903 6.2198745905556905 29.0 
19.000498347183857 0.0 0.0 53.0 0.013936786497299838 4.28439162357239 31.0 
20.00048852914972 0.0 0.0 53.0 0.007739796629150894 2.313440174199769 31.0 
21.002249876609174 0.0 0.0 54.0 0.0 0.0 32.0 
22.000697284074093 0.0 0.0 53.0 0.0 0.0 30.0 
23.001840028444704 0.0 0.0 50.0 0.0 0.0 29.0 
24.00041467027988 0.0 0.0 49.0 0.0 0.0 29.0 
25.000452356396554 0.0 0.0 46.0 0.0 0.0 25.0 
26.000312413871754 0.0 0.0 46.0 0.0 0.0 22.0 
27.000143361967766 0.0 0.0 46.0 0.0 0.0 21.0 
28.001840028444704 0.0 0.0 46.0 0.0 0.0 20.0 
29.000498347183857 0.0 0.0 45.0 0.0 0.0 20.0 
30.000090503138424 0.0 0.0 44.0 0.0 0.0 20.0 
31.000252201346733 0.0 0.0 43.0 0.0 0.0 20.0 
32.00226652061658 0.0 0.0 43.0 0.0 0.0 20.0 
33.001840028444704 0.0 0.0 42.0 0.0 0.0 20.0 
34.00049834718386 0.0 0.0 41.0 0.0 0.0 22.0 
35.003365281538144 0.0 0.0 40.0 0.0 0.0 23.0 
36.004181666591094 0.0 0.0 39.0 0.0 0.0 24.0 
37.00013161071976 0.0 0.0 39.0 0.0 0.0 21.0 
38.00018557636804 0.0 0.0 37.0 0.0 0.0 21.0 
39.00049834718386 0.0 0.0 37.0 0.0 0.0 21.0 
40.004400797837164 0.0 0.0 39.0 0.0 0.0 19.0 
41.00051808301993 0.0 0.0 40.0 0.0 0.0 17.0 
42.0007814148017 0.0 0.0 36.0 0.0 0.0 17.0 
43.00146027679036 0.0 0.0 35.0 0.0 0.0 16.0 
44.00049834718386 2.5919201520701923E-4 0.1295960076035101 35.0 0.0 0.0 16.0 
45.002459994368685 2.5919201520701923E-4 0.1295960076035101 34.0 0.0 0.0 15.0 
46.00188745372209 0.0019561838642485362 0.978091932124272 33.0 0.0 0.0 15.0 
47.00104416677359 0.04356812659985963 20.805971367805597 31.0 0.0 0.0 15.0 
48.00033238621286 0.05847245913889163 28.25813763732168 31.0 0.0 0.0 16.0 
49.00049834718386 0.08841475907985487 28.25813763732168 30.0 0.0 0.0 18.0 
50.0021287641778 0.032157708847573054 8.379615558650045 32.0 0.0 0.0 18.0 
51.000989042015796 0.0 0.0 28.0 0.0 0.0 17.0 
52.005502094430746 0.0 0.0 31.0 0.0 0.0 18.0 
53.00116176339557 0.0 0.0 32.0 0.0 0.0 17.0 
54.00049834718386 0.0 0.0 29.0 0.0 0.0 17.0 
55.00172883897301 0.0 0.0 29.0 0.0 0.0 17.0 
56.00140764092025 0.0 0.0 28.0 0.0 0.0 17.0 
57.00025303899511 0.0 0.0 26.0 0.0 0.0 17.0 
58.00082291085469 0.0 0.0 26.0 0.0 0.0 17.0 
59.00049834718386 0.0438098659767563 21.904932988378192 24.0 0.0 0.0 17.0 
60.00014626333719 0.0 0.0 22.0 0.0 0.0 17.0 
61.000311859314 0.0 0.0 23.0 0.0 0.0 17.0 
62.003791547995114 0.0 0.0 21.0 0.0 0.0 17.0 
63.001805805785295 0.0 0.0 21.0 0.0 0.0 16.0 
64.00049834718385 0.06350364694009811 31.751823470049175 21.0 0.0 0.0 16.0 
65.00041840536572 0.022625676474628438 11.312838237314253 20.0 0.0 0.0 16.0 
66.00221294477902 0.0 0.0 19.0 0.0 0.0 16.0 
67.00751534899945 0.0 0.0 19.0 0.0 0.0 16.0 
68.0018400284447 0.0 0.0 22.0 0.0 0.0 16.0 
69.00049834718385 0.0 0.0 20.0 0.0 0.0 16.0 
70.00164825902782 0.009286444884848262 4.643222442424133 21.0 0.0 0.0 16.0 
71.00086460979783 0.009286444884848262 4.643222442424133 20.0 0.0 0.0 16.0 
72.00621583793567 0.012734185988337528 6.367092994168786 20.0 0.0 0.0 16.0 
73.00001832636053 0.012734185988337528 6.367092994168786 20.0 0.0 0.0 16.0 
74.00049834718385 0.012734185988337528 6.367092994168786 18.0 0.0 0.0 16.0 
75.00047323756758 0.0 0.0 19.0 0.0 0.0 16.0 
76.00559549469874 0.0 0.0 19.0 0.0 0.0 16.0 
77.00105188308406 0.0 0.0 20.0 0.0 0.0 17.0 
78.000952850771 0.004148238117728948 2.0741190588644827 20.0 0.0 0.0 17.0 
79.00049834718385 0.0 0.0 19.0 0.0 0.0 17.0 
80.00114093050036 0.0 0.0 21.0 0.0 0.0 18.0 
81.00008243838167 0.0 0.0 21.0 0.0 0.0 18.0 
82.00013278524995 0.0 0.0 21.0 0.0 0.0 18.0 
83.00111421852317 0.0 0.0 20.0 0.0 0.0 18.0 
84.00049834718385 0.0 0.0 20.0 0.0 0.0 18.0 
85.0004694759035 0.0 0.0 19.0 0.0 0.0 19.0 
86.00235324782066 0.0 0.0 19.0 0.0 0.0 19.0 
87.00183574435351 0.0 0.0 19.0 0.0 0.0 19.0 
88.0000263446907 0.038635963075279695 19.317981537639866 20.0 0.0 0.0 19.0 
89.00049834718385 0.038635963075279695 19.317981537639866 20.0 0.0 0.0 19.0 
90.0010225752222 0.038635963075279695 19.317981537639866 21.0 0.0 0.0 20.0 
91.00778707386547 0.02424597885855989 12.122989429279983 22.0 0.0 0.0 21.0 
92.00015162501151 0.0 0.0 23.0 0.0 0.0 21.0 
93.0016784247023 0.0 0.0 22.0 0.0 0.0 21.0 
94.00049834718385 0.0 0.0 24.0 0.0 0.0 21.0 
95.00097733077456 0.0 0.0 23.0 0.0 0.0 21.0 
96.00129183510033 0.0 0.0 23.0 0.0 0.0 21.0 
97.00439004588243 0.0 0.0 23.0 0.004338049345777242 2.169024672888611 21.0 
98.00004229155519 0.0 0.0 23.0 0.0 0.0 20.0 
99.00049834718385 0.0 0.0 23.0 0.0 0.0 22.0 
100.00381459219146 0.0 0.0 23.0 0.0 0.0 22.0 
101.002322814568 0.0 0.0 23.0 0.0 0.0 22.0 
102.00208194307025 0.008415338780310793 4.207669390155388 23.0 0.0 0.0 21.0 
103.0018400284447 0.008415338780310793 4.207669390155388 23.0 0.0 0.0 20.0 
104.00049834718385 7.759899704782968E-4 0.3879949852391462 23.0 0.0 0.0 19.0 
105.0009929671623 7.759899704782968E-4 0.3879949852391462 22.0 0.0 0.0 19.0 
106.00155179178708 7.759899704782968E-4 0.3879949852391462 22.0 0.0 0.0 19.0 
107.00147217608028 7.759899704782968E-4 0.3879949852391462 21.0 0.0 0.0 19.0 
108.0018400284447 0.0032157845204665017 1.6078922602332568 21.0 0.0 0.0 19.0 
109.0003432226173 0.0032157845204665017 1.6078922602332568 20.0 0.0 0.0 19.0 
110.00440079783716 0.0 0.0 20.0 0.0 0.0 18.0 
111.00170925513157 0.0 0.0 20.0 0.0 0.0 18.0 
112.00735515304622 0.0 0.0 20.0 0.0 0.0 18.0 
113.00018545861556 0.0 0.0 20.0 0.0 0.0 18.0 
114.00041126598255 0.0 0.0 19.0 0.0 0.0 18.0 
115.00111113769259 0.0 0.0 19.0 0.0 0.0 18.0 
116.00191692660071 0.0 0.0 19.0 0.0 0.0 17.0 
117.00591236620475 0.0 0.0 19.0 0.0 0.0 17.0 
118.0018400284447 0.0 0.0 19.0 0.0 0.0 17.0 
119.00025406069119 0.0 0.0 19.0 0.0 0.0 17.0 
120.00027303530626 0.0 0.0 19.0 0.0 0.0 17.0 
121.00806494683295 0.0 0.0 19.0 0.0 0.0 17.0 
122.00165296037962 0.0 0.0 19.0 0.0 0.0 17.0 
123.0018400284447 0.0 0.0 19.0 0.0 0.0 17.0 
124.00049834718385 0.0 0.0 19.0 0.0 0.0 17.0 
125.00440079783716 0.0 0.0 19.0 0.0 0.0 17.0 
126.0013005561708 0.0 0.0 19.0 0.0 0.0 17.0 
127.00346265822729 0.0050131310029913325 2.5065655014956576 19.0 0.0 0.0 17.0 
128.0000164640284 0.005488522744046778 2.5065655014956576 19.0 0.0 0.0 18.0 
129.00049834718385 0.005488522744046778 2.5065655014956576 19.0 0.0 0.0 18.0 
130.00239088573278 0.011008716111798808 5.504358055899388 19.0 0.0 0.0 18.0 
131.00135391300302 0.011008716111798808 5.504358055899388 19.0 0.0 0.0 18.0 
132.00254641787174 0.011008716111798808 5.504358055899388 19.0 0.0 0.0 18.0 
133.000043386254 0.0 0.0 19.0 0.0 0.0 18.0 
134.00049834718385 0.0 0.0 19.0 0.0 0.0 18.0 
135.00131743111993 0.0 0.0 19.0 0.0 0.0 18.0 
136.00211333359795 0.0 0.0 19.0 0.0 0.0 18.0 
137.00745709395977 0.0 0.0 19.0 0.0 0.0 18.0 
138.0018400284447 0.0 0.0 20.0 0.0 0.0 18.0 
139.00049834718385 0.0 0.0 20.0 0.0 0.0 18.0 
140.00195143238898 0.0 0.0 20.0 0.0 0.0 18.0 
141.00653033935566 0.0 0.0 18.0 0.0 0.0 18.0 
142.00031428267707 0.0 0.0 18.0 0.0 0.0 19.0 
143.0011726044532 0.0 0.0 18.0 0.0 0.0 19.0 
144.00023201929937 0.0 0.0 18.0 0.0 0.0 19.0 
145.001456388913 0.0 0.0 18.0 0.0 0.0 19.0 
146.0007037017372 0.001102276536542776 0.5511382682713872 18.0 0.0 0.0 18.0 
147.00039913912875 0.015087517089460089 7.543758544729968 18.0 0.0 0.0 18.0 
148.00075119877476 0.0 0.0 18.0 0.0 0.0 18.0 
149.00049834718385 0.015087517089460089 7.543758544729968 18.0 0.0 0.0 18.0 
150.00343269402586 0.0 0.0 19.0 0.0 0.0 19.0 
151.00125932822968 0.0 0.0 19.0 0.0 0.0 19.0 
152.00038316642429 0.0 0.0 20.0 0.0 0.0 19.0 
153.0018400284447 0.0 0.0 20.0 0.0 0.0 19.0 
154.00049834718385 0.0 0.0 19.0 0.0 0.0 19.0 
155.00186912246974 0.0 0.0 18.0 0.0 0.0 19.0 
156.00069910656703 0.0 0.0 18.0 0.0 0.0 19.0 
157.0032691845864 0.0 0.0 17.0 0.0 0.0 19.0 
158.00065848405634 0.00750578927884292 3.7528946394214415 17.0 0.0 0.0 19.0 
159.0001245136032 0.00750578927884292 3.7528946394214415 17.0 0.0 0.0 19.0 
160.00440079783715 0.0 0.0 17.0 0.0 0.0 19.0 
161.00138034753635 0.0 0.0 17.0 0.0 0.0 19.0 
162.00722034575736 0.0 0.0 17.0 0.0 0.0 19.0 
163.00086907748909 0.005167301160800379 2.583650580400189 17.0 0.0 0.0 18.0 
164.00049834718385 0.01882521041053895 7.845292403803171 17.0 0.0 0.0 17.0 
165.00184882027725 0.03273622609050912 7.845292403803171 17.0 0.0 0.0 16.0 
166.0031128676778 0.03679258454268969 7.845292403803171 17.0 0.0 0.0 16.0 
167.00116104851415 0.07344558084172131 14.377240057797877 18.0 0.0 0.0 18.0 
168.00016206796158 0.1469170562898761 19.85699281433577 18.0 0.0 0.0 19.0 
169.00049834718385 0.12001342576736662 14.385385210603403 18.0 0.0 0.0 20.0 
170.0039514549874 0.18558662544729626 21.790709381278873 18.0 0.0 0.0 20.0 
171.00070639540746 0.27990973361739235 24.44301259645019 18.0 0.0 0.0 20.0 
172.00118053160404 0.25557930452485295 26.622767870897064 19.0 0.0 0.0 20.0 
173.00004371858827 0.2881185708887796 32.21509885425638 19.0 0.0 0.0 20.0 
174.00049834718385 0.3493202807303573 32.21509885425638 19.0 0.0 0.0 19.0 
175.00015029712588 0.23486679149269526 27.902408251822635 19.0 0.0 0.0 18.0 
176.00149978690993 0.3039860050723057 35.412786388940134 19.0 0.0 0.0 19.0 
177.00023212354597 0.31690142650562203 42.74068757817159 19.0 0.0 0.0 20.0 
178.00068256421744 0.4807079138021452 42.74068757817159 19.0 0.0 0.0 19.0 
179.0002739528712 0.419121169391578 42.74068757817159 19.0 0.0 0.0 19.0 
180.0012406148194 0.500178541220965 42.74068757817159 20.0 0.0 0.0 19.0 
181.00102045280983 0.3404520819276873 40.52868591469354 21.0 0.0 0.0 19.0 
182.00000450847196 0.4636647671111714 42.448981708967835 20.0 0.0 0.0 19.0 
183.00124596870668 0.5161895156550557 50.33875466048454 20.0 0.0 0.0 19.0 
184.00049834718385 0.5146461210192299 50.33875466048454 19.0 0.0 0.0 19.0 
185.00331519283677 0.5146461210192299 50.33875466048454 19.0 0.0 0.0 19.0 
186.00255336332535 0.5250361940158026 50.33875466048454 19.0 0.0 0.0 18.0 
187.00082792670577 0.5531815023454139 50.33875466048454 19.0 0.0 0.0 18.0 
188.0018400284447 1.0436573258176873 67.13587259241797 19.0 0.0 0.0 18.0 
189.00049834718385 1.0934707789055444 70.46221453098815 19.0 0.0 0.0 18.0 
190.0015080531307 1.1054408808508145 67.78825683552543 19.0 0.0 0.0 20.0 
191.00177148911533 1.259367602901028 70.46221453098815 19.0 0.0 0.0 21.0 
192.0016941425073 1.1280006975789336 67.78825683552543 19.0 0.0 0.0 20.0 
193.00079759938473 1.2212258296956842 74.15954532764766 19.0 0.0 0.0 20.0 
194.00049834718385 1.4887940285608074 79.23689578980697 19.0 0.0 0.0 20.0 
195.00073557176162 1.3919007839414357 79.23689578980697 19.0 0.0 0.0 21.0 
196.00273835248984 1.5382790727820537 82.8020848728641 19.0 0.0 0.0 22.0 
197.00519855175946 1.8389033233981045 82.8020848728641 19.0 0.0 0.0 22.0 
198.0014099601902 1.815833929182881 85.76788080309962 19.0 0.0 0.0 22.0 
199.00049834718385 1.8956071434875184 89.16864035831765 19.0 0.0 0.0 21.0 
200.00128384117946 1.6878923934717633 80.01474517773062 19.0 0.0 0.0 21.0 
201.00246125031688 1.903985176695676 89.16864035831765 19.0 0.0 0.0 21.0 
202.00055422735457 1.760910082411939 89.16864035831765 19.0 0.0 0.0 20.0 
203.0001438028062 1.9900780019685418 95.77854982316319 20.0 0.0 0.0 20.0 
204.00049834718385 1.917451722736709 95.77854982316319 20.0 0.0 0.0 20.0 
205.00011699348488 1.3060936035979571 88.12163255419222 20.0 0.0 0.0 20.0 
206.0006887304087 0.7903960348157075 70.88715100267456 20.0 0.0 0.0 20.0 
207.00281605623545 0.28231408229666816 70.64486364475727 20.0 0.0 0.0 20.0 
208.00113752688165 0.744088253865108 96.24748039287186 20.0 0.0 0.0 20.0 
209.00049834718385 0.21190590149426453 25.83460978460218 20.0 0.0 0.0 20.0 
210.00198943994755 0.22508972417314047 25.83460978460218 20.0 0.0 0.0 20.0 
211.00052114265318 0.22097297092519208 25.83460978460218 20.0 0.0 0.0 20.0 
212.00019705934176 0.30415295373811746 33.35553074434483 22.0 0.0 0.0 20.0 
213.0015107034432 0.25781544761597885 32.843878429766136 22.0 0.0 0.0 19.0 
214.00030260981092 0.24445536296724582 32.843878429766136 21.0 0.0 0.0 19.0 
215.00116066013695 0.21415535363189114 32.622637637600604 22.0 0.0 0.0 18.0 
216.00258599755196 0.19850579091321685 32.622637637600604 22.0 0.009197038439209129 2.4117509287478924 17.0 
217.00027042599328 0.22832929221832834 40.08941471673228 22.0 0.0 0.0 19.0 
218.00176719727676 0.22782542426277042 33.99390800816485 22.0 0.0 0.0 18.0 
219.00049834718385 0.19242490460202696 33.99390800816485 21.0 0.0 0.0 18.0 
220.00263430413 0.19480087152531494 33.99390800816485 21.0 0.0 0.0 18.0 
221.00132093308352 0.1802537944017135 31.946267947802482 21.0 0.0 0.0 17.0 
222.00097649375186 0.22534616134376306 39.444724781967096 21.0 0.0 0.0 17.0 
223.0018400284447 0.25017906488475816 39.444724781967096 21.0 0.0 0.0 17.0 
224.00049834718385 0.1755371347645696 34.2109476284453 21.0 0.0 0.0 17.0 
225.00012234095792 0.10629604431059538 29.32496376120153 21.0 0.0 0.0 17.0 
226.0005451470739 0.11665105680977758 26.984972053054634 21.0 0.0 0.0 17.0 
227.00361036858214 0.21275305336992428 34.3589782035078 22.0 0.0 0.0 17.0 
228.000935427523 0.23877975995086717 34.3589782035078 23.0 0.0 0.0 17.0 
229.00049834718385 0.1827931132169986 19.30576491884571 22.0 0.0 0.0 17.0 
230.00440079783715 0.19162819452659363 19.30576491884571 22.0 0.0 0.0 16.0 
231.00000207172909 0.1963272869516068 21.751794303311385 22.0 0.0 0.0 16.0 
232.00059521396125 0.19392629496024727 27.245356277225284 21.0 0.0 0.0 16.0 
233.0018400284447 0.11504918869601709 18.367967729058023 21.0 0.0 0.0 16.0 
234.00049834718385 0.0699278927264138 18.367967729058023 20.0 0.0 0.0 16.0 
235.00440079783715 0.09632798026436376 18.367967729058023 20.0 0.0 0.0 17.0 
236.00045764433403 0.09496847319805041 18.367967729058023 20.0 0.0 0.0 17.0 
237.00186642851062 0.08928259604541204 12.40714992894604 20.0 0.0 0.0 17.0 
238.0004431571197 0.08297129271018931 12.40714992894604 19.0 0.0 0.0 18.0 
239.00049834718385 0.09380638916347951 12.40714992894604 19.0 0.0 0.0 19.0 
240.00018997149706 0.11072411765217373 23.27581798668939 19.0 0.0 0.0 18.0 
241.00233170027718 0.045569761589614705 8.577109401396768 20.0 0.0 0.0 18.0 
242.00091994576266 0.07322669582096945 9.107268939157308 20.0 0.0 0.0 19.0 
243.0018400284447 0.12856650629611127 16.027718762219877 19.0 0.0 0.0 19.0 
244.00040928799453 0.047451750170367034 7.273815042086483 19.0 0.0 0.0 19.0 
245.0011510941488 0.10192556748285322 18.322281919254266 19.0 0.0 0.0 19.0 
246.0019242267767 0.09412364225955526 18.322281919254266 19.0 0.0 0.0 19.0 
247.0006096020241 0.14350672061974643 23.521045302041273 19.0 0.0 0.0 19.0 
248.00139212002782 0.2068551896821068 30.972926261577157 19.0 0.0 0.0 18.0 
249.00049834718385 0.10045145535587559 12.031061011435725 19.0 0.0 0.0 18.0 
250.00252672973576 0.24253446609800963 27.33050061687436 19.0 0.0 0.0 18.0 
251.0014037269171 0.2962663910842678 29.814130913810914 19.0 0.0 0.0 18.0 
252.00000289303193 0.25106774459194536 27.33050061687436 19.0 0.0 0.0 17.0 
253.0018400284447 0.22555404999189724 21.09191322732147 19.0 0.0 0.0 17.0 
254.00049494192783 0.22197835046865713 21.09191322732147 19.0 0.0 0.0 17.0 
255.00000928397165 0.4030367680449251 31.116932766633738 18.0 0.0 0.0 17.0 
256.00008603572576 0.2555701361654336 25.913367847116575 18.0 0.0 0.0 17.0 
257.00771810626026 0.39988726953036324 31.116932766633738 18.0 0.0 0.0 17.0 
258.0018400284447 0.43921424024419686 31.116932766633738 18.0 0.0 0.0 17.0 
259.00038063841026 0.5485241351180955 32.46800355411136 18.0 0.0 0.0 17.0 
260.0000908484157 0.4807156445706265 28.830970742931555 18.0 0.0 0.0 17.0 
261.00096198279635 0.4479615113036159 28.636844498758506 18.0 0.0 0.0 17.0 
262.00058293279125 0.4972121750315034 28.636844498758506 18.0 0.0 0.0 17.0 
263.00097471517984 0.588363829173503 36.316594289057235 17.0 0.0 0.0 17.0 
264.0000354337973 0.7576728489444616 44.92721039551623 17.0 0.0 0.0 17.0 
265.00440079783715 0.9091053159646195 49.77022704362295 16.0 0.0 0.0 17.0 
266.0041761488089 0.7871040299593983 44.95681923873778 17.0 0.0 0.0 17.0 
267.00604869281057 0.7960064080062549 44.95681923873778 17.0 0.0 0.0 17.0 
268.0018400284447 1.007580613201822 44.95681923873778 18.0 0.0 0.0 17.0 
269.00049834718385 0.9092030926259185 44.95681923873778 18.0 0.0 0.0 17.0 
270.0035292048007 1.1076245412280186 44.89504537540532 17.0 0.0 0.0 16.0 
271.000250710918 1.0687386504271905 49.32006686084816 16.0 0.0 0.0 16.0 
272.0001923507626 1.1570307384124507 49.32006686084816 16.0 0.0 0.0 16.0 
273.00093274627267 1.2188233179019035 49.32006686084816 17.0 0.0 0.0 16.0 
274.00049834718385 1.2727394624623887 55.39225844274179 18.0 0.0 0.0 16.0 
275.00049261627373 1.1777872004787917 53.42510346171849 18.0 0.0 0.0 16.0 
276.0003909853541 1.3650606439187596 54.42023020251571 18.0 0.0 0.0 16.0 
277.0003743205993 1.5180668219212166 53.42510346171849 18.0 0.0 0.0 16.0 
278.0010363412818 1.4979457991131468 53.42510346171849 18.0 0.0 0.0 16.0 
279.00049834718385 1.1494255329004717 54.68166497976637 17.0 0.0 0.0 16.0 
280.0002827735293 0.8224642192895826 48.662840044878465 17.0 0.0 0.0 16.0 
281.002513304961 0.7777508666432676 48.662840044878465 17.0 0.0 0.0 16.0 
282.00076857728914 0.6211849746525949 31.082034862910405 17.0 0.0 0.0 16.0 
283.00130839130514 0.5516954098569953 28.552663585650407 17.0 0.0 0.0 16.0 
284.00049834718385 0.6256194018299103 55.840488187430225 17.0 0.0 0.0 16.0 
285.0002023311882 0.5056133620412371 51.95448740832393 17.0 0.0 0.0 16.0 
286.00088246975105 0.537151898006722 31.002577548175225 17.0 0.0 0.0 15.0 
287.0015379109056 0.644838459937853 32.942295923613045 18.0 0.003574132774098368 1.7870663870491796 15.0 
288.0018400284447 0.6149809605409366 32.942295923613045 18.0 0.003574132774098368 1.7870663870491796 15.0 
289.00049834718385 0.6939582170045939 37.50540862598993 18.0 0.0 0.0 15.0 
290.00092831766733 0.5926577674052453 34.841405677348575 18.0 0.0 0.0 15.0 
291.00056082578095 0.9092337935675909 53.36428572668976 18.0 0.0 0.0 15.0 
292.0003525962962 0.8626508084579312 41.79144686207238 18.0 0.0 0.0 15.0 
293.0004628712916 1.013643734641926 53.36428572668976 18.0 0.0 0.0 15.0 
294.00049834718385 1.0554666336010294 41.79144686207238 18.0 0.0 0.0 15.0 
295.0031432665824 1.201824338892029 43.06299327863991 18.0 0.0 0.0 15.0 
296.0008146020368 1.1060029690376167 43.815540516999704 19.0 0.0 0.0 16.0 
297.00056429851276 1.2806938735388576 43.815540516999704 21.0 0.0 0.0 17.0 
298.0000201547069 1.3650097457601986 47.19347348263443 22.0 0.0 0.0 17.0 
299.00049834718385 1.2624616407191884 47.19347348263443 20.0 0.0 0.0 17.0 
300.00229606433675 1.3676664668964271 48.61352228854267 20.0 0.0 0.0 17.0 
301.0028825369912 1.487842946932763 51.45988371915834 19.0 0.0 0.0 17.0 
302.000266889599 1.6635477564298893 52.25100635973891 19.0 0.0 0.0 17.0 
303.0014554592338 1.4809102423931377 52.34449846117573 19.0 0.0 0.0 17.0 
304.00049834718385 1.1201970996305377 55.88284603599806 19.0 0.0 0.0 17.0 
305.00345678313914 0.9510836659220414 52.34449846117573 19.0 0.0 0.0 17.0 
306.00016756074916 0.7131738354078033 48.36596327620083 19.0 0.0 0.0 17.0 
307.0075070982445 0.5159552202423101 51.5401412608438 19.0 0.0 0.0 17.0 
308.00125319371534 0.38295691972866175 26.232631305019538 19.0 0.0 0.0 17.0 
309.00049834718385 0.38137406813809005 28.134274015381777 19.0 0.0 0.0 17.0 
310.00069378059305 0.49859669753068925 39.202755618628345 19.0 0.0 0.0 17.0 
311.00081626269815 0.49047136785391726 39.202755618628345 19.0 0.0 0.0 17.0 
312.0004984202017 0.49650678038092344 39.202755618628345 19.0 0.0 0.0 17.0 
313.00035670782273 0.532488245413852 39.202755618628345 19.0 0.0 0.0 17.0 
314.00049834718385 0.4480986038869091 41.14375275692791 19.0 0.0 0.0 17.0 
315.00035449036574 0.5448218762937019 52.3952670557386 19.0 0.0 0.0 17.0 
316.0011868424044 0.5600388052168054 52.3952670557386 19.0 0.0 0.0 17.0 
317.00158845932486 0.5508999752707753 52.3952670557386 19.0 0.0 0.0 17.0 
318.0002711239498 0.5723879301990289 52.3952670557386 19.0 0.0 0.0 17.0 
319.00049834718385 0.6122814568171656 54.47126725847397 19.0 0.0 0.0 17.0 
320.0043997780081 0.8496166459794747 71.83521809464048 19.0 0.0 0.0 17.0 
321.0011670276499 0.6811949526089498 65.94117831354453 19.0 0.0 0.0 18.0 
322.00144361414954 0.6692334554139839 65.94117831354453 19.0 0.0 0.0 18.0 
323.0017823874268 0.7445275126951757 67.91285191955006 18.0 0.0 0.0 18.0 
324.00049834718385 0.8605162485376273 69.36185845644434 18.0 0.0 0.0 18.0 
325.00093877275054 1.2521442154202775 79.4212405775832 18.0 0.0 0.0 19.0 
326.00469893869314 1.1210500598616102 89.33370534826628 18.0 0.0 0.0 17.0 
327.0007750327824 1.223497889506515 89.10060641755524 17.0 0.0 0.0 17.0 
328.00033743298076 1.216861007711492 79.4212405775832 18.0 0.0 0.0 18.0 
329.00049834718385 1.3967052263281696 89.10060641755524 17.0 0.0 0.0 18.0 
330.000595654615 1.5317816190342428 95.79788574462987 17.0 0.0 0.0 18.0 
331.00086240703143 1.7818443851323424 95.79788574462987 17.0 0.0 0.0 19.0 
332.00012630012355 1.7474786320426943 95.79788574462987 17.0 0.0 0.0 19.0 
333.0018400284447 1.7796230906590835 93.47512833625251 18.0 0.0 0.0 19.0 
334.00049834718385 1.7333726853386031 95.63085763042801 18.0 0.0 0.0 19.0 
335.00440079783715 1.904011834938311 103.75496047970688 18.0 0.0 0.0 19.0 
336.00179405058725 1.6243983596382625 99.41070593763789 18.0 0.0 0.0 19.0 
337.0011681267111 1.8447288479844464 103.62226903331384 19.0 0.0 0.0 19.0 
338.0018400284447 2.0526806838289344 107.65553152528503 19.0 0.0 0.0 19.0 
339.00049834718385 1.4135718638550738 98.35060516129681 19.0 0.0 0.0 19.0 
340.0000485295365 2.1170511860040833 109.10638504445035 19.0 0.0 0.0 19.0 
341.0009753380873 1.6940003462442321 102.93509053382934 19.0 0.0 0.0 19.0 
342.00828610053196 2.3434957579058064 109.46849434993203 19.0 0.0 0.0 19.0 
343.0018400284447 2.154593388015153 109.46849434993203 19.0 0.0 0.0 19.0 
344.00049834718385 2.314569333426181 113.330387549406 18.0 0.0 0.0 19.0 
345.001790222615 2.3643829930983626 106.05293678017921 18.0 0.0 0.0 21.0 
346.00222837372377 1.914559521088686 106.54802436322694 18.0 0.0 0.0 21.0 
347.0018238853105 2.554124533262585 112.07894926443043 18.0 0.0 0.0 21.0 
348.0006236868664 2.212634298851267 108.19536165052966 18.0 0.0 0.0 20.0 
349.0001661935907 2.3664102391301998 108.63940565431011 18.0 0.0 0.0 20.0 
350.0004176067551 2.0512429549265345 105.75737536659625 19.0 0.0 0.0 24.0 
351.00359784550403 1.8686859310023338 105.21023916075461 19.0 0.0 0.0 22.0 
352.00161566083153 1.4768679764529151 105.21023916075461 20.0 0.0 0.0 22.0 
353.0018400284447 1.7671395983139628 105.21023916075461 20.0 0.0 0.0 22.0 
354.00049834718385 1.3715500534663547 105.21023916075461 19.0 0.0 0.0 21.0 
355.00069954415176 1.483651664417137 111.96866690386275 18.0 0.0 0.0 20.0 
356.0007981611796 1.4898222606749643 111.96866690386275 18.0 0.0 0.0 20.0 
357.003462311988 1.47630684148283 111.32420981813999 18.0 0.0 0.0 19.0 
358.00035286820884 1.7126965499462474 111.96866690386275 19.0 0.0 0.0 19.0 
359.00049834718385 1.6978840640527428 111.06417523504263 19.0 0.0 0.0 18.0 
360.00013903553673 2.01728140203017 115.4084471665023 19.0 0.0 0.0 18.0 
361.0014076051435 2.0217349003293723 117.93054898822885 19.0 0.0 0.0 16.0 
362.00294933339296 2.0305450430291616 117.93054898822885 19.0 0.0 0.0 16.0 
363.0018400284447 2.2775519148172725 121.7698982709386 18.0 0.0 0.0 16.0 
364.00049834718385 1.842204668577282 121.7698982709386 19.0 0.0 0.0 16.0 
365.00440079783715 1.914284126446368 124.35023464281687 19.0 0.0 0.0 16.0 
366.0015259319657 1.7143575929097994 128.64261907084597 18.0 0.0 0.0 16.0 
367.00204875920014 1.2417898401722247 128.64261907084597 19.0 0.0 0.0 16.0 
368.0004456675342 1.0223017065782003 124.35023464281687 19.0 0.0 0.0 16.0 
369.00049834718385 1.0370753150132757 124.35023464281687 20.0 0.0 0.0 16.0 
370.00440079783715 1.0926198474949866 131.31716018348004 20.0 0.0 0.0 16.0 
371.00333425371167 0.8379937802377444 134.37685780986254 19.0 0.0 0.0 16.0 
372.00614933509155 0.6037243409385389 137.6420588838766 20.0 0.0 0.0 16.0 
373.00154608234044 0.356383633021728 137.6420588838766 20.0 0.0 0.0 16.0 
374.00049834718385 0.08193819980687807 27.186274613437405 18.0 0.0 0.0 15.0 
375.0010943066334 0.0 0.0 18.0 0.0 0.0 15.0 
376.0026796368947 0.0 0.0 18.0 0.0 0.0 15.0 
377.0010198311556 0.0 0.0 18.0 0.0 0.0 15.0 
378.0005545696486 0.0 0.0 17.0 0.0 0.0 15.0 
379.00049834718385 0.01933925200226615 9.66962600113311 17.0 0.0 0.0 15.0 
380.00069378442794 0.0016643071043462745 0.8321535521731391 18.0 0.0 0.0 16.0 
381.000629747918 0.0016643071043462745 0.8321535521731391 17.0 0.0 0.0 16.0 
382.00120546561595 0.06148480515492333 27.197499959476005 18.0 0.0 0.0 17.0 
383.00023973014396 0.09846283381373158 27.197499959476005 18.0 0.0 0.0 16.0 
384.00035004419925 0.07567275566227388 27.197499959476005 21.0 0.0 0.0 17.0 
385.00161212838333 0.07567275566227388 27.197499959476005 19.0 0.0 0.0 17.0 
386.0013252006979 0.02127775574332236 10.001020916374785 20.0 0.0 0.0 17.0 
387.00384975815876 0.05143795474186101 17.54046522897505 19.0 0.0 0.0 17.0 
388.00137324369416 0.1041291877270864 27.22950803100065 19.0 0.0 0.0 18.0 
389.00049834718385 0.05445901606200146 27.22950803100065 18.0 0.0 0.0 18.0 
390.002159401339 0.0 0.0 18.0 0.0 0.0 18.0 
391.00036211158516 0.0 0.0 18.0 0.0 0.0 18.0 
392.0024196122365 0.0 0.0 18.0 0.0 0.0 18.0 
393.0000968787837 0.0 0.0 18.0 0.0 0.0 18.0 
394.00049834718385 0.0 0.0 18.0 0.0 0.0 18.0 
395.0005072562977 0.0 0.0 18.0 0.0 0.0 18.0 
396.00033934971793 0.006742946574456461 3.371473287228241 18.0 0.0 0.0 17.0 
397.0001079903853 0.03791916439539753 15.588108910470481 18.0 0.0 0.0 18.0 
398.0012038237878 0.03791916439539753 15.588108910470481 16.0 0.0 0.0 17.0 
399.00049834718385 0.026468954881827187 9.863004153685353 17.0 0.0 0.0 17.0 
400.00081306820505 0.011292971371447672 5.64648568572386 17.0 0.0 0.0 17.0 
401.0041032519051 0.011292971371447672 5.64648568572386 17.0 0.0 0.0 18.0 
402.002275843611 0.02594458409534669 12.972292047673307 18.0 0.0 0.0 18.0 
403.00011857434015 0.02594458409534669 12.972292047673307 18.0 0.0 0.0 18.0 
404.00049834718385 0.012528835122784155 6.264417561392094 18.0 0.0 0.0 19.0 
405.00440079783715 0.013387488255521295 6.264417561392094 17.0 0.0 0.0 19.0 
406.0027138492707 0.027179416682239662 13.589708341119774 18.0 0.0 0.0 18.0 
407.00339244005085 0.06265202808312284 13.589708341119774 18.0 0.0 0.0 18.0 
408.0004370191134 0.036669289958119466 13.589708341119774 18.0 0.0 0.0 18.0 
409.00049834718385 0.025279312942543656 6.921036035642516 18.0 0.0 0.0 18.0 
410.00440079783715 0.045722551260524505 12.107217504227123 18.0 0.0 0.0 18.0 
411.00119965214554 0.09847487937739097 14.07934698144365 18.0 0.0 0.0 18.0 
412.00342058950247 0.1376057420574633 18.827878331696553 19.0 0.0 0.0 19.0 
413.00165506055356 0.09994998539407014 14.07934698144365 18.0 0.0 0.0 19.0 
414.00049834718385 0.08663819594591708 12.075130836494822 18.0 0.0 0.0 19.0 
415.0026283791789 0.07243236863448722 12.075130836494822 18.0 0.0 0.0 18.0 
416.0014100243043 0.07429320548812979 12.075130836494822 18.0 0.0 0.0 17.0 
417.00110449064437 0.1298672131504724 24.048268348089493 18.0 0.0 0.0 17.0 
418.0018400284447 0.07967849381213325 14.587076994624596 18.0 0.0 0.0 18.0 
419.00049834718385 0.12303218830033352 14.895684917534084 18.0 0.0 0.0 18.0 
420.0032902523461 0.0593880971351647 11.081024966064092 17.0 0.0 0.0 18.0 
421.0032318504523 0.1826445663702856 33.41048218318335 17.0 0.0 0.0 18.0 
422.0000492072661 0.11763550024297863 15.1114682384611 17.0 0.0 0.0 18.0 
423.0012501149654 0.16417687848550347 16.573316207591176 17.0 0.0 0.0 17.0 
424.00049834718385 0.1602347571249933 17.275244144276087 17.0 0.0 0.0 17.0 
425.00239134776854 0.257437310140377 26.68062363934473 17.0 0.0 0.0 17.0 
426.00371702543725 0.2980289343296184 33.66251827801236 17.0 0.0 0.0 17.0 
427.00159038927865 0.366427136143382 33.66251827801236 17.0 0.0 0.0 17.0 
428.0018400284447 0.3828004276745185 33.66251827801236 16.0 0.0 0.0 17.0 
429.00049834718385 0.4147064563794696 33.66251827801236 16.0 0.0 0.0 17.0 
430.0041530209246 0.39670637086109356 33.66251827801236 16.0 0.0 0.0 17.0 
431.00105717096034 0.45731390314799986 35.47697683696623 16.0 0.0 0.0 17.0 
432.0042318151073 0.5778713599397252 35.47697683696623 16.0 0.0 0.0 17.0 
433.00121447136394 0.6898086179254892 47.2250448474 15.0 0.0 0.0 17.0 
434.00049834718385 0.6607667892942112 49.40032222010842 15.0 0.0 0.0 17.0 
435.0000153588846 0.5791079890779718 47.2250448474 17.0 0.0 0.0 17.0 
436.00634956406543 0.8337949690387902 56.4752265450897 16.0 0.0 0.0 18.0 
437.0007739165386 0.8976550426659291 56.4752265450897 16.0 0.0 0.0 18.0 
438.00006913508787 0.9701192648559434 59.90464945873475 16.0 0.0 0.0 18.0 
439.00049834718385 0.9290315856984603 62.108134422732235 16.0 0.0 0.0 18.0 
440.00440079783715 0.9828136875512459 62.108134422732235 16.0 0.0 0.0 18.0 
441.0019920931836 0.6528945553556924 63.75972355033201 16.0 0.0 0.0 17.0 
442.0022195261074 0.45261608342757503 63.55544707906148 16.0 0.0 0.0 17.0 
443.0018400284447 0.47157413797137276 62.43263487753558 16.0 0.0 0.0 17.0 
444.00049834718385 0.5908684456934211 63.55544707906148 16.0 0.0 0.0 17.0 
445.00117480823405 0.35365608774595075 42.460561777278485 16.0 0.0 0.0 17.0 
446.0045330511713 0.49483091788098715 42.460561777278485 16.0 0.0 0.0 17.0 
447.00084629685335 0.48969488901570823 35.853391682403355 16.0 0.0 0.0 17.0 
448.00173960840647 0.6775646381110995 43.09740386193016 16.0 0.0 0.0 17.0 
449.00049834718385 0.5835982428066908 43.02084850762725 16.0 0.0 0.0 17.0 
450.00223900014095 0.5725158378967464 43.02084850762725 16.0 0.0 0.0 17.0 
451.0000871752504 0.6539892647185189 46.93725903939176 19.0 0.0 0.0 18.0 
452.00375691173986 0.31824173492202945 38.124059252583436 21.0 0.0 0.0 18.0 
453.00087842828435 0.27313648511014416 39.363419316499716 21.0 0.0 0.0 17.0 
454.00049834718385 0.024346608227793578 12.173304113896847 21.0 0.0 0.0 17.0 
455.00361933157205 0.05265824585123183 14.155818811719087 21.0 0.0 0.0 17.0 
456.0016830003922 0.08200379097128736 21.495883334350765 21.0 0.0 0.0 17.0 
457.00000084183523 0.09683250990505259 21.495883334350765 20.0 0.0 0.0 17.0 
458.0008947897398 0.03801144503971413 9.816021106197894 20.0 0.0 0.0 17.0 
459.0004977246817 0.05994643097653284 13.347320363496522 19.0 0.0 0.0 17.0 
460.0015620987997 0.12137364431790237 15.31766961155057 19.0 0.0 0.0 17.0 
461.00005854804533 0.09499068845321082 20.54663981372269 19.0 0.0 0.0 17.0 
462.0036020806638 0.1778695842439749 22.75088435535673 19.0 0.0 0.0 17.0 
463.00179218468105 0.21704793219800625 22.75088435535673 19.0 0.0 0.0 17.0 
464.00049834718385 0.11504143400334979 20.54663981372269 19.0 0.0 0.0 17.0 
465.0016659078208 0.11551449135192796 14.714770725844886 19.0 0.0 0.0 17.0 
466.00107096063886 0.1491317113595252 16.655853417736978 18.0 0.0 0.0 17.0 
467.0016300393761 0.22493542916445952 24.087221141013657 18.0 0.0 0.0 17.0 
468.0018400284447 0.2620245225459916 24.087221141013657 18.0 0.0 0.0 17.0 
469.00049834718385 0.1823219189827425 20.764132866279652 18.0 0.0 0.0 16.0 
470.0010383789385 0.2194191006636077 20.764132866279652 17.0 0.0 0.0 16.0 
471.00263209039935 0.23328295535485605 26.913721400278575 17.0 0.0 0.0 17.0 
472.00003238178147 0.3376829197851306 29.795267507711372 16.0 0.0 0.0 17.0 
473.0000050094299 0.35027527116601814 33.57031312780816 16.0 0.0 0.0 17.0 
474.00049834718385 0.22645498881571854 33.57031312780816 16.0 0.0 0.0 17.0 
475.0008070646409 0.23298114446666884 22.36025837145624 16.0 0.0 0.0 17.0 
476.0053374072022 0.40244926796096825 39.9136479910124 16.0 0.0 0.0 17.0 
477.0012129509925 0.3895684159656446 26.665201176904247 16.0 0.0 0.0 17.0 
478.0018400284447 0.5303058468330297 46.739091320668166 16.0 0.0 0.0 17.0 
479.00049834718385 0.4918072684343062 46.739091320668166 16.0 0.0 0.0 16.0 
480.00060032695797 0.4469096562871155 46.739091320668166 16.0 0.0 0.0 16.0 
481.0055298684562 0.5815828549964152 59.90666716603948 16.0 0.0 0.0 16.0 
482.0040073253991 0.5376188901886982 53.176721817688815 16.0 0.0 0.0 16.0 
483.00086527910656 0.7845134874670193 60.143577730129834 16.0 0.0 0.0 16.0 
484.00049834718385 0.5978907674444611 60.143577730129834 16.0 0.0 0.0 16.0 
485.0007718163348 0.41092937209076413 33.891639060469885 17.0 0.0 0.0 16.0 
486.0069615268106 0.6999495143100016 66.6328815626394 18.0 0.0 0.0 15.0 
487.00059700665884 0.6208047158239358 60.435841428229935 18.0 0.0 0.0 15.0 
488.00001993427213 0.6494135074538051 60.435841428229935 18.0 0.0 0.0 15.0 
489.0003172891566 0.7291987273321914 60.435841428229935 18.0 0.0 0.0 15.0 
490.00190962832056 0.7317370985457124 60.435841428229935 18.0 0.0 0.0 16.0 
491.0033087635616 0.9223120453809464 66.90885238634746 18.0 0.0 0.0 16.0 
492.00270852670866 1.0561986911229975 66.90885238634746 19.0 0.0 0.0 16.0 
493.0005488002588 1.1057491729185955 73.49810642761292 20.0 0.0 0.0 17.0 
494.00049834718385 1.0278419739617801 73.49810642761292 20.0 0.0 0.0 17.0 
495.00388511087243 0.9714468278075575 66.82160631574521 19.0 0.0 0.0 17.0 
496.0022363733359 0.9701658717791453 66.82160631574521 19.0 0.0 0.0 17.0 
497.00031902382045 1.142022942382144 66.82160631574521 19.0 0.011215875922263141 5.607937961131569 16.0 
498.0009726625872 1.1356171948385567 69.95338034575968 19.0 0.011215875922263141 5.607937961131569 16.0 
499.0000467761391 1.0951942483699122 69.95338034575968 19.0 0.011215875922263141 5.607937961131569 15.0 
500.0001943456685 1.0941672953519879 69.60071789348484 18.0 0.017412895695748293 8.70644784787413 15.0 
501.00021933905856 1.0839906696924955 69.60071789348484 18.0 0.032250743583787295 16.125371791893713 15.0 
502.0024501967505 1.095842866518117 69.60071789348484 18.0 0.032250743583787295 16.125371791893713 15.0 
503.00058108448854 1.2093279275672417 72.97201524235436 18.0 0.032250743583787295 16.125371791893713 15.0 
504.00049834718385 1.2563885532095154 79.3564476300586 18.0 0.032250743583787295 16.125371791893713 15.0 
505.00040543396943 1.2437586029987446 79.3564476300586 18.0 0.0 0.0 16.0 
506.0037566818833 1.241854196884052 79.3564476300586 18.0 0.0 0.0 16.0 
507.00144085340986 1.1581010122606876 76.16392426924227 18.0 0.0 0.0 16.0 
508.0018400284447 0.9401392642683697 68.81960147927799 18.0 0.0 0.0 16.0 
509.00049834718385 0.971852846335852 68.81960147927799 18.0 0.0 0.0 16.0 
510.00260797729226 1.3045987759115445 91.89092289805956 18.0 0.0 0.0 15.0 
511.00257279218346 1.1140261473471944 82.61571515701615 18.0 0.0 0.0 15.0 
512.0021423999616 1.2765642121605303 91.89092289805956 18.0 0.0 0.0 15.0 
513.0015375371352 0.9353186588267758 87.33899928846483 18.0 0.0 0.0 16.0 
514.0002142634484 1.0738025877748405 82.63442704718818 18.0 0.0 0.0 17.0 
515.0020322445937 0.9478890213618167 82.63442704718818 18.0 0.0 0.0 17.0 
516.0001871741831 1.0420738088583854 82.63442704718818 18.0 0.0 0.0 17.0 
517.0004920091892 0.866057847658991 82.63442704718818 18.0 0.0 0.0 17.0 
518.0018400284447 0.6005950765483017 76.73575071598526 18.0 0.0 0.0 17.0 
519.0004983471838 0.6342801087517319 72.08700788811461 18.0 0.0 0.0 17.0 
520.001461060038 0.7788794403618111 72.08700788811461 18.0 0.0 0.0 17.0 
521.0000331047785 0.7739669242961552 72.08700788811461 18.0 0.0 0.0 16.0 
522.0084261240269 0.5718470670647119 66.05433413547115 18.0 0.0 0.0 16.0 
523.0002565893175 0.6286219593339728 66.05433413547115 17.0 0.0 0.0 16.0 
524.0004983471838 0.5840595118421078 61.44089067581211 17.0 0.0 0.0 16.0 
525.0008677648791 0.5992951735654016 61.44089067581211 17.0 0.0 0.0 16.0 
526.0052037347306 0.5992951735654016 61.44089067581211 17.0 0.0 0.0 18.0 
527.0003491808641 0.5041588364738114 61.44089067581211 17.0 0.0 0.0 18.0 
528.0011005589824 0.4658068703012299 55.45252186474093 17.0 0.0 0.0 18.0 
529.0004983471838 0.3918815297923073 55.45252186474093 17.0 0.0 0.0 18.0 
530.0025880430511 0.4808030041508317 50.87701332161524 20.0 0.0 0.0 18.0 
531.0028679842968 0.4181876754547496 50.87701332161524 20.0 0.0 0.0 18.0 
532.0016347046202 0.3737038975693579 50.87701332161524 20.0 0.0 0.0 18.0 
533.0018400284447 0.4109010552763494 44.78934779994714 19.0 0.0 0.0 18.0 
534.0002609654002 0.46752874672429445 39.37757898542708 18.0 0.0 0.0 19.0 
535.0002358423533 0.49193809657990867 41.526292349301116 18.0 0.0 0.0 20.0 
536.0023736554085 0.5566821782392036 42.74721489507843 19.0 0.0 0.0 19.0 
537.001283700503 0.5008648390986695 42.74721489507843 19.0 0.0 0.0 19.0 
538.0018400284447 0.48747106074334073 36.77224540594659 18.0 0.0 0.0 19.0 
539.0000779747248 0.4171548489007815 36.77224540594659 18.0 0.0 0.0 19.0 
540.0018949886813 0.404371131988237 41.84281557062101 18.0 0.0 0.0 18.0 
541.0004573902286 0.47318268935276175 41.84281557062101 16.0 0.0 0.0 18.0 
542.0006552852697 0.3617764219651144 36.05303574215776 16.0 0.0 0.0 18.0 
543.0018400284447 0.37059481243567993 36.05303574215776 16.0 0.0 0.0 17.0 
544.0003607406594 0.4532387819487173 38.324157342765005 16.0 0.0 0.0 17.0 
545.0001595603441 0.4033218250971076 38.324157342765005 16.0 0.0 0.0 17.0 
546.0000144413541 0.3334701894698081 38.324157342765005 16.0 0.0 0.0 17.0 
547.0048817466962 0.2696709699215053 24.76820286358111 16.0 0.0 0.0 17.0 
548.0001764272564 0.26640526324804936 29.64012169786642 16.0 0.0020732554639716337 1.036627731985817 17.0 
549.0004983471838 0.4173207133148672 48.1787460731843 16.0 0.0020732554639716337 1.036627731985817 17.0 
550.0025062743091 0.46634830787169224 48.1787460731843 16.0 0.0020732554639716337 1.036627731985817 17.0 
551.0013224087952 0.4528089102022066 48.1787460731843 16.0 0.0 0.0 17.0 
552.0004322523566 0.4317991083177379 48.46280442302199 16.0 0.0017063484550081294 0.8531742275040699 17.0 
553.0002831248119 0.46848616907195034 48.46280442302199 16.0 0.0 0.0 18.0 
554.0004442107953 0.5528597595988277 55.775975306691606 16.0 0.0 0.0 18.0 
555.0044007978372 0.432027367148202 47.0739394577667 16.0 0.0 0.0 18.0 
556.0035914667144 0.5579730760185645 55.775975306691606 16.0 0.0 0.0 18.0 
557.0008857488637 0.5062325712446596 50.28245375583887 17.0 0.0 0.0 18.0 
558.0008333415013 0.553442328802531 57.55686755820159 18.0 0.0 0.0 17.0 
559.0004983471838 0.4020054775818761 57.55686755820159 18.0 0.0 0.0 17.0 
560.0001042086054 0.5615183351522297 61.02893297216514 18.0 0.0 0.0 18.0 
561.0008391507246 0.590677867625142 61.02893297216514 18.0 0.0 0.0 18.0 
562.0011487104737 0.6686499145555962 64.26737559063508 18.0 0.0 0.0 18.0 
563.0002654206083 0.3227038819279834 60.702834623648585 18.0 0.0 0.0 18.0 
564.0004983471838 0.04836072185762023 12.815280255129892 18.0 0.0 0.0 18.0 
565.0019302131707 0.025879644000150265 6.530150666302859 18.0 0.0 0.0 18.0 
566.0020363093835 0.013060301332605773 6.530150666302859 18.0 0.0 0.0 18.0 
567.0018353452157 0.02456428173617315 6.530150666302859 20.0 0.0 0.0 18.0 
568.0006619901523 0.04273952462881136 7.854291893677043 19.0 0.0 0.0 19.0 
569.0004983471838 0.01194468045226671 5.199946450247182 19.0 0.0 0.0 18.0 
570.0011037032374 0.02344866085583409 5.751990201783713 19.0 0.0 0.0 18.0 
571.0036595586707 0.02344866085583409 5.751990201783713 19.0 0.0 0.0 18.0 
572.0005807112816 0.04423913648725514 7.216288463126233 18.0 0.0 0.0 18.0 
573.0002631879271 0.07969288687149256 14.395151393072894 18.0 0.0 0.0 18.0 
574.0003443433501 0.09915164839831161 30.245926050920048 18.0 0.0 0.0 18.0 
575.0001027047779 0.03865979629647165 6.274861138443526 18.0 0.0 0.0 18.0 
576.0007203268851 0.03170518587854332 6.274861138443526 18.0 0.0 0.0 18.0 
577.0007479462209 0.09015773536804277 32.02383067422889 17.0 0.0 0.0 18.0 
578.0018400284447 0.08831834209094769 24.880280018303182 17.0 0.0 0.0 18.0 
579.0004983471838 0.10989356035412771 24.880280018303182 17.0 0.0 0.0 17.0 
580.0003120132194 0.10989356035412771 24.880280018303182 17.0 0.0 0.0 18.0 
581.0032473377718 0.1029597861123093 24.880280018303182 17.0 0.0 0.0 18.0 
582.0015569984986 0.13736594042242678 24.880280018303182 17.0 0.0 0.0 19.0 
583.001443016399 0.17492409841472248 22.282230817099503 18.0 0.0 0.0 18.0 
584.0004983471838 0.25545998364795086 46.21005548919186 18.0 0.0 0.0 18.0 
585.0021968971544 0.23362831202374587 46.21005548919186 18.0 0.0 0.0 18.0 
586.0000424039081 0.2192344977939685 46.21005548919186 18.0 0.0 0.0 18.0 
587.0012471292351 0.26789314089584326 48.02003718786656 19.0 0.0 0.0 19.0 
588.0005516156939 0.2473292936764388 48.02003718786656 20.0 0.0 0.0 19.0 
589.0004983471838 0.23980077225266921 40.88708887570172 20.0 0.0 0.0 19.0 
590.0005710239684 0.3631172209449113 61.658224346121585 20.0 0.0 0.0 19.0 
591.0024064371748 0.3563798457443509 61.658224346121585 20.0 0.0 0.0 19.0 
592.0005445740896 0.3679773894725875 63.405157543008386 20.0 0.0 0.0 19.0 
593.0000115255169 0.3886274515677204 63.405157543008386 21.0 0.0 0.0 19.0 
594.0004983471838 0.02561901856747773 9.357159333963182 21.0 0.0 0.0 19.0 
595.0000707922042 0.0 0.0 21.0 0.0 0.0 19.0 
596.0001300459284 0.0 0.0 20.0 0.0 0.0 19.0 
597.000451675731 0.0 0.0 20.0 0.0 0.0 18.0 
598.0018400284447 0.02976913412958959 14.884567064794822 20.0 0.0 0.0 18.0 
599.0000212190504 0.03429571346450229 14.884567064794822 20.0 0.0 0.0 18.0 
600.0016853001357 0.034565193356636 14.884567064794822 20.0 0.0 0.0 18.0 
#####################################################################
# End of data export. Simulation finished at: 2019-02-25T20:49+0000 #
#####################################################################
