#####################################################################
# Alchemist log file - simulation started at: 2019-02-25T20:44+0000 #
#####################################################################
# seed = 189.0
#
# The columns have the following meaning: 
# time distance-rep[Mean] distance-rep[Max] leader-rep[CountDistinct] distance-share[Mean] distance-share[Max] leader-share[CountDistinct] 
0.0 NaN NaN NaN NaN NaN NaN 
1.002538717406078 0.0 0.0 497.0 0.0 0.0 70.0 
2.000743244949487 0.0 0.0 99.0 0.0 0.0 65.0 
3.0081166105535355 0.0 0.0 88.0 0.0 0.0 55.0 
4.000108114591157 0.0 0.0 81.0 0.0 0.0 52.0 
5.000898494849823 0.0 0.0 76.0 0.0 0.0 44.0 
6.000042677685382 0.0 0.0 73.0 0.0 0.0 43.0 
7.000747300594966 0.0 0.0 70.0 0.0 0.0 42.0 
8.004291766003004 0.0 0.0 67.0 0.0 0.0 37.0 
9.00155574104732 0.0 0.0 65.0 0.0 0.0 35.0 
10.00089348406769 0.0 0.0 62.0 0.0 0.0 33.0 
11.004761906475848 0.0 0.0 60.0 0.0 0.0 33.0 
12.000573292741015 0.0 0.0 55.0 0.0 0.0 33.0 
13.004776679533359 0.0 0.0 56.0 0.0 0.0 34.0 
14.000603206661118 0.0 0.0 55.0 0.0 0.0 32.0 
15.000846822241387 0.0 0.0 53.0 0.0 0.0 29.0 
16.000568280540595 0.0 0.0 53.0 0.0 0.0 29.0 
17.000747300594966 0.0 0.0 52.0 0.0 0.0 30.0 
18.003083735745502 0.0 0.0 49.0 0.0 0.0 29.0 
19.00089671180905 0.0 0.0 47.0 0.0 0.0 27.0 
20.000683759379744 0.0 0.0 47.0 0.0023076872381206015 1.1538436190602965 21.0 
21.000005315353466 0.0 0.0 47.0 0.0 0.0 22.0 
22.000747300594966 0.0 0.0 45.0 0.0 0.0 21.0 
23.000887587813164 0.022724199771826582 6.700022895116035 42.0 0.0 0.0 20.0 
24.00155574104732 0.04759586929060219 10.925992719945071 42.0 0.0 0.0 21.0 
25.00089849484982 0.0010529476419434394 0.5264738209717166 43.0 0.0 0.0 20.0 
26.00248250200129 0.0 0.0 43.0 0.0 0.0 20.0 
27.0004258045192 0.0 0.0 42.0 0.0 0.0 19.0 
28.00188460752636 0.0 0.0 42.0 0.025940141819857716 6.816731752522031 19.0 
29.001416954784826 0.0 0.0 42.0 0.029865599977742928 9.704281448838799 18.0 
30.00089849484982 0.0 0.0 39.0 0.029865599977742928 9.704281448838799 19.0 
31.000334775534895 0.0 0.0 39.0 0.017143731759348354 4.600212609259756 18.0 
32.000747300594966 0.0 0.0 41.0 0.0 0.0 18.0 
33.000001707379724 0.0 0.0 42.0 0.0 0.0 18.0 
34.00155574104732 0.0 0.0 41.0 0.0 0.0 18.0 
35.00089849484982 0.0 0.0 41.0 0.0 0.0 17.0 
36.0004383732984 0.0 0.0 39.0 0.0 0.0 17.0 
37.000747300594966 0.0 0.0 39.0 0.0 0.0 17.0 
38.00096598368171 0.0 0.0 40.0 0.0 0.0 18.0 
39.00155574104732 0.0 0.0 38.0 0.0 0.0 17.0 
40.00089849484982 0.0 0.0 38.0 0.0 0.0 18.0 
41.00523123390992 0.0 0.0 38.0 0.0 0.0 17.0 
42.000747300594966 0.0 0.0 38.0 0.0 0.0 17.0 
43.002429876849796 0.0 0.0 36.0 0.0 0.0 17.0 
44.001266165648985 0.0 0.0 36.0 0.0 0.0 17.0 
45.00089849484982 0.03122868510781707 13.765673266232909 35.0 0.0 0.0 18.0 
46.00501249034426 0.05815664989471834 20.615310063467803 34.0 0.0 0.0 18.0 
47.000747300594966 0.04353738834537353 20.615310063467803 33.0 0.0 0.0 18.0 
48.00962496607926 0.04353738834537353 20.615310063467803 32.0 0.0 0.0 18.0 
49.00155574104732 0.04353738834537353 20.615310063467803 30.0 0.0 0.0 19.0 
50.00029001337812 0.0512862281097407 20.615310063467803 32.0 0.0 0.0 19.0 
51.00062344025488 0.05246753446030448 25.080383120933163 35.0 0.0 0.0 19.0 
52.000747300594966 0.05118745554464791 25.080383120933163 40.0 0.0 0.0 20.0 
53.00118445387183 0.0010266893027815083 0.5133446513907529 35.0 0.0 0.0 20.0 
54.0000805620046 0.0 0.0 37.0 0.0 0.0 19.0 
55.00001168287688 0.0 0.0 35.0 0.0 0.0 19.0 
56.000309954462416 0.0 0.0 31.0 0.0 0.0 19.0 
57.00033578412805 0.0 0.0 31.0 0.0 0.0 19.0 
58.00269158997239 0.0 0.0 31.0 0.0 0.0 18.0 
59.00061321135031 0.02144919454556909 7.224222768529785 31.0 0.0 0.0 18.0 
60.0003143411722 0.02144919454556909 7.224222768529785 30.0 0.0 0.0 18.0 
61.001799285090904 0.02243739882379189 11.17851824928897 30.0 0.0 0.0 18.0 
62.000747300594966 0.05972676349318154 11.355233111380727 29.0 0.0 0.0 18.0 
63.001145863069524 0.0825818383897663 22.822951722280294 29.0 0.0 0.0 18.0 
64.00048001011173 0.04503244827961396 11.355233111380727 27.0 0.0 0.0 18.0 
65.00089849484982 0.1249118812108216 39.93971646560385 27.0 0.0 0.0 17.0 
66.00003674508466 0.034641153311177085 10.415293670099459 26.0 0.0 0.0 17.0 
67.00036024573315 0.0561926266146433 10.775736651733268 27.0 0.0 0.0 17.0 
68.0012197280707 0.0561926266146433 10.775736651733268 26.0 0.0 0.0 17.0 
69.00155574104733 0.15037861253018464 39.34452256794896 26.0 0.0 0.0 17.0 
70.00089849484982 0.15037861253018464 39.34452256794896 25.0 0.0 0.0 17.0 
71.000851966772 0.1975543019495022 39.62356460691473 24.0 0.0 0.0 17.0 
72.0001680796734 0.09183284606818137 37.664976286266324 25.0 0.0 0.0 17.0 
73.00044265008736 0.008887712606953622 4.094430230044509 24.0 0.0 0.0 17.0 
74.00155574104733 0.0901552315005193 32.40027373860167 24.0 0.003337046755104892 1.6685233775524466 17.0 
75.00089849484982 0.0901552315005193 32.40027373860167 23.0 0.003337046755104892 1.6685233775524466 16.0 
76.000458412839 0.14136357476811806 37.664976286266324 25.0 0.003337046755104892 1.6685233775524466 16.0 
77.00074730059497 0.14081458252624574 33.01681109779304 26.0 0.003337046755104892 1.6685233775524466 16.0 
78.00335092255258 0.11311980953905462 33.01681109779304 25.0 0.0 0.0 16.0 
79.00155574104733 0.013323556187086583 4.681442774204868 27.0 0.0 0.0 16.0 
80.00089849484982 0.025377574907364177 12.68878745368201 26.0 0.0 0.0 15.0 
81.00002333175163 0.0 0.0 25.0 0.0 0.0 15.0 
82.00073267814938 0.07129344920747964 27.666000712705113 25.0 0.0 0.0 15.0 
83.00173152651855 0.11874302097014178 27.666000712705113 24.0 0.0 0.0 16.0 
84.00095099165033 0.07129344920747964 27.666000712705113 24.0 0.0 0.0 16.0 
85.00089849484982 0.07129344920747964 27.666000712705113 24.0 0.0 0.0 16.0 
86.00264998195011 0.08603787344296408 27.666000712705113 25.0 0.0 0.0 16.0 
87.00043428694998 0.13080870167521635 42.57316106774226 24.0 0.0 0.0 17.0 
88.00164717190512 0.13080870167521635 42.57316106774226 27.0 0.0 0.0 18.0 
89.00155574104733 0.08917099683189601 42.57316106774226 26.0 0.0 0.0 17.0 
90.00089849484982 0.0040246746964116235 2.0123373482058184 25.0 0.0 0.0 17.0 
91.00054278557921 0.009698700643995653 2.837012973792014 25.0 0.0 0.0 17.0 
92.0006829413315 0.0501856500427729 14.139593434000886 26.0 0.0 0.0 18.0 
93.0038859852189 0.007724484012721293 3.862242006360674 26.0 0.0 0.0 18.0 
94.00155574104733 0.04431653179376848 11.807658354602268 26.0 0.0 0.0 17.0 
95.00089849484982 0.05128684471250772 11.807658354602268 26.0 0.0 0.0 17.0 
96.0002961878545 0.0 0.0 25.0 0.0 0.0 18.0 
97.00074730059497 0.007300313459879781 3.65015672993988 25.0 0.0 0.0 18.0 
98.00088465415553 0.0 0.0 23.0 0.0 0.0 18.0 
99.0004114924546 0.0 0.0 22.0 0.0 0.0 18.0 
100.00089849484982 0.0 0.0 23.0 0.0 0.0 18.0 
101.0018241074771 0.0 0.0 23.0 0.0 0.0 18.0 
102.00074730059497 0.0 0.0 23.0 0.0 0.0 18.0 
103.00033393772404 0.0 0.0 23.0 0.0 0.0 18.0 
104.00029865357837 0.0 0.0 26.0 0.0 0.0 18.0 
105.00036225566566 0.0 0.0 25.0 0.0 0.0 19.0 
106.00118034911793 0.0 0.0 23.0 0.0 0.0 18.0 
107.00074730059497 0.0 0.0 23.0 0.0 0.0 18.0 
108.00119115950037 0.0 0.0 22.0 0.0 0.0 18.0 
109.00114299051455 0.0 0.0 22.0 0.0 0.0 18.0 
110.0003976388738 0.0 0.0 22.0 0.0 0.0 19.0 
111.00086255340618 0.0 0.0 22.0 0.0 0.0 19.0 
112.00074730059497 0.0 0.0 23.0 0.0 0.0 19.0 
113.0013091642578 0.0037896822089937446 1.8948411044968623 23.0 0.0 0.0 19.0 
114.00155574104733 0.0 0.0 24.0 0.0 0.0 19.0 
115.00089849484982 0.0 0.0 27.0 0.0 0.0 19.0 
116.00332797973917 0.0 0.0 28.0 0.0 0.0 19.0 
117.00033227701613 0.0 0.0 27.0 0.0 0.0 20.0 
118.0000528795149 0.0 0.0 26.0 0.0 0.0 20.0 
119.00155574104733 0.0 0.0 26.0 0.0 0.0 19.0 
120.00089849484982 0.0 0.0 27.0 0.0 0.0 20.0 
121.00049134104992 0.0 0.0 26.0 0.0 0.0 20.0 
122.00074730059497 0.0 0.0 26.0 0.0 0.0 20.0 
123.00484748430115 0.0 0.0 25.0 0.0 0.0 20.0 
124.00134785222451 0.0 0.0 25.0 0.0 0.0 20.0 
125.00089849484982 0.0 0.0 25.0 0.0 0.0 20.0 
126.0029916343313 0.0 0.0 25.0 0.0 0.0 20.0 
127.00074730059497 0.0 0.0 25.0 0.0 0.0 20.0 
128.00229740754506 0.0 0.0 25.0 0.0 0.0 20.0 
129.000630269603 0.0 0.0 25.0 0.0 0.0 20.0 
130.00089849484982 0.0 0.0 25.0 0.0 0.0 20.0 
131.00478300503693 0.0 0.0 25.0 0.0 0.0 20.0 
132.00074730059498 0.0 0.0 25.0 0.0 0.0 20.0 
133.00290875071767 0.0 0.0 25.0 0.0 0.0 20.0 
134.00038716938275 0.0 0.0 24.0 0.0 0.0 20.0 
135.000589148699 0.0 0.0 24.0 0.0 0.0 20.0 
136.00155114949408 0.0 0.0 25.0 0.0 0.0 20.0 
137.00074730059498 0.0 0.0 25.0 0.0 0.0 20.0 
138.00302110274046 0.0 0.0 25.0 0.0 0.0 20.0 
139.00155574104733 0.0 0.0 25.0 0.0 0.0 20.0 
140.00089849484982 0.0 0.0 25.0 0.0 0.0 20.0 
141.00111105766516 0.0 0.0 25.0 0.0 0.0 20.0 
142.00074730059498 0.0 0.0 25.0 0.0 0.0 20.0 
143.00004449967707 0.0 0.0 25.0 0.0 0.0 20.0 
144.00155574104733 0.0 0.0 25.0 0.0 0.0 20.0 
145.00089849484982 0.0 0.0 25.0 0.0 0.0 19.0 
146.00252236873214 0.0 0.0 25.0 0.0 0.0 19.0 
147.00074730059498 0.0 0.0 25.0 0.0 0.0 18.0 
148.00010337824614 0.0 0.0 25.0 0.0 0.0 18.0 
149.000439181576 0.0 0.0 25.0 0.0 0.0 18.0 
150.00089849484982 0.0 0.0 25.0 0.0 0.0 18.0 
151.0019089780398 0.0 0.0 25.0 0.0 0.0 18.0 
152.00074730059498 0.0 0.0 25.0 0.0 0.0 18.0 
153.0000091582697 0.0 0.0 25.0 0.0 0.0 18.0 
154.00043670503368 0.0 0.0 25.0 0.0 0.0 18.0 
155.00000955610938 0.0 0.0 25.0 0.0 0.0 19.0 
156.00157452036385 0.0 0.0 25.0 0.0 0.0 19.0 
157.00074730059498 0.0 0.0 24.0 0.0 0.0 19.0 
158.001960806745 0.0 0.0 25.0 0.0 0.0 19.0 
159.00155574104733 0.0 0.0 24.0 0.0 0.0 18.0 
160.00089849484982 0.0 0.0 24.0 0.0 0.0 18.0 
161.00091586509046 0.0 0.0 23.0 0.0 0.0 18.0 
162.00074730059498 0.0 0.0 24.0 0.0 0.0 19.0 
163.0027154399609 0.0 0.0 22.0 0.0 0.0 19.0 
164.00155574104733 0.0 0.0 22.0 0.0 0.0 19.0 
165.00089849484982 0.0 0.0 22.0 0.0 0.0 19.0 
166.0029449807619 0.0 0.0 22.0 0.0 0.0 19.0 
167.00054363218413 0.0 0.0 23.0 0.0 0.0 19.0 
168.00183228464488 0.0 0.0 23.0 0.0 0.0 19.0 
169.00155574104733 0.011159682746284337 5.579841373142187 24.0 0.0 0.0 19.0 
170.0000237429536 0.0 0.0 24.0 0.0 0.0 19.0 
171.00067394815846 0.0 0.0 23.0 0.0 0.0 19.0 
172.00074730059498 0.0 0.0 23.0 0.0 0.0 19.0 
173.00234677836826 0.0415134780506549 10.593754421644547 22.0 0.0 0.0 20.0 
174.00155574104733 0.0415134780506549 10.593754421644547 22.0 0.0 0.0 19.0 
175.00089849484982 0.050098793711697245 10.593754421644547 22.0 0.0 0.0 20.0 
176.00150341545313 0.01443768973355945 7.218844866779733 22.0 0.0 0.0 20.0 
177.00074730059498 0.03451449921190299 10.038404739171852 22.0 0.0 0.0 21.0 
178.0048536890442 0.022599145425277738 7.218844866779733 22.0 0.0 0.0 20.0 
179.00155574104733 0.022599145425277738 7.218844866779733 22.0 2.745323792177591E-4 0.13726618960888004 22.0 
180.00014456129793 0.047076862481611394 19.457703394946634 22.0 0.0 0.0 23.0 
181.00037176736836 0.021740902215862414 10.870451107931189 21.0 0.0 0.0 22.0 
182.00074730059498 0.010149037616679894 5.074518808339917 21.0 0.0 0.0 21.0 
183.00016637280356 0.010149037616679894 5.074518808339917 21.0 0.0 0.0 21.0 
184.00143020991555 0.010149037616679894 5.074518808339917 20.0 0.0 0.0 21.0 
185.00010532044155 0.01701653191943036 5.074518808339917 20.0 0.0 0.0 21.0 
186.00114702902596 0.015861063651095124 7.930531825547575 20.0 0.0 0.0 21.0 
187.00066842657347 0.02084216558894183 7.639426337981774 19.0 0.0 0.0 21.0 
188.0010040887231 0.02084216558894183 7.639426337981774 19.0 0.0 0.0 21.0 
189.00155574104733 0.01995945314962381 7.639426337981774 19.0 0.0 0.0 21.0 
190.00013909099732 0.01995945314962381 7.639426337981774 19.0 0.0 0.0 21.0 
191.00145519912982 0.025009582104328278 10.164490815334005 19.0 0.0 0.0 21.0 
192.00015381113187 0.05360873849453387 15.633523099372667 19.0 0.0 0.0 20.0 
193.00032126227438 0.043563026134185306 15.633523099372667 19.0 0.0 0.0 20.0 
194.00155574104733 0.03738483116982521 15.633523099372667 19.0 0.0 0.0 20.0 
195.00001713687655 0.09503979167047315 28.827480250323873 19.0 0.0 0.0 20.0 
196.00000671687224 0.12074791292732934 31.18303874505861 20.0 0.0 0.0 20.0 
197.00074730059498 0.11067067333307627 31.18303874505861 20.0 0.0 0.0 19.0 
198.00018597048674 0.11067067333307627 31.18303874505861 20.0 0.0 0.0 19.0 
199.00155574104733 0.11067067333307627 31.18303874505861 20.0 0.0 0.0 19.0 
200.00089849484982 0.09962317288713342 25.659288522087223 20.0 0.0 0.0 19.0 
201.00014033924865 0.1206612941345166 30.495879456999575 20.0 0.0 0.0 19.0 
202.00074730059498 0.06431327834600123 32.156639173000855 20.0 0.0 0.0 19.0 
203.00195845394273 0.14656361062369294 41.125166138845856 20.0 0.0 0.0 19.0 
204.0002221504139 0.1621198186339384 41.125166138845856 20.0 0.0 0.0 19.0 
205.00089849484982 0.13553374079340633 41.125166138845856 20.0 0.0 0.0 20.0 
206.00001172634336 0.21556592896378213 48.10534206992628 20.0 0.0 0.0 20.0 
207.00074730059498 0.2184002188561548 48.10534206992628 20.0 0.0 0.0 20.0 
208.00022679463217 0.26350451772536554 48.10534206992628 20.0 0.0 0.0 20.0 
209.00141609998278 0.27365953483563604 42.32155194018256 20.0 0.0 0.0 19.0 
210.00089849484982 0.21800080357762355 42.32155194018256 20.0 0.0 0.0 19.0 
211.00010204360743 0.4065118216303531 42.32155194018256 20.0 0.0 0.0 19.0 
212.00074730059498 0.4581344769059667 49.25929832230344 20.0 0.0 0.0 19.0 
213.0009728808867 0.30528545939829876 49.25929832230344 20.0 0.0 0.0 19.0 
214.00155574104733 0.3997382195370696 68.65069791902027 21.0 0.0 0.0 19.0 
215.00089849484982 0.3888854494801588 68.65069791902027 21.0 0.0 0.0 18.0 
216.00080305595986 0.4683053351960101 75.68857228600035 21.0 0.0 0.0 18.0 
217.00074730059498 0.4794478156477487 75.68857228600035 21.0 0.0 0.0 18.0 
218.00146182399791 0.3307310008201664 50.48637840212146 21.0 0.0 0.0 18.0 
219.0007428742569 0.4627522060156389 75.68857228600035 21.0 0.0 0.0 18.0 
220.00089849484982 0.4645096577157019 69.59766191986347 21.0 0.0 0.0 18.0 
221.0002668497902 0.5643575333461363 76.72213481304954 21.0 0.0 0.0 17.0 
222.00074730059498 0.6132921794880638 76.72213481304954 21.0 0.0 0.0 17.0 
223.00097759999585 0.7270216711624765 76.72213481304954 21.0 0.0 0.0 17.0 
224.00008391769518 0.6657590410018348 76.72213481304954 21.0 0.0 0.0 17.0 
225.00089849484982 0.6963230266828989 70.71799865357877 21.0 0.0 0.0 17.0 
226.0052312339099 0.9608238948865906 77.82508251480925 21.0 0.0 0.0 17.0 
227.00074730059498 1.3626438352799277 79.37919419804888 21.0 0.0 0.0 17.0 
228.0037885619901 1.2696882829144593 77.82508251480925 21.0 0.0 0.0 17.0 
229.00121819973862 1.4844658276969702 79.37919419804888 21.0 0.0 0.0 17.0 
230.000723097033 1.527084866091693 79.37919419804888 21.0 0.0 0.0 17.0 
231.0051944417408 1.8445084365691364 79.37919419804888 21.0 0.0 0.0 17.0 
232.00074730059498 2.049036331094964 80.83715500321728 21.0 0.0 0.0 17.0 
233.0031613244306 2.2909540342515524 80.83715500321728 21.0 0.0 0.0 17.0 
234.00004187220554 2.226164004023072 80.83715500321728 20.0 0.0 0.0 17.0 
235.00089849484982 2.262558449431587 80.83715500321728 20.0 0.0 0.0 17.0 
236.00221028151276 2.65950490722956 82.47438597369825 20.0 4.599017468098078E-4 0.22995087340490272 17.0 
237.00074730059498 2.806400100998343 82.47438597369825 20.0 0.005382370762879458 2.6911853814397375 17.0 
238.00157735931808 2.697592970484257 86.21077226722036 21.0 0.0 0.0 17.0 
239.00155574104733 2.098958346048002 86.21077226722036 20.0 0.0 0.0 18.0 
240.00067754138638 2.0250149958194683 86.21077226722036 20.0 0.0 0.0 18.0 
241.00183497359308 2.2407160013228298 89.40497042101822 20.0 0.0 0.0 18.0 
242.00033525581577 2.3621756037880903 93.36242150979257 20.0 0.0 0.0 19.0 
243.00197283489058 2.3207218683574555 93.36242150979257 21.0 0.0 0.0 20.0 
244.000123133049 2.3427759732912445 99.56303438922237 22.0 0.0 0.0 19.0 
245.00089849484982 2.3846103773095373 99.56303438922237 23.0 0.0 0.0 20.0 
246.00005006415176 2.3411907935502785 106.62970885713696 23.0 0.0 0.0 21.0 
247.00004312408262 2.4031293887018106 106.62970885713696 23.0 0.0 0.0 21.0 
248.000326900101 2.3096091378396375 112.9679121431302 23.0 0.0 0.0 21.0 
249.00155574104733 2.3746727066686417 112.9679121431302 23.0 0.0 0.0 21.0 
250.00089849484982 2.39637967230954 112.9679121431302 23.0 0.0 0.0 21.0 
251.00077049881494 2.705172757059941 115.2903853688498 22.0 0.0 0.0 21.0 
252.000096876934 2.8465034790883323 115.2903853688498 21.0 0.0 0.0 22.0 
253.00241669411264 2.959200752527926 115.2903853688498 21.0 0.0 0.0 23.0 
254.0013675291194 2.7707176800890805 121.69900720236996 20.0 0.0 0.0 21.0 
255.00037959596241 2.573682998725634 121.69900720236996 21.0 0.0 0.0 23.0 
256.0009161155673 2.6440623658396856 121.69900720236996 21.0 0.0 0.0 23.0 
257.00067759043344 2.602294887258507 118.5272062396599 21.0 0.0 0.0 23.0 
258.0077213846982 2.243600771971572 72.94551211919196 21.0 0.0 0.0 23.0 
259.00155574104735 2.2116838523816003 72.94551211919196 21.0 0.0 0.0 25.0 
260.0008984948498 2.00018805216508 72.94551211919196 20.0 0.0 0.0 23.0 
261.00169909956014 2.007503444258624 65.1475433575012 19.0 0.0 0.0 22.0 
262.00068992182844 2.134215517634793 65.1475433575012 20.0 0.0 0.0 23.0 
263.0033896405344 1.7870606868509695 71.27985380330125 20.0 0.0 0.0 22.0 
264.00155574104735 1.9291135774422832 71.27985380330125 20.0 0.0 0.0 23.0 
265.0008984948498 2.0122516110871467 71.27985380330125 20.0 0.0 0.0 23.0 
266.0052312339099 2.27319460869658 73.17786828333311 19.0 0.0 0.0 23.0 
267.000747300595 2.0879309146280534 73.17786828333311 20.0 0.0 0.0 23.0 
268.00123806664374 2.2414682461551734 79.45269587536228 19.0 0.0 0.0 23.0 
269.00155574104735 2.0255203692044303 79.45269587536228 19.0 0.0 0.0 24.0 
270.00079762890357 2.0254625069953054 79.45269587536228 19.0 0.0 0.0 24.0 
271.0002419665949 1.9040769095432681 86.68923489599462 19.0 0.0 0.0 24.0 
272.000747300595 2.095699588875551 86.68923489599462 18.0 0.0 0.0 24.0 
273.0002902063616 2.1947952606685455 91.96318266450038 18.0 0.0 0.0 23.0 
274.0000199892593 2.0815801555074627 91.96318266450038 18.0 0.0 0.0 23.0 
275.0008984948498 2.0198596851208697 91.96318266450038 18.0 0.0 0.0 23.0 
276.0052312339099 2.336182740944645 98.66037302554884 18.0 0.0 0.0 23.0 
277.000747300595 2.361357177753997 99.14961121015529 18.0 0.0 0.0 23.0 
278.0067146013634 2.4635134008235906 103.65587845980008 18.0 0.0 0.0 21.0 
279.00136384864703 2.3283688690399993 103.65587845980008 18.0 0.0 0.0 21.0 
280.0008984948498 2.422192386814904 103.65587845980008 19.0 0.0 0.0 22.0 
281.0027579002528 2.853943492643335 110.8680589675825 19.0 0.0 0.0 22.0 
282.000747300595 3.095542197746337 110.8680589675825 19.0 0.0 0.0 22.0 
283.0046174940811 3.0070674672167623 115.3775018664835 19.0 0.0 0.0 22.0 
284.00155574104735 3.072141878763044 115.3775018664835 19.0 0.0 0.0 22.0 
285.0008984948498 2.765689343502961 115.3775018664835 19.0 0.0 0.0 22.0 
286.0015262886747 3.2489091732277973 122.19318866057216 19.0 0.0 0.0 22.0 
287.000747300595 2.857894438761397 72.63294945059152 19.0 0.0 0.0 22.0 
288.00175879383954 3.155824567767185 127.2581523951938 18.0 0.0 0.0 22.0 
289.0002427704446 3.2678194337361295 126.82331874822887 18.0 0.0 0.0 22.0 
290.0008984948498 2.7636291234933896 95.93605924326874 18.0 0.0 0.0 21.0 
291.0009963535024 3.4246206690212557 102.55247060357169 18.0 0.0 0.0 21.0 
292.000747300595 3.2104409940540837 67.8133845813598 18.0 0.0 0.0 21.0 
293.0005178450382 3.1835122230838437 68.40482657218013 18.0 0.0 0.0 21.0 
294.00155574104735 3.380429132159002 69.43756143130423 18.0 0.0 0.0 22.0 
295.0008984948498 3.183243974531519 64.21428358960708 18.0 0.0 0.0 22.0 
296.0006927948801 4.084689992151006 113.1479351091254 18.0 0.0 0.0 23.0 
297.000747300595 3.805605903320361 68.89261891029139 18.0 0.0 0.0 22.0 
298.00033003145523 3.9333632248168553 69.87541784445312 18.0 0.0 0.0 22.0 
299.0009690022127 4.17728848035214 70.98123932724184 18.0 0.0 0.0 22.0 
300.000059230662 4.397850840324151 70.98123932724184 18.0 0.0 0.0 22.0 
301.00168512951416 4.440317520300488 77.33105431162795 18.0 0.0 0.0 22.0 
302.0007315699414 4.660196249174776 77.33105431162795 18.0 0.0 0.0 22.0 
303.00052442483417 4.696538576741104 78.00174479409566 18.0 0.0 0.0 22.0 
304.0008694310806 4.710684382534232 78.00174479409566 18.0 0.0 0.0 22.0 
305.0000427183648 5.102379436387429 83.878605097319 18.0 0.0 0.0 22.0 
306.0035046152227 5.327388841653111 86.20775562510238 18.0 0.0 0.0 21.0 
307.000747300595 5.4004291621770095 86.20775562510238 18.0 0.0 0.0 19.0 
308.00501399680854 5.6778040338609985 86.20775562510238 18.0 0.0 0.0 19.0 
309.00155574104735 5.834447693809418 86.20775562510238 18.0 0.0 0.0 19.0 
310.0008984948498 5.996441643683535 87.5780861144766 18.0 0.0 0.0 19.0 
311.00312130710296 5.723397523346943 88.01646182242229 18.0 0.0 0.0 19.0 
312.000747300595 5.809454999016198 88.01646182242229 18.0 0.0 0.0 19.0 
313.001969663429 5.84179999359343 88.57542361454188 17.0 0.0 0.0 19.0 
314.00155574104735 5.72292981942626 93.89345011306233 17.0 0.0 0.0 18.0 
315.0000159052942 5.778305760492093 106.08719074526454 18.0 0.0 0.0 20.0 
316.00310709575103 5.95706450670464 116.78726039951823 18.0 0.0 0.0 19.0 
317.000747300595 5.953489971109172 116.78726039951823 20.0 0.0 0.0 19.0 
318.0026785077192 5.974852572999178 142.5320756460311 21.0 0.0 0.0 19.0 
319.00126507616545 6.171215703202404 142.5320756460311 20.0 0.0 0.0 19.0 
320.0008984948498 6.083508680083057 121.9446818309766 19.0 0.0 0.0 19.0 
321.00108759488535 5.990641622954353 128.1601030745315 19.0 0.0 0.0 18.0 
322.000747300595 6.2580553849784994 128.1601030745315 18.0 0.0 0.0 18.0 
323.0020230641104 6.1351967946901205 133.68545759258592 18.0 0.0 0.0 18.0 
324.00021880828723 5.8431864904022515 133.68545759258592 18.0 0.0 0.0 18.0 
325.0002130971866 6.035522648439527 133.68545759258592 18.0 0.0 0.0 18.0 
326.0052312339099 5.175166162098383 126.65265901537725 18.0 0.0 0.0 18.0 
327.0004050588167 5.517790726013192 139.88817600257926 18.0 0.0 0.0 17.0 
328.0000352506427 4.929985478005037 126.65265901537725 18.0 0.0 0.0 18.0 
329.0003110904606 4.669522514293612 121.47628105228671 18.0 0.0 0.0 17.0 
330.0008984948498 4.483258734668614 139.81829949699517 18.0 0.0 0.0 17.0 
331.0052312339099 3.8044544618058778 112.81404381082604 18.0 0.0 0.0 17.0 
332.00051187243514 3.4396335166073073 125.29528283672306 18.0 0.0 0.0 17.0 
333.0021233973548 3.0573366576910694 132.29427023122668 17.0 0.0 0.0 17.0 
334.00155574104735 2.7209358726607404 93.11257954172521 18.0 0.0 0.0 17.0 
335.0008984948498 2.5134963111024953 124.50522791754452 17.0 0.0 0.0 16.0 
336.00169449242196 1.346173972509809 121.85953004667107 18.0 0.0 0.0 16.0 
337.000747300595 1.0378607437262035 90.05033450811294 18.0 0.0 0.0 16.0 
338.0025326732278 1.011203884315202 96.86699332882148 18.0 0.0 0.0 17.0 
339.00155574104735 1.1921261564377148 124.83593859504992 18.0 0.0 0.0 17.0 
340.0008984948498 1.2005090200368953 124.83593859504992 18.0 0.0 0.0 17.0 
341.0001861227803 1.1295817160877466 125.43940503391616 18.0 0.0 0.0 17.0 
342.000747300595 1.380358202645804 125.43940503391616 18.0 0.0 0.0 17.0 
343.0032622028943 1.442782936641601 125.43940503391616 18.0 0.0 0.0 18.0 
344.0005255022508 1.4572530768485963 125.43940503391616 18.0 0.0 0.0 18.0 
345.0005615412266 1.5371982018777914 124.8688363391816 19.0 0.0 0.0 18.0 
346.0019817369227 1.5714164875391399 124.8688363391816 19.0 0.0 0.0 18.0 
347.00010073788224 1.5403510580281823 122.26246944157816 19.0 0.0 0.0 18.0 
348.00566707731963 1.4575261784678828 120.29204343889688 18.0 0.0 0.0 18.0 
349.00155574104735 1.2755356457017892 120.29204343889688 18.0 0.0 0.0 18.0 
350.0008984948498 1.4985401368345852 125.00141988661085 18.0 0.0 0.0 18.0 
351.00073683814566 1.5478187431979138 122.39540423520816 18.0 0.0 0.0 18.0 
352.000747300595 0.8406900277252675 89.12564245659456 17.0 0.0 0.0 16.0 
353.0096249660793 1.9295353666534232 139.4357034653517 17.0 0.0 0.0 16.0 
354.0000155653422 0.9585292808656408 82.15444624643408 18.0 0.0 0.0 16.0 
355.0008984948498 1.3420140466546553 123.11477739641441 17.0 0.0 0.0 16.0 
356.00233157198755 0.824734724405668 124.3186060626274 19.0 0.0 0.0 18.0 
357.000747300595 0.5122298587979869 79.8303544227436 18.0 0.0 0.0 18.0 
358.0001627351634 0.2586445996624762 23.84858103012101 18.0 0.0 0.0 18.0 
359.00009640595556 0.2779212250706324 30.90795675868523 18.0 0.0 0.0 18.0 
360.0008984948498 0.3231816795061864 30.90795675868523 18.0 0.0 0.0 18.0 
361.00070279839275 0.2274634305328391 22.16491505106984 18.0 0.0 0.0 18.0 
362.00005855538313 0.24772499044643742 22.16491505106984 18.0 0.0 0.0 19.0 
363.00009799587644 0.16526455258279973 22.16491505106984 19.0 0.0 0.0 20.0 
364.0001435284119 0.2528198662496977 29.45455190132094 18.0 0.0 0.0 19.0 
365.000257902913 0.1645496631090144 29.45455190132094 18.0 0.0 0.0 19.0 
366.00067837833143 0.23654351493382433 36.89344545716253 18.0 0.0 0.0 19.0 
367.000747300595 0.2514939898657414 36.89344545716253 18.0 0.0 0.0 19.0 
368.0008638489767 0.3335422049714773 44.196918648522114 16.0 0.0 0.0 18.0 
369.00155574104735 0.3596426474901802 44.306613899273685 15.0 0.0 0.0 18.0 
370.0008984948498 0.2866683982996133 36.83035379804184 15.0 0.0 0.0 18.0 
371.0009171267747 0.37728410322267447 44.306613899273685 15.0 0.0 0.0 18.0 
372.0002021614257 0.3820442109746826 39.96263871700799 15.0 0.004378262003920184 2.189131001960078 18.0 
373.00204188844566 0.41466203465777024 47.24877122175556 15.0 0.004378262003920184 2.189131001960078 18.0 
374.00155574104735 0.4444288046495449 47.24877122175556 15.0 0.004378262003920184 2.189131001960078 20.0 
375.0008984948498 0.4329366486144666 47.24877122175556 15.0 0.0 0.0 20.0 
376.00172633301503 0.3165920374239078 47.24877122175556 15.0 0.0 0.0 20.0 
377.000747300595 0.341856873184935 43.0621912152464 16.0 0.0 0.0 20.0 
378.000933403099 0.3148880324845039 43.0621912152464 16.0 0.0 0.0 22.0 
379.00155574104735 0.39002590170067936 50.33509028534402 16.0 0.0 0.0 22.0 
380.0003314347129 0.41599868010887325 53.163517668650826 16.0 0.0 0.0 21.0 
381.00158047914283 0.43765813890622374 53.163517668650826 16.0 0.0 0.0 19.0 
382.000747300595 0.42055486638640527 53.163517668650826 16.0 0.0 0.0 19.0 
383.0028430161142 0.48343991776168244 60.41696602838647 16.0 0.0 0.0 19.0 
384.0014341487079 0.5108364288078883 60.41696602838647 16.0 0.0 0.0 18.0 
385.0008984948498 0.3867607538326209 58.44542698518018 16.0 0.0 0.0 18.0 
386.00437724686145 0.417622016002995 58.44542698518018 16.0 0.0 0.0 18.0 
387.00022312678544 0.5511971686031655 64.54093155465301 16.0 0.0 0.0 18.0 
388.0014341168703 0.5852745152379689 65.2657957890683 16.0 0.0 0.0 18.0 
389.00155574104735 0.4687275304201648 69.25695141998352 16.0 0.0 0.0 18.0 
390.00042813436045 0.5065370579100056 71.76287292227494 17.0 0.0 0.0 18.0 
391.0019806395563 0.2622120993134355 69.25695141998352 17.0 0.0 0.0 18.0 
392.000747300595 0.13307539904592847 22.291142326219585 17.0 0.0 0.0 17.0 
393.0005217719135 0.13008092203183083 8.98038650103274 17.0 0.0 0.0 17.0 
394.0011087530653 0.15446375635120793 13.217979739446662 17.0 0.0 0.0 17.0 
395.000086240024 0.13051892159269887 10.603142644242524 17.0 0.0 0.0 17.0 
396.0033120786558 0.08200004618574547 9.57332898264292 17.0 0.0 0.0 17.0 
397.0002146964261 0.07694568144023822 7.821160716460668 17.0 0.0 0.0 17.0 
398.00161870773996 0.11097490493071914 15.15163721742232 17.0 0.0 0.0 18.0 
399.00136304874263 0.14089563205307887 15.023197128193118 17.0 0.0 0.0 18.0 
400.0008984948498 0.13826625602051965 13.600101909607474 17.0 0.0 0.0 18.0 
401.0052312339099 0.058714216807110364 13.600101909607474 17.0 0.0 0.0 18.0 
402.000747300595 0.07540703144384256 13.600101909607474 17.0 0.0 0.0 18.0 
403.00136288891963 0.12663430831895758 20.94151584519335 17.0 0.0 0.0 18.0 
404.00155574104735 0.15361316050821594 20.94151584519335 17.0 0.0 0.0 18.0 
405.0008984948498 0.16889705865638607 15.705748855061046 17.0 0.0 0.0 18.0 
406.0018070463249 0.1360817185054255 17.11245315178158 17.0 0.0 0.0 18.0 
407.000747300595 0.12381060849941909 22.55000005108272 17.0 0.0 0.0 17.0 
408.0014469642962 0.13339674419219394 18.352010504288756 17.0 0.0 0.0 17.0 
409.00053418180323 0.11059547828636465 18.352010504288756 17.0 0.0 0.0 17.0 
410.00040405545496 0.09382731062627259 15.443820956712841 17.0 0.0 0.0 17.0 
411.0001159830492 0.09755156507399766 15.443820956712841 17.0 0.0 0.0 17.0 
412.00069718188536 0.07433400287585881 15.443820956712841 18.0 0.0 0.0 17.0 
413.00210907856285 0.1295306686072154 22.724204590653073 18.0 0.0 0.0 17.0 
414.00155574104735 0.12898934968571152 18.39749897302201 17.0 0.0 0.0 17.0 
415.0005385065615 0.15919888071146218 18.39749897302201 17.0 0.0 0.0 17.0 
416.0023739443023 0.1435357827129712 14.808860111280637 18.0 0.0 0.0 17.0 
417.000747300595 0.12916478383593266 14.808860111280637 18.0 0.0 0.0 17.0 
418.0013010924046 0.15327975819340528 19.108694186598626 18.0 0.0 0.0 17.0 
419.0006004783426 0.2393693437303405 19.108694186598626 18.0 0.0 0.0 17.0 
420.0008984948498 0.2254056835672123 26.58314994595966 18.0 0.004199028407157048 2.099514203578508 18.0 
421.0052312339099 0.2506447335780328 26.58314994595966 19.0 0.0 0.0 18.0 
422.000747300595 0.2769508481238086 26.58314994595966 19.0 0.0 0.0 16.0 
423.0010932121465 0.28564766129290886 34.08458720492709 19.0 0.0 0.0 16.0 
424.00155574104735 0.2321536184978492 34.08458720492709 18.0 0.0 0.0 16.0 
425.0008984948498 0.22009951561742122 31.422588864444037 18.0 0.0 0.0 16.0 
426.00063816548436 0.14655602420225605 31.422588864444037 18.0 0.0 0.0 16.0 
427.000747300595 0.19291845957239767 31.422588864444037 18.0 0.0 0.0 16.0 
428.00059321885493 0.12843694890469104 38.93748226679202 17.0 0.0 0.0 16.0 
429.00015327694985 0.11988831062754964 33.223728567677654 17.0 0.0 0.0 16.0 
430.0008984948498 0.05344085349219402 19.71832828663554 16.0 0.0 0.0 15.0 
431.00000727381814 0.11172984666339213 29.14449658559883 16.0 0.0 0.0 15.0 
432.000747300595 0.04883748192552665 17.41664250330166 16.0 0.0 0.0 15.0 
433.001640828393 0.12107257808866626 20.569980204940094 16.0 0.0 0.0 15.0 
434.00058780224003 0.15063004428626553 24.9090906386501 16.0 0.0 0.0 15.0 
435.0008984948498 0.16171744588508033 24.9090906386501 17.0 0.0 0.0 15.0 
436.00055480349715 0.15851581798591782 24.9090906386501 17.0 0.0 0.0 15.0 
437.000747300595 0.1320161796006695 20.569980204940094 17.0 0.0 0.0 15.0 
438.00072896357347 0.06679318928756826 9.923386003335878 17.0 0.0 0.0 15.0 
439.00155574104735 0.12682456829857827 33.1087069436789 17.0 0.0 0.0 15.0 
440.0008984948498 0.09161716135031256 14.469991575932653 17.0 0.0 0.0 15.0 
441.0007356263525 0.0 0.0 17.0 0.0 0.0 15.0 
442.000747300595 0.0227445763361397 11.3722881680699 17.0 0.0 0.0 15.0 
443.00050265972754 0.023536027624022335 11.768013812011134 17.0 0.0 0.0 15.0 
444.00091320108663 0.0 0.0 17.0 0.0 0.0 15.0 
445.0001900538478 0.0 0.0 18.0 0.0 0.0 15.0 
446.00157900162066 0.0 0.0 18.0 0.0 0.0 14.0 
447.0006981787199 0.0 0.0 18.0 0.0 0.0 14.0 
448.00062325733313 0.0 0.0 19.0 0.0 0.0 14.0 
449.0002021132633 0.0 0.0 19.0 0.0 0.0 14.0 
450.0008984948498 0.0 0.0 19.0 0.0 0.0 14.0 
451.001605715981 0.0 0.0 19.0 0.0 0.0 14.0 
452.000747300595 0.0 0.0 19.0 0.0 0.0 14.0 
453.0036551277141 0.0 0.0 19.0 0.0 0.0 15.0 
454.00155574104735 0.0 0.0 18.0 0.0 0.0 15.0 
455.0008984948498 0.0 0.0 18.0 0.0 0.0 15.0 
456.0050671816771 0.0 0.0 17.0 0.0 0.0 15.0 
457.000747300595 0.0 0.0 17.0 0.0 0.0 16.0 
458.0000386926478 0.0 0.0 16.0 0.0 0.0 16.0 
459.0015289865332 0.0 0.0 16.0 0.0 0.0 14.0 
460.0008984948498 0.0 0.0 16.0 0.0 0.0 14.0 
461.0000861641309 0.0 0.0 18.0 0.0 0.0 16.0 
462.000747300595 0.0 0.0 18.0 0.0 0.0 15.0 
463.00092379243324 0.0 0.0 17.0 0.0 0.0 15.0 
464.00153945654336 0.0 0.0 17.0 0.0 0.0 15.0 
465.0008984948498 0.0 0.0 17.0 0.0 0.0 13.0 
466.0037789094036 0.0 0.0 17.0 0.0 0.0 13.0 
467.000747300595 0.0 0.0 17.0 0.0 0.0 13.0 
468.00016339828164 0.0 0.0 17.0 0.0 0.0 13.0 
469.00155574104735 0.0 0.0 17.0 0.0 0.0 13.0 
470.00041089207645 0.0 0.0 17.0 0.0 0.0 14.0 
471.0001518133347 0.0 0.0 17.0 0.0 0.0 14.0 
472.000747300595 0.0 0.0 18.0 0.0 0.0 15.0 
473.0000950382273 0.0 0.0 18.0 0.0 0.0 14.0 
474.0008286132849 0.0 0.0 18.0 0.0 0.0 14.0 
475.0008984948498 0.0 0.0 18.0 0.0 0.0 14.0 
476.003053092084 0.0 0.0 18.0 0.0 0.0 14.0 
477.000747300595 0.01173901899134273 5.8695094956713945 18.0 0.0 0.0 14.0 
478.0018653408857 0.014535608340076632 7.267804170038289 18.0 0.0 0.0 14.0 
479.0005533649787 0.014535608340076632 7.267804170038289 18.0 0.0 0.0 14.0 
480.0008984948498 0.014535608340076632 7.267804170038289 18.0 0.0 0.0 14.0 
481.0004010993158 0.014535608340076632 7.267804170038289 18.0 0.0 0.0 14.0 
482.0004927572107 0.0 0.0 17.0 0.0 0.0 14.0 
483.0006317022542 0.014761762557243673 7.3808812786218425 18.0 0.0 0.0 13.0 
484.0007761491744 0.014761762557243673 7.3808812786218425 18.0 0.0 0.0 13.0 
485.0008984948498 0.03436877900556926 9.602366267109346 18.0 0.008298315230396296 4.149157615198163 13.0 
486.00132750609873 0.01516404647135063 7.3808812786218425 18.0 0.02270808757785403 7.204886173728852 13.0 
487.000747300595 0.014127571908625215 6.209029058903013 18.0 0.0 0.0 14.0 
488.00397603471436 0.035212463416341454 13.608924382100696 18.0 0.0 0.0 14.0 
489.00155574104735 0.05691459408137367 13.608924382100696 18.0 0.0 0.0 14.0 
490.0008984948498 0.05691459408137367 13.608924382100696 18.0 0.0 0.0 14.0 
491.00007418883735 0.05392179574896503 7.445455611231438 18.0 0.0 0.0 14.0 
492.000382140422 0.09128989323649093 24.045282958493544 18.0 0.0 0.0 15.0 
493.0006449088555 0.14509461795093648 31.2536908199487 18.0 0.0 0.0 15.0 
494.00107336741456 0.16725008153998536 13.79589535734084 18.0 0.0 0.0 16.0 
495.00088114653613 0.14089280387318034 20.90898651805628 18.0 0.0 0.0 16.0 
496.0019123526459 0.15319616497933083 20.90898651805628 18.0 0.0 0.0 16.0 
497.000747300595 0.14594976656696243 20.90898651805628 18.0 0.0 0.0 16.0 
498.0008789043351 0.24558062828063987 37.60791423518029 18.0 0.0 0.0 16.0 
499.00000851073145 0.3156767337558106 37.60791423518029 18.0 0.0 0.0 16.0 
500.0008984948498 0.4327072177504964 48.829842645389874 18.0 0.0 0.0 16.0 
501.0011447801964 0.6981449125041079 93.61700586026467 18.0 0.0 0.0 16.0 
502.00045795935745 0.6226065441400211 93.61700586026467 18.0 0.0 0.0 16.0 
503.0020355240288 0.7415156534171703 93.61700586026467 18.0 0.0 0.0 16.0 
504.00155574104735 0.795689714685504 93.61700586026467 17.0 0.0 0.0 16.0 
505.00008277851134 0.7904990183065351 100.90493340719934 18.0 0.0 0.0 16.0 
506.00053071038695 0.7254395694350753 70.8693820830216 19.0 0.0 0.0 16.0 
507.000747300595 0.7709307043437493 78.28213224614797 19.0 0.0 0.0 16.0 
508.00206014301 0.8887425834915007 78.28213224614797 19.0 0.0 0.0 16.0 
509.00155574104735 0.8656054904041001 78.28213224614797 19.0 0.0 0.0 16.0 
510.0008984948498 0.9427218997168317 85.46174844775487 19.0 0.0 0.0 16.0 
511.0024792282146 1.074559194329469 85.46174844775487 19.0 0.0 0.0 16.0 
512.000747300595 0.8406434413191484 36.90778294180765 18.0 0.0 0.0 16.0 
513.0005763251613 0.901533243474992 36.90778294180765 17.0 0.0 0.0 16.0 
514.0007427401401 0.9289675340748509 36.90778294180765 18.0 0.0 0.0 16.0 
515.0001168284035 1.04142470392822 36.90778294180765 17.0 0.0 0.0 15.0 
516.001037778217 1.0614152261937382 44.05213175427801 17.0 0.0 0.0 15.0 
517.0005748712515 1.0609050951684027 39.878919965935836 17.0 0.0 0.0 16.0 
518.0039671083313 1.043606402887462 47.3414143551183 16.0 0.0 0.0 16.0 
519.0010328391651 0.9775904487309925 47.3414143551183 16.0 0.0 0.0 16.0 
520.0002309109484 1.1650196944348712 43.8206607559751 16.0 0.0 0.0 16.0 
521.0052312339099 1.1087890315220486 37.350555108313074 16.0 0.0 0.0 16.0 
522.000747300595 1.0794413746629514 44.87387583226496 16.0 0.0 0.0 15.0 
523.0012791622668 1.1195936870894982 52.274554653534295 16.0 0.0 0.0 15.0 
524.0012916174556 1.1165801886950493 52.274554653534295 16.0 0.016214536704652296 4.9323831488915175 14.0 
525.0001519093222 1.1823029659476079 52.274554653534295 16.0 0.016214536704652296 4.9323831488915175 14.0 
526.0015696596314 1.1447440308924741 52.274554653534295 16.0 0.016765375407247252 4.9323831488915175 14.0 
527.000747300595 1.35004132209545 54.40898101006431 16.0 0.0063497704068692885 3.1748852034346555 16.0 
528.00026513398 1.08944755093118 61.27313388464023 16.0 0.0 0.0 20.0 
529.0002135892332 1.0160408134607088 58.25941892992182 15.0 0.020019267625282076 6.582390912184053 20.0 
530.0008984948498 0.899615617333119 54.01859452211312 15.0 0.020019267625282076 6.582390912184053 18.0 
531.0011670960594 1.0406213586905266 60.53787852382385 15.0 0.006854485800913979 3.4272429004569744 18.0 
532.0002218589493 0.9545716009499314 61.44889050061079 15.0 0.006854485800913979 3.4272429004569744 17.0 
533.0018182794067 0.9793680973659334 61.44889050061079 15.0 0.024386200844898474 6.624605261805897 17.0 
534.0010005787798 0.7745649050750182 61.44889050061079 15.0 0.04624366211394035 13.040605192140049 16.0 
535.0008984948498 0.9296785131887395 61.44889050061079 15.0 0.04624366211394035 13.040605192140049 17.0 
536.0000548842058 0.7083551701878773 60.04216707928623 15.0 0.032994451590328835 13.040605192140049 16.0 
537.000747300595 0.5288272761169761 60.04216707928623 14.0 0.0 0.0 17.0 
538.0019101914085 0.37909379633728985 47.97910748144412 14.0 2.1100538256291717E-4 0.10550269128145828 17.0 
539.0015557410474 0.37909379633728985 47.97910748144412 14.0 0.0 0.0 16.0 
540.0001158553084 0.3159529566743095 47.97910748144412 14.0 0.0 0.0 17.0 
541.0010762507569 0.09367371840155073 46.83685920077542 14.0 0.0 0.0 16.0 
542.000747300595 0.0 0.0 16.0 0.0 0.0 16.0 
543.0012125309403 0.0 0.0 16.0 0.0 0.0 16.0 
544.0015557410474 0.0 0.0 16.0 0.0 0.0 15.0 
545.0008984948498 0.0 0.0 16.0 0.0 0.0 15.0 
546.0038191283745 0.0 0.0 16.0 0.0033274784769651536 1.6637392384825773 15.0 
547.000747300595 0.0 0.0 16.0 0.0033274784769651536 1.6637392384825773 15.0 
548.0004239649948 0.0 0.0 16.0 0.0033274784769651536 1.6637392384825773 15.0 
549.0013660857348 0.0 0.0 16.0 0.0033274784769651536 1.6637392384825773 15.0 
550.0008984948498 0.0 0.0 16.0 0.0 0.0 16.0 
551.0047075084145 0.0 0.0 16.0 0.0 0.0 16.0 
552.000747300595 0.0 0.0 17.0 1.1261133286507116E-4 0.05630566643253587 17.0 
553.0001603753482 0.0 0.0 17.0 1.1261133286507116E-4 0.05630566643253587 17.0 
554.0015557410474 0.0 0.0 17.0 1.1261133286507116E-4 0.05630566643253587 17.0 
555.0007009145467 0.0014489956300968183 0.7244978150484087 17.0 0.0 0.0 17.0 
556.001435821874 0.0 0.0 17.0 0.0 0.0 17.0 
557.000747300595 0.0 0.0 17.0 0.0 0.0 17.0 
558.0031235878275 0.0 0.0 17.0 0.010817187932692396 5.408593966346217 18.0 
559.0015557410474 0.0 0.0 17.0 0.010817187932692396 5.408593966346217 18.0 
560.0007449214546 0.010554895870216876 5.277447935108455 17.0 0.010817187932692396 5.408593966346217 18.0 
561.0017067094043 0.0024736129698309083 1.236806484915462 17.0 0.008679259125745117 4.339629562872574 18.0 
562.000747300595 0.013028508840047867 5.277447935108455 17.0 0.0 0.0 18.0 
563.0015999592665 0.0 0.0 17.0 0.023555298624940914 11.777649312470487 18.0 
564.0015557410474 0.0 0.0 17.0 0.0 0.0 18.0 
565.0008984948498 0.0 0.0 17.0 0.0 0.0 18.0 
566.0028602533806 0.004527617030055254 2.2638085150276197 17.0 0.0 0.0 18.0 
567.0000547729387 0.017551065069631805 7.349483740149168 18.0 0.0 0.0 17.0 
568.0002502207506 0.016318877111226895 8.159438555613434 18.0 0.0 0.0 18.0 
569.0014941589071 0.018041891134127817 8.159438555613434 19.0 0.0 0.0 18.0 
570.0008984948498 0.0258706764290923 10.666057819218281 19.0 0.0 0.0 17.0 
571.000708264614 0.03339918815358163 10.666057819218281 20.0 0.0 0.0 18.0 
572.0006158164496 0.07995768123326515 20.524530920814414 19.0 0.0 0.0 17.0 
573.0040556056008 0.09315576416471726 20.524530920814414 18.0 0.0 0.0 17.0 
574.0006375310334 0.15943139476144022 35.97296196617788 17.0 0.0 0.0 17.0 
575.0008984948498 0.09670716083214731 19.972247867220375 17.0 0.0 0.0 18.0 
576.0001279204371 0.1021451009548349 19.972247867220375 17.0 0.0 0.0 18.0 
577.000747300595 0.1786457571418181 31.631799466951662 17.0 0.0 0.0 16.0 
578.001032416442 0.18599568769168853 31.631799466951662 17.0 0.0 0.0 17.0 
579.0007568572366 0.17279497982996112 31.631799466951662 17.0 0.0 0.0 17.0 
580.0008122970188 0.22140262300385713 37.733574900028685 17.0 0.0 0.0 17.0 
581.0001260733787 0.3209491504714643 52.82277358936372 17.0 0.0 0.0 18.0 
582.0004060909461 0.3418412358680362 52.82277358936372 17.0 0.0 0.0 21.0 
583.0038140594659 0.4358999980489976 51.13353082289029 17.0 0.0 0.0 20.0 
584.0015557410474 0.42442843793594626 51.13353082289029 17.0 0.0 0.0 20.0 
585.0008984948498 0.6290454714441766 62.40596614366768 17.0 0.0 0.0 21.0 
586.0013456795164 0.6967175056810813 62.40596614366768 17.0 0.0 0.0 20.0 
587.0004247013419 0.6967851105494652 62.40596614366768 17.0 0.0 0.0 20.0 
588.0016960097913 0.7091511796212232 62.40596614366768 17.0 0.0 0.0 19.0 
589.0004366107869 0.5615875412068286 53.262068113773665 18.0 0.0 0.0 19.0 
590.0008984948498 0.7930380891189609 69.31719808243389 19.0 0.0 0.0 18.0 
591.0008019380978 0.8818093750827546 66.84385200406746 18.0 0.0 0.0 18.0 
592.000747300595 1.0058417397834682 66.84385200406746 20.0 0.0 0.0 18.0 
593.000407740046 1.0064956963084675 67.23122589299015 20.0 0.0 0.0 19.0 
594.0015557410474 0.8806504754119087 66.84385200406746 20.0 0.0 0.0 19.0 
595.0008984948498 1.0504698447214784 73.74603063001803 19.0 0.0 0.0 19.0 
596.0004548979964 1.0798507650328215 73.74603063001803 19.0 0.0 0.0 19.0 
597.0005864277857 1.2325131336656947 73.74603063001803 19.0 0.0 0.0 19.0 
598.0021135721831 1.1082220789009178 72.04889518411011 19.0 0.0 0.0 19.0 
599.0004455183296 1.2263398610960572 72.04889518411011 19.0 0.0 0.0 19.0 
600.0008984948498 1.6912170637926793 91.64736969478076 19.0 0.0 0.0 20.0 
#####################################################################
# End of data export. Simulation finished at: 2019-02-25T20:47+0000 #
#####################################################################
