#####################################################################
# Alchemist log file - simulation started at: 2019-02-25T20:44+0000 #
#####################################################################
# seed = 190.0
#
# The columns have the following meaning: 
# time distance-rep[Mean] distance-rep[Max] leader-rep[CountDistinct] distance-share[Mean] distance-share[Max] leader-share[CountDistinct] 
0.0 NaN NaN NaN NaN NaN NaN 
1.006639014600904 0.0 0.0 499.0 0.0 0.0 82.0 
2.005556885473968 0.0 0.0 103.0 0.0 0.0 75.0 
3.0000303135306443 0.0 0.0 89.0 0.0 0.0 62.0 
4.000420117371768 0.0 0.0 87.0 0.0 0.0 56.0 
5.000341275349277 0.0 0.0 82.0 0.0 0.0 50.0 
6.003981388322846 0.0 0.0 78.0 0.0 0.0 47.0 
7.000547126876176 0.0 0.0 74.0 0.0 0.0 45.0 
8.004616593124465 0.0 0.0 71.0 0.0 0.0 39.0 
9.002632036261874 0.0 0.0 67.0 0.0 0.0 38.0 
10.000341275349278 0.0 0.0 63.0 0.0 0.0 33.0 
11.000047619531374 0.0 0.0 63.0 0.012610007259996803 6.305003629998367 33.0 
12.002951334769074 0.0 0.0 63.0 0.012610007259996803 6.305003629998367 32.0 
13.00003496663103 0.0 0.0 57.0 0.012610007259996803 6.305003629998367 32.0 
14.002667375841364 0.0 0.0 60.0 0.012754124568562154 6.377062284281152 33.0 
15.000341275349278 0.0 0.0 56.0 0.012754124568562154 6.377062284281152 31.0 
16.00270596651142 0.0 0.0 53.0 0.01143277197782644 5.7163859889132596 30.0 
17.006675839206796 0.0 0.0 50.0 0.01143277197782644 5.7163859889132596 29.0 
18.00057648316839 0.0 0.0 49.0 0.0164251115117069 5.7163859889132596 29.0 
19.00016328961276 0.0 0.0 48.0 0.011790219636496109 5.7273229762757865 26.0 
20.000341275349278 0.0 0.0 47.0 0.036515509295477463 7.15838516446567 23.0 
21.000671107383614 0.0 0.0 48.0 0.036515509295477463 7.15838516446567 28.0 
22.00095387715493 0.0 0.0 48.0 0.025060863342926284 7.15838516446567 23.0 
23.003189417402766 0.0 0.0 47.0 0.01074409301399495 5.372046506997407 23.0 
24.006964792877838 0.0 0.0 46.0 0.029972547284651756 9.614227135328548 23.0 
25.000341275349278 0.0 0.0 47.0 0.008870827860880868 2.3303012479285314 23.0 
26.003938704891873 0.0 0.0 45.0 0.0 0.0 22.0 
27.000448940397145 0.0 0.0 44.0 0.032939838014128746 16.469919007064277 22.0 
28.00109254380561 0.0 0.0 42.0 0.032939838014128746 16.469919007064277 20.0 
29.00031031847364 0.0 0.0 42.0 0.006411868530494054 1.9126285074040936 21.0 
30.000341275349278 0.0 0.0 41.0 0.0038252570148081897 1.9126285074040936 21.0 
31.001232298367558 0.0 0.0 37.0 0.0 0.0 19.0 
32.00231582479474 0.0 0.0 39.0 0.0 0.0 19.0 
33.006086644922554 0.0 0.0 38.0 0.0 0.0 20.0 
34.00143667974121 0.02037013162287583 7.456505796524368 37.0 9.391292222334218E-4 0.46956461111670933 18.0 
35.0002022586119 0.01491301159304875 7.456505796524368 38.0 0.0 0.0 18.0 
36.00171247406555 0.0 0.0 35.0 0.0 0.0 17.0 
37.00166932599515 0.0 0.0 35.0 0.0 0.0 17.0 
38.00327188518118 0.0 0.0 33.0 0.0 0.0 17.0 
39.00017803302293 0.0 0.0 34.0 0.0 0.0 17.0 
40.00034127534928 0.0 0.0 32.0 0.0 0.0 17.0 
41.00250514062002 0.0 0.0 34.0 0.0 0.0 17.0 
42.00029341603169 0.0 0.0 32.0 0.0 0.0 17.0 
43.007441864221875 0.0 0.0 32.0 0.0 0.0 17.0 
44.0098611368671 0.0 0.0 34.0 0.0 0.0 17.0 
45.0000250575664 0.0 0.0 33.0 0.0 0.0 17.0 
46.00001994269714 0.0077558674641281565 3.3568618030867867 32.0 0.0 0.0 17.0 
47.0026147137249 0.0010421438579545598 0.5210719289772783 31.0 0.0 0.0 17.0 
48.00167211958807 0.016845334189890884 5.065805291858652 30.0 0.0 0.0 17.0 
49.001529383635685 0.0 0.0 31.0 0.0 0.0 17.0 
50.00034127534928 0.010131610583717343 5.065805291858652 30.0 0.0 0.0 17.0 
51.003060275697045 0.016009597025961525 5.065805291858652 31.0 0.0 0.0 17.0 
52.00200237763615 0.028647106808172954 11.384560182964435 29.0 0.0 0.0 17.0 
53.00024857374752 0.06497286674418606 15.986977026366901 33.0 0.0 0.0 18.0 
54.0004783653346 0.0482856212652804 15.986977026366901 33.0 0.0 0.0 18.0 
55.00034127534928 0.1240763676292307 16.964695331077536 33.0 0.0 0.0 18.0 
56.00094848356149 0.21676804630955793 22.269156203654404 31.0 0.0 0.0 17.0 
57.00138580516796 0.20903484264835673 22.269156203654404 31.0 0.0 0.0 17.0 
58.00060252997991 0.18280542843936815 26.92328687273138 31.0 0.0 0.0 17.0 
59.00370012791696 0.17095807549170766 26.92328687273138 29.0 0.0 0.0 17.0 
60.00034127534928 0.09801445644136025 26.92328687273138 28.0 0.0 0.0 17.0 
61.00439140779412 0.13698597235489923 33.17190676197947 28.0 0.0 0.0 17.0 
62.00004348614387 0.12919089341967477 33.17190676197947 27.0 0.0 0.0 17.0 
63.00008778328842 0.14722510193312166 37.94674904437696 27.0 0.0 0.0 17.0 
64.00225535878123 0.14722510193312166 37.94674904437696 27.0 0.0 0.0 17.0 
65.00034127534929 0.14722510193312166 37.94674904437696 27.0 0.0 0.0 18.0 
66.0012231164143 0.1804766707515399 37.94674904437696 27.0 0.0 0.0 19.0 
67.00148644608524 0.22470135222568888 44.16446091565081 26.0 0.0 0.0 19.0 
68.00017008935336 0.24439226566138608 44.16446091565081 25.0 0.0 0.0 18.0 
69.00214379759151 0.17112295791101204 33.84179938368885 23.0 0.0 0.0 18.0 
70.00034127534929 0.16454756128587075 33.84179938368885 23.0 0.0 0.0 18.0 
71.00228807020834 0.21010076068028943 33.84179938368885 22.0 0.0 0.0 17.0 
72.00075560067167 0.2520365551073648 40.336793729194056 22.0 0.0 0.0 17.0 
73.00049619979946 0.2561380242824851 44.72200184404525 23.0 0.0 0.0 17.0 
74.00124398371673 0.2027139710173447 44.72200184404525 24.0 0.0 0.0 18.0 
75.00034127534929 0.17829346718614458 44.72200184404525 25.0 0.0 0.0 18.0 
76.00161418659641 0.010829026922677029 4.487980410266147 23.0 0.0 0.0 19.0 
77.00664387831854 0.0020825257759669864 0.926533051072397 25.0 0.0 0.0 20.0 
78.00066144504562 2.2945967382219E-4 0.11472983691109562 25.0 0.0 0.0 19.0 
79.00210832839369 0.0021419744383072165 0.9562573822425122 25.0 0.0 0.0 19.0 
80.00006537818707 0.002449015913254478 0.9562573822425122 25.0 0.0 0.0 19.0 
81.00115705502478 0.002449015913254478 0.9562573822425122 25.0 0.0 0.0 19.0 
82.00048919192567 0.0 0.0 26.0 0.0 0.0 19.0 
83.00453475107875 4.419383422190309E-4 0.22096917110951608 26.0 0.0 0.0 19.0 
84.00174654879481 4.419383422190309E-4 0.22096917110951608 26.0 0.0 0.0 19.0 
85.00034127534929 0.012822630114682538 6.190345886231711 25.0 0.0 0.0 19.0 
86.00254481401416 0.03825334862183614 12.936328424686366 25.0 0.0 0.0 19.0 
87.00077187958271 0.030485520867615815 12.936328424686366 23.0 0.0 0.0 19.0 
88.00008907579013 0.030485520867615815 12.936328424686366 24.0 0.0 0.0 19.0 
89.00238083015861 0.07985005185154094 20.168146116108716 24.0 0.0 0.0 19.0 
90.00034127534929 0.028857635690870832 9.6623121457624 26.0 0.0 0.0 19.0 
91.00089710022165 0.028857635690870832 9.6623121457624 25.0 0.0 0.0 19.0 
92.00030735933515 0.0 0.0 25.0 0.0 0.0 19.0 
93.00195438559619 0.0 0.0 25.0 0.0 0.0 19.0 
94.0054356139492 0.0 0.0 25.0 0.0 0.0 19.0 
95.00034127534929 0.0 0.0 24.0 0.0 0.0 21.0 
96.00612086533759 0.0 0.0 23.0 0.0 0.0 22.0 
97.00106445597582 0.0 0.0 23.0 0.0 0.0 21.0 
98.00167747085636 0.0 0.0 23.0 0.0 0.0 21.0 
99.00095008212224 0.0 0.0 24.0 0.0 0.0 21.0 
100.00034127534929 0.0 0.0 23.0 0.0 0.0 21.0 
101.00123435737764 0.0 0.0 23.0 0.0 0.0 21.0 
102.00313654468167 0.0 0.0 23.0 0.0 0.0 20.0 
103.00047712821627 0.0 0.0 23.0 0.0 0.0 18.0 
104.00154652091456 0.0 0.0 23.0 0.0 0.0 17.0 
105.00003049434008 0.0 0.0 23.0 0.0 0.0 17.0 
106.00077279853096 0.0 0.0 23.0 0.0 0.0 17.0 
107.0012900268941 0.0 0.0 23.0 0.0 0.0 17.0 
108.00297584043709 0.006425311851762617 3.212655925881336 23.0 0.0 0.0 17.0 
109.00066068146184 0.008709265374007926 4.080030217522591 23.0 0.0 0.0 17.0 
110.00034127534929 0.03045912785960837 8.108623501965155 23.0 0.0 0.0 16.0 
111.00274129680561 0.03045912785960837 8.108623501965155 23.0 0.0 0.0 16.0 
112.00037599538639 0.014241880855678068 7.120940427839088 23.0 0.0 0.0 16.0 
113.00005236847039 0.00534668197215859 2.673340986079296 24.0 0.0 0.0 16.0 
114.00139609696967 0.010686772405014486 5.343386202507219 25.0 0.0 0.0 16.0 
115.00034127534929 0.0 0.0 25.0 0.0 0.0 16.0 
116.0003688177756 0.0 0.0 24.0 0.0 0.0 16.0 
117.00118597550892 0.0 0.0 24.0 0.0 0.0 16.0 
118.00012573397305 0.0 0.0 24.0 0.0 0.0 16.0 
119.00426066000337 0.0 0.0 24.0 0.0 0.0 16.0 
120.00008172181484 0.0 0.0 23.0 0.0 0.0 16.0 
121.00158965614861 0.0 0.0 23.0 0.014938032253030966 7.469016126515527 16.0 
122.00040819422232 0.0 0.0 23.0 0.014938032253030966 7.469016126515527 16.0 
123.00403106040605 0.0 0.0 23.0 0.0 0.0 17.0 
124.00298126765736 0.0 0.0 23.0 0.0 0.0 18.0 
125.00034127534929 0.0 0.0 22.0 0.0 0.0 18.0 
126.000881291203 0.0 0.0 22.0 0.0 0.0 18.0 
127.00127581170717 0.0 0.0 22.0 0.012636331659241927 6.318165829620966 19.0 
128.00161554885688 0.0 0.0 22.0 0.0 0.0 20.0 
129.00621405113637 0.0 0.0 22.0 0.0 0.0 20.0 
130.00034127534929 0.0 0.0 22.0 0.0 0.0 19.0 
131.00263166160292 0.0 0.0 21.0 0.0 0.0 18.0 
132.0036950353943 0.0 0.0 20.0 0.0 0.0 18.0 
133.00349591278376 0.0 0.0 20.0 0.0 0.0 17.0 
134.00206462010217 0.0 0.0 20.0 0.0 0.0 16.0 
135.00034127534929 0.0 0.0 20.0 0.0 0.0 16.0 
136.00132483607348 0.0 0.0 20.0 0.0 0.0 16.0 
137.00321603721198 0.0 0.0 21.0 0.0 0.0 16.0 
138.0000348751333 0.0 0.0 21.0 0.0 0.0 16.0 
139.00438817264578 0.049918672489378625 24.95933624468924 20.0 0.0 0.0 16.0 
140.00034127534929 0.05825104260598013 29.125521302990222 19.0 0.0 0.0 17.0 
141.0043634157866 0.0 0.0 20.0 0.0 0.0 17.0 
142.00192433586557 0.0 0.0 20.0 0.0 0.0 17.0 
143.00205053645197 0.0 0.0 20.0 0.0 0.0 18.0 
144.00560655091414 0.0 0.0 20.0 0.0 0.0 18.0 
145.00034127534929 0.0 0.0 19.0 0.0 0.0 18.0 
146.0005337472636 0.0 0.0 19.0 0.0 0.0 17.0 
147.00273911694347 0.0 0.0 19.0 0.0 0.0 16.0 
148.00042731256036 0.0 0.0 19.0 0.0 0.0 16.0 
149.00049251016688 0.0 0.0 19.0 0.0 0.0 16.0 
150.00034127534929 0.0 0.0 20.0 0.0 0.0 17.0 
151.00009118074456 0.0 0.0 20.0 0.0 0.0 17.0 
152.00436996649955 0.0 0.0 20.0 0.0 0.0 17.0 
153.0003565823548 0.0 0.0 21.0 0.0 0.0 17.0 
154.00011184072144 0.0 0.0 22.0 0.0 0.0 17.0 
155.00034127534929 0.0023824277321197757 1.1912138660598828 22.0 0.0 0.0 17.0 
156.00236259844257 0.0020187570509898026 1.0093785254948955 22.0 0.0 0.0 17.0 
157.00035184532626 0.027225843684118026 8.096221198343784 22.0 0.0 0.0 18.0 
158.00149858109717 0.01647986970060898 7.230556324809555 22.0 0.0 0.0 18.0 
159.00260174118384 0.15853064932991429 31.715378609536174 22.0 0.0 0.0 18.0 
160.00034127534929 0.1615689375526238 14.831870360567876 22.0 0.0 0.0 18.0 
161.00146951386574 0.2302625427183774 20.723815045296675 22.0 0.0 0.0 18.0 
162.00004565518248 0.2698447316162226 17.09294418510308 22.0 0.0 0.0 18.0 
163.00189052836663 0.39979380075145365 22.276000891436524 22.0 0.0 0.0 17.0 
164.0020165484864 0.519481379100473 26.565727707488605 21.0 0.0 0.0 17.0 
165.00034127534929 0.539585182961912 26.565727707488605 22.0 0.0 0.0 17.0 
166.00123062951795 0.5635322476892898 26.565727707488605 22.0 0.0 0.0 17.0 
167.00149236057263 0.6588645872622829 28.133907065301486 21.0 0.0 0.0 17.0 
168.00266221710575 0.8787505623208224 57.43414647866808 21.0 0.0 0.0 17.0 
169.00321917480053 1.221340236489226 37.255080609851774 21.0 0.0 0.0 17.0 
170.00034127534929 1.247466072450797 48.324692627436605 21.0 0.0 0.0 17.0 
171.0016420853295 1.2497503552686295 40.40559067007237 21.0 0.0 0.0 17.0 
172.00021484543518 1.952017672966122 70.13783522310149 20.0 0.0 0.0 17.0 
173.0011679076465 1.7087155836119778 52.64456488701177 20.0 0.0 0.0 17.0 
174.0020280684847 1.4307134265235435 52.187376192468264 20.0 0.0 0.0 17.0 
175.00034127534929 1.8587226136918011 61.14342447788118 20.0 0.0 0.0 17.0 
176.00422452919548 2.121943397564861 65.16048552576086 20.0 0.0 0.0 17.0 
177.0032127610584 1.7661754544830144 67.04285045886456 20.0 0.0 0.0 15.0 
178.00520154393365 1.953847071472223 65.16048552576086 20.0 0.0 0.0 15.0 
179.00299714846994 1.7241396638666378 77.49570846607412 20.0 0.0 0.0 15.0 
180.00034127534929 1.7348605405701858 77.49570846607412 20.0 0.0 0.0 15.0 
181.00218694990772 0.8171872940657786 70.02234571978312 20.0 0.0 0.0 15.0 
182.00200984344843 0.9020433467694102 58.170488832330534 20.0 0.0 0.0 15.0 
183.00064734485778 0.5606572494194257 70.70628942745935 20.0 0.0 0.0 15.0 
184.00306432068754 1.1880559387566167 75.8160952164439 19.0 0.0 0.0 15.0 
185.00034127534929 1.3532382670942942 81.94261631202693 19.0 0.0 0.0 15.0 
186.00030914296872 1.1925600172868003 75.8160952164439 19.0 0.0 0.0 15.0 
187.00143946544986 1.3968530546751963 75.8160952164439 18.0 0.0 0.0 16.0 
188.00181746895706 1.0019691411194038 78.74055030872205 19.0 0.0 0.0 17.0 
189.0019873432584 1.158826260731903 82.33171905512842 19.0 0.0 0.0 17.0 
190.00034127534929 1.1326858770124146 96.68576517881394 18.0 0.0 0.0 16.0 
191.0038597644373 0.8473853273041716 85.58405803734792 19.0 0.0 0.0 16.0 
192.002861558479 0.8545498493209617 96.68576517881394 19.0 0.0 0.0 16.0 
193.00185559104474 0.7894809131699659 89.20137008395864 19.0 0.0 0.0 16.0 
194.00008226505744 0.6466579606696985 95.69904144475765 19.0 0.0 0.0 16.0 
195.00034127534929 0.2693450852521192 93.50126621199371 18.0 0.0 0.0 16.0 
196.0008627566053 0.5233469196809135 93.50126621199371 18.0 0.0 0.0 16.0 
197.00545506700215 0.16566649003300496 21.897423259572292 18.0 0.0 0.0 16.0 
198.00134202331492 0.16818860468093683 21.974996515736848 19.0 0.0 0.0 17.0 
199.00086119773016 0.08044376513031842 12.483550437559813 19.0 0.0 0.0 17.0 
200.00011819538182 0.05325337325263794 12.483550437559813 19.0 0.0 0.0 17.0 
201.00287107405916 0.09151117478177725 23.227447386055132 19.0 0.0 0.0 17.0 
202.00075450739496 0.09151117478177725 23.227447386055132 19.0 0.0 0.0 17.0 
203.00092245500173 0.07985759769022993 23.227447386055132 19.0 0.0 0.0 17.0 
204.00152737616068 0.07985759769022993 23.227447386055132 19.0 0.002531882907230902 1.2659414536154543 17.0 
205.00011326429296 0.033402702918119746 13.04163227935237 19.0 0.016717673051612588 8.358836525806282 17.0 
206.00063071604632 0.048543679082192884 19.660281252666067 19.0 0.016717673051612588 8.358836525806282 16.0 
207.00478385520805 0.051683597428421324 14.460719864145346 19.0 0.016717673051612588 8.358836525806282 16.0 
208.00042049925986 0.19578770953607558 37.97150042987931 19.0 0.0018900058297252797 0.9450029148626413 16.0 
209.0010692649287 0.11984470867631747 33.784205192383894 19.0 0.0 0.0 17.0 
210.00034127534929 0.11943633197641126 33.58001684243109 19.0 0.0 0.0 18.0 
211.00009606448208 0.252701951600519 44.31303108083392 19.0 0.0 0.0 18.0 
212.0004442342185 0.2821530484568808 44.31303108083392 19.0 0.0 0.0 19.0 
213.0036507196534 0.17930220733695146 39.86753406669098 20.0 0.0 0.0 19.0 
214.00037550867967 0.12262387428341875 19.820342994873585 21.0 0.0 0.0 19.0 
215.00034127534929 0.04379936947471722 16.03226150696014 21.0 0.0 0.0 19.0 
216.0059745778015 0.017087061726796117 8.543530863398075 19.0 0.0 0.0 19.0 
217.00309259694876 0.017087061726796117 8.543530863398075 19.0 0.0 0.0 19.0 
218.00051356739283 0.017087061726796117 8.543530863398075 19.0 0.0 0.0 19.0 
219.00092998550204 0.017087061726796117 8.543530863398075 19.0 0.0 0.0 19.0 
220.00034127534929 0.031719039903769224 15.859519951884607 19.0 0.0 0.0 19.0 
221.00012545200275 0.031719039903769224 15.859519951884607 20.0 0.0 0.0 19.0 
222.00475175935293 0.037769757193768426 18.884878596884136 20.0 0.0 0.0 19.0 
223.00312728420977 0.037769757193768426 18.884878596884136 20.0 0.0 0.0 19.0 
224.00237207656792 0.037769757193768426 18.884878596884136 20.0 0.0 0.0 19.0 
225.00034127534929 0.052315740231367314 26.157870115683693 20.0 0.0 0.0 19.0 
226.0006160367524 0.052315740231367314 26.157870115683693 20.0 0.0 0.0 19.0 
227.00191857054958 0.0 0.0 21.0 0.0 0.0 19.0 
228.00205622312475 0.0 0.0 21.0 0.0 0.0 19.0 
229.00283030526197 0.0 0.0 21.0 0.0 0.0 19.0 
230.00034127534929 0.0 0.0 21.0 0.0 0.0 19.0 
231.00008418262777 0.0 0.0 21.0 0.0 0.0 19.0 
232.00386475061154 0.024531333187162094 12.265666593581017 21.0 0.0 0.0 20.0 
233.0025538870546 0.0 0.0 21.0 0.0 0.0 20.0 
234.00645662737193 0.0 0.0 21.0 0.0 0.0 20.0 
235.00034127534929 0.0 0.0 21.0 0.0 0.0 20.0 
236.00084151679337 0.0 0.0 20.0 0.0 0.0 20.0 
237.00293797529002 0.0 0.0 20.0 0.0 0.0 20.0 
238.00101718782315 0.0 0.0 20.0 0.0 0.0 20.0 
239.00657354431704 0.0 0.0 20.0 0.0 0.0 20.0 
240.00034127534929 0.0 0.0 20.0 0.0 0.0 20.0 
241.0009346895032 0.0 0.0 20.0 0.0 0.0 20.0 
242.00106347414913 0.0 0.0 18.0 0.0 0.0 20.0 
243.00092101510734 0.0 0.0 19.0 0.0 0.0 20.0 
244.00351522415858 0.0 0.0 19.0 0.0 0.0 20.0 
245.00012312723152 0.10393635708685457 26.347100966970658 19.0 0.0 0.0 20.0 
246.00181432781156 0.2274002339895542 33.83021663251549 18.0 0.0 0.0 20.0 
247.00158608062313 0.134538221174618 34.354245345345845 18.0 0.0 0.0 20.0 
248.00170385044368 0.3047948419247981 34.354245345345845 18.0 0.0 0.0 20.0 
249.0098611368671 0.5020942763459985 34.354245345345845 18.0 0.0 0.0 21.0 
250.00034127534929 0.7081100755841804 43.435389586635836 18.0 0.0 0.0 21.0 
251.00028324967886 0.7365048269530461 43.94276454214659 18.0 0.0 0.0 21.0 
252.00120676741844 0.7530059418568613 51.24097564865204 19.0 0.0 0.0 21.0 
253.00439830398724 0.8046504786944877 51.24097564865204 19.0 0.0 0.0 20.0 
254.00019301468538 0.7885621543569201 51.24097564865204 19.0 0.0 0.0 20.0 
255.00034127534929 0.7133420564603785 36.16108103876664 19.0 0.0 0.0 19.0 
256.0000644700554 0.8323788392365143 51.53789425364053 18.0 0.002737207501014278 1.368603750507134 19.0 
257.00137620335266 0.7312177740215766 37.81320018748352 18.0 0.002737207501014278 1.368603750507134 19.0 
258.00060644406125 0.6993966302849138 37.81320018748352 18.0 0.002737207501014278 1.368603750507134 18.0 
259.0000184590084 0.6880769071299578 36.06012870258553 18.0 0.0 0.0 19.0 
260.0003412753493 0.6854539213952188 36.06012870258553 18.0 0.0 0.0 18.0 
261.0003679076214 0.6682745106079572 36.06012870258553 17.0 0.0 0.0 19.0 
262.00031581815256 0.6763011516565078 37.71504443081818 17.0 0.0 0.0 19.0 
263.00052788129153 0.6532390193761284 36.03060882037644 18.0 0.0 0.0 20.0 
264.00023807593647 0.640102997279804 45.06273770749294 18.0 0.0 0.0 18.0 
265.0003412753493 0.7161694853934204 46.42602675101048 18.0 0.0 0.0 18.0 
266.00100948367367 0.5629434461593226 37.78728877806512 18.0 0.0 0.0 18.0 
267.00430922396555 0.7347687565949743 40.247210878367696 18.0 0.0 0.0 18.0 
268.00004624284776 0.678557805334527 40.247210878367696 20.0 0.0 0.0 18.0 
269.0000013118032 0.6528266557413444 40.247210878367696 19.0 0.0 0.0 18.0 
270.0003412753493 0.6387091044019261 40.247210878367696 20.0 0.0 0.0 18.0 
271.0013873606927 0.6741086476998558 41.467866469466884 20.0 0.0 0.0 18.0 
272.00153970298305 0.6436356356375543 37.85953460714731 19.0 0.0 0.0 18.0 
273.0017444199042 0.6122909410594535 44.13931253480814 19.0 0.0 0.0 17.0 
274.003589886145 0.4343865797862897 44.13931253480814 19.0 0.0 0.0 17.0 
275.0003412753493 0.42008251436031246 44.13931253480814 19.0 0.0 0.0 17.0 
276.0004950562192 0.46943879307270114 44.13931253480814 19.0 0.0 0.0 17.0 
277.00299478618325 0.3176238661116691 46.74003640721779 19.0 0.0 0.0 16.0 
278.0019437442535 0.31425612713616613 44.13959189960724 19.0 0.0 0.0 16.0 
279.00042091954316 0.3694119563998196 44.13959189960724 19.0 0.0 0.0 16.0 
280.0003412753493 0.3694119563998196 44.13959189960724 19.0 0.0 0.0 16.0 
281.0019996928518 0.39312566440055263 44.13959189960724 17.0 0.0 0.0 16.0 
282.00143608132845 0.4795540475993196 44.13987126438542 17.0 0.0 0.0 16.0 
283.00081038660244 0.346436965328504 44.13987126438542 17.0 0.0 0.0 15.0 
284.0005888743479 0.4180527042391559 44.13987126438542 19.0 0.0 0.0 16.0 
285.0003412753493 0.49866415590337454 44.13987126438542 19.0 0.0 0.0 16.0 
286.00274495956296 0.5410243215870921 46.57977998528881 18.0 0.0 0.0 17.0 
287.00041210845353 0.5514246211658602 46.57977998528881 18.0 0.0 0.0 16.0 
288.0042770713301 0.6114042779130078 43.97673057416847 18.0 0.0 0.0 17.0 
289.0009936908821 0.5980808478952488 43.97673057416847 18.0 0.0 0.0 17.0 
290.00030448823406 0.5068362667841214 43.97673057416847 18.0 0.0 0.0 17.0 
291.00448585453074 0.6416247663066974 46.49281243283406 18.0 0.0 0.0 17.0 
292.0009808107406 0.6730170881645485 46.49281243283406 18.0 0.0 0.0 17.0 
293.00369784727127 0.6177339057468572 45.91009731771973 18.0 0.0 0.0 17.0 
294.00263000251556 0.7112675431356356 45.91009731771973 18.0 0.0 0.0 17.0 
295.0003412753493 0.641637820047381 45.91009731771973 18.0 0.0 0.0 17.0 
296.0037921079075 0.7901931391564597 48.603071373029536 18.0 0.0 0.0 17.0 
297.0049108967185 0.820371558999657 51.39633088494898 18.0 0.0 0.0 17.0 
298.00131565728395 0.7920602685577662 51.39633088494898 18.0 0.0 0.0 17.0 
299.00230838316907 0.7921620370133435 51.39633088494898 18.0 0.0 0.0 17.0 
300.0003412753493 0.8840357612140037 51.39633088494898 19.0 0.0 0.0 17.0 
301.0021288236975 1.1163895278509297 54.469854938098365 20.0 2.3844338741486207E-4 0.11922169370743063 17.0 
302.00210001179346 1.181509208842582 59.86809576107606 21.0 2.3844338741486207E-4 0.11922169370743063 17.0 
303.00754469900136 1.1454317409518817 59.86809576107606 21.0 2.3844338741486207E-4 0.11922169370743063 17.0 
304.00066390652324 1.1398462868773949 59.86809576107606 21.0 0.0 0.0 17.0 
305.00012629807503 1.1133315844557956 59.86809576107606 19.0 0.0 0.0 17.0 
306.001109175299 1.2635124939286135 64.13680427306963 19.0 0.0 0.0 17.0 
307.00081153734584 1.377859895472675 69.74698687962609 19.0 0.0 0.0 17.0 
308.0000847808235 1.4213036504817576 70.65187528548114 19.0 0.0 0.0 15.0 
309.0000747992823 1.6825625505522794 74.55557709660474 17.0 0.0 0.0 14.0 
310.0003412753493 1.7843542484251884 74.55557709660474 17.0 0.0 0.0 14.0 
311.00046367224405 1.9202893103463097 77.83079807622244 17.0 0.0 0.0 14.0 
312.00088445658116 2.0580835901586374 79.51899868751781 17.0 0.0 0.0 14.0 
313.00025317553565 2.0201930930874497 79.51899868751781 17.0 0.0 0.0 14.0 
314.0013472594361 2.132515732212094 79.51899868751781 17.0 0.0 0.0 15.0 
315.0003412753493 2.297092011675279 82.18646454929183 18.0 0.0 0.0 16.0 
316.0005405633474 2.3547722948377197 89.0779959346209 19.0 0.0 0.0 17.0 
317.0049938463641 2.5392322960925955 89.07894418419443 19.0 0.0 0.0 18.0 
318.00006538788335 2.4008075373511346 89.07894418419443 20.0 0.0 0.0 19.0 
319.0041995691542 2.373515390015963 89.07894418419443 20.0 0.0 0.0 19.0 
320.0003412753493 2.2927873597294792 89.07894418419443 20.0 0.0 0.0 19.0 
321.00092078820774 2.437636723905314 93.9002206110049 20.0 0.0 0.0 19.0 
322.00067596096153 2.701430533956932 93.9002206110049 20.0 0.0 0.0 19.0 
323.0004625031178 2.7736506322648284 97.76213570089942 20.0 0.0 0.0 19.0 
324.0028100610629 2.452369743343084 91.64864323740522 21.0 0.0 0.0 20.0 
325.0003412753493 2.580465374982981 91.64864323740522 20.0 0.0 0.0 20.0 
326.00677420863906 2.7686162677346338 98.14374811700424 19.0 0.0 0.0 20.0 
327.00312587800016 3.2149538000208606 104.8387142787613 19.0 0.0 0.0 20.0 
328.0007303701148 3.1813197808852376 104.69474501023257 19.0 0.0 0.0 19.0 
329.0008938145982 3.1829569542356397 104.69474501023257 19.0 0.0 0.0 19.0 
330.0000872535717 3.116984424432429 104.69474501023257 19.0 0.0 0.0 19.0 
331.0012642694597 3.8487818356132597 104.69474501023257 19.0 0.0 0.0 19.0 
332.0039406676514 4.3416843127621565 118.76811998549704 19.0 0.0 0.0 18.0 
333.0007867891851 3.9418088087587595 105.31225824216381 19.0 0.0 0.0 18.0 
334.002450776007 3.939710117280393 105.31225824216381 18.0 0.0 0.0 18.0 
335.00004185739493 3.937859971300296 105.31225824216381 17.0 0.0 0.0 18.0 
336.0003789694286 4.710200603199269 124.82657663585906 17.0 0.0 0.0 18.0 
337.0041616109479 4.6410190524879145 117.13303142428003 17.0 0.0 0.0 18.0 
338.0006899862156 5.145343834974234 125.56751553993752 17.0 0.0 0.0 17.0 
339.0000635460473 5.07812271487192 125.56751553993752 16.0 0.0 0.0 17.0 
340.0003412753493 5.228827584146713 125.56751553993752 16.0 0.0 0.0 17.0 
341.0026981551154 5.670238065133416 134.85495913182842 17.0 0.0 0.0 17.0 
342.0083663328084 5.933830076647505 134.85495913182842 17.0 0.0 0.0 17.0 
343.0026351021372 5.593737133418862 127.17721742194408 17.0 0.0 0.0 17.0 
344.0001286786127 5.62588367261648 127.17721742194408 17.0 0.0 0.0 17.0 
345.0003412753493 5.820884131848883 134.05091856087319 17.0 0.0 0.0 16.0 
346.0002661249916 6.037542116569546 141.75888373810847 17.0 0.0 0.0 16.0 
347.00084742319024 5.583212120240053 134.3125472042978 16.0 0.0 0.0 16.0 
348.0016577675494 5.393521701695443 134.3125472042978 17.0 0.0 0.0 16.0 
349.0068454767555 5.662770795123548 136.14528660675353 17.0 0.0 0.0 16.0 
350.0003412753493 5.196522841015419 125.51023968447163 17.0 0.0 0.0 16.0 
351.00184314403594 5.322882564335729 125.51023968447163 17.0 0.0 0.0 16.0 
352.0018349839545 5.3597202108995186 127.80132321762449 17.0 0.0 0.0 16.0 
353.0024124262364 5.200650352129165 127.80132321762449 17.0 0.0 0.0 16.0 
354.00300459760456 4.70351341600347 124.74803837154957 17.0 0.0 0.0 16.0 
355.00013326695745 4.5998471336843245 124.74803837154957 17.0 0.0 0.0 16.0 
356.0024487060135 4.596240584674767 131.79876370787878 16.0 0.0 0.0 16.0 
357.00089171252876 5.1215689698545255 136.81550600424214 17.0 0.0 0.0 16.0 
358.0005659293507 5.102713588299523 135.18331354948123 16.0 0.0 0.0 16.0 
359.00097159100653 4.855521038203167 131.79876370787878 16.0 0.0 0.0 16.0 
360.0003412753493 4.551139806535383 131.79876370787878 16.0 0.0 0.0 16.0 
361.0013132387348 5.032698033893444 129.47172910184224 16.0 0.0 0.0 16.0 
362.00010125330374 5.0395793576948416 131.2446797996971 16.0 0.0 0.0 15.0 
363.0001939042798 5.165770854529864 131.2446797996971 16.0 0.0 0.0 14.0 
364.0018962145824 5.062482933410808 131.2446797996971 16.0 0.0 0.0 14.0 
365.0003412753493 5.206535789142752 134.951709712148 16.0 0.0 0.0 14.0 
366.00099156635673 5.079640259646728 136.39431762216157 16.0 0.0 0.0 14.0 
367.0017616143229 5.139104876700631 136.39431762216157 16.0 0.0 0.0 14.0 
368.0023241590217 5.4371645413997065 136.39431762216157 16.0 0.0 0.0 14.0 
369.0005235673176 5.323401911423125 136.39431762216157 15.0 0.0 0.0 13.0 
370.0003412753493 5.290879829225642 133.73522420880437 15.0 0.0 0.0 13.0 
371.00677420863906 5.371123045144872 158.3295356518159 15.0 0.0 0.0 13.0 
372.0029499127593 5.514164423876244 153.18335524939863 15.0 0.0 0.0 13.0 
373.00288663940074 5.389122603061898 153.18335524939863 16.0 0.0 0.0 14.0 
374.00008136251785 5.266465834638272 153.18335524939863 16.0 0.0 0.0 14.0 
375.0003412753493 5.237840767936676 146.69915556647936 16.0 0.0 0.0 14.0 
376.00050950662904 5.439592352724988 149.94811266717556 16.0 0.0 0.0 14.0 
377.0000733247664 5.786058418304376 167.98675766590594 16.0 0.0 0.0 14.0 
378.00537649725584 5.306503241836634 149.94811266717556 16.0 0.0 0.0 14.0 
379.00118378573205 5.304824322128511 149.94811266717556 16.0 0.0 0.0 15.0 
380.0003412753493 5.282348490512589 143.58442127371598 16.0 0.0 0.0 15.0 
381.0007398339459 5.384584481462694 146.89931692411108 16.0 0.0 0.0 15.0 
382.00055367805885 5.789035231243289 146.89931692411108 16.0 0.0 0.0 15.0 
383.0021835245274 5.434992071133119 146.89931692411108 16.0 0.0 0.0 15.0 
384.00217188964666 5.9743409012184925 177.43592115337123 16.0 0.0 0.0 15.0 
385.0003412753493 5.454951351095836 146.89931692411108 16.0 0.0 0.0 14.0 
386.0004504508888 5.96051485631511 144.14731594196275 16.0 0.0 0.0 15.0 
387.0002957178316 5.80637842306048 144.14731594196275 16.0 0.0 0.0 15.0 
388.00012659592255 5.957605852010754 144.14731594196275 17.0 0.0 0.0 16.0 
389.00391308050115 5.972545494505093 144.14731594196275 17.0 0.0 0.0 16.0 
390.0003412753493 5.967172496551751 139.2195577227385 16.0 0.0 0.0 16.0 
391.0023994681882 6.080105733577117 142.79987669561507 17.0 0.0 0.0 16.0 
392.0016401209208 6.15005788799137 142.79987669561507 16.0 0.0 0.0 16.0 
393.00082529876244 6.149462443341547 142.79987669561507 16.0 0.0 0.0 17.0 
394.0007680531338 6.1758681598540734 142.79987669561507 16.0 0.0 0.0 17.0 
395.0003412753493 6.196999725152815 143.29043709934496 16.0 0.0 0.0 17.0 
396.0023701755913 6.35324055465591 147.13812447078635 16.0 0.0 0.0 17.0 
397.00021064396395 6.57599445888308 147.13812447078635 17.0 0.0 0.0 16.0 
398.00091907118957 6.455719045589208 147.13812447078635 17.0 0.0 0.0 16.0 
399.0031245660252 6.646347614374784 147.13812447078635 17.0 0.0 0.0 16.0 
400.0003412753493 6.645949506075841 152.87920401209408 17.0 0.0 0.0 16.0 
401.0010209766289 6.515143794578556 152.87920401209408 17.0 0.0 0.0 16.0 
402.0007202222211 7.231274619295303 187.3050723332479 19.0 0.0 0.0 16.0 
403.00699788578277 7.573403134964533 200.55595471129453 19.0 0.0 0.0 18.0 
404.0011662558991 7.299984263076048 200.55595471129453 19.0 0.0 0.0 20.0 
405.00020311668965 7.17367970649545 200.55595471129453 19.0 0.0 0.0 19.0 
406.0005178168515 8.189791157604507 205.6076703501737 17.0 0.0 0.0 18.0 
407.0067442155385 8.112385356628497 210.201826671054 17.0 0.0 0.0 18.0 
408.0016226014731 7.919058576207969 210.201826671054 17.0 0.0 0.0 18.0 
409.0027670861645 8.824448315903952 215.55493355136252 17.0 0.0 0.0 18.0 
410.0003412753493 8.98884121018529 215.55493355136252 17.0 0.0 0.0 18.0 
411.00241320213223 9.208482952422084 215.55493355136252 18.0 0.0 0.0 18.0 
412.00189605156135 8.938511595075333 210.0017781638681 18.0 0.0 0.0 18.0 
413.0037433316859 8.739176388128625 210.0017781638681 18.0 0.0 0.0 18.0 
414.00136217240026 8.943102001948844 215.31208009661282 18.0 0.0 0.0 18.0 
415.00027991738057 8.889823383491857 209.95945431590928 18.0 0.0 0.0 18.0 
416.00677420863906 9.068966621389727 214.67080649928016 18.0 0.0 0.0 18.0 
417.0006544574174 8.838950477674667 214.67080649928016 17.0 0.0 0.0 18.0 
418.0026123866436 8.856089006275212 214.67080649928016 17.0 0.0 0.0 18.0 
419.0004994773716 8.211342495022187 209.9604776005225 17.0 0.0 0.0 18.0 
420.0003412753493 7.681284297757701 192.27555021491503 17.0 0.0 0.0 18.0 
421.0015562060832 6.800253078227927 189.42948552211197 17.0 0.0 0.0 18.0 
422.0009480588851 7.0538926173368495 198.80651394289845 17.0 0.0 0.0 18.0 
423.00006614675794 7.430575212182824 195.2992381939501 17.0 0.0 0.0 18.0 
424.0007041041586 7.0670238344333915 195.2992381939501 17.0 0.0 0.0 18.0 
425.0003412753493 6.688880328856888 189.68439731430283 17.0 5.794175539392635E-5 0.02897087769696327 18.0 
426.00294431672086 6.96334660591917 196.4654405563581 17.0 0.0033743309289417833 1.6581945867739307 18.0 
427.00166123886805 6.97663048353366 196.4654405563581 17.0 0.0519648820866213 8.912745257576432 19.0 
428.00025472112645 7.158951429265691 194.54714604667276 17.0 0.013911144540087425 3.658048015233817 19.0 
429.00007248686745 7.264457996368004 194.54714604667276 17.0 0.022728714617627543 4.40878503877002 19.0 
430.0003412753493 6.431257535942722 182.4304151679919 17.0 0.0 0.0 19.0 
431.00001280072297 7.112516244858799 190.64018644331736 17.0 0.0 0.0 20.0 
432.0011266476865 6.832957154294364 184.41345182772926 18.0 0.0 0.0 20.0 
433.00666145920843 7.162780421383164 197.40898807797646 18.0 0.0 0.0 20.0 
434.0008264290474 7.264453517137142 191.53028090462624 18.0 0.0 0.0 20.0 
435.0003412753493 6.536212593206088 184.41345182772926 18.0 0.0 0.0 19.0 
436.0005252528244 7.272039513701194 191.62268064275537 18.0 0.0 0.0 19.0 
437.0001714806579 7.373838028629142 197.40527512793193 18.0 0.0 0.0 19.0 
438.0011826022299 7.39126590250199 197.40527512793193 18.0 0.0 0.0 19.0 
439.00060304394174 7.684604690238387 197.40527512793193 19.0 0.0 0.0 19.0 
440.0003412753493 7.544655432701193 197.40527512793193 19.0 0.0 0.0 19.0 
441.0001593787684 7.31681646687658 204.72642369719398 20.0 0.0 0.0 19.0 
442.0009873105149 7.32898674478044 210.67054728803703 20.0 0.0 0.0 18.0 
443.00026638021166 7.910946444399283 210.67054728803703 20.0 0.0 0.0 18.0 
444.00075853504353 7.458733046399764 210.67054728803703 20.0 0.0 0.0 18.0 
445.0003412753493 7.66296775767766 210.67054728803703 19.0 0.0 0.0 18.0 
446.00036298776075 8.475364462780002 223.97190861619254 19.0 0.0 0.0 18.0 
447.0021137472947 8.337026531274317 223.97190861619254 19.0 0.0 0.0 18.0 
448.00092327576226 8.963074766037703 236.5666288007443 20.0 0.0 0.0 18.0 
449.00101708783376 8.28849254668559 223.97190861619254 20.0 0.0 0.0 18.0 
450.0003412753493 8.269418515400515 236.5666288007443 20.0 0.0 0.0 18.0 
451.0001980428909 7.939519975878841 236.5666288007443 20.0 0.0 0.0 20.0 
452.00755512219047 8.377042856727295 244.00445114928232 19.0 0.0 0.0 19.0 
453.0046034194006 8.512235466273216 237.81315886525755 20.0 0.0 0.0 19.0 
454.0021815341808 8.247910921388701 237.81315886525755 19.0 0.0 0.0 19.0 
455.0003412753493 8.277000514342038 237.81315886525755 19.0 0.0 0.0 18.0 
456.00027756318786 8.92424914528691 250.93574944400297 19.0 0.0 0.0 18.0 
457.0003778351266 9.074664512272639 250.93574944400297 19.0 0.0 0.0 18.0 
458.00104277895616 9.97156012456421 257.18021831333334 18.0 0.008097496358968236 2.5399363703264157 18.0 
459.00076848923123 10.110555536006103 257.18021831333334 18.0 0.0 0.0 18.0 
460.0003412753493 10.155004828450354 257.18021831333334 18.0 0.0 0.0 18.0 
461.00339117307857 10.981537978046125 264.7097906450889 18.0 0.0 0.0 18.0 
462.01042257231234 11.136892433302734 267.99335844161357 18.0 0.0 0.0 17.0 
463.01165128121096 11.825079840927321 267.99335844161357 19.0 0.0 0.0 17.0 
464.00058343824077 11.902843017998027 267.99335844161357 20.0 0.0 0.0 17.0 
465.0003412753493 12.768371509545746 280.3400881513524 19.0 0.0 0.0 17.0 
466.00176932396363 11.492982592026635 269.8297385139339 19.0 0.0 0.0 17.0 
467.0016583971313 14.130627776274219 290.50126522970226 19.0 0.0 0.0 17.0 
468.0085027443041 13.508437351005975 287.86096242751796 19.0 0.0 0.0 17.0 
469.0008234809064 14.682680474830283 291.6261928717012 19.0 0.0 0.0 17.0 
470.0003412753493 13.462578511187614 284.1363629722619 19.0 0.0 0.0 17.0 
471.00065293405163 13.364786928522243 292.0583684857624 19.0 0.0 0.0 17.0 
472.0061165789458 14.717170820422046 292.0583684857624 19.0 0.0 0.0 17.0 
473.00177086511326 13.646534096295376 292.0583684857624 19.0 0.0 0.0 17.0 
474.0005712340158 15.1128410915805 299.06831800995013 20.0 0.0 0.0 17.0 
475.0003412753493 15.233669245256449 293.39923067451264 20.0 0.0 0.0 17.0 
476.0015169705706 15.11097968675109 294.18929484198696 20.0 0.0 0.0 17.0 
477.00058026788236 14.599658456263002 300.5172916027231 20.0 0.0 0.0 17.0 
478.0001764832134 15.776649811521418 304.8180610941366 20.0 0.0 0.0 17.0 
479.00144261651025 14.597988323337788 300.5172916027231 20.0 0.0 0.0 17.0 
480.0003412753493 14.13739192695053 300.5172916027231 20.0 0.0 0.0 17.0 
481.00366145907896 13.895089030373846 300.5172916027231 20.0 0.0 0.0 16.0 
482.000992846391 9.885796943761266 262.1862617963424 20.0 0.0 0.0 16.0 
483.0051556660004 10.019369051934445 293.65908971929764 20.0 0.0 0.0 16.0 
484.0011148878327 9.06864210630066 253.0604833896545 20.0 0.0 0.0 16.0 
485.0003412753493 9.694978270411147 253.0604833896545 20.0 2.823977256780953E-4 0.14119886283904748 16.0 
486.00677420863906 9.592449050602701 258.00955497366385 20.0 2.823977256780953E-4 0.14119886283904748 17.0 
487.0004817115173 9.67237863890027 258.00955497366385 21.0 2.823977256780953E-4 0.14119886283904748 17.0 
488.0006185466514 9.19480623850942 253.844598941137 20.0 2.823977256780953E-4 0.14119886283904748 17.0 
489.00975262280457 9.060950759800695 249.15856938562433 20.0 2.823977256780953E-4 0.14119886283904748 17.0 
490.0003412753493 9.287106908415343 249.15856938562433 20.0 0.016819171524229903 5.2833121807114765 17.0 
491.00160858271784 9.807845636611772 254.23244133898493 20.0 0.04308846988818537 9.842400468168961 17.0 
492.0018573896873 9.274380431754667 254.23244133898493 20.0 0.04824863461312999 9.842400468168961 17.0 
493.00009193012716 8.96669695205241 245.58311941718665 20.0 0.05183881538268291 9.842400468168961 18.0 
494.0006672724465 8.87337262905919 245.58311941718665 21.0 0.059926061168920124 9.842400468168961 19.0 
495.0003412753493 9.681692900759677 248.55816396833973 21.0 0.0 0.0 20.0 
496.00048376284605 8.587096577034256 248.55816396833973 21.0 0.0 0.0 20.0 
497.0003990743548 7.939928653000846 250.78015277178656 21.0 0.0 0.0 20.0 
498.0009235968886 5.172541353769844 241.3128859346192 21.0 0.0 0.0 19.0 
499.00009364601345 5.549280019212849 241.3128859346192 20.0 0.00275472914677515 1.377364573387581 19.0 
500.0003412753493 6.585194026129472 242.2691017467048 19.0 0.00275472914677515 1.377364573387581 19.0 
501.00120373612526 4.471958101562916 240.74831846342153 20.0 0.0 0.0 20.0 
502.0023035512846 5.180120469271498 230.44073309006802 21.0 0.0 0.0 20.0 
503.0027934830294 3.7016493722335078 168.08858493704054 21.0 0.0 0.0 19.0 
504.00505679159755 4.064230720280719 194.7374014953258 21.0 0.0026733179928245276 1.3366589964122682 19.0 
505.0003412753493 3.9927177854761013 168.08858493704054 20.0 0.0026733179928245276 1.3366589964122682 19.0 
506.00232331108265 3.2858675140216955 163.99613416091177 22.0 0.005722693063243238 2.8613465316216207 19.0 
507.0060603102933 3.320287436908846 165.4038920120745 21.0 0.005722693063243238 2.8613465316216207 19.0 
508.00194808881383 3.3399475025207495 165.4038920120745 21.0 0.0 0.0 19.0 
509.0039266902864 2.708961664352659 165.4038920120745 21.0 0.0 0.0 19.0 
510.0003412753493 3.8889066583873277 165.4038920120745 21.0 0.0 0.0 20.0 
511.00301462814963 3.2959554231110397 150.30405640557024 22.0 0.0 0.0 20.0 
512.0004304667339 3.320189191160142 155.44597871357325 22.0 0.0 0.0 20.0 
513.0063473155253 3.307731327417815 152.25699218655438 22.0 0.0 0.0 21.0 
514.0018963450598 3.5638346528263374 162.4307486117383 22.0 0.0 0.0 21.0 
515.0003412753492 3.56393273201925 162.4307486117383 22.0 0.0 0.0 21.0 
516.005632559185 3.7317532854195035 162.4307486117383 22.0 0.0 0.0 21.0 
517.0009938202929 3.264704068951008 146.52831124172604 22.0 0.0 0.0 21.0 
518.0000331149611 2.0389210867474317 146.52831124172604 23.0 0.0 0.0 21.0 
519.0020184912028 0.851235033542293 117.13506669784306 23.0 0.0 0.0 21.0 
520.0003412753492 0.004854393739366255 2.4271968696831436 21.0 0.0 0.0 23.0 
521.0028870704228 0.0 0.0 21.0 0.0 0.0 23.0 
522.0004507920412 0.004854393739366255 2.4271968696831436 21.0 0.0 0.0 22.0 
523.0002654286897 0.0 0.0 21.0 0.0 0.0 22.0 
524.0016169861653 0.0 0.0 21.0 0.0 0.0 22.0 
525.0003412753492 0.0 0.0 21.0 0.0 0.0 22.0 
526.0004630832531 0.0 0.0 22.0 0.0 0.0 22.0 
527.0000785123849 0.0 0.0 21.0 0.0 0.0 21.0 
528.0042725831131 0.002582696984429176 1.2913484922145813 21.0 0.0 0.0 21.0 
529.0019837006513 0.0 0.0 21.0 0.0 0.0 21.0 
530.0003412753492 0.0 0.0 21.0 0.0 0.0 21.0 
531.0058174449102 0.01813712899615482 9.068564498077393 21.0 0.0 0.0 20.0 
532.0006653973534 0.01813712899615482 9.068564498077393 21.0 0.0 0.0 20.0 
533.0044475190776 0.0 0.0 21.0 0.0 0.0 20.0 
534.0013766225086 0.0 0.0 21.0 0.0 0.0 20.0 
535.0003412753492 0.024502837761152255 12.251418880576182 21.0 0.0 0.0 20.0 
536.0008447766704 0.0 0.0 20.0 0.0 0.0 20.0 
537.004423163147 0.0 0.0 20.0 0.0 0.0 19.0 
538.0009081644712 0.0 0.0 20.0 0.0 0.0 19.0 
539.0015106339564 0.0 0.0 20.0 0.0 0.0 20.0 
540.0003412753492 0.0 0.0 20.0 0.0 0.0 19.0 
541.0040144322655 0.0015908350146562529 0.7954175073281249 20.0 0.0 0.0 19.0 
542.0013120234009 0.08008875683426162 32.700832201336965 20.0 0.0 0.0 18.0 
543.0039486813187 0.1747777262679316 32.700832201336965 20.0 0.0 0.0 18.0 
544.0000382667564 0.1387822888522187 32.700832201336965 20.0 0.0 0.0 18.0 
545.0003412753492 0.014458028146890284 7.229014073445171 20.0 0.0 0.0 18.0 
546.000384721021 0.0028584476811375913 0.7146119202843977 20.0 0.0 0.0 18.0 
547.0027967428096 0.0 0.0 19.0 0.0 0.0 18.0 
548.0007733610513 0.01822529859295618 4.781590663959491 19.0 0.0 0.0 18.0 
549.0011771456069 0.008662117265037251 4.331058632518619 19.0 0.0 0.0 18.0 
550.0003412753492 0.0 0.0 19.0 0.0 0.0 18.0 
551.0019015682423 0.0 0.0 19.0 0.0 0.0 18.0 
552.0000651449533 0.0 0.0 19.0 0.0 0.0 18.0 
553.0055360065954 0.0 0.0 19.0 0.0 0.0 18.0 
554.0016070461901 0.0 0.0 19.0 0.0 0.0 18.0 
555.0003412753492 0.0 0.0 19.0 0.0 0.0 18.0 
556.0004455068516 0.0 0.0 19.0 0.0 0.0 17.0 
557.0005643330302 0.0 0.0 19.0 0.0 0.0 17.0 
558.0001796304007 0.0 0.0 19.0 0.0 0.0 18.0 
559.0000276225137 0.0 0.0 19.0 0.0 0.0 18.0 
560.0000961948166 0.0 0.0 19.0 0.0 0.0 18.0 
561.0000263770188 0.024647376997258164 12.323688498629082 17.0 0.0 0.0 18.0 
562.0102599243969 0.0 0.0 17.0 0.0 0.0 18.0 
563.0050137926742 0.0 0.0 17.0 0.0 0.0 18.0 
564.0001106271437 0.0 0.0 16.0 0.0 0.0 18.0 
565.0003412753492 0.0 0.0 16.0 0.0 0.0 18.0 
566.0012322679705 0.0 0.0 16.0 0.0 0.0 18.0 
567.0018781629182 0.0 0.0 16.0 0.0 0.0 19.0 
568.000288106966 0.0 0.0 17.0 0.0 0.0 20.0 
569.0015980171224 0.0 0.0 17.0 0.0 0.0 20.0 
570.0003412753492 0.0 0.0 17.0 0.0 0.0 19.0 
571.001466727923 0.0 0.0 17.0 0.0 0.0 19.0 
572.0041466589965 0.006336895655990248 3.1684478279951236 17.0 0.0 0.0 20.0 
573.005943193961 0.006336895655990248 3.1684478279951236 17.0 0.0 0.0 19.0 
574.0007489552529 0.006336895655990248 3.1684478279951236 17.0 0.0 0.0 19.0 
575.0003412753492 0.00938669647457313 3.1684478279951236 17.0 0.0 0.0 19.0 
576.0067742086391 0.0304165795622022 15.208289781101058 17.0 0.0 0.0 18.0 
577.0005960781056 0.06097025172131818 15.208289781101058 17.0 0.0 0.0 18.0 
578.0035270785294 0.05833653048184639 15.208289781101058 17.0 0.0 0.0 18.0 
579.0034691657295 0.08962674525382469 15.645107385989121 18.0 0.0 0.0 18.0 
580.0003412753492 0.05712982399440002 15.208289781101058 18.0 0.0 0.0 18.0 
581.0000875600939 0.06331332475323012 15.208289781101058 18.0 0.0 0.0 17.0 
582.0016805737904 0.032896745191027685 13.356622216098884 18.0 0.0 0.0 16.0 
583.0004191424407 0.057378921873100674 20.166067593696283 18.0 0.0 0.0 16.0 
584.000511468022 0.06710078675330591 20.166067593696283 17.0 0.0 0.0 16.0 
585.0003412753492 0.06570784699946333 19.46959771677487 16.0 0.0 0.0 16.0 
586.0001006676086 0.06570784699946333 19.46959771677487 17.0 0.0 0.0 16.0 
587.0011438940477 0.08050664380194598 19.46959771677487 17.0 0.0 0.0 17.0 
588.0022317054362 0.11744295708380281 24.05751916729264 16.0 0.0 0.0 18.0 
589.0009295477511 0.09598791859238621 24.05751916729264 17.0 0.0 0.0 18.0 
590.0003412753492 0.1276251505595483 22.3181772807049 16.0 0.0 0.0 17.0 
591.0016561177815 0.11283794605865242 17.557957870168877 16.0 0.0 0.0 17.0 
592.001672746333 0.13413213554788625 17.557957870168877 16.0 0.0 0.0 17.0 
593.0021364904366 0.2674986332026886 29.82279687700833 16.0 0.0 0.0 17.0 
594.0014095969465 0.19371653639686404 27.72055921990753 16.0 0.0 0.0 17.0 
595.0002369774443 0.22363092863509879 27.72055921990753 17.0 0.0 0.0 18.0 
596.0041567229204 0.1938349154136937 27.72055921990753 17.0 0.0 0.0 17.0 
597.0011488688541 0.2310537242907061 27.72055921990753 18.0 0.0 0.0 18.0 
598.0053383076271 0.2335542000084055 39.53148573639953 19.0 0.0 0.0 18.0 
599.0002111320767 0.3123752108973831 39.53148573639953 19.0 0.0 0.0 18.0 
600.0001560732743 0.2621681333451572 39.53148573639953 18.0 0.0 0.0 18.0 
#####################################################################
# End of data export. Simulation finished at: 2019-02-25T20:47+0000 #
#####################################################################
