#####################################################################
# Alchemist log file - simulation started at: 2019-02-25T20:41+0000 #
#####################################################################
# seed = 176.0
#
# The columns have the following meaning: 
# time distance-rep[Mean] distance-rep[Max] leader-rep[CountDistinct] distance-share[Mean] distance-share[Max] leader-share[CountDistinct] 
0.0 NaN NaN NaN NaN NaN NaN 
1.0009598445785106 0.0 0.0 499.0 0.0 0.0 78.0 
2.0081884851171368 0.0 0.0 110.0 0.0 0.0 73.0 
3.000527700073988 0.0 0.0 105.0 0.0 0.0 60.0 
4.002375692248742 0.0 0.0 96.0 0.0 0.0 55.0 
5.001079776112124 0.0 0.0 93.0 0.0 0.0 47.0 
6.000334982222646 0.0 0.0 87.0 0.0 0.0 43.0 
7.001265210647165 0.0 0.0 81.0 0.0 0.0 40.0 
8.000527700073988 0.0 0.0 75.0 0.0 0.0 37.0 
9.000142951616281 0.0 0.0 74.0 0.009908825176323468 4.954412588161745 36.0 
10.00066176892033 0.0 0.0 69.0 0.009908825176323468 4.954412588161745 34.0 
11.00095984457851 0.0 0.0 67.0 0.0 0.0 33.0 
12.000446988378386 0.0 0.0 66.0 0.0 0.0 34.0 
13.000527700073988 0.0 0.0 65.0 0.03277999588527664 12.9289666900155 32.0 
14.005601723351143 0.0 0.0 63.0 0.011333145807901651 5.666572903950851 29.0 
15.00284494696756 0.0 0.0 61.0 0.0 0.0 31.0 
16.00095984457851 0.0 0.0 60.0 0.0 0.0 30.0 
17.001099579810454 0.0 0.0 58.0 0.019408276830998144 9.704138415498988 28.0 
18.000195777209015 0.0 0.0 56.0 0.014821937066093345 7.410968533046713 29.0 
19.001343911638518 0.0 0.0 56.0 0.014821937066093345 7.410968533046713 27.0 
20.002418444629683 0.0 0.0 53.0 0.0 0.0 27.0 
21.000707825589906 0.0 0.0 53.0 0.0 0.0 25.0 
22.00300230111552 0.0 0.0 50.0 0.0 0.0 23.0 
23.000527700073988 0.0 0.0 47.0 0.0 0.0 24.0 
24.002413838231657 0.0 0.0 44.0 0.0 0.0 24.0 
25.00025164150833 0.0 0.0 47.0 0.0 0.0 21.0 
26.00095984457851 0.0 0.0 45.0 0.0 0.0 20.0 
27.00166987257347 0.0 0.0 44.0 0.0 0.0 20.0 
28.000527700073988 0.0 0.0 43.0 0.0 0.0 19.0 
29.00008782718144 0.0 0.0 43.0 0.0 0.0 20.0 
30.00808999017784 0.0 0.0 41.0 0.0 0.0 20.0 
31.000013156540625 0.0 0.0 39.0 0.0 0.0 19.0 
32.000965959521295 0.0 0.0 40.0 0.0 0.0 19.0 
33.00052770007399 0.0 0.0 40.0 0.0 0.0 20.0 
34.00105710230525 0.0 0.0 41.0 0.0 0.0 21.0 
35.000462342032336 0.0 0.0 39.0 0.0 0.0 20.0 
36.00095984457851 0.0 0.0 38.0 0.0 0.0 19.0 
37.00132368262528 0.0 0.0 39.0 0.0 0.0 18.0 
38.00052770007399 0.0 0.0 38.0 0.0 0.0 18.0 
39.00053932465309 0.0 0.0 40.0 0.0 0.0 18.0 
40.00282813160955 0.0 0.0 40.0 0.0 0.0 18.0 
41.00095984457851 0.0 0.0 40.0 0.0 0.0 18.0 
42.0078762522462 0.0 0.0 39.0 0.0 0.0 16.0 
43.00052770007399 0.0 0.0 39.0 0.0 0.0 17.0 
44.00194761565839 0.0 0.0 37.0 0.0 0.0 18.0 
45.00266834707085 0.0 0.0 37.0 0.0 0.0 18.0 
46.00095984457851 0.0 0.0 37.0 0.0 0.0 18.0 
47.001928066698035 0.0 0.0 37.0 0.0 0.0 18.0 
48.000227216294626 0.0 0.0 36.0 0.0 0.0 19.0 
49.00228746067142 0.0 0.0 35.0 0.0 0.0 19.0 
50.00220511160169 0.0 0.0 34.0 0.0 0.0 19.0 
51.00019620355691 0.0 0.0 35.0 0.0 0.0 19.0 
52.00163195529673 6.091942246740728E-4 0.304597112337035 34.0 0.0 0.0 19.0 
53.00021148906013 0.0 0.0 35.0 0.0 0.0 19.0 
54.001385316591524 0.010451733828895315 5.225866914447636 32.0 0.0 0.0 19.0 
55.00290268287796 0.0 0.0 31.0 0.0 0.0 19.0 
56.00095984457851 0.0 0.0 30.0 0.0 0.0 19.0 
57.00094250750297 0.003065632785740264 1.5328163928701315 28.0 0.0 0.0 18.0 
58.00052770007399 0.003065632785740264 1.5328163928701315 27.0 0.0 0.0 18.0 
59.00019184206999 0.003065632785740264 1.5328163928701315 27.0 0.0 0.0 18.0 
60.00017127154691 0.04130535666493477 20.652678332467474 27.0 0.0 0.0 17.0 
61.00095984457851 0.04130535666493477 20.652678332467474 26.0 0.0 0.0 17.0 
62.000476571838355 0.060010022286305566 30.00501114315287 25.0 0.0 0.0 17.0 
63.00052770007399 0.06112176266975949 30.00501114315287 24.0 0.0 0.0 17.0 
64.00089425078397 0.06112176266975949 30.00501114315287 24.0 0.0 0.0 17.0 
65.0031129772459 0.12302623556793899 30.95223644908944 23.0 0.0 0.0 17.0 
66.00095984457852 0.19173778266125674 34.35577354665898 23.0 0.0 0.0 17.0 
67.00119571629293 0.258067037675327 40.44894051651528 23.0 0.0 0.0 18.0 
68.00052770007399 0.3778787771456366 45.68205990216535 23.0 0.0 0.0 18.0 
69.00417178246352 0.3397015527387838 45.68205990216535 23.0 0.0 0.0 19.0 
70.00166002278316 0.32313698012096403 41.22086388726535 21.0 0.0 0.0 19.0 
71.00095984457852 0.10374416248309423 41.22086388726535 22.0 0.0 0.0 19.0 
72.00275096245858 0.001385527727124548 0.692763863562277 21.0 0.0 0.0 19.0 
73.00052770007399 0.015232301597617784 7.616150798808917 22.0 0.0 0.0 18.0 
74.00205456120322 0.019175145394497644 9.587572697248874 22.0 0.0 0.0 18.0 
75.0005837596138 0.019175145394497644 9.587572697248874 19.0 0.0 0.0 18.0 
76.00095984457852 0.019175145394497644 9.587572697248874 20.0 0.0 0.0 18.0 
77.00130144748313 0.028665791986152035 9.587572697248874 20.0 0.0 0.0 18.0 
78.00052770007399 0.03333951056581738 16.669755282908625 20.0 0.0 0.0 18.0 
79.00127688910202 0.06867159599439618 14.383832669785704 19.0 0.0 0.0 18.0 
80.00362308253447 0.02785253230919747 10.02899117532894 22.0 0.0 0.0 18.0 
81.00095984457852 0.07956077993135005 20.452557739991278 21.0 0.0 0.0 18.0 
82.0025417437791 0.04085131082702117 8.504970549059209 21.0 0.0 0.0 19.0 
83.00052770007399 0.04085131082702117 8.504970549059209 21.0 0.0 0.0 19.0 
84.00051672457059 0.04085131082702117 8.504970549059209 19.0 0.0 0.0 19.0 
85.00080385894442 0.04085131082702117 8.504970549059209 19.0 0.0 0.0 19.0 
86.00095984457852 0.0538286646784704 14.993647474783842 19.0 0.0 0.0 19.0 
87.00169234070408 0.09041842818064162 20.231830608993135 19.0 0.0 0.0 20.0 
88.00008822690353 0.11152061332816293 20.231830608993135 19.0 0.0 0.0 20.0 
89.00017068673083 0.12053285158774095 20.231830608993135 19.0 0.0 0.0 20.0 
90.00166693093539 0.12053285158774095 20.231830608993135 19.0 0.0 0.0 20.0 
91.00095984457852 0.0800691903697547 20.008823344309832 19.0 0.0 0.0 20.0 
92.00031973766272 0.15257313735787445 31.56850838274636 19.0 0.0 0.0 20.0 
93.00052770007399 0.10975095985945871 31.791058457253143 19.0 0.0 0.0 20.0 
94.00068528919948 0.12249798991756222 31.791058457253143 19.0 0.0 0.0 20.0 
95.0035992780003 0.17785155023743074 31.56850838274636 19.0 0.0 0.0 20.0 
96.00075115541411 0.0600832327583117 16.561645691939503 19.0 0.0 0.0 20.0 
97.00329931614897 0.08387083741559496 17.46816171009627 18.0 0.0 0.0 20.0 
98.00052770007399 0.0936438042112279 22.35464510791266 18.0 0.0 0.0 20.0 
99.00043935422485 0.05265276374041211 13.342309644727465 18.0 0.0 0.0 20.0 
100.00040707564014 0.06474660879117938 13.342309644727465 18.0 0.0 0.0 20.0 
101.0001490655419 0.07669208125513534 13.342309644727465 18.0 0.0 0.0 20.0 
102.00253828045899 0.09918555858160863 18.71465446294991 18.0 0.0 0.0 20.0 
103.00052770007399 0.09918555858160863 18.71465446294991 18.0 0.0 0.0 20.0 
104.00035777263341 0.10050178345492335 18.71465446294991 18.0 0.0 0.0 20.0 
105.00033644877625 0.06307247452902372 16.553855057242373 18.0 0.0 0.0 20.0 
106.00095984457852 0.045310834392426586 12.934878157879695 18.0 0.0 0.0 20.0 
107.00273787305025 0.05511931617120041 19.132823195695778 17.0 0.0 0.0 20.0 
108.00052770007399 0.05511931617120041 19.132823195695778 17.0 0.0 0.0 19.0 
109.00323915161064 0.018840162615149203 4.963136661135735 17.0 0.0 0.0 19.0 
110.00558113395807 0.0757228331419449 24.950736346777433 17.0 0.0 0.0 20.0 
111.00095984457852 0.02582136044839037 4.963136661135735 17.0 0.0 0.0 19.0 
112.00021817411906 0.0727331019154811 9.918328026516207 17.0 0.0 0.0 19.0 
113.00052770007399 0.07216149252072707 9.918328026516207 17.0 0.0 0.0 19.0 
114.00069872943234 0.09408058147122479 15.435188577729718 17.0 0.0 0.0 19.0 
115.00019512632143 0.15313551264505507 24.0441901393946 17.0 0.0 0.0 19.0 
116.00044290698473 0.16386775482484783 24.0441901393946 17.0 0.0 0.0 19.0 
117.00027933367697 0.12934566539079162 15.207067824919193 17.0 0.0 0.0 19.0 
118.00052770007399 0.13544197710873657 17.496009843050956 18.0 0.0 0.0 19.0 
119.00425515832859 0.14985282338134803 20.775251704398812 18.0 0.0 0.0 19.0 
120.00096511969996 0.15654273290008675 20.775251704398812 18.0 0.0 0.0 18.0 
121.00095984457852 0.21964308038114516 26.1569323651307 18.0 0.0 0.0 18.0 
122.00046376788497 0.2130665535237262 21.629626280091372 18.0 0.0 0.0 18.0 
123.00052770007399 0.22979851966515283 21.629626280091372 19.0 0.0 0.0 18.0 
124.00259820377809 0.18162491360761873 18.034277047570924 18.0 0.0 0.0 18.0 
125.00514691289837 0.19124119522427208 21.526422035275118 17.0 0.0 0.0 18.0 
126.0008023062582 0.19890388658387415 21.526422035275118 19.0 0.0 0.0 18.0 
127.00125804249832 0.13787636193687433 21.539806723533474 19.0 0.0 0.0 19.0 
128.00052770007397 0.1544300133790769 23.355994470993608 18.0 0.0 0.0 19.0 
129.00269074321344 0.09814812015265152 15.639517890221981 18.0 0.0 0.0 18.0 
130.00447558749298 0.10835179062202245 21.539806723533474 18.0 0.0 0.0 18.0 
131.00095984457852 0.0 0.0 16.0 0.0 0.0 17.0 
132.00335567755255 0.0 0.0 16.0 0.0 0.0 17.0 
133.00052770007397 0.0 0.0 17.0 0.0 0.0 18.0 
134.00884002359453 0.0 0.0 17.0 0.0 0.0 18.0 
135.00362781210524 0.003432691078792052 1.7163455393960305 17.0 0.0 0.0 18.0 
136.00083903863649 0.0034326910787920526 1.7163455393960305 17.0 0.0 0.0 18.0 
137.00357778257393 0.02885989998790486 7.214974996976196 17.0 0.0 0.0 18.0 
138.00052770007397 0.014429949993952449 7.214974996976196 18.0 0.0 0.0 18.0 
139.00133621503176 0.014429949993952348 7.214974996976196 18.0 0.0 0.0 18.0 
140.0027847253353 0.02885989998790486 7.214974996976196 18.0 0.0 0.0 18.0 
141.00095984457852 0.028977487394022495 14.488743697011216 18.0 0.0 0.0 18.0 
142.0011710629407 0.04426558815534682 20.176196612044293 18.0 0.0 0.0 18.0 
143.00052770007397 0.044265588155346765 20.176196612044293 18.0 0.0 0.0 19.0 
144.00157063311613 0.08461798137943502 20.176196612044293 18.0 0.0 0.0 19.0 
145.0023180386399 0.0039131949312580985 1.956597465629045 19.0 0.0 0.0 20.0 
146.00095984457852 0.0039131949312580985 1.956597465629045 20.0 0.0 0.0 21.0 
147.00025401528188 0.0 0.0 20.0 0.0 0.0 21.0 
148.00052770007397 0.0 0.0 20.0 0.0 0.0 21.0 
149.0088699283965 0.0 0.0 20.0 0.00486951595271705 2.434757976358526 21.0 
150.00059838225678 0.0 0.0 20.0 0.0 0.0 21.0 
151.00095984457852 0.0 0.0 20.0 0.013202931208316487 6.601465604158221 21.0 
152.00070708009224 0.0 0.0 20.0 0.0 0.0 22.0 
153.00052770007397 0.012850055450092612 3.9004457066534712 20.0 0.0 0.0 22.0 
154.0092365032249 0.016233174872254136 3.9004457066534712 20.0 0.0 0.0 22.0 
155.00042270282842 0.016233174872254136 3.9004457066534712 20.0 0.0 0.0 21.0 
156.00095984457852 0.016233174872254136 3.9004457066534712 20.0 0.0 0.0 21.0 
157.0020466068137 0.011112679639295069 3.864780108566748 20.0 0.0 0.0 22.0 
158.00052770007397 0.0 0.0 20.0 0.0 0.0 21.0 
159.0031086035968 0.0 0.0 20.0 0.0 0.0 21.0 
160.0007143334039 0.0 0.0 20.0 0.0 0.0 21.0 
161.00045144810153 0.0 0.0 20.0 0.0 0.0 21.0 
162.00054558232063 0.015473685684750124 6.950655757716447 20.0 0.0 0.0 21.0 
163.00052770007397 0.016464874486552983 6.950655757716447 19.0 0.0 0.0 20.0 
164.00180967037343 0.02205414369366317 6.950655757716447 19.0 0.0 0.0 20.0 
165.0000389877939 0.027592065094129235 6.950655757716447 19.0 0.0 0.0 20.0 
166.00019870026495 0.04281660800471622 14.56292721300997 20.0 0.0 0.0 21.0 
167.00211751156573 0.04638342200834394 8.847191845552459 21.0 0.0 0.0 21.0 
168.00052770007397 0.04328422724681576 8.847191845552459 21.0 0.0 0.0 21.0 
169.0001842537953 0.04416068835899548 11.680301375830993 21.0 0.0 0.0 21.0 
170.00081991944373 0.022743840747881734 11.371920373940839 21.0 0.0 0.0 21.0 
171.00095984457852 0.0 0.0 20.0 0.0 0.0 21.0 
172.0006594167384 0.023297452557564765 4.947616554817756 21.0 0.0 0.0 21.0 
173.00052770007397 0.02780796505921866 4.947616554817756 21.0 0.0 0.0 20.0 
174.00440544096418 0.03561937712541705 11.798522979129103 21.0 0.0 0.0 19.0 
175.00189834648464 0.012022331167158787 3.755909332752452 21.0 0.0 0.0 18.0 
176.0006947727758 0.0075118186655049116 3.755909332752452 21.0 0.0 0.0 17.0 
177.00425829231497 0.0075118186655049116 3.755909332752452 20.0 0.0 0.0 17.0 
178.00052770007397 0.0 0.0 20.0 0.0 0.0 17.0 
179.0029187204795 0.0 0.0 20.0 0.0 0.0 17.0 
180.00099295127208 0.0 0.0 20.0 0.0 0.0 17.0 
181.00095984457852 0.0 0.0 19.0 0.0 0.0 16.0 
182.00012867844814 0.0 0.0 18.0 0.0 0.0 16.0 
183.00052770007397 0.0 0.0 18.0 0.0 0.0 16.0 
184.00019058017253 0.0 0.0 18.0 0.0 0.0 16.0 
185.00470460529598 0.0 0.0 19.0 0.0 0.0 16.0 
186.00095984457852 0.0 0.0 20.0 0.0 0.0 16.0 
187.0007450526097 0.0 0.0 20.0 0.0 0.0 16.0 
188.00052770007397 0.0 0.0 18.0 0.0 0.0 16.0 
189.0008131482732 0.0 0.0 19.0 0.0 0.0 16.0 
190.00040783850739 0.002403604831176596 1.201802415588304 16.0 0.0 0.0 16.0 
191.0007481668345 0.002403604831176596 1.201802415588304 15.0 0.0 0.0 16.0 
192.00040226970196 0.028935593768416628 5.909667650983494 16.0 0.0 0.0 17.0 
193.00052770007397 0.05092564676165592 7.518649167831256 16.0 0.0 0.0 18.0 
194.00359924897407 0.064257252723404 12.57547063185757 15.0 0.0 0.0 17.0 
195.00187503380204 0.0741467864540732 12.57547063185757 15.0 0.0 0.0 17.0 
196.00095984457852 0.0739820352649395 12.57547063185757 16.0 0.0 0.0 16.0 
197.00266282438005 0.05191311856774926 10.44549779509208 16.0 0.0 0.0 17.0 
198.00007941964662 0.05392687358164788 15.934326155076576 16.0 0.0 0.0 18.0 
199.00225412673038 0.03420828316292171 10.44549779509208 16.0 0.0 0.0 18.0 
200.0021284280698 0.001167225681310804 0.5836128406554053 16.0 0.0 0.0 20.0 
201.00095984457852 0.001167225681310804 0.5836128406554053 16.0 0.0 0.0 18.0 
202.00210778949943 0.01498935486927772 6.911064593983468 16.0 0.0 0.0 17.0 
203.00052770007397 0.03337111419963979 9.774492505836463 17.0 0.0 0.0 16.0 
204.0007252001101 0.019548985011673018 9.774492505836463 17.0 0.0 0.0 16.0 
205.00416074572314 0.019548985011673018 9.774492505836463 17.0 0.0 0.0 16.0 
206.00006559815813 0.033850123919421195 9.774492505836463 17.0 0.0 0.0 16.0 
207.0031210214171 0.037935710180646565 9.774492505836463 16.0 0.0 0.0 16.0 
208.00047257274582 0.054028073054086266 17.994613402348477 16.0 0.0 0.0 16.0 
209.00348839537983 0.050829781955090685 17.994613402348477 16.0 0.0 0.0 16.0 
210.0006791607171 0.050829781955090685 17.994613402348477 15.0 0.0 0.0 16.0 
211.0006231512259 0.050829781955090685 17.994613402348477 15.0 0.0 0.0 16.0 
212.00079364790773 0.0229161274706236 11.45806373531181 16.0 0.0 0.0 16.0 
213.0004243218562 0.010934368864591305 5.467184432295625 16.0 0.0 0.0 17.0 
214.00177371296897 0.010934368864591305 5.467184432295625 17.0 0.0 0.0 17.0 
215.0012856927631 0.06914296793967824 29.104299537543824 17.0 0.0 0.0 17.0 
216.00064701436747 0.07144507890425336 29.104299537543824 17.0 0.0 0.0 17.0 
217.00092619077355 0.07964089180686892 29.104299537543824 17.0 0.0 0.0 17.0 
218.0004948398137 0.0874145880897689 40.2164139644411 18.0 0.0 0.0 17.0 
219.00101477507627 0.14603047705462208 40.2164139644411 17.0 0.0 0.0 17.0 
220.000072934528 0.13515524297486803 40.2164139644411 18.0 0.0 0.0 18.0 
221.00075788913458 0.14650671745070032 40.2164139644411 18.0 0.0 0.0 18.0 
222.0009851407051 0.1977116587136049 45.4041057013319 18.0 0.0 0.0 18.0 
223.00052770007397 0.1955580884957586 51.38231588411017 18.0 0.0 0.0 18.0 
224.00349987082538 0.18737981594568254 51.38231588411017 18.0 0.0 0.0 18.0 
225.00028756383986 0.17544322425233083 51.38231588411017 18.0 0.0 0.0 17.0 
226.00095984457852 0.18678817167161174 51.38231588411017 18.0 0.0 0.0 18.0 
227.0012257852015 0.21853653333039066 51.38231588411017 18.0 0.0 0.0 18.0 
228.00052770007397 0.24769075769079296 52.84011814417187 18.0 0.0 0.0 18.0 
229.0037089633215 0.23604034104203442 52.84011814417187 18.0 0.0 0.0 18.0 
230.00106236784265 0.27748834714440457 52.84011814417187 18.0 0.0 0.0 18.0 
231.00095984457852 0.18344400749702683 51.90097216359263 19.0 0.0 0.0 18.0 
232.0016445726231 0.1645363970624053 25.683574066051506 19.0 0.0 0.0 18.0 
233.00052770007397 0.1597250452321579 23.274764356908634 18.0 0.0 0.0 18.0 
234.00024993863283 0.19317106860139197 23.274764356908634 19.0 0.0 0.0 18.0 
235.00089088261436 0.11296856092190032 23.274764356908634 20.0 0.0 0.0 18.0 
236.00095984457852 0.11296856092190032 23.274764356908634 20.0 0.0 0.0 19.0 
237.00081578982858 0.14299407108837506 27.573637608511007 20.0 0.0 0.0 21.0 
238.00052770007397 0.16258580996331784 24.742644998711995 20.0 0.0 0.0 20.0 
239.0009799128505 0.17622860300054005 24.742644998711995 20.0 0.0 0.0 20.0 
240.00020336081658 0.17622860300054005 24.742644998711995 20.0 0.0 0.0 20.0 
241.00095984457852 0.17622860300054005 24.742644998711995 20.0 0.0 0.0 19.0 
242.00038337547693 0.2445348193167482 36.67978573256451 20.0 0.0 0.0 19.0 
243.00016860934483 0.24666322801401844 36.67978573256451 19.0 0.0 0.0 18.0 
244.00184828701916 0.20870126506257586 36.67978573256451 20.0 0.0 0.0 18.0 
245.00157730873795 0.20870126506257586 36.67978573256451 20.0 0.0 0.0 18.0 
246.00095984457852 0.21135532308933838 36.67978573256451 20.0 0.0 0.0 18.0 
247.00332114188296 0.19590265527713638 36.67978573256451 20.0 0.0 0.0 18.0 
248.00052770007397 0.10554907277447466 22.513033058076815 20.0 0.0 0.0 18.0 
249.0013440158173 0.12087553749050517 22.513033058076815 20.0 0.0 0.0 18.0 
250.0033970031821 0.10554907277447466 22.513033058076815 20.0 0.0 0.0 18.0 
251.0004814588804 0.10554907277447466 22.513033058076815 20.0 0.0 0.0 18.0 
252.00356745608045 0.171202344371784 33.63503151675792 20.0 0.0 0.0 18.0 
253.00052770007397 0.10590232804500355 24.22724439275987 20.0 0.006725176087884888 3.362588043942452 18.0 
254.0014206935985 0.10590232804500355 24.22724439275987 20.0 0.0 0.0 19.0 
255.00129085362252 0.10590232804500355 24.22724439275987 20.0 0.0 0.0 19.0 
256.0009598445785 0.11523636821055666 24.22724439275987 21.0 0.0 0.0 21.0 
257.0011342125645 0.07632215232922639 20.731319794616496 21.0 0.0 0.0 20.0 
258.00006192883023 0.07010771197235334 25.62447872243075 22.0 0.0 0.0 20.0 
259.0008397807041 0.051248957444861125 25.62447872243075 21.0 0.0 0.0 20.0 
260.0011463042257 0.051248957444861125 25.62447872243075 21.0 0.0 0.0 19.0 
261.0009598445785 0.051248957444861125 25.62447872243075 21.0 0.0 0.0 18.0 
262.0004138331486 0.05032449526845444 21.516920814753576 21.0 0.0 0.0 18.0 
263.000527700074 0.010920833233184662 4.527939185881905 21.0 0.0 0.0 18.0 
264.00449425477797 0.010920833233184662 4.527939185881905 21.0 0.0 0.0 17.0 
265.00114491326735 0.05160063247350575 24.86783880604233 20.0 0.0 0.0 19.0 
266.00017163264613 0.002382446216048714 1.19122310802436 20.0 0.0 0.0 18.0 
267.0002928186186 0.002382446216048714 1.19122310802436 20.0 0.0 0.0 18.0 
268.000527700074 0.007649716241274973 3.8248581206374865 20.0 0.0 0.0 18.0 
269.0049926675067 0.007649716241274973 3.8248581206374865 20.0 0.0 0.0 18.0 
270.0003676060124 0.0 0.0 20.0 0.0 0.0 18.0 
271.00083246533546 0.010418966405937558 5.209483202968784 20.0 0.0 0.0 18.0 
272.00374076815496 0.014982547757140101 5.209483202968784 20.0 0.0 0.0 18.0 
273.000527700074 0.00456358135120247 2.281790675601229 20.0 0.0 0.0 18.0 
274.0012409057389 0.00456358135120247 2.281790675601229 20.0 0.0 0.0 18.0 
275.00026229139144 0.016195765760833303 8.09788288041662 20.0 0.0 0.0 18.0 
276.0009598445785 0.05217326450732997 17.98874937324834 20.0 0.0 0.0 18.0 
277.0010101413462 0.05628574595209079 14.972649830242602 20.0 0.0 0.0 18.0 
278.00049271832177 0.11216785685317712 24.73285758694871 20.0 0.0 0.0 18.0 
279.0003297757498 0.07323746431596141 14.972649830242602 20.0 0.0 0.0 18.0 
280.00050554484255 0.05113024113107401 24.96262074543654 20.0 0.0 0.0 18.0 
281.0009598445785 0.2956400623747067 43.800743014185514 20.0 0.0 0.0 18.0 
282.00063157423 0.21329396881131274 47.068254651537586 20.0 0.0 0.0 18.0 
283.000527700074 0.2436390636987124 70.38405764026004 20.0 0.0 0.0 18.0 
284.00207463380696 0.3807582153068785 79.20569802505457 20.0 0.0 0.0 18.0 
285.0029286937834 0.2607348698554374 76.94674916953079 20.0 0.0 0.0 18.0 
286.0004586093962 0.2871767735579858 85.83566290879565 19.0 0.0 0.0 17.0 
287.00705204344547 0.35476289445058434 93.15097534173793 20.0 0.0 0.0 17.0 
288.000527700074 4.229985574515344E-4 0.21149927872576768 19.0 0.0 0.0 17.0 
289.00005335176894 0.18672494924092845 93.15097534173793 20.0 0.0 0.0 17.0 
290.0041579546202 0.05101995215766443 14.309694892873495 19.0 0.0 0.0 17.0 
291.0009598445785 0.06421785740437735 12.887061275755173 20.0 0.0 0.0 18.0 
292.0043011625513 0.10824719090230851 22.01466674896554 20.0 0.0 0.0 19.0 
293.000527700074 0.04471904250652979 12.887061275755173 21.0 0.0 0.0 19.0 
294.0010516202067 0.0 0.0 22.0 0.01242383494432559 6.2119174721627815 19.0 
295.00711583574 0.0 0.0 22.0 0.01242383494432559 6.2119174721627815 19.0 
296.0009598445785 0.0 0.0 21.0 0.01242383494432559 6.2119174721627815 19.0 
297.001436739005 0.0 0.0 21.0 0.01242383494432559 6.2119174721627815 19.0 
298.000527700074 0.0 0.0 21.0 0.05916677346523385 18.520733622155262 19.0 
299.00225950121967 0.0 0.0 21.0 0.05916677346523385 18.520733622155262 19.0 
300.0005625228532 0.0 0.0 21.0 0.07390367963551066 18.520733622155262 19.0 
301.0009598445785 0.0 0.0 21.0 0.07390367963551066 18.520733622155262 19.0 
302.00146215919443 0.0 0.0 21.0 0.07390367963551066 18.520733622155262 19.0 
303.000527700074 0.0 0.0 21.0 0.037342371551496105 10.96824442183464 20.0 
304.0010776508767 0.0 0.0 21.0 0.0 0.0 20.0 
305.00117870457444 0.0 0.0 21.0 0.0 0.0 20.0 
306.00004797889477 0.0 0.0 21.0 0.0 0.0 20.0 
307.0016351794311 0.0 0.0 21.0 0.0 0.0 20.0 
308.000527700074 0.0 0.0 21.0 0.0 0.0 20.0 
309.00398514576085 0.03514594023490688 10.73326202475991 21.0 0.0 0.0 20.0 
310.0020938504997 0.03514594023490688 10.73326202475991 20.0 0.0 0.0 20.0 
311.00070598266694 0.0 0.0 20.0 0.0 0.0 20.0 
312.00230958642277 0.0 0.0 20.0 0.0 0.0 20.0 
313.000527700074 0.0 0.0 20.0 0.0 0.0 19.0 
314.00445702518203 0.0 0.0 20.0 0.0 0.0 18.0 
315.00082084542805 0.0 0.0 20.0 0.0 0.0 17.0 
316.0009598445785 0.0 0.0 20.0 0.0 0.0 17.0 
317.0007275585306 0.0 0.0 20.0 0.0 0.0 17.0 
318.000527700074 0.0 0.0 20.0 0.0 0.0 17.0 
319.0003374495021 0.0 0.0 20.0 0.0 0.0 18.0 
320.00187097413095 0.0 0.0 20.0 0.0 0.0 18.0 
321.0009598445785 0.0 0.0 20.0 0.0 0.0 18.0 
322.0017204790152 0.0 0.0 20.0 0.0 0.0 18.0 
323.0002834907664 0.004833275915066828 2.4166379575334247 20.0 0.0 0.0 18.0 
324.00043474420005 0.004833275915066828 2.4166379575334247 20.0 0.0 0.0 17.0 
325.00138863603877 0.004833275915066828 2.4166379575334247 20.0 0.004478271105151359 1.7631831859741283 18.0 
326.0009598445785 0.004833275915066828 2.4166379575334247 20.0 0.004478271105151359 1.7631831859741283 18.0 
327.0007744587608 0.009029070371996066 2.4166379575334247 20.0 0.004478271105151359 1.7631831859741283 18.0 
328.0003454185949 0.004195794456929245 2.097897228464632 20.0 0.0054781143927683995 1.7631831859741283 18.0 
329.00376842995803 0.02969505514923253 9.112573615733083 20.0 0.042723758172898633 9.188978668472515 18.0 
330.00029653657816 0.01146990791776647 5.734953958883267 20.0 0.02800903536438554 9.188978668472515 18.0 
331.0009598445785 0.01146990791776647 5.734953958883267 20.0 0.009631078027440433 3.7710208936627225 18.0 
332.00124006652777 0.01146990791776647 5.734953958883267 20.0 0.01680251959409447 7.856663320798276 18.0 
333.000527700074 0.009665058940672508 4.8325294703362545 20.0 0.033178179681156675 15.396017897078309 18.0 
334.00010846445224 0.003140546087075661 1.5702730435378385 20.0 0.056088336575653604 15.396017897078309 19.0 
335.0001758887467 0.0 0.0 20.0 0.04130330897069795 15.396017897078309 19.0 
336.0001245011389 0.008918517219070388 4.459258609535226 20.0 0.04130330897069795 15.396017897078309 19.0 
337.0004088076393 0.0 0.0 20.0 0.002681706823342542 0.692377944420258 19.0 
338.000527700074 0.0 0.0 20.0 0.002681706823342542 0.692377944420258 19.0 
339.0054385557552 0.0 0.0 20.0 0.11323564000290615 21.46844900564659 19.0 
340.0005788566944 0.004432779625795093 2.216389812897546 19.0 0.09847178266182635 21.46844900564659 18.0 
341.0009598445785 0.024071339845222195 9.819280109713588 19.0 0.16628556777999154 27.247963657083773 18.0 
342.0020363660305 0.002371004041173354 1.1855020205866822 19.0 0.16628556777999154 27.247963657083773 18.0 
343.000527700074 0.008094222798631194 4.047111399315611 19.0 0.2495504213858804 34.76470597432862 19.0 
344.00006344001537 0.008094222798631194 4.047111399315611 18.0 0.2791063293795759 34.76470597432862 22.0 
345.0012578205754 0.008094222798631194 4.047111399315611 18.0 0.2785468351884742 34.76470597432862 21.0 
346.0009598445785 0.0 0.0 19.0 0.3077838316633324 34.76470597432862 21.0 
347.00047914260773 0.0 0.0 19.0 0.2845095729659879 30.45248036026024 20.0 
348.0001526187919 0.0 0.0 19.0 0.35826723883684164 30.45248036026024 20.0 
349.00655102073955 0.0 0.0 19.0 0.3759031768852286 36.909854982747646 20.0 
350.00076822288315 0.0 0.0 19.0 0.32543445209640764 36.909854982747646 20.0 
351.0009598445785 0.0 0.0 19.0 0.24330582726332955 27.38397104335175 20.0 
352.0034014305395 0.0 0.0 18.0 0.24330582726332955 27.38397104335175 20.0 
353.000527700074 0.0 0.0 18.0 0.3477593319733813 34.78670477479298 20.0 
354.00278488333237 0.0 0.0 18.0 0.40760576920632857 34.78670477479298 20.0 
355.0018815680707 0.02054809748358962 10.274048741794843 18.0 0.40703319908491836 34.78670477479298 20.0 
356.0009598445785 0.0 0.0 18.0 0.4103665555903822 40.68256962178404 20.0 
357.00588948572477 0.0 0.0 18.0 0.4171508116684976 40.68256962178404 19.0 
358.000527700074 0.07369470756277888 34.157408344252445 18.0 0.4817670139507148 48.03063879867662 19.0 
359.0013549258704 0.28905449789262816 45.36223240144113 18.0 0.5770610409074846 48.03063879867662 19.0 
360.00012690290066 0.2036835225672882 45.36223240144113 18.0 0.49491008890646004 48.03063879867662 19.0 
361.0009598445785 0.16372272187022513 45.36223240144113 18.0 0.623963140065565 57.104383545335565 19.0 
362.00291010740966 0.14279784450310284 33.13207553722293 18.0 0.6463965290034683 57.104383545335565 16.0 
363.000527700074 0.35582602434060034 38.339662926735684 17.0 0.7417952574545509 64.51333037119241 16.0 
364.0000735902173 0.7241525593755554 56.83309044107244 17.0 0.8745644761027677 64.51333037119241 16.0 
365.00032777708816 0.8425650493208731 56.83309044107244 17.0 0.8720810943055438 64.51333037119241 16.0 
366.00000549330775 0.883944365109974 56.83309044107244 17.0 0.7168792873190089 57.13091662331232 16.0 
367.004536961996 0.8287732512490131 58.71152629819409 17.0 0.7399475064861559 57.13091662331232 16.0 
368.000527700074 1.101517470059256 73.29994927424394 16.0 0.8204285637355383 64.47403113233008 16.0 
369.00103009411237 1.0671256514397007 73.29994927424394 16.0 0.9666925666671682 70.14114721618762 17.0 
370.0053699454473 1.1715150537168704 73.29994927424394 16.0 1.1215133477431853 77.48404998563507 16.0 
371.0009598445785 1.2021025696047272 73.29994927424394 16.0 1.106718015721543 77.66580146152666 16.0 
372.00567840147556 1.1769053623227088 65.75047661727803 16.0 1.1148695912126179 70.27494945826953 16.0 
373.000527700074 0.983153854450083 58.33567096980107 16.0 1.217504839298396 84.85490187855208 16.0 
374.0024477729239 1.1594237858084553 78.4726341823075 15.0 1.3342663510454695 84.85490187855208 16.0 
375.00137301657884 1.3148104754694407 78.4726341823075 17.0 1.4871252880719048 84.85490187855208 17.0 
376.0009598445785 1.6813995765801781 78.4726341823075 17.0 1.478122899001962 84.85490187855208 16.0 
377.0004526796663 1.2527784676646787 71.04009766210976 17.0 1.530932460112478 92.3213266955737 16.0 
378.000527700074 1.317920564010887 71.04009766210976 18.0 1.5621735575319249 99.6564302086656 16.0 
379.0037607001721 1.4227257623951652 63.70141924139324 18.0 1.6433655596578962 99.6564302086656 16.0 
380.00109883981924 1.4041470660098474 63.70141924139324 18.0 1.6284302311452428 99.6564302086656 16.0 
381.0009598445785 1.3816928083043962 63.70141924139324 18.0 1.5599650461164065 99.6564302086656 16.0 
382.0018701516235 1.3097301863163024 66.65291897619556 18.0 1.6113719355732647 99.6564302086656 16.0 
383.000527700074 1.4341444953942284 66.65291897619556 18.0 1.5120412483901633 99.22563104081166 16.0 
384.0003613390306 1.4331268728201627 66.65291897619556 19.0 2.105188820354464 114.47588858913718 16.0 
385.00027538964866 1.3113352812767585 64.15125681777465 19.0 2.0346812059853296 114.47588858913718 15.0 
386.0009598445785 1.4980387823007875 71.14746594594732 18.0 1.86291231160873 114.0448504818151 15.0 
387.0000118333319 1.3818791483663715 71.14746594594732 18.0 1.8864272000970248 114.0448504818151 16.0 
388.000527700074 1.5027622487632286 71.59284575902927 18.0 2.04790843168767 114.0448504818151 16.0 
389.00124645682064 1.559720322778602 81.4350637584559 18.0 2.157477416373816 121.51339690997395 16.0 
390.0025883469233 1.16591105453895 64.89730782147404 18.0 1.8994101902929583 114.46339233126315 16.0 
391.0009598445785 1.4466410163450343 72.17095962831667 19.0 1.8119979234652317 114.46339233126315 17.0 
392.0003420566428 1.4447113128853935 72.17095962831667 19.0 1.8064234707510503 114.46339233126315 17.0 
393.000527700074 1.3306619232820325 72.17095962831667 20.0 1.647887490714846 120.38425509829875 17.0 
394.00011030877 1.2526817481819246 66.12466780107775 20.0 1.705328477160003 112.83428494784982 17.0 
395.00371500922853 1.0801856283358164 66.12466780107775 19.0 1.705328477160003 112.83428494784982 17.0 
396.0009598445785 1.5758539135955265 72.67670634116229 20.0 2.059382347535395 128.90127497229054 17.0 
397.00018138250306 1.4808376864809234 72.67670634116229 20.0 2.059367628444682 128.90127497229054 17.0 
398.000527700074 1.5116094000330715 72.67670634116229 19.0 2.1598233897033206 132.41788293593441 17.0 
399.0004072486468 1.4611305744224372 72.67670634116229 19.0 1.709867037587785 138.18762047880807 18.0 
400.00197796265866 1.4720882452698556 72.67670634116229 19.0 0.0011799493734731689 0.589974686736582 20.0 
401.0009598445785 1.5121654879013822 64.70852579997415 18.0 0.0 0.0 19.0 
402.00176495257756 1.5148642634253466 64.70852579997415 17.0 0.0 0.0 19.0 
403.000052455034 1.3476597748250665 64.23575669419557 17.0 0.0 0.0 18.0 
404.0005139737117 1.2162497870036888 64.23575669419557 17.0 0.0 0.0 18.0 
405.00139489908605 1.1458806696419768 64.23575669419557 16.0 0.0 0.0 19.0 
406.0009598445785 1.0692310369292963 54.64598345571437 16.0 0.0066684113987497615 3.334205699374877 19.0 
407.00050798164716 0.974857253203808 55.07688254814548 16.0 0.0 0.0 18.0 
408.0002953911578 0.9830330252963262 55.07688254814548 16.0 0.0 0.0 18.0 
409.0013518165333 0.9792149397792631 55.07688254814548 16.0 0.0 0.0 18.0 
410.0027689084482 1.0304279629153936 55.07688254814548 15.0 0.0 0.0 18.0 
411.0009598445785 1.0510037228402747 54.28627755590293 16.0 0.0 0.0 18.0 
412.0031109187125 0.9778890156993558 58.16684700315636 16.0 0.0 0.0 18.0 
413.000527700074 0.9793452992561776 58.16684700315636 16.0 0.0 0.0 18.0 
414.00113062766843 0.8709544885560432 58.16684700315636 15.0 0.0 0.0 18.0 
415.00061646394556 0.8888934811808109 58.16684700315636 15.0 0.0 0.0 18.0 
416.00010699348087 1.104133508173018 79.97739540687951 15.0 0.0 0.0 18.0 
417.00390676620805 1.2308092582290668 79.97739540687951 15.0 0.0 0.0 18.0 
418.000527700074 1.0776308324029862 73.8484109126669 15.0 0.0 0.0 19.0 
419.0046531012176 1.323182623535473 97.73083383813133 15.0 0.0 0.0 21.0 
420.00167038572357 1.0578628477544165 73.8484109126669 15.0 0.0 0.0 21.0 
421.0009598445785 1.222221078061755 81.05573706068418 15.0 0.0 0.0 21.0 
422.0002531906447 1.2936788748341563 83.49654417079961 14.0 0.0 0.0 21.0 
423.000527700074 1.0990902573412797 83.49654417079961 14.0 0.0 0.0 20.0 
424.0084827699023 1.077616713974273 83.49654417079961 14.0 0.0 0.0 18.0 
425.0004298185823 1.1058804883836948 83.49654417079961 14.0 0.0 0.0 17.0 
426.0008380343466 1.3472771663401666 90.7227887053827 15.0 0.0 0.0 17.0 
427.00823766565657 1.179144111470993 82.10619400793536 15.0 0.0 0.0 17.0 
428.00037148447484 0.9644640728182163 80.03372313161606 15.0 0.0 0.0 17.0 
429.00078915345773 0.7945042017277165 80.03372313161606 15.0 0.0 0.0 17.0 
430.006865425846 1.193055028027572 97.05322899684217 15.0 0.0 0.0 17.0 
431.00092839923616 0.9679625274303824 103.95904983561257 16.0 0.0 0.0 17.0 
432.00132201123563 0.7077131930661582 93.42937842349437 16.0 0.0 0.0 17.0 
433.0002452491022 0.33963823609909377 36.1605383672285 17.0 0.0 0.0 18.0 
434.0033435410964 0.4154997089415749 36.1605383672285 16.0 0.0 0.0 20.0 
435.00193550802345 0.39881237499666145 36.1605383672285 16.0 0.0 0.0 20.0 
436.0009598445785 0.5963363336536719 54.54199448449913 16.0 0.0 0.0 19.0 
437.0034043871548 0.3430435791962361 29.80276999756228 16.0 0.0 0.0 19.0 
438.000527700074 0.3430435791962361 29.80276999756228 16.0 0.0 0.0 19.0 
439.0016606949303 0.4431996784116359 47.29476224071021 17.0 0.0 0.0 19.0 
440.00047004945804 0.409073512125372 38.668911215826455 17.0 0.0 0.0 19.0 
441.0009598445785 0.6123418497860185 54.604861765444554 16.0 0.0 0.0 19.0 
442.00166440307373 0.43695639521307755 36.9606389009227 16.0 0.0 0.0 19.0 
443.000527700074 0.45207078346014445 44.51783302445594 17.0 0.0 0.0 18.0 
444.00075291121124 0.3537369324481057 31.40853848071515 17.0 0.0 0.0 18.0 
445.0045169127977 0.28520247555920725 28.518449181091967 17.0 0.0 0.0 18.0 
446.00045965715236 0.38463864163921135 31.740252948958897 17.0 0.014511696477712822 7.255848238856373 18.0 
447.00245812788734 0.3630309932864647 31.740252948958897 16.0 0.0 0.0 18.0 
448.000527700074 0.34254556564006755 31.740252948958897 16.0 0.01488951489326716 6.270287616787812 17.0 
449.0000501425146 0.3495766995661253 31.740252948958897 16.0 0.002348939659691562 1.1744698298457763 18.0 
450.0000445433938 0.33027222449193916 31.740252948958897 15.0 0.0 0.0 18.0 
451.0009598445785 0.3969125305570918 33.29586543409059 15.0 0.0 0.0 17.0 
452.0015053723879 0.49054037958420943 33.29586543409059 15.0 0.0 0.0 17.0 
453.000527700074 0.5035880632982696 35.62332628816475 15.0 0.0 0.0 17.0 
454.0040526466182 0.5441063415599479 35.62332628816475 15.0 0.0 0.0 17.0 
455.0031937579554 0.5214304881286956 35.62332628816475 15.0 0.0 0.0 17.0 
456.0009598445785 0.6742860079602763 42.089844361011586 15.0 0.0 0.0 17.0 
457.0015503978342 0.6796733134526141 42.089844361011586 15.0 0.0 0.0 16.0 
458.000527700074 0.8267074231020188 52.24667591803782 16.0 0.0 0.0 16.0 
459.00095366936995 0.6454340275504912 46.86914648698888 16.0 0.0 0.0 16.0 
460.0003502849883 0.391463133807761 40.1261181190244 17.0 0.0 0.0 15.0 
461.0009598445785 0.46660505123939044 40.1261181190244 17.0 0.0 0.0 15.0 
462.002002443421 0.5343988626366465 40.2134837888066 17.0 0.0 0.0 15.0 
463.000527700074 0.5673969527583443 40.2134837888066 18.0 0.0 0.0 14.0 
464.00137532245714 0.3904856726895463 29.183968563423804 19.0 0.0 0.0 14.0 
465.0004022198123 0.17282866318778337 20.325463681420047 18.0 0.0 0.0 14.0 
466.00080615008056 0.2254872030325581 30.20426445389154 18.0 0.0 0.0 14.0 
467.00434161064675 0.19783523190369154 30.20426445389154 18.0 0.0 0.0 15.0 
468.000527700074 0.14927940755504127 30.20426445389154 17.0 0.0 0.0 15.0 
469.00033271860144 0.14927940755504127 30.20426445389154 17.0 0.0 0.0 15.0 
470.000022901296 0.14927940755504127 30.20426445389154 17.0 0.0 0.0 15.0 
471.0009598445785 0.1236403470983446 26.842764619616986 17.0 0.0 0.0 17.0 
472.0019902351983 0.17516120401305627 26.842764619616986 17.0 0.0 0.0 18.0 
473.0000907828936 0.17861967959868807 26.842764619616986 17.0 0.0 0.0 17.0 
474.00035690631614 0.17861967959868807 26.842764619616986 17.0 0.0 0.0 17.0 
475.00055966132214 0.17861967959868807 26.842764619616986 17.0 0.0 0.0 18.0 
476.0009598445785 0.1924501524259031 20.32330839823399 17.0 0.0 0.0 18.0 
477.0017499214571 0.21807474894505718 24.879228800572662 17.0 0.0 0.0 18.0 
478.000527700074 0.25334055115464954 24.879228800572662 17.0 0.0 0.0 17.0 
479.00100590288537 0.2897246098019503 24.879228800572662 17.0 0.0 0.0 17.0 
480.001681018348 0.30454535221489215 24.879228800572662 17.0 0.0 0.0 19.0 
481.0009598445785 0.3942809981270361 34.559084822074624 18.0 0.0 0.0 20.0 
482.0002931945593 0.398865559988296 34.559084822074624 18.0 0.0 0.0 19.0 
483.000527700074 0.46118930023489224 39.57922168277733 18.0 0.0 0.0 19.0 
484.0008251473137 0.46943525723302304 39.57922168277733 18.0 0.0 0.0 20.0 
485.0002323342657 0.4708310667911226 39.57922168277733 17.0 0.0 0.0 18.0 
486.00001689436294 0.6172859894698272 48.75319615307433 17.0 0.0 0.0 19.0 
487.0036531404926 0.7238718068870212 48.75319615307433 17.0 0.0 0.0 19.0 
488.0005069204342 0.5786140224452612 48.75319615307433 17.0 0.0 0.0 19.0 
489.00002455238985 0.39689566069369725 42.356710505495926 17.0 0.0 0.0 19.0 
490.00112551417806 0.5492066493687964 48.75319615307433 16.0 0.0 0.0 19.0 
491.0009598445785 0.694786488890169 49.669436273028026 16.0 0.0 0.0 19.0 
492.00736746954385 0.6315482011817803 49.669436273028026 15.0 0.0 0.0 19.0 
493.000527700074 0.6703324583832052 51.371312367773015 15.0 0.0 0.0 19.0 
494.00039747506304 0.4119834549886028 31.853474108036778 15.0 0.0 0.0 17.0 
495.00097076288654 0.4205225104886089 31.853474108036778 15.0 0.0 0.0 17.0 
496.0009598445785 0.5615156563827829 39.251425948858525 15.0 0.0 0.0 17.0 
497.001751430248 0.49208048929927006 39.251425948858525 15.0 0.0 0.0 17.0 
498.000527700074 0.5343849063181256 46.6784057001434 15.0 0.0 0.0 17.0 
499.0014323872185 0.27356525165158563 32.424386139213766 15.0 0.0 0.0 16.0 
500.0043633439305 0.19653164008941526 26.185952326697787 15.0 0.0 0.0 16.0 
501.0009598445785 0.22870886469022653 31.846808745268874 15.0 0.0 0.0 16.0 
502.0026415319674 0.22052757426395692 31.846808745268874 16.0 0.005498572214112903 2.7492861070564345 16.0 
503.0001641656844 0.2369206597867196 39.825249794661545 16.0 0.005498572214112903 2.7492861070564345 17.0 
504.0092365032249 0.11827637392237281 19.68046388695396 16.0 0.0067375951894945 2.7492861070564345 18.0 
505.0034981316094 0.11780057833000546 19.68046388695396 16.0 0.03328824189006471 9.397675154362076 19.0 
506.0009598445785 0.22445751731006872 21.09794487931285 16.0 0.0 0.0 18.0 
507.0016700766365 0.23416793788810555 21.09794487931285 16.0 0.0 0.0 18.0 
508.00040990872793 0.2240518196763283 21.09794487931285 16.0 0.0 0.0 18.0 
509.00302995768135 0.23228351618785145 21.09794487931285 16.0 0.0 0.0 18.0 
510.00076770504484 0.26417762561034647 24.01893973813165 16.0 0.0 0.0 18.0 
511.0009598445785 0.3856411677255068 31.43371677420552 16.0 0.0 0.0 18.0 
512.0007459472505 0.404274869485127 31.43371677420552 16.0 0.0 0.0 18.0 
513.0005277000739 0.404274869485127 31.43371677420552 16.0 0.0 0.0 18.0 
514.000736848886 0.3486938805447037 30.96586513537983 16.0 0.0 0.0 18.0 
515.0031389334387 0.3430344652022744 30.96586513537983 16.0 0.0 0.0 18.0 
516.0006120849929 0.3919386325791907 36.395873280382375 16.0 0.0 0.0 17.0 
517.0015662725156 0.3858346748802617 36.395873280382375 16.0 0.0 0.0 17.0 
518.0005277000739 0.3866847754736863 36.395873280382375 16.0 0.0 0.0 17.0 
519.0013580724382 0.25342988898373625 35.717972157039696 16.0 0.0 0.0 17.0 
520.0001435031605 0.12193727952625907 26.559517052005646 17.0 0.0 0.0 18.0 
521.0009598445786 0.21450198040967017 41.309829853905995 17.0 0.0 0.0 18.0 
522.0005667159885 0.02685713758199678 13.42856879099844 17.0 0.0 0.0 18.0 
523.0005277000739 0.03485602096218863 13.42856879099844 17.0 0.0 0.0 18.0 
524.0016742063349 0.049569451078372614 13.42856879099844 18.0 0.0 0.0 18.0 
525.005977980289 0.011755708652319258 5.877854326159593 18.0 0.0 0.0 18.0 
526.0000219145448 0.034468022148695106 11.356156748187914 17.0 0.0 0.0 18.0 
527.0018381659814 0.059803729963583005 13.504897889194837 17.0 0.0 0.0 17.0 
528.0000440625159 0.06577743120396716 13.504897889194837 17.0 0.0 0.0 17.0 
529.0039543149074 0.08059745019854167 13.504897889194837 17.0 0.0 0.0 17.0 
530.0009417929957 0.08059745019854167 13.504897889194837 20.0 0.0 0.0 17.0 
531.0009598445786 0.09453782482006005 24.220299563595205 20.0 0.0 0.0 17.0 
532.0004265814155 0.13395018799874653 24.220299563595205 20.0 0.0 0.0 17.0 
533.0005277000739 0.17251963552316574 24.220299563595205 20.0 0.0 0.0 17.0 
534.0017946713546 0.22372271926866033 31.563078864387876 18.0 0.0 0.0 17.0 
535.0001053073131 0.20862385037542344 31.563078864387876 19.0 0.0 0.0 17.0 
536.0003453562424 0.19389543879972213 24.198873076537296 17.0 0.0 0.0 17.0 
537.000176650955 0.2113252238936663 24.198873076537296 17.0 0.0 0.0 18.0 
538.0005277000739 0.2670387003445616 31.40007342144483 17.0 0.0 0.0 18.0 
539.0010802791526 0.4652821817880377 31.40007342144483 17.0 0.0 0.0 17.0 
540.0024956053995 0.3567032092774805 31.40007342144483 17.0 0.0 0.0 17.0 
541.0009598445786 0.4052892439078995 30.399173671708724 17.0 0.0 0.0 17.0 
542.0008444677234 0.49604669501792353 47.962800590577274 17.0 0.0 0.0 17.0 
543.0005277000739 0.5584294548624409 47.962800590577274 17.0 0.0 0.0 17.0 
544.0026699356846 0.8063127421291751 47.91002125164118 17.0 0.0 0.0 17.0 
545.0013718651359 0.8651053207013081 47.91002125164118 17.0 0.0 0.0 17.0 
546.0009598445786 0.8546880651940832 47.91002125164118 17.0 0.0 0.0 17.0 
547.0001265580216 0.8057902598987584 47.91002125164118 18.0 0.0 0.0 17.0 
548.0005277000739 0.9951677786175409 47.91002125164118 18.0 0.0 0.0 16.0 
549.0043256801949 1.2163722551400182 55.40583866400695 18.0 0.0 0.0 16.0 
550.0001848560668 1.0881005187701551 47.85058042348814 18.0 0.0 0.0 16.0 
551.0009598445786 1.1070569108195936 47.85058042348814 19.0 0.0 0.0 16.0 
552.0008019581232 1.1383561013549992 47.85058042348814 19.0 0.0 0.0 16.0 
553.0003312339488 1.2613965294861422 47.85058042348814 19.0 0.0 0.0 17.0 
554.0030959353018 1.5171406176449616 55.349061137682355 19.0 0.0 0.0 16.0 
555.0002258003645 1.446864213695071 54.866360898817504 19.0 0.0 0.0 16.0 
556.0009598445786 1.3997084917786164 54.866360898817504 19.0 0.0 0.0 16.0 
557.0007446871298 1.2893349555256721 54.866360898817504 19.0 0.0 0.0 16.0 
558.0005277000739 1.3115773374752346 62.40271019961102 19.0 0.0 0.0 17.0 
559.0004816156164 1.4815534174982186 62.40271019961102 18.0 0.0 0.0 18.0 
560.0020033903361 1.474573803554828 69.8897234354908 18.0 0.0 0.0 17.0 
561.0009598445786 1.5126354268947517 69.8897234354908 20.0 0.0 0.0 17.0 
562.0003888881749 1.477651983725809 69.8897234354908 19.0 0.0 0.0 17.0 
563.0005277000739 1.6411959254285806 69.8897234354908 18.0 0.0 0.0 17.0 
564.0015235022166 1.7778775280301418 77.25764242201524 18.0 0.0 0.0 17.0 
565.0013782307908 1.8083120511440467 84.74241873378901 18.0 0.0 0.0 19.0 
566.00034294353 1.650674115658746 75.41596874333715 18.0 0.0 0.0 18.0 
567.0042859424907 1.664429823254568 75.41596874333715 18.0 0.0 0.0 18.0 
568.0005277000739 1.5691698926535718 75.41596874333715 20.0 0.0 0.0 20.0 
569.0006098606303 0.9253411394353797 51.202356723128815 20.0 0.0 0.0 21.0 
570.0044547061837 0.09292819671315755 26.832457961779255 20.0 0.0 0.0 19.0 
571.0009598445786 0.036588243037319 13.190122719729374 20.0 0.0 0.0 19.0 
572.0011930436821 0.042951050672321335 11.165896592881069 20.0 0.0 0.0 19.0 
573.0005277000739 0.045089315091254675 11.165896592881069 20.0 0.0 0.0 19.0 
574.0039715103669 0.0578724412214605 18.626591867450628 20.0 0.0 0.0 19.0 
575.0003976726094 0.05919131372155211 18.626591867450628 20.0 0.0 0.0 19.0 
576.0009598445786 0.05919131372155211 18.626591867450628 20.0 0.0 0.0 19.0 
577.0012790674463 0.04885713465223395 18.276347614661063 20.0 0.0 0.0 19.0 
578.0005277000739 0.0501351316796399 18.276347614661063 19.0 0.0 0.0 18.0 
579.0057281171067 0.027400522046429805 7.5480413117589364 20.0 0.0 0.0 18.0 
580.0008920264139 0.030699588211591095 7.8017527940366165 20.0 0.0 0.0 18.0 
581.0002012017837 0.043007317871965094 13.701906141945926 20.0 0.0 0.0 18.0 
582.0001035022426 0.03389450697497358 13.701906141945926 19.0 0.0 0.0 18.0 
583.0002138903145 0.03958323925755678 13.701906141945926 19.0 0.0 0.0 18.0 
584.001054446823 0.06074735388095517 20.589739383253857 19.0 0.0 0.0 18.0 
585.0009831171009 0.06074735388095517 20.589739383253857 19.0 0.0 0.0 18.0 
586.0009598445786 0.015100733002971283 6.497018281498839 20.0 0.0 0.0 18.0 
587.0003957965957 0.010469691633236246 5.2348458166181615 20.0 0.0 0.0 18.0 
588.0005277000739 0.010469691633236246 5.2348458166181615 20.0 0.0 0.0 18.0 
589.0000801597898 0.01681997755974935 8.409988779874709 20.0 0.0 0.0 18.0 
590.0021854545188 0.01681997755974935 8.409988779874709 20.0 0.0 0.0 18.0 
591.0002282068174 0.01681997755974935 8.409988779874709 20.0 0.0 0.0 18.0 
592.0005666942683 0.02784114443457371 13.920572217286775 20.0 0.0 0.0 17.0 
593.0002876251315 0.02784114443457371 13.920572217286775 20.0 0.0 0.0 17.0 
594.0003831074948 0.02784114443457371 13.920572217286775 20.0 0.0 0.0 19.0 
595.0021577402958 0.0342975435111995 17.148771755599682 20.0 0.0 0.0 18.0 
596.0003517416063 0.05333837498637596 17.148771755599682 20.0 0.0 0.0 16.0 
597.001673274238 0.08201175181354318 22.554462702253176 20.0 0.0 0.0 16.0 
598.0005277000739 0.07598049020988479 22.554462702253176 20.0 0.0 0.0 16.0 
599.0006191956307 0.07169506852758854 25.87775931254896 21.0 0.0 0.0 17.0 
600.0001293579853 0.01885143762354456 4.6488433793496995 22.0 0.0 0.0 17.0 
#####################################################################
# End of data export. Simulation finished at: 2019-02-25T20:44+0000 #
#####################################################################
