#####################################################################
# Alchemist log file - simulation started at: 2019-02-25T20:27+0000 #
#####################################################################
# seed = 126.0
#
# The columns have the following meaning: 
# time distance-rep[Mean] distance-rep[Max] leader-rep[CountDistinct] distance-share[Mean] distance-share[Max] leader-share[CountDistinct] 
0.0 NaN NaN NaN NaN NaN NaN 
1.004547152809041 0.0 0.0 498.0 0.0 0.0 81.0 
2.002555150185637 0.0 0.0 127.0 0.0 0.0 71.0 
3.0060479838971705 0.0 0.0 114.0 0.0 0.0 60.0 
4.000156761101296 0.0 0.0 108.0 0.0 0.0 54.0 
5.002098454509834 0.0 0.0 95.0 0.0 0.0 46.0 
6.002719402437953 0.0 0.0 91.0 0.0 0.0 43.0 
7.003727703239994 0.0 0.0 89.0 0.0 0.0 41.0 
8.004712561617605 0.0 0.0 80.0 0.0 0.0 34.0 
9.007063365097377 0.0 0.0 77.0 0.0 0.0 33.0 
10.00070016804081 0.0 0.0 71.0 0.0 0.0 33.0 
11.002488672070664 0.0 0.0 68.0 0.0 0.0 34.0 
12.001303042253847 0.0 0.0 66.0 0.0 0.0 31.0 
13.000911221239923 0.0 0.0 68.0 0.04611275001160152 15.137917506865392 32.0 
14.003317424814815 0.0 0.0 62.0 0.04712514990403135 15.137917506865392 29.0 
15.002067424113424 0.0 0.0 60.0 0.03677901380999338 12.650553292283263 27.0 
16.002139507256597 0.0 0.0 59.0 0.0 0.0 27.0 
17.003181762708675 0.0 0.0 57.0 0.0 0.0 25.0 
18.002362277022673 0.0 0.0 53.0 0.0 0.0 23.0 
19.006170996765086 0.0 0.0 51.0 0.0 0.0 24.0 
20.001911514385835 0.0 0.0 50.0 0.0 0.0 23.0 
21.0006351733061 0.0 0.0 46.0 0.0 0.0 22.0 
22.000432941541014 0.0 0.0 46.0 0.0018149785624415316 0.9074892812207622 21.0 
23.00052971214601 0.0 0.0 47.0 0.0 0.0 23.0 
24.00055763359855 0.0 0.0 39.0 0.0 0.0 22.0 
25.000389468876843 0.0 0.0 39.0 0.0 0.0 21.0 
26.002002370077918 0.0023244116804202694 1.1622058402101345 38.0 0.0 0.0 20.0 
27.00142812241626 0.0 0.0 38.0 0.0 0.0 22.0 
28.00099862850981 0.0 0.0 38.0 0.0 0.0 22.0 
29.00386046629516 0.0 0.0 39.0 0.0 0.0 22.0 
30.002894145718653 0.0 0.0 39.0 0.0 0.0 22.0 
31.00106153135413 0.0 0.0 40.0 0.0 0.0 22.0 
32.000724709851134 0.024651835451915294 9.990543798277997 37.0 0.0 0.0 21.0 
33.00099566665496 0.004051708119736491 1.279682715657401 36.0 0.0 0.0 21.0 
34.00447757085511 0.0014923426884216706 0.7461713442108362 33.0 0.0 0.0 20.0 
35.00244934263194 0.0014923426884216706 0.7461713442108362 32.0 0.003068930833332435 1.5344654166662224 20.0 
36.00029960423255 0.0014923426884216706 0.7461713442108362 29.0 0.003068930833332435 1.5344654166662224 22.0 
37.00201790726813 0.005950614063032654 2.975307031516337 28.0 0.0 0.0 21.0 
38.00071225205097 0.002637454108050789 1.318727054025402 27.0 0.0 0.0 19.0 
39.002066350455614 0.002637454108050789 1.318727054025402 27.0 0.012187276658274102 6.093638329137036 17.0 
40.00243220131219 0.002637454108050789 1.318727054025402 25.0 0.0 0.0 18.0 
41.00454715280904 0.002637454108050789 1.318727054025402 24.0 0.0 0.0 18.0 
42.00005057217651 0.012972857259528046 6.486428629763992 24.0 0.0 0.0 17.0 
43.001395327979566 0.012972857259528046 6.486428629763992 24.0 0.0 0.0 17.0 
44.00137744795485 0.0 0.0 24.0 0.0 0.0 17.0 
45.000376316133654 0.0 0.0 24.0 0.0 0.0 17.0 
46.00017730612538 0.01761132376971667 8.805661884858296 22.0 0.0 0.0 17.0 
47.00152334909754 0.0 0.0 23.0 0.0 0.0 16.0 
48.00001476033376 0.0 0.0 24.0 0.0 0.0 16.0 
49.00242228226663 0.0 0.0 24.0 0.0 0.0 15.0 
50.00286572416627 0.0 0.0 24.0 0.0 0.0 15.0 
51.001570867182565 0.0 0.0 23.0 0.0 0.0 15.0 
52.003066857292666 0.0 0.0 23.0 0.0 0.0 15.0 
53.00283703221401 0.010165782876395415 5.08289143819772 23.0 0.0 0.0 15.0 
54.000933427844096 0.010165782876395415 5.08289143819772 23.0 0.0 0.0 16.0 
55.00183164645888 0.010165782876395415 5.08289143819772 23.0 0.0 0.0 16.0 
56.00274084154139 0.01688938619132237 8.444693095661194 23.0 0.0 0.0 18.0 
57.000207787095725 0.01688938619132237 8.444693095661194 23.0 0.0 0.0 17.0 
58.004567172727825 0.01688938619132237 8.444693095661194 23.0 0.0 0.0 17.0 
59.00024172559966 0.03011008632855025 15.055043164275105 22.0 0.0 0.0 17.0 
60.00392025452695 0.0 0.0 23.0 0.0 0.0 17.0 
61.003496745318756 0.0 0.0 24.0 0.0 0.0 17.0 
62.00293051146705 0.0 0.0 23.0 0.0 0.0 17.0 
63.001207787130966 0.0 0.0 23.0 0.0 0.0 17.0 
64.00288998394882 0.0 0.0 23.0 0.0 0.0 17.0 
65.002341508893 0.0 0.0 22.0 0.0 0.0 17.0 
66.00174813657584 0.012476644123689304 6.238322061844627 23.0 0.0 0.0 19.0 
67.00088564096133 0.030957670067297507 9.240512971804122 22.0 0.0 0.0 20.0 
68.0003503144631 0.029108385747221754 4.430873616876141 22.0 0.0 0.0 19.0 
69.00061901989322 0.024324730722726336 3.6415400876155104 22.0 0.0 0.0 19.0 
70.00196270744426 0.030747963045402102 4.430873616876141 23.0 0.0 0.0 19.0 
71.00084031416532 0.022108470634755188 5.07130750808011 25.0 0.0 0.0 19.0 
72.00372770324 0.01014261501616017 5.07130750808011 25.0 0.0 0.0 18.0 
73.00040491885535 0.08047581625330076 11.492690579164645 26.0 0.0 0.0 18.0 
74.0039962407401 0.08780274934878424 13.555866436882667 25.0 0.0 0.0 18.0 
75.00822900330313 0.048050356176797614 10.00970518604558 23.0 0.0 0.0 18.0 
76.00454715280904 0.15014666106322078 20.651583816569797 23.0 0.0 0.0 18.0 
77.00202887398144 0.11791800042584853 20.651583816569797 22.0 0.0 0.0 18.0 
78.00009585240251 0.11306472768865258 20.651583816569797 22.0 0.0 0.0 18.0 
79.0023359809796 0.07194254285701306 13.808072938250945 22.0 0.0 0.0 18.0 
80.00317150605395 0.2595526762279533 24.31817049879524 22.0 0.0 0.0 18.0 
81.00223522374095 0.3363853989122447 24.31817049879524 21.0 0.0 0.0 18.0 
82.00057868407207 0.3323661034878645 26.758589146978778 21.0 0.0 0.0 18.0 
83.00240454077782 0.38200396602619363 29.620980762227674 21.0 0.0 0.0 18.0 
84.00104880793191 0.4537420215452721 29.620980762227674 20.0 0.0 0.0 18.0 
85.00034664206011 0.6251073320921814 30.42762562788957 19.0 0.0 0.0 18.0 
86.00454715280904 0.7347984940118024 35.92313774191027 20.0 0.0 0.0 18.0 
87.00372770324 0.6667674086396631 38.14463223828531 19.0 0.0 0.0 18.0 
88.00093025749055 0.6675178244137658 41.015978041310916 21.0 0.0 0.0 18.0 
89.00362414490327 0.8581631293530793 41.015978041310916 20.0 0.0 0.0 18.0 
90.00139538342742 1.0215756201899877 41.015978041310916 20.0 0.0 0.0 18.0 
91.00152016020148 1.1880652842888526 47.07443808952277 20.0 0.0 0.0 18.0 
92.00119956291276 1.1948847014979205 49.499122533033216 20.0 0.0 0.0 18.0 
93.00038118703718 1.2818740495063483 49.499122533033216 20.0 0.0 0.0 18.0 
94.00230345614104 1.4068383087810654 51.939856057466244 20.0 0.0 0.0 18.0 
95.0009479407132 1.4416175083736646 56.246953841914035 19.0 0.0 0.0 19.0 
96.00115217047791 1.8929359338032505 62.58930851440016 19.0 0.0 0.0 19.0 
97.00004646428246 2.007707206780123 62.58930851440016 19.0 0.0 0.0 19.0 
98.00281170787856 1.6261831452217008 57.18317727216055 19.0 0.0 0.0 19.0 
99.00486392332398 1.658921601762718 59.905028007822466 19.0 0.0 0.0 19.0 
100.0032803961455 2.106253705726052 65.98355316840355 19.0 0.0 0.0 19.0 
101.00206423750123 2.1249831057604767 67.5955409203869 19.0 0.0 0.0 19.0 
102.00237589750594 2.1455138367115456 65.98355316840355 18.0 0.0 0.0 19.0 
103.0083142060101 2.015034366042621 65.98355316840355 18.0 0.0 0.0 19.0 
104.00010063936304 2.0680019586879843 65.27938801377752 18.0 0.0 0.0 19.0 
105.0003587627547 2.0458820956025874 65.27938801377752 18.0 0.0 0.0 19.0 
106.00051056532352 2.048931832647064 64.49837840566744 17.0 0.0 0.0 19.0 
107.00180673937788 2.098797880245677 64.49837840566744 17.0 0.0 0.0 19.0 
108.00073381651801 2.0809718772926105 64.49837840566744 17.0 0.0 0.0 18.0 
109.0008674333117 2.0887845100009637 65.79776991916111 17.0 0.0 0.0 18.0 
110.00317025395748 2.132151168831372 69.4350708316951 17.0 0.0 0.0 18.0 
111.00046692352498 1.9683269307907063 68.50865993622631 18.0 0.0 0.0 18.0 
112.0002139182674 1.9754131287233683 68.50865993622631 18.0 0.0 0.0 18.0 
113.00172098070281 2.005217902954511 68.74202541586112 19.0 0.0 0.0 17.0 
114.00067381063644 2.029665459133785 69.99604072659844 19.0 0.0 0.0 17.0 
115.00126328214041 2.0389691324781234 69.89987861235613 18.0 0.0 0.0 17.0 
116.00260562881016 1.9121628014739018 69.22603893682236 18.0 0.0 0.0 17.0 
117.00372770324 1.741037371561748 69.22603893682236 18.0 0.0 0.0 17.0 
118.00199080468914 1.606796872495846 69.22603893682236 17.0 0.0 0.0 18.0 
119.0011563629873 1.6031709557218998 69.22603893682236 17.0 0.0 0.0 18.0 
120.00260255929334 1.0378865060551052 66.57004343185292 16.0 0.0 0.0 17.0 
121.00454715280904 1.0378140122455382 66.08302568836928 16.0 0.0 0.0 17.0 
122.00372770324 0.9087667696293773 66.08302568836928 16.0 0.0 0.0 17.0 
123.00293424361745 0.7529522690244267 58.690221316604436 16.0 0.0 0.0 17.0 
124.00189572506498 0.6402783189194041 61.947976449829355 16.0 0.0 0.0 17.0 
125.00086946724795 0.49083475255314535 52.12503985367991 16.0 0.0 0.0 17.0 
126.0013741708204 0.2848886098932456 52.87679070204604 16.0 0.0 0.0 18.0 
127.00029012221509 0.0 0.0 16.0 0.0 0.0 17.0 
128.00259291692785 0.026181618590143473 5.154900938573888 16.0 0.0 0.0 17.0 
129.0009694733376 4.078972453876829E-4 0.20394862269384362 16.0 0.0 0.0 17.0 
130.00003973955424 0.020159355080475023 5.154900938573888 16.0 0.0 0.0 17.0 
131.00142993263663 0.009849553203327175 4.720827978969737 16.0 0.0 0.0 17.0 
132.00214978908525 0.0 0.0 17.0 0.0 0.0 17.0 
133.00056363527034 0.05143839217973334 11.886634648343374 17.0 0.0 0.0 17.0 
134.0025860008247 0.0568411799068072 10.895198485203139 17.0 0.0 0.0 17.0 
135.008332990212 0.041081039062482005 10.895198485203139 17.0 0.0 0.0 17.0 
136.00250250319348 0.021790396970406425 10.895198485203139 16.0 0.0 0.0 17.0 
137.00214962964762 0.0 0.0 16.0 0.0 0.0 17.0 
138.0000422910337 0.0 0.0 16.0 0.0 0.0 17.0 
139.00031815887255 0.0 0.0 16.0 0.0 0.0 17.0 
140.00139979150754 0.0 0.0 16.0 0.0 0.0 17.0 
141.0018877533854 0.0 0.0 16.0 0.0 0.0 17.0 
142.00352935047223 0.0 0.0 16.0 0.0 0.0 17.0 
143.00508566676558 0.06808176349830669 25.673214582199194 16.0 0.0 0.0 17.0 
144.00113628817238 0.06302152233702733 25.673214582199194 16.0 0.0 0.0 17.0 
145.00062720798707 0.0513464291643982 25.673214582199194 16.0 0.0 0.0 17.0 
146.00012088665414 0.0513464291643982 25.673214582199194 16.0 0.0 0.0 17.0 
147.00224629668148 0.0 0.0 16.0 0.0 0.0 17.0 
148.00270282792778 0.09169407402539131 33.09148431905092 16.0 0.0 0.0 17.0 
149.003575617577 0.11422861494191971 34.17741366204686 16.0 0.0 0.0 16.0 
150.00084650740672 0.11213060574458081 34.17741366204686 16.0 0.0 0.0 16.0 
151.00145466524776 0.02286923883980785 11.434619419903925 16.0 0.0 0.0 16.0 
152.0001414084158 0.05853354205397835 20.234951264352475 18.0 0.0 0.0 17.0 
153.00233317775835 0.14260149676967618 34.17741366204686 18.0 0.0 0.0 16.0 
154.00016747442697 0.11839818551879798 20.241258489378964 18.0 0.0 0.0 15.0 
155.00159015755187 0.08570945125753024 20.241258489378964 17.0 0.0 0.0 15.0 
156.00021659179444 0.10157739432844466 20.241258489378964 17.0 0.0 0.0 15.0 
157.00097255386729 0.11589826016205484 20.241258489378964 18.0 0.0 0.0 15.0 
158.0038450371254 0.16221706430720143 20.307961164486784 18.0 0.0 0.0 15.0 
159.00406553817803 0.17653026906229627 20.8490724851666 17.0 0.0 0.0 15.0 
160.00028575139757 0.16745180652235356 20.8490724851666 17.0 0.0 0.0 15.0 
161.0038908740539 0.35167727325110093 51.79894025781175 17.0 0.0 0.0 15.0 
162.0018871269399 0.26272107519702476 37.22493086232083 18.0 0.0 0.0 15.0 
163.00102043431306 0.315514542494279 37.22493086232083 19.0 0.0 0.0 16.0 
164.00098353579904 0.21240922040225577 44.43638870147251 19.0 0.0 0.0 16.0 
165.0052146473085 0.1235364429993118 20.54800877755079 18.0 0.0 0.0 16.0 
166.00150851648954 0.22011252158823713 20.54800877755079 18.0 0.0 0.0 17.0 
167.00274094528785 0.20513540808272346 20.54800877755079 18.0 0.0 0.0 17.0 
168.00058569767006 0.22886335778815436 24.40433368414992 18.0 0.0 0.0 17.0 
169.00112390371206 0.2884650840976903 25.58051706557515 18.0 0.0 0.0 17.0 
170.00050160368528 0.29442666626123576 25.58051706557515 17.0 0.0 0.0 17.0 
171.00022523388145 0.3907500270215351 33.09526544745836 17.0 0.0 0.0 17.0 
172.0002327347408 0.38094345080006375 33.09526544745836 17.0 0.0 0.0 17.0 
173.00205319278857 0.5217381117230439 43.750228463337805 17.0 0.0 0.0 17.0 
174.00140056335235 0.5419017981645475 43.750228463337805 17.0 0.0 0.0 19.0 
175.00314545497457 0.5786748183113585 43.750228463337805 17.0 0.0 0.0 18.0 
176.00082161589114 0.6424915241873194 51.259971340161485 17.0 0.0 0.0 18.0 
177.001098672022 0.5929533850485917 47.779278986806446 17.0 0.0 0.0 18.0 
178.00026529200076 0.5679718899456264 53.944325577980976 17.0 0.0 0.0 18.0 
179.0007116349518 0.6881046165592618 55.17598817730553 17.0 0.0 0.0 18.0 
180.00068517679424 0.6245320343483166 55.17598817730553 17.0 0.0 0.0 18.0 
181.00135893790272 0.788748250392062 62.56645221050229 17.0 0.0 0.0 17.0 
182.0012100277406 0.5941997105908492 62.56645221050229 16.0 0.0 0.0 18.0 
183.000363983574 0.6815870174659667 62.56645221050229 16.0 0.0 0.0 18.0 
184.0000945834545 0.7348063477231707 70.030629697981 17.0 0.0 0.0 19.0 
185.00220338549042 0.8409239733566025 77.3785016583505 17.0 0.0 0.0 19.0 
186.00017885759212 0.9871866730186751 77.3785016583505 16.0 0.0 0.0 19.0 
187.0009027351101 0.8388317972375017 77.3785016583505 16.0 0.0 0.0 18.0 
188.00073133096512 0.6933618764431434 83.7870037242688 16.0 0.0 0.0 18.0 
189.00227343667646 0.973763069977776 84.96338991082604 17.0 0.0 0.0 18.0 
190.0074380677299 0.9362266648517752 84.96338991082604 17.0 0.0 0.0 18.0 
191.00021761223095 0.6755998566763474 86.24419394728568 17.0 0.0 0.0 18.0 
192.00372770324 0.6755998566763474 86.24419394728568 17.0 0.0 0.0 19.0 
193.00240205247033 0.5182933812794431 86.24419394728568 17.0 0.0 0.0 19.0 
194.00125679778915 0.684856327640476 93.34812476547421 17.0 0.0 0.0 19.0 
195.00092461210195 0.4860648431521101 93.43607363612432 17.0 0.0 0.0 19.0 
196.00239876517168 0.12666033081682954 42.243422609513516 17.0 0.0 0.0 19.0 
197.0016163576274 0.08448684521902737 42.243422609513516 17.0 0.0 0.0 19.0 
198.0006846141384 0.08448684521902737 42.243422609513516 17.0 0.0 0.0 19.0 
199.00234195349344 0.08448684521902737 42.243422609513516 17.0 0.0 0.0 19.0 
200.0017870080646 0.1287349465438594 48.5257952694534 17.0 0.0 0.0 19.0 
201.00359728948254 0.1353094285751913 51.813036285119324 16.0 0.0 0.0 19.0 
202.0001833254962 0.1353094285751913 51.813036285119324 16.0 0.0 0.0 18.0 
203.00055227803196 0.1353094285751913 51.813036285119324 17.0 0.0 0.0 18.0 
204.00058626933605 0.1487673619193251 51.813036285119324 18.0 0.0 0.0 18.0 
205.00070596601395 0.1675612739012886 56.14780044124694 18.0 0.0 0.0 18.0 
206.0003803659691 0.07768411829984709 19.0481756349337 19.0 0.0 0.0 18.0 
207.00063354914934 0.07768411829984709 19.0481756349337 18.0 0.0 0.0 18.0 
208.0036494410708 0.07768411829984709 19.0481756349337 18.0 0.0 0.0 18.0 
209.00085385233263 0.07768411829984709 19.0481756349337 17.0 0.0 0.0 18.0 
210.00235951673181 0.07987228729008201 23.11633193362843 17.0 0.0 0.0 18.0 
211.00180592806507 0.09458564156702975 23.11633193362843 17.0 0.0 0.0 18.0 
212.00229217042215 0.09458564156702975 23.11633193362843 17.0 0.0 0.0 18.0 
213.00232460895765 0.1065527190736526 23.11633193362843 17.0 0.0 0.0 18.0 
214.000314299082 0.2395939797587766 59.5465962516019 17.0 0.0 0.0 18.0 
215.00045065740736 0.14603771580875197 30.090366024588292 18.0 0.0 0.0 18.0 
216.00228086083752 0.0869779015780265 27.59984586293848 18.0 0.0 0.0 18.0 
217.0018331752112 0.031778209852149776 7.086118381663738 18.0 0.0 0.0 18.0 
218.00169454039744 0.01749295721913174 7.086118381663738 18.0 0.0 0.0 18.0 
219.00219767170714 0.0 0.0 18.0 0.0 0.0 18.0 
220.0043092085114 0.012455166652695887 6.227583326347997 18.0 0.0 0.0 18.0 
221.00454715280904 0.0 0.0 18.0 0.0 0.0 18.0 
222.00372770324 0.0 0.0 19.0 0.0 0.0 18.0 
223.00031549714348 0.0 0.0 20.0 0.0 0.0 19.0 
224.00385930225747 0.0 0.0 20.0 0.0 0.0 19.0 
225.00171215213902 0.0 0.0 20.0 0.0 0.0 19.0 
226.00454715280904 0.0 0.0 20.0 0.0 0.0 18.0 
227.00000966584312 0.0 0.0 19.0 0.0 0.0 20.0 
228.00030370321946 0.0 0.0 19.0 0.0 0.0 21.0 
229.00551987015115 0.0 0.0 19.0 0.0 0.0 21.0 
230.00103116728584 0.0 0.0 18.0 0.0 0.0 20.0 
231.00454715280904 0.0 0.0 18.0 0.0 0.0 19.0 
232.00030184539918 0.0 0.0 18.0 0.0 0.0 19.0 
233.00133841945367 0.0 0.0 18.0 0.0 0.0 19.0 
234.00018439458196 0.0 0.0 18.0 0.0 0.0 18.0 
235.00431848888067 0.0 0.0 18.0 0.0 0.0 17.0 
236.00171851675387 0.0 0.0 19.0 0.0 0.0 18.0 
237.00149583293808 0.0 0.0 19.0 0.0 0.0 18.0 
238.00122745055216 0.0 0.0 19.0 0.0 0.0 17.0 
239.00199386678295 0.0 0.0 19.0 0.002650785288518985 1.3253926442594945 17.0 
240.00046671282516 0.0 0.0 19.0 0.002650785288518985 1.3253926442594945 16.0 
241.00035903535758 0.0 0.0 19.0 0.0 0.0 16.0 
242.00372770324 0.0 0.0 19.0 0.0 0.0 16.0 
243.00106345911524 0.0 0.0 19.0 0.0 0.0 16.0 
244.00061849361038 0.0 0.0 19.0 0.0027348063720018592 1.367403186000928 16.0 
245.00384647407614 0.0 0.0 19.0 0.0027348063720018592 1.367403186000928 16.0 
246.00141888795423 0.0 0.0 19.0 0.0027348063720018592 1.367403186000928 16.0 
247.00372652500442 0.0 0.0 19.0 0.0 0.0 17.0 
248.00596401702063 0.0 0.0 18.0 0.0 0.0 18.0 
249.00018464805495 0.0 0.0 18.0 0.0 0.0 19.0 
250.00155232195186 0.0 0.0 18.0 0.0 0.0 21.0 
251.0011709403458 0.0 0.0 18.0 0.0 0.0 19.0 
252.00091593720975 0.0 0.0 18.0 0.0 0.0 18.0 
253.00230815911482 0.026158588445215084 13.079294222607501 18.0 0.0 0.0 18.0 
254.00277975021257 0.0 0.0 17.0 0.0 0.0 19.0 
255.00087091084228 0.0 0.0 17.0 0.0 0.0 19.0 
256.0019248768679 0.015587650921020449 7.79382546051022 17.0 0.0 0.0 18.0 
257.0037085692244 0.015587650921020449 7.79382546051022 17.0 0.0 0.0 18.0 
258.00031733572587 0.019433040177541085 7.79382546051022 17.0 0.0 0.0 17.0 
259.00332196169006 0.044026898891801614 12.296929357130296 17.0 0.0 0.0 17.0 
260.00123077667797 0.13384436446012998 31.358902477247085 17.0 0.0 0.0 16.0 
261.00150359028163 0.17242544309365887 31.358902477247085 17.0 0.0 0.0 16.0 
262.0001521126788 0.3280806377553588 45.129428962198716 17.0 0.0 0.0 16.0 
263.0006673052962 0.27444643783863715 31.358902477247085 17.0 0.0 0.0 16.0 
264.00025160972405 0.3180439513492495 45.129428962198716 17.0 0.0 0.0 16.0 
265.00126936563885 0.3879585885106456 45.129428962198716 17.0 0.0 0.0 16.0 
266.0000283585757 0.670067272783304 51.75349784555851 17.0 0.0 0.0 16.0 
267.00372770324 0.6208657449888455 35.79261284419326 18.0 0.0 0.0 16.0 
268.00226136653555 0.32903873269536343 34.08195105822844 18.0 0.0 0.0 16.0 
269.0063272605582 0.04022211198448975 11.811945807265005 18.0 0.0 0.0 16.0 
270.0012609388375 0.0 0.0 17.0 0.0 0.0 16.0 
271.0011863412704 0.0040330642064685856 2.016532103234283 16.0 0.0 0.0 16.0 
272.00010386665286 0.0040330642064685856 2.016532103234283 16.0 0.0 0.0 16.0 
273.0019556120202 0.0 0.0 15.0 0.0 0.0 16.0 
274.0044865073583 0.0 0.0 15.0 0.0 0.0 17.0 
275.0059555810142 0.0 0.0 15.0 0.0 0.0 17.0 
276.00177772987377 0.0 0.0 16.0 0.0 0.0 19.0 
277.0004034022309 0.0 0.0 16.0 0.0 0.0 19.0 
278.0001605258891 0.0 0.0 16.0 0.0 0.0 19.0 
279.00080457962156 0.0 0.0 16.0 0.0 0.0 19.0 
280.00167638508333 0.0 0.0 16.0 0.0 0.0 19.0 
281.0026132071749 0.0 0.0 16.0 0.0 0.0 19.0 
282.00079561653286 0.0 0.0 17.0 0.0 0.0 20.0 
283.0027703849264 0.007389791924771908 3.6948959623859423 17.0 0.0 0.0 20.0 
284.00005355999724 0.007389791924771908 3.6948959623859423 18.0 0.0 0.0 21.0 
285.0025613073364 0.0075499708466862485 3.6948959623859423 17.0 0.0 0.0 21.0 
286.0014138846998 0.007389791924771908 3.6948959623859423 17.0 0.0 0.0 21.0 
287.0004381268374 0.007389791924771908 3.6948959623859423 17.0 0.0 0.0 21.0 
288.00533939861566 0.037185686943454414 18.59284347172715 17.0 0.0 0.0 20.0 
289.0005429762314 0.037185686943454414 18.59284347172715 17.0 0.0 0.0 20.0 
290.0101765579691 0.037185686943454414 18.59284347172715 17.0 0.0 0.0 20.0 
291.0001903964167 0.037185686943454414 18.59284347172715 17.0 0.0 0.0 20.0 
292.00372770324 0.037185686943454414 18.59284347172715 17.0 0.0 0.0 20.0 
293.0042392313582 0.0522473969766794 26.123698488339755 17.0 0.0 0.0 20.0 
294.00239733501076 0.06711255235623186 33.556276178115894 17.0 0.0 0.0 20.0 
295.00388779022904 0.06711255235623186 33.556276178115894 17.0 0.0 0.0 20.0 
296.001399389429 0.0 0.0 17.0 0.0 0.0 20.0 
297.00372770324 0.06711255235623186 33.556276178115894 17.0 0.0 0.0 19.0 
298.00026290863514 0.12678291870033112 48.63817113762403 17.0 0.0 0.0 19.0 
299.0016106139736 0.029506576425083177 9.470685654104216 17.0 0.0 0.0 19.0 
300.00630287469426 0.029506576425083177 9.470685654104216 17.0 0.0 0.0 19.0 
301.0038620667349 0.045595961696248674 9.470685654104216 17.0 0.0 0.0 18.0 
302.0013769235744 0.029506576425083177 9.470685654104216 17.0 0.0 0.0 17.0 
303.0004164478773 0.23962428954796464 56.09083652058649 17.0 0.0 0.0 17.0 
304.0000748470042 0.14130133441437442 24.213681778596936 17.0 0.0 0.0 17.0 
305.00016025443506 0.1446606194902674 24.213681778596936 16.0 0.0 0.0 17.0 
306.0018565786008 0.14479301422278584 24.213681778596936 16.0 0.0 0.0 17.0 
307.000856383465 0.14896836095096347 24.213681778596936 16.0 0.0 0.0 17.0 
308.00111906009994 0.33031673619395396 39.069803895061426 16.0 0.0 0.0 17.0 
309.00163649671697 0.37318002960446706 39.069803895061426 16.0 0.0 0.0 16.0 
310.0016193008421 0.37720813865049235 39.069803895061426 16.0 3.857757279740804E-4 0.19288786398703905 16.0 
311.00110459204353 0.38353759499332035 39.069803895061426 17.0 3.857757279740804E-4 0.19288786398703905 16.0 
312.0003064378866 0.38544758491448683 39.069803895061426 18.0 3.857757279740804E-4 0.19288786398703905 17.0 
313.0028032406323 0.43511865478741046 49.93859931166324 17.0 3.857757279740804E-4 0.19288786398703905 18.0 
314.0001103970732 0.36944854674918687 25.134547664212533 17.0 0.0 0.0 17.0 
315.0000929376678 0.3873803361675258 25.134547664212533 17.0 0.0 0.0 18.0 
316.00010441045043 0.3867419854250341 25.134547664212533 16.0 0.0 0.0 18.0 
317.0002182714724 0.3846167071538757 25.134547664212533 16.0 0.0 0.0 18.0 
318.0019347432804 0.5400354339791549 32.09617852324831 16.0 0.0 0.0 18.0 
319.0000548279218 0.5578176907956867 32.09617852324831 15.0 0.0 0.0 18.0 
320.0030145936487 0.5137625504215224 28.324586329299137 15.0 0.0 0.0 18.0 
321.00454715280904 0.5735900282479153 34.43506018073714 15.0 0.0 0.0 18.0 
322.001073413998 0.6452580271279016 34.22161794863018 16.0 0.0 0.0 19.0 
323.0009310643385 0.871599420231202 41.12892289226721 16.0 0.0 0.0 19.0 
324.0002606179489 0.8755988834746148 41.12892289226721 16.0 0.0 0.0 18.0 
325.00360424804006 0.9291957798354685 43.33550414502858 16.0 0.0 0.0 18.0 
326.0009659191521 0.9660278443272255 43.33550414502858 16.0 0.0 0.0 18.0 
327.0002676682034 0.9672441534998951 43.33550414502858 16.0 0.0 0.0 18.0 
328.0002226886717 1.166774633026872 50.07608210079141 16.0 0.0 0.0 18.0 
329.0038906235035 1.235637994387549 50.07608210079141 16.0 0.0 0.0 18.0 
330.0005677263662 1.3534387566256254 52.39973514399355 16.0 0.0 0.0 18.0 
331.0011432076703 1.2672338284307665 47.450209511356434 16.0 0.0 0.0 18.0 
332.00283887383694 1.4060321018029414 52.39973514399355 16.0 0.0 0.0 18.0 
333.0016300624862 1.562454152809328 58.639351830876876 16.0 0.022700388371518613 7.227437989155618 18.0 
334.0005325840383 1.747502521181662 61.01777215473004 16.0 0.022700388371518613 7.227437989155618 18.0 
335.00210973142805 1.6791484341602334 61.01777215473004 16.0 0.022700388371518613 7.227437989155618 18.0 
336.0003101636993 1.8512316800423219 61.01777215473004 16.0 0.022700388371518613 7.227437989155618 18.0 
337.00372770324 1.789504664844681 61.01777215473004 16.0 0.022700388371518613 7.227437989155618 18.0 
338.0017836588888 2.229868888643959 68.32757808488219 16.0 0.0 0.0 19.0 
339.00050602476796 2.3204547425856887 75.69811185161296 16.0 0.0 0.0 19.0 
340.00120403484 2.4243991211794684 75.69811185161296 16.0 0.0 0.0 19.0 
341.0001526237068 2.34121413741305 75.69811185161296 16.0 0.0 0.0 18.0 
342.00372770324 2.3696865055535543 75.69811185161296 15.0 0.0 0.0 18.0 
343.0004781163289 2.5053229156090606 75.69811185161296 15.0 0.0 0.0 18.0 
344.00064610563214 2.5179734697557223 77.12007737004018 15.0 0.0 0.0 18.0 
345.0020926265545 2.5770812660913487 84.47325800597798 15.0 0.0 0.0 18.0 
346.0007683791563 2.726370416807994 84.47325800597798 15.0 0.0 0.0 17.0 
347.0024764437866 2.515136383381979 84.47325800597798 15.0 0.0 0.0 18.0 
348.00007840448944 2.583674094690912 85.94646403275107 15.0 0.0 0.0 18.0 
349.0015425070644 2.629711467941045 93.27937509618175 15.0 0.0 0.0 19.0 
350.002214904304 2.551805851434602 93.27937509618175 15.0 0.0 0.0 20.0 
351.0012522440087 2.404138596899831 93.27937509618175 15.0 0.0 0.0 19.0 
352.0001513698278 2.566610834793918 93.27937509618175 15.0 0.0 0.0 19.0 
353.00383112975123 2.3698906357790928 94.90862128507484 15.0 0.0 0.0 19.0 
354.00288472200805 2.173239759592698 89.49910515597213 15.0 0.0 0.0 18.0 
355.00013003160115 2.458691394488238 96.914897235225 15.0 0.0 0.0 18.0 
356.00368922043293 2.2068082202057506 85.76031328576437 15.0 0.0 0.0 17.0 
357.0007143397317 2.0236276493412984 85.76031328576437 14.0 0.0 0.0 17.0 
358.0009019200856 2.190504260061949 85.76031328576437 15.0 0.0 0.0 18.0 
359.00651674491803 1.930006033569061 85.76031328576437 15.0 0.0 0.0 18.0 
360.0003121036881 2.0668842831251437 100.25354444071928 15.0 0.0 0.0 17.0 
361.002345999768 2.154425164855692 100.25354444071928 15.0 0.0 0.0 18.0 
362.00372770324 2.1940669324718214 100.25354444071928 15.0 0.0 0.0 19.0 
363.0001389370445 1.99627446726396 100.25354444071928 15.0 0.0 0.0 18.0 
364.0016744091852 2.00170508479273 100.25354444071928 15.0 0.0 0.0 18.0 
365.0047878165973 1.774323432146226 114.87276198100272 15.0 0.0 0.0 18.0 
366.0007988497705 1.8823986854811856 114.87276198100272 15.0 0.0 0.0 18.0 
367.0017468432306 1.982976869014009 114.87276198100272 15.0 0.0 0.0 17.0 
368.00241150202226 2.0405159848034367 114.87276198100272 15.0 0.0 0.0 17.0 
369.00012160709696 1.8967902865977233 114.87276198100272 15.0 0.0 0.0 16.0 
370.0008837558419 2.065645477571558 129.53107046162359 15.0 0.0 0.0 17.0 
371.0014701931822 2.137937606932772 129.53107046162359 16.0 0.0 0.0 16.0 
372.00160828040083 1.9041947953411626 129.53107046162359 16.0 0.0 0.0 16.0 
373.00420407585983 2.001870156369756 129.53107046162359 16.0 0.0 0.0 17.0 
374.00022605918343 2.023702918441569 129.53107046162359 15.0 0.0 0.0 18.0 
375.0043404668158 2.143793769110998 144.10755360859258 14.0 0.0 0.0 18.0 
376.00109103729403 2.2495837958802127 144.10755360859258 16.0 0.0 0.0 18.0 
377.0002451322681 2.254308399248807 144.10755360859258 15.0 0.0 0.0 18.0 
378.00584569136646 2.174659067054043 144.10755360859258 16.0 0.0 0.0 17.0 
379.00076206641387 2.170797932270788 144.10755360859258 16.0 0.0 0.0 17.0 
380.0019761332791 2.528236313183165 157.29668261153267 16.0 0.0 0.0 16.0 
381.00341620276555 2.6386396826838308 157.29668261153267 17.0 0.0 0.0 18.0 
382.00372770324 2.6701380282452254 157.29668261153267 17.0 0.0 0.0 17.0 
383.0005902919508 2.805823570192718 157.29668261153267 17.0 0.0 0.0 17.0 
384.00041722664474 2.766623330194063 157.29668261153267 17.0 0.0 0.0 17.0 
385.00175550511153 2.871030056935924 165.7938237178352 16.0 0.0 0.0 17.0 
386.000429552264 3.2589493552881788 171.6767606109235 17.0 0.0 0.0 17.0 
387.00091224822506 3.495811495765929 171.6767606109235 18.0 0.0 0.0 17.0 
388.0022193572458 3.548584018106636 171.6767606109235 17.0 0.0 0.0 17.0 
389.0014632493524 3.578076280736134 171.6767606109235 17.0 0.0 0.0 17.0 
390.0004003948638 3.9176287723732006 186.05729053169955 17.0 0.0 0.0 17.0 
391.0012018097632 3.618198117279103 93.65112691763738 16.0 0.0 0.0 17.0 
392.00372770324 3.7211232097633817 92.4961361888075 16.0 0.0 0.0 17.0 
393.00061230033964 4.1274571249520875 103.16560031965895 16.0 0.0 0.0 17.0 
394.005885357359 3.494458288876791 95.04915726013667 17.0 0.0 0.0 17.0 
395.00020723618843 3.5910266572760317 103.16560031965895 16.0 0.0 0.0 17.0 
396.0000698819772 3.4866457921629044 101.97363858412643 16.0 0.0 0.0 17.0 
397.0004973243853 2.934348795715036 88.78573032590668 16.0 0.0 0.0 17.0 
398.0000780443436 3.5930252924279813 104.62486374146181 16.0 0.0 0.0 17.0 
399.00565702437547 3.446168499579914 104.62486374146181 16.0 0.0 0.0 18.0 
400.0003448635811 3.366822605270605 100.77265024173562 16.0 0.0 0.0 17.0 
401.00163232702744 3.6037956094344223 111.51256897231309 15.0 0.0 0.0 17.0 
402.0011397183943 3.450319002964404 102.65195437458573 16.0 0.0 0.0 17.0 
403.00068517815447 3.794962491062082 111.51256897231309 16.0 0.0 0.0 16.0 
404.0008088353244 3.230898339301653 110.51579983428456 16.0 0.0 0.0 16.0 
405.00117538917726 3.1607506560643914 105.52509336122483 16.0 0.0 0.0 16.0 
406.00454715280904 3.206583270843545 105.52509336122483 16.0 0.0 0.0 16.0 
407.000609425834 2.9949335118134335 105.52509336122483 16.0 0.0 0.0 16.0 
408.0012433740914 3.140480818732338 115.29179575138215 16.0 0.0 0.0 16.0 
409.0006604374338 2.8744602838854303 91.19778730094606 16.0 0.0 0.0 16.0 
410.00413151715935 2.887718790001709 91.19778730094606 16.0 0.0 0.0 16.0 
411.0011825475066 2.896039709270447 95.05720212306983 17.0 0.0 0.0 17.0 
412.00054569593215 2.925465921066371 95.05720212306983 18.0 0.0 0.0 18.0 
413.0025251364011 3.2691583970351425 111.78628928795308 18.0 0.0 0.0 18.0 
414.0002787988208 3.3836384463258375 111.78628928795308 18.0 0.0 0.0 18.0 
415.0044370425876 3.3447276259536727 111.78628928795308 18.0 0.0 0.0 18.0 
416.0039554225294 3.2814772471293385 111.78628928795308 18.0 0.008008862839315177 4.004431419657578 18.0 
417.0004806317373 3.3005140284740055 111.78628928795308 18.0 0.008008862839315177 4.004431419657578 18.0 
418.00377530536707 3.0804917879735427 108.55389950472738 18.0 0.0 0.0 18.0 
419.00014043731755 3.2504592074947882 108.55389950472738 18.0 0.01079459272182138 5.397296360910673 18.0 
420.0005562844384 3.0542183487795977 108.55389950472738 18.0 0.018980901418409246 5.397296360910673 18.0 
421.00060679320916 3.2271224078552763 108.55389950472738 18.0 0.01079459272182138 5.397296360910673 19.0 
422.00372770324 3.2543918952943263 112.4167072364188 18.0 0.0 0.0 19.0 
423.00206249209117 3.359590238764232 116.14196497019401 18.0 0.0 0.0 19.0 
424.00159613754187 3.369132862676469 116.14196497019401 18.0 0.0 0.0 19.0 
425.0015986223091 3.2387959918104445 116.14196497019401 18.0 0.0 0.0 19.0 
426.00113191442557 3.177746277321508 116.14196497019401 18.0 0.0 0.0 19.0 
427.00080518760643 3.218545578243063 122.67940192453688 18.0 0.0 0.0 19.0 
428.001561063732 3.0656106816906736 103.92773389398042 18.0 0.0 0.0 20.0 
429.0026013143295 2.882675228003171 103.92773389398042 18.0 0.0 0.0 20.0 
430.00170112281313 2.727296938575903 103.92773389398042 18.0 0.0 0.0 20.0 
431.0013604931152 2.6543099898160114 105.89159779364678 18.0 0.0 0.0 19.0 
432.0029383391859 2.9107856965874483 114.1603263671683 19.0 0.0 0.0 19.0 
433.0005035314695 3.0204113800120194 118.64017224910168 20.0 0.0 0.0 19.0 
434.0015446385045 1.9839469204162947 110.01567723340133 20.0 0.0 0.0 19.0 
435.0026126574376 2.14080007616245 114.00153133240866 19.0 0.0 0.0 19.0 
436.0039511987604 1.828492172047757 114.00153133240866 19.0 0.0 0.0 18.0 
437.0009165280246 1.6221345223353478 116.42479320346541 19.0 0.0 0.0 20.0 
438.0017689073973 1.5003400980009387 118.48319434796474 19.0 0.0 0.0 21.0 
439.0010664542192 0.8116731138781681 113.84276558725941 19.0 0.0 0.0 21.0 
440.00434060001095 0.5991598719266639 40.49357143531782 19.0 0.0 0.0 18.0 
441.0003801215521 0.6272094366354058 40.49357143531782 19.0 0.0 0.0 19.0 
442.00372770324 0.6162749612501377 40.49357143531782 19.0 0.0 0.0 19.0 
443.00027435340644 0.722307788198812 37.07850527556457 19.0 0.0 0.0 19.0 
444.0030566936002 0.8223711964490039 42.03509644497785 19.0 0.0 0.0 19.0 
445.0019870916522 0.8576976654294931 43.82534997211974 19.0 0.0 0.0 19.0 
446.0005880149497 0.8810125250877908 47.08549402966861 19.0 0.0 0.0 19.0 
447.00066477340164 0.9525190920823364 47.08549402966861 19.0 0.0 0.0 19.0 
448.0031275825613 0.8741941450994621 49.63364258545744 20.0 0.0 0.0 19.0 
449.0006516049054 0.8219697268991799 54.03574284927279 20.0 0.0 0.0 18.0 
450.0005937112982 0.8252371257315457 55.210591357063834 20.0 0.0 0.0 18.0 
451.0043460251379 0.6107815094174902 33.69869461307658 20.0 0.0 0.0 18.0 
452.00259023244274 0.5260198762083762 33.69869461307658 20.0 0.0 0.0 17.0 
453.0009717862624 0.644094111867173 38.677666198422116 20.0 0.0 0.0 16.0 
454.00046752094875 0.68922483391042 38.677666198422116 20.0 0.0 0.0 17.0 
455.0016189459818 0.7178935965958203 38.677666198422116 20.0 0.0 0.0 16.0 
456.00454715280904 0.712862489708553 38.677666198422116 21.0 0.0 0.0 16.0 
457.00335644546965 0.6365697787274444 45.169614376838695 21.0 0.0 0.0 17.0 
458.00286720715206 0.6678719853107886 52.31856131527522 21.0 0.0 0.0 17.0 
459.0032659044162 0.48393721085441527 52.31856131527522 21.0 0.0 0.0 17.0 
460.003347317734 0.539237522103898 52.31856131527522 21.0 0.0 0.0 17.0 
461.00162777918905 0.2455577689472342 34.09879554542124 21.0 0.0 0.0 17.0 
462.0001815291992 0.24652311013206815 34.09879554542124 22.0 0.0 0.0 18.0 
463.0027735270474 0.282106669543031 35.37998728206318 21.0 0.0 0.0 18.0 
464.0064200348082 0.24186246047889984 42.37882390959891 20.0 0.0 0.0 18.0 
465.00042954674547 0.12360046371536919 31.29145523155978 20.0 0.0 0.0 18.0 
466.0043651942614 0.22230552184665303 42.37882390959891 21.0 0.0 0.0 18.0 
467.00048372315626 0.1739527977874554 37.482481782168094 21.0 0.0 0.0 18.0 
468.0003365823462 0.03640492375999978 18.202461879999788 20.0 0.0 0.0 18.0 
469.0000354831502 0.03640492375999978 18.202461879999788 19.0 0.0 0.0 19.0 
470.00724186139115 0.05183764883016069 18.59283883325594 19.0 0.0 0.0 19.0 
471.00057288253373 0.05183764883016069 18.59283883325594 19.0 0.0 0.0 19.0 
472.00372770324 0.07107673295799004 18.59283883325594 19.0 0.0 0.0 19.0 
473.0011120683632 0.08200149460459097 18.59283883325594 19.0 0.0 0.0 19.0 
474.00056561912874 0.07899008402107092 18.59283883325594 20.0 0.0 0.0 18.0 
475.00360467639786 0.010814242320670645 5.407121160335322 21.0 0.0 0.0 18.0 
476.0012378313059 0.010814242320670645 5.407121160335322 21.0 0.0 0.0 17.0 
477.00372770324 0.023167213438489723 11.583606719244898 21.0 0.0 0.0 17.0 
478.001206002263 0.03163365014882565 15.816825074412861 21.0 0.0 0.0 17.0 
479.0032015759698 0.008231345453710941 4.1156727268554505 20.0 0.0 0.0 16.0 
480.0002866595357 0.017270393730112854 4.519524138201007 20.0 0.0 0.0 16.0 
481.0008855854042 0.060668960032983936 15.816825074412861 20.0 0.0 0.0 17.0 
482.00134350680435 0.08752559101422233 22.228952481147076 20.0 0.0 0.0 17.0 
483.001200923314 0.08107761965498034 22.228952481147076 20.0 0.0 0.0 17.0 
484.0001085008669 0.09011656268985066 26.748423998582183 20.0 0.0 0.0 17.0 
485.0018610009465 0.058094533780595724 16.337795059258553 19.0 0.0 0.0 17.0 
486.0003122943993 0.09313963347888679 26.748423998582183 20.0 0.0 0.0 17.0 
487.0012014950113 0.08073269158826081 20.544953053269097 20.0 0.0 0.0 17.0 
488.00105297618217 0.09727758951893084 25.16326860989932 21.0 0.0 0.0 18.0 
489.0018091121097 0.07502330522848212 25.16326860989932 21.0 0.0 0.0 18.0 
490.00050542156197 0.0688534313727101 25.16326860989932 21.0 0.0 0.0 18.0 
491.00108607981343 0.07222355666262134 25.16326860989932 21.0 0.0 0.0 18.0 
492.0002975695979 0.08238167883733744 18.73980175185224 21.0 0.0 0.0 18.0 
493.0029314739119 0.13305763821093183 23.645721268825014 21.0 0.0 0.0 18.0 
494.00094114167814 0.13305763821093183 23.645721268825014 21.0 0.0 0.0 18.0 
495.00089249420563 0.1439041949477355 23.645721268825014 22.0 0.0 0.0 18.0 
496.00454715280904 0.27233702834987916 23.645721268825014 21.0 0.0 0.0 17.0 
497.00015192377117 0.30569139350882546 24.754643759392195 21.0 0.0 0.0 17.0 
498.0006004885783 0.4043129306662991 36.56220427077321 20.0 0.0 0.0 17.0 
499.00026205522227 0.31915772876321885 29.106634793968 19.0 0.0 0.0 17.0 
500.00040242242227 0.3344417801275225 30.26748800642568 19.0 0.0 0.0 17.0 
501.00106291377506 0.4789238225991144 30.26748800642568 19.0 0.0 0.0 17.0 
502.00056157921836 0.6041547128541622 42.189332648391996 19.0 0.0 0.0 17.0 
503.0000052249748 0.5137716163720298 33.99111597863279 19.0 0.0 0.0 17.0 
504.00111754061925 0.4686595628702515 33.99111597863279 20.0 0.0 0.0 17.0 
505.0009273065361 0.5066869994941272 33.99111597863279 20.0 0.0 0.0 17.0 
506.0003248301737 0.6322637354844355 41.39185384634939 20.0 0.0 0.0 17.0 
507.00182357486534 0.6637795735007032 45.916620462804815 20.0 0.0 0.0 17.0 
508.00047495714426 0.715746365213723 45.916620462804815 20.0 0.0 0.0 17.0 
509.00181745413727 0.7770695703582043 45.916620462804815 21.0 0.0 0.0 19.0 
510.00015513833864 0.6533172753357347 44.57863729322074 21.0 0.019154976971307493 9.577488485653788 19.0 
511.0008063532938 0.8927328335293048 53.17327416445204 20.0 0.019154976971307493 9.577488485653788 18.0 
512.00315984762 0.815180458554349 51.85629308686265 19.0 0.019154976971307493 9.577488485653788 17.0 
513.0007168953593 0.9177717223381974 52.42372626614309 19.0 0.033922124589837746 16.961062294918833 17.0 
514.000418067887 1.1307559368603302 55.515795912746086 20.0 0.0 0.0 17.0 
515.0002138312684 0.9525807819069104 52.42372626614309 21.0 0.0 0.0 18.0 
516.0000869278526 1.0414755945570269 59.77089152957342 21.0 0.0 0.0 18.0 
517.0019223451923 1.1791976477952983 62.82641182170369 20.0 0.0 0.0 18.0 
518.0048402505054 1.1978025594256443 62.82641182170369 20.0 0.0 0.0 19.0 
519.0003292947658 1.3850736654105646 65.43466435454934 19.0 0.0 0.0 17.0 
520.0001576455701 1.417580303770751 63.297343163186895 19.0 0.0 0.0 17.0 
521.0006373563832 1.5425045717528933 70.34839872106829 21.0 0.0 0.0 17.0 
522.0026570002566 1.3371677187966122 70.34839872106829 22.0 0.0 0.0 19.0 
523.0017218792439 0.9666531963486209 67.38567417930648 22.0 0.0 0.0 19.0 
524.0026538048692 0.9936960848755898 67.38567417930648 22.0 0.0 0.0 19.0 
525.0021953221034 0.9353357864855764 62.624499116637935 22.0 0.0 0.0 19.0 
526.00074495866 1.1331289033634273 69.80421937374473 22.0 0.0 0.0 19.0 
527.0016620184366 1.163389989591157 69.80421937374473 22.0 0.0 0.0 19.0 
528.0001578783651 1.2790421100962643 69.80421937374473 22.0 0.0 0.0 19.0 
529.0001697324668 1.1418841576718208 69.80421937374473 22.0 0.0 0.0 19.0 
530.0001811937572 1.191407247716037 65.4557233729289 21.0 0.0 0.0 19.0 
531.0006652806129 1.2694030352124839 72.703176951812 20.0 0.0 0.0 19.0 
532.0021779755282 1.4412859304233572 75.06687218752666 20.0 0.0 0.0 19.0 
533.0012658370521 1.3393571839671639 75.06687218752666 20.0 0.0 0.0 19.0 
534.0019681708687 1.3404777648898913 75.06687218752666 20.0 0.0 0.0 19.0 
535.0008255426281 1.3302130038306033 75.06687218752666 19.0 0.0 0.0 19.0 
536.0006505676917 1.5478125377847416 87.21603655874452 19.0 0.0 0.0 18.0 
537.0013455639747 1.609031835968839 87.21603655874452 19.0 0.0 0.0 18.0 
538.0072002389089 2.0942233583477647 94.63811912987131 18.0 0.0 0.0 18.0 
539.0017983635643 1.9578647708341164 94.63811912987131 18.0 0.0 0.0 17.0 
540.0029897075443 1.9283800661313153 94.63811912987131 18.0 0.0 0.0 17.0 
541.0003685232454 2.1008447948710978 101.71995923801074 18.0 0.0 0.0 17.0 
542.00372770324 2.130098491345387 101.71995923801074 18.0 0.0 0.0 17.0 
543.0008072698316 2.075027993264519 98.87881429376972 18.0 0.0 0.0 17.0 
544.0005228679154 2.2681532781459066 98.87881429376972 18.0 0.0 0.0 17.0 
545.0028655868998 2.3163018676205347 98.87881429376972 18.0 0.0 0.0 17.0 
546.0000359601207 2.535333466012966 107.74851630405857 18.0 0.0 0.0 17.0 
547.0008598143467 2.3155485889904064 107.74851630405857 18.0 0.0 0.0 17.0 
548.0064779047935 2.549585190509851 107.74851630405857 18.0 0.0 0.0 18.0 
549.0000552690627 2.358252348856636 107.74851630405857 18.0 0.0 0.0 18.0 
550.005940634405 2.7158569248095286 107.74851630405857 18.0 0.0 0.0 18.0 
551.0041858674778 3.1820626921207045 117.6263118449616 17.0 0.0 0.0 18.0 
552.0033803957332 3.2081332585367934 117.6263118449616 17.0 0.0 0.0 18.0 
553.0042646954819 3.330703881014424 117.6263118449616 17.0 0.0 0.0 19.0 
554.0038550454326 3.159632374922174 117.6263118449616 16.0 0.0 0.0 18.0 
555.0093598135604 2.4963185177407143 105.4397537269736 16.0 0.0 0.0 18.0 
556.0002884883495 2.665520454981597 120.34608200926164 15.0 0.0 0.0 18.0 
557.0009576308241 2.548919815639085 71.01470250039733 15.0 0.0 0.0 18.0 
558.0008405369335 2.6200299996242693 71.01470250039733 15.0 0.0 0.0 18.0 
559.0011976523282 2.843179064248863 73.06131132770639 15.0 0.0 0.0 18.0 
560.0025051686267 2.881528789564304 73.06131132770639 15.0 0.0 0.0 18.0 
561.000446925057 3.163234174391724 77.3310254154672 16.0 0.0 0.0 18.0 
562.000495205977 2.724612229698939 77.3310254154672 19.0 0.0 0.0 17.0 
563.0012704114948 1.7459870117853522 65.4831862376194 20.0 0.0 0.0 17.0 
564.0009812352889 1.6474954602411114 66.4687956457953 20.0 0.0 0.0 17.0 
565.0002386639708 0.9981559309044844 69.56999869070853 20.0 0.0 0.0 17.0 
566.004547152809 0.8619066552436944 53.72261512052361 21.0 0.0 0.0 18.0 
567.002924956841 0.8736985576257529 53.72261512052361 21.0 0.0 0.0 18.0 
568.000877296494 0.90973163120816 60.21444360157221 21.0 0.0 0.0 17.0 
569.000189661331 1.1322826146312517 61.12374168277023 21.0 0.0 0.0 17.0 
570.0005393318772 0.6411024057430308 60.21444360157221 21.0 0.0 0.0 17.0 
571.0012683712617 0.6419009848180943 86.38162718106923 21.0 0.0 0.0 14.0 
572.0036475806227 0.41266779605839515 43.34003020809888 21.0 0.0 0.0 14.0 
573.0001658540853 0.41025983477434247 49.88765098787883 21.0 0.0 0.0 15.0 
574.0016034845355 0.35880169062228245 49.88765098787883 21.0 0.0 0.0 15.0 
575.0009548555355 0.2581316429088984 49.15980344804524 21.0 0.0 0.0 15.0 
576.0026779276641 0.18112419291822135 27.267345417692866 20.0 0.0 0.0 15.0 
577.00372770324 0.17487329298365759 27.267345417692866 20.0 0.0 0.0 15.0 
578.0005601055686 0.1833044060390765 27.267345417692866 19.0 0.0 0.0 15.0 
579.004897288748 0.11958470135504606 20.035433831420363 19.0 0.0 0.0 15.0 
580.0006087435324 0.11732939998240645 20.035433831420363 19.0 0.014133102279400438 7.066551139700238 15.0 
581.0022221401207 0.11810682689136255 20.36205491628226 19.0 0.02124453486413489 7.066551139700238 15.0 
582.0014548688297 0.11919077981386808 20.36205491628226 19.0 0.022261589522074857 11.130794761037379 15.0 
583.0008953200511 0.06762981513606978 14.806596582386277 19.0 0.007370539294219747 3.685269647109891 15.0 
584.0011861537449 0.24717399166638282 51.51421333920226 19.0 0.007370539294219747 3.685269647109891 16.0 
585.0060631300242 0.3633730381864761 54.37028239051148 19.0 0.0 0.0 16.0 
586.004547152809 0.409153220311869 59.109204726082055 17.0 0.0 0.0 16.0 
587.0000900357904 0.40552859752119924 59.109204726082055 17.0 0.0 0.0 15.0 
588.0004515278392 0.42027351090134946 59.109204726082055 17.0 0.0 0.0 15.0 
589.0015843024005 0.38532807430705973 59.109204726082055 17.0 0.0 0.0 15.0 
590.0095832694641 0.5248682383577782 60.85777157328209 17.0 0.0 0.0 15.0 
591.0035617930921 0.6075224608023286 70.23433141819919 16.0 0.0 0.0 15.0 
592.00372770324 0.5556948319454948 68.13037842927025 15.0 0.0 0.0 17.0 
593.0002479056623 0.6420654350312786 70.6605645334925 15.0 0.0 0.0 17.0 
594.0008558702787 0.5020189386520405 68.13037842927025 15.0 0.0 0.0 16.0 
595.0008104791455 0.5535743464946223 69.29723539115525 15.0 0.0 0.0 16.0 
596.004547152809 0.8428010299909973 77.44969104193649 15.0 0.0 0.0 16.0 
597.0002020214538 0.8310872362842642 76.03761041150926 15.0 0.0 0.0 16.0 
598.0002443444862 0.826571587410409 76.03761041150926 15.0 0.0 0.0 15.0 
599.0009083076588 0.830519284948968 76.03761041150926 15.0 0.0 0.0 15.0 
600.0020431304579 0.6788861476411409 81.96773938225147 15.0 0.0 0.0 15.0 
#####################################################################
# End of data export. Simulation finished at: 2019-02-25T20:31+0000 #
#####################################################################
