#####################################################################
# Alchemist log file - simulation started at: 2019-02-25T20:47+0000 #
#####################################################################
# seed = 196.0
#
# The columns have the following meaning: 
# time distance-rep[Mean] distance-rep[Max] leader-rep[CountDistinct] distance-share[Mean] distance-share[Max] leader-share[CountDistinct] 
0.0 NaN NaN NaN NaN NaN NaN 
1.0049523786353514 0.0 0.0 498.0 0.0 0.0 74.0 
2.0059123040863582 0.0 0.0 127.0 0.0 0.0 69.0 
3.0025261756059027 0.0 0.0 115.0 0.0 0.0 53.0 
4.002339703140741 0.0 0.0 110.0 0.0 0.0 49.0 
5.000287033898832 0.0 0.0 102.0 0.0 0.0 44.0 
6.005610305375006 0.0 0.0 92.0 0.0 0.0 43.0 
7.000356247848022 0.0 0.0 87.0 0.0 0.0 42.0 
8.008662312299379 0.0 0.0 87.0 0.0 0.0 39.0 
9.000076860523377 0.0 0.0 82.0 0.0 0.0 45.0 
10.002380030607481 0.0 0.0 75.0 0.0 0.0 43.0 
11.000075474696187 0.0 0.0 76.0 0.0 0.0 38.0 
12.000698426359266 0.0 0.0 74.0 0.0 0.0 36.0 
13.006023513273343 0.0 0.0 73.0 0.0 0.0 34.0 
14.000001588447645 0.0 0.0 72.0 0.0 0.0 33.0 
15.00029806790414 0.0 0.0 69.0 0.04009392881144514 20.046964405722463 33.0 
16.000909826105325 0.0 0.0 67.0 0.04009392881144514 20.046964405722463 33.0 
17.001203042522977 0.0 0.0 64.0 0.08072258731387555 15.00346407604664 30.0 
18.00471744180207 0.0 0.0 60.0 0.09746113490048089 13.86299872736177 30.0 
19.00386532236035 0.0 0.0 58.0 0.15273736580477182 13.86299872736177 30.0 
20.00094476482108 0.0 0.0 58.0 0.0276474155231336 13.82370776156688 33.0 
21.00064350277514 0.0 0.0 54.0 0.0 0.0 31.0 
22.003411008963024 0.0 0.0 55.0 0.0 0.0 30.0 
23.000733824091196 0.0 0.0 54.0 0.010578527262872763 5.28926363143637 27.0 
24.000797591755234 0.0 0.0 53.0 0.010578527262872763 5.28926363143637 27.0 
25.001795455983274 0.0 0.0 53.0 0.008559888415587566 4.279944207793761 25.0 
26.001695371305537 0.0 0.0 52.0 0.0 0.0 21.0 
27.00152961771783 0.0 0.0 51.0 0.004742374546816359 2.3711872734081965 21.0 
28.000583166962983 0.0 0.0 51.0 0.004742374546816359 2.3711872734081965 20.0 
29.001063466362478 0.0 0.0 52.0 0.04918523514680005 9.523468090012699 19.0 
30.000829150040673 0.0 0.0 50.0 0.036874506763425074 7.714920821973095 19.0 
31.002077598585497 0.0 0.0 50.0 0.015429841643946276 7.714920821973095 20.0 
32.000842408393595 0.0 0.0 49.0 0.0 0.0 19.0 
33.00544054040581 0.0 0.0 49.0 0.0 0.0 19.0 
34.00481221051234 0.0 0.0 45.0 0.0 0.0 19.0 
35.0062270889788 0.0 0.0 46.0 0.0 0.0 19.0 
36.00014947446013 0.0 0.0 45.0 0.0 0.0 19.0 
37.00146661790384 0.00490326651927018 2.451633259635088 44.0 0.0 0.0 19.0 
38.000355401592834 0.00490326651927018 2.451633259635088 42.0 0.0 0.0 18.0 
39.00023234749482 0.015933185434960903 7.966592717480438 42.0 0.0 0.0 18.0 
40.0042457250595 0.0 0.0 42.0 0.0029028746694838123 1.451437334741911 19.0 
41.000429514391136 0.0 0.0 41.0 0.0 0.0 20.0 
42.00244617168713 0.05600904374461489 15.36712779051922 39.0 0.0 0.0 20.0 
43.00182157853416 0.05600904374461489 15.36712779051922 38.0 0.0 0.0 18.0 
44.00041806443024 0.0 0.0 37.0 0.0 0.0 18.0 
45.000297928497915 0.01015760597131839 5.078802985659195 37.0 0.0 0.0 18.0 
46.00072895114805 0.01015760597131839 5.078802985659195 37.0 0.0 0.0 18.0 
47.001202672340426 0.0 0.0 35.0 0.0 0.0 19.0 
48.00236668059344 0.0 0.0 35.0 0.0 0.0 19.0 
49.00160715840486 0.0 0.0 33.0 0.0 0.0 19.0 
50.00103236365683 0.0 0.0 34.0 0.0 0.0 19.0 
51.00193051030011 0.0 0.0 34.0 0.0 0.0 19.0 
52.001213689667196 0.09775432517148523 48.87716258574284 34.0 0.0 0.0 20.0 
53.00013597681013 0.002441993018846077 1.2209965094230313 34.0 0.0 0.0 20.0 
54.00089537799165 0.08546795894694088 42.733979473470356 34.0 0.0 0.0 20.0 
55.00163221660866 0.08976001284386989 42.733979473470356 34.0 0.0 0.0 20.0 
56.00110936799355 0.19929769580538956 55.98983799018254 33.0 0.0 0.0 20.0 
57.002993313603504 0.4220660953618535 58.633138562063834 33.0 0.0 0.0 20.0 
58.00150375057677 0.43708516322233576 58.633138562063834 32.0 0.0 0.0 19.0 
59.00040774701776 0.29202444829782914 58.26410599189575 34.0 0.0 0.0 19.0 
60.00294576144094 0.2305789909517644 65.24186201110598 32.0 0.0 0.0 19.0 
61.00274066157361 0.14071447112590638 36.48016758373734 30.0 0.0 0.0 19.0 
62.003324836591105 0.0069240185763137065 3.462009288156878 28.0 0.0 0.0 19.0 
63.00594228614996 0.0069240185763137065 3.462009288156878 29.0 0.0 0.0 19.0 
64.00093679869046 0.0 0.0 30.0 0.0 0.0 19.0 
65.00071808753347 0.0 0.0 30.0 0.0 0.0 19.0 
66.00063378272947 0.0 0.0 29.0 0.0 0.0 21.0 
67.00111624165247 0.0 0.0 29.0 0.0 0.0 23.0 
68.00034441640771 0.0 0.0 29.0 0.0 0.0 25.0 
69.00032972098906 0.0 0.0 29.0 0.0 0.0 23.0 
70.00907435824004 0.0 0.0 28.0 0.0 0.0 23.0 
71.00031408391762 0.0 0.0 28.0 0.0 0.0 23.0 
72.00066510562414 0.0 0.0 27.0 0.0 0.0 23.0 
73.00362594215876 0.03285679964840395 16.428399824201932 27.0 0.0 0.0 23.0 
74.00191315583939 0.03285679964840395 16.428399824201932 27.0 0.0 0.0 23.0 
75.00110127641652 0.0 0.0 27.0 0.0 0.0 23.0 
76.0061649584674 0.07865707748019489 39.32853874009734 27.0 0.0 0.0 23.0 
77.00358281043289 0.1114101689678136 39.32853874009734 27.0 0.0 0.0 22.0 
78.00498464415325 0.11757462193446014 39.32853874009734 27.0 0.0 0.0 22.0 
79.00168290337002 0.1637429310017162 39.32853874009734 27.0 0.0 0.0 22.0 
80.00046617785482 0.3114797727372657 41.080528721363066 26.0 0.0 0.0 22.0 
81.00162844312861 0.2643972124687316 37.117015193022354 26.0 0.0 0.0 22.0 
82.0063138548806 0.30246775778699614 33.62434837097288 26.0 0.0 0.0 22.0 
83.00158861005427 0.2337372724193501 33.62434837097288 27.0 0.0 0.0 22.0 
84.00082233373648 0.3856055676697378 33.62434837097288 28.0 0.0 0.0 22.0 
85.00061590455485 0.5361727650460797 35.73144727599839 28.0 0.0 0.0 22.0 
86.00196538903135 0.36903831878143417 33.35767605429561 28.0 0.0 0.0 20.0 
87.00114725320812 0.6646070680758853 37.66318370544036 27.0 0.0 0.0 20.0 
88.0014729319459 0.41575560879070367 36.05941386822133 26.0 0.0 0.0 20.0 
89.00063438671867 0.5008878101635933 33.85869083739124 26.0 0.0 0.0 20.0 
90.00014219152658 0.521284382495766 32.56431220484262 26.0 0.0 0.0 20.0 
91.00013377615677 0.475748857140003 29.864370308340426 26.0 0.0 0.0 20.0 
92.00046914303344 0.4616347782838329 29.860911607412703 25.0 0.0 0.0 20.0 
93.00098907603581 0.46479951876919195 29.860911607412703 25.0 0.0 0.0 20.0 
94.00026909986643 0.4181482670694895 29.403436008745814 24.0 0.0 0.0 20.0 
95.00075093070242 0.5626449740783875 29.403436008745814 24.0 0.0 0.0 20.0 
96.00565877473427 0.594418632481488 35.02667143954008 25.0 0.0 0.0 19.0 
97.00112956752925 0.546239309925792 35.02667143954008 25.0 0.0 0.0 19.0 
98.00717017814381 0.6159476694537551 35.02667143954008 25.0 0.0 0.0 19.0 
99.00457300398057 0.5773796776752372 36.890025663932676 25.0 0.0 0.0 19.0 
100.001572154513 0.5467077184575292 39.34365655780465 25.0 0.015395038302847988 7.697519151423961 19.0 
101.00088681391112 0.6853257954425602 44.96143091173499 23.0 0.0 0.0 20.0 
102.0010110036666 0.6300737314557022 44.96143091173499 23.0 0.0 0.0 20.0 
103.0000519109866 0.6362121042326981 44.96143091173499 23.0 0.0 0.0 20.0 
104.00065983192174 0.5708935733485266 46.82403277090398 23.0 0.0 0.0 18.0 
105.00294335771831 0.654292480615914 49.276143712561634 23.0 0.0 0.0 18.0 
106.0024862034876 0.6132739701967868 54.84999472076274 22.0 0.0 0.0 17.0 
107.00359141957482 0.6662118444042822 54.3642933879764 22.0 0.0 0.0 17.0 
108.00001867666862 0.3688152449938759 40.64938532288306 21.0 0.0 0.0 17.0 
109.0015961144645 0.39902336873796657 43.328968403012766 21.0 0.0 0.0 17.0 
110.00699818525501 0.46880465189174986 43.328968403012766 21.0 0.0 0.0 17.0 
111.00440387846217 0.3505512936346152 29.260229801902852 21.0 0.0 0.0 16.0 
112.00423386118818 0.6639074486428472 50.7050860407231 21.0 0.0 0.0 16.0 
113.00174555874747 0.6606129046338194 50.7050860407231 20.0 0.0 0.0 16.0 
114.00262459921706 0.6655262202445702 53.56617471305174 20.0 0.0 0.0 16.0 
115.00517073379092 0.7184116360271505 53.56617471305174 20.0 0.0 0.0 16.0 
116.00424259382498 0.6481717936947841 48.907769357839754 20.0 0.0 0.0 16.0 
117.00057222295624 0.7066167264571364 47.05723865794715 20.0 0.0 0.0 17.0 
118.00039065628141 0.6218706879939604 47.05723865794715 19.0 0.0 0.0 16.0 
119.00503340511139 0.6833864160673371 50.14049465219952 20.0 0.0 0.0 17.0 
120.00139912842458 0.7253619515545088 50.14049465219952 21.0 0.0 0.0 17.0 
121.00083769305766 0.8658723181115864 50.14049465219952 21.0 0.0 0.0 17.0 
122.00058129835848 0.5758480711594365 49.83034049637365 20.0 0.0 0.0 17.0 
123.00070973924564 0.2595005568626157 26.387107844505607 20.0 0.0 0.0 17.0 
124.00011656635672 0.0890558084011341 23.34904654285134 20.0 0.0 0.0 16.0 
125.00119282758915 0.07543965221375008 20.71220719063942 20.0 0.0 0.0 16.0 
126.00042955470197 0.1622282540007819 34.2846888641503 20.0 0.0 0.0 16.0 
127.00451125651423 0.28463859857389057 77.74614073571422 20.0 0.0 0.0 16.0 
128.00363466211599 0.21606922084559085 77.74614073571422 20.0 0.0 0.0 16.0 
129.00016795067634 0.21606922084559085 77.74614073571422 20.0 0.0 0.0 16.0 
130.00015482162644 0.13924896555527488 38.07791243358773 20.0 0.0 0.0 16.0 
131.0027735496626 0.269942215352128 84.41967528887574 20.0 0.0 0.0 16.0 
132.00016692152695 0.3412331659338324 81.25467721003565 21.0 0.0 0.0 16.0 
133.0028773684644 0.24303219186189395 81.25467721003565 21.0 0.0 0.0 16.0 
134.00066391004586 0.24303219186189395 81.25467721003565 20.0 0.0 0.0 16.0 
135.0004743788759 0.2454300817661599 81.25467721003565 20.0 0.0 0.0 16.0 
136.0001693173325 0.2896941204626359 88.06473554482125 19.0 0.0 0.0 17.0 
137.0093496867768 0.2998434102360547 85.20249030591953 19.0 0.0 0.0 16.0 
138.00548010290547 0.29585947387366945 85.20249030591953 19.0 0.0 0.0 17.0 
139.00192170142537 0.3564541546435196 85.20249030591953 19.0 0.0 0.0 17.0 
140.00028736540781 0.3357342137168725 85.20249030591953 19.0 0.0 0.0 17.0 
141.00076253811912 0.4069362386657204 92.11816227711904 19.0 0.0 0.0 17.0 
142.00032568473736 0.4047750817080931 64.23744711095355 20.0 0.0 0.0 20.0 
143.000256257858 0.316148291578766 60.12303319398569 21.0 0.0 0.0 20.0 
144.0003757594329 0.17975985322251004 19.149424745823126 20.0 0.0 0.0 20.0 
145.00494361990496 0.20658990417663758 19.149424745823126 20.0 0.0 0.0 19.0 
146.00099413372004 0.20832145194001078 23.675791327683157 19.0 0.0 0.0 19.0 
147.00067136807442 0.2308024541110459 26.680586643519717 18.0 0.0 0.0 20.0 
148.00103952866198 0.12130768600628074 25.60281994894339 17.0 0.0 0.0 19.0 
149.00022412751505 0.13217977874675355 25.60281994894339 17.0 0.0 0.0 19.0 
150.00285548266964 0.13979009619650068 25.60281994894339 17.0 0.0 0.0 19.0 
151.0058685639481 0.15598383854819084 31.46704346471293 17.0 0.0 0.0 19.0 
152.00574094836674 0.2056976090447455 37.327592377706594 16.0 0.0 0.0 19.0 
153.00108580423986 0.1936033084315244 37.327592377706594 16.0 0.0 0.0 19.0 
154.0018091579423 0.19190573471370218 37.327592377706594 17.0 0.0 0.0 19.0 
155.00161073735717 0.20535096490624674 37.327592377706594 17.0 0.0 0.0 18.0 
156.0011026692869 0.27547149959421635 43.157226575089055 18.0 0.0 0.0 19.0 
157.00142539645026 0.24205004910313227 49.0164695345828 18.0 0.0 0.0 18.0 
158.001095058558 0.23783071420447394 49.0164695345828 18.0 0.0 0.0 18.0 
159.00223618573781 0.26224409712513297 49.0164695345828 18.0 0.0 0.0 19.0 
160.00134731430668 0.30099762666563756 49.0164695345828 18.0 0.0 0.0 19.0 
161.00005973626273 0.4351717797654448 54.84741406491648 18.0 0.0 0.0 19.0 
162.00207571784887 0.4364115370942915 60.6692869993135 18.0 0.0 0.0 19.0 
163.00258504850282 0.4662750959730841 60.6692869993135 18.0 0.0 0.0 19.0 
164.00705933802732 0.4868418935345426 60.6692869993135 19.0 0.0 0.0 20.0 
165.00240342482994 0.5312139792797782 60.6692869993135 19.0 0.0 0.0 20.0 
166.0015263143429 0.6605051322056844 66.53760504842938 18.0 0.0 0.0 20.0 
167.0062678477213 0.658197208459024 73.54837609787978 18.0 0.0 0.0 19.0 
168.00222177747685 0.5010501068746144 53.281795015913076 18.0 0.0 0.0 19.0 
169.0001968301417 0.7536933791431237 72.35835070960121 20.0 0.0 0.0 20.0 
170.00125754236868 0.8884634404784655 78.19050138680905 21.0 0.0 0.0 20.0 
171.00104492538884 0.9078309957870166 73.51352820290816 21.0 0.0 0.0 20.0 
172.00245418481677 1.0988739333164408 84.8734613024589 20.0 0.0 0.0 20.0 
173.00135809782384 1.0312353365782954 84.0112667351936 20.0 0.0 0.0 20.0 
174.00083066492707 1.134540236917902 84.0112667351936 21.0 0.0 0.0 20.0 
175.00199852262162 1.2619527802532893 84.8734613024589 20.0 0.0 0.0 20.0 
176.0016287952164 1.2779092350389214 90.5974381074692 20.0 0.0 0.0 20.0 
177.00189470785227 1.294775314410547 90.5974381074692 20.0 0.0 0.0 20.0 
178.00002166950955 1.3585171705810006 84.78275107348327 20.0 0.0 0.0 20.0 
179.00176501881282 1.3160180295990038 84.78275107348327 20.0 0.0 0.0 20.0 
180.0013927423804 1.5240368269036808 92.42302743123275 21.0 0.0 0.0 20.0 
181.00021663748592 1.518817203797969 90.69536237485624 20.0 0.0 0.0 20.0 
182.00157328540587 1.5287170788829816 90.69536237485624 20.0 0.0 0.0 20.0 
183.00866231229938 1.5936612730160846 88.09237198921443 20.0 0.0 0.0 20.0 
184.00130312560498 1.692784764381061 88.09237198921443 20.0 0.0 0.0 20.0 
185.00270235864443 1.6567214765339255 93.73506989191645 20.0 0.0 0.0 19.0 
186.00190287885752 1.9405549636831463 99.63974711650843 20.0 0.0 0.0 19.0 
187.00099405058816 1.6355853715080222 99.63974711650843 20.0 0.0 0.0 19.0 
188.00063570844387 1.8928901539263063 99.63974711650843 20.0 0.0 0.0 19.0 
189.00203693482004 1.5188974428441693 92.89145428076165 20.0 0.007345822218840219 3.6729111094200846 18.0 
190.00010075831108 1.4949243215477699 92.89145428076165 20.0 0.0 0.0 19.0 
191.00096158112703 1.7229623822576954 99.46569374635982 20.0 0.0 0.0 19.0 
192.00101923257483 1.71221318380124 99.46569374635982 20.0 0.0 0.0 19.0 
193.0010254031642 1.7915819386832887 93.96781153320376 20.0 0.0 0.0 19.0 
194.00197249423226 1.7040850871873767 93.96781153320376 20.0 0.0 0.0 18.0 
195.0016035054482 1.7056061457087461 93.96781153320376 19.0 0.0 0.0 18.0 
196.00078904431882 1.842333243851798 100.64526143946205 20.0 0.0 0.0 18.0 
197.00287798379014 1.8371737850199694 100.64526143946205 20.0 0.0 0.0 19.0 
198.000893696263 1.690858351387599 100.64526143946205 20.0 0.0 0.0 19.0 
199.00033031204808 1.5823185198043912 95.3440843045845 20.0 0.0 0.0 18.0 
200.0020873497099 1.547678875246966 95.3440843045845 20.0 0.0 0.0 19.0 
201.0012774135101 1.7125222130323738 102.07382391968389 21.0 0.0 0.0 21.0 
202.0056858812406 1.6966976689404139 102.07382391968389 22.0 0.0 0.0 22.0 
203.0010574003774 1.6922393049080924 106.33264757991168 22.0 0.0 0.0 22.0 
204.00092917843077 1.6833504212332702 106.95796349994725 22.0 0.0 0.0 22.0 
205.00291316693122 1.6727198932901999 106.95796349994725 21.0 0.0 0.0 20.0 
206.00427145064492 2.080511661190545 139.4149870257147 20.0 0.0 0.0 19.0 
207.01175154811673 1.8016816871391184 113.62506766057817 20.0 0.0 0.0 20.0 
208.00061822666936 1.7770157503119903 113.62506766057817 20.0 0.0 0.0 20.0 
209.00186811602725 1.5521017803276638 118.2661033095086 19.0 0.0 0.0 19.0 
210.00063132215078 1.6745568069123307 118.89407378579415 20.0 0.0 0.0 20.0 
211.00465666354404 2.267535114004376 148.85659529710256 19.0 0.0 0.0 20.0 
212.00036248089626 1.4899000979374735 105.39809610726212 20.0 0.0 0.0 21.0 
213.0012911698746 1.4860393183132412 125.54149709501303 20.0 0.0 0.0 20.0 
214.0005691971682 1.539449283467124 100.47710190780225 17.0 0.0 0.0 19.0 
215.0057744227486 0.9781523810817436 85.51493804497119 16.0 0.0 0.0 19.0 
216.00102749583434 1.5726094800032484 110.33475956872422 16.0 0.0 0.0 19.0 
217.0046264891057 1.1873998668085433 107.59939758690854 17.0 0.0 0.0 20.0 
218.0007744910644 0.9495858834982885 88.50908521204605 17.0 0.0 0.0 20.0 
219.00215475407398 1.2750677297863617 96.90117062476713 15.0 0.0 0.0 19.0 
220.00119274243374 0.7846447823953203 88.93035157782754 14.0 0.0 0.0 19.0 
221.00173422182638 0.8363043891625984 96.4621923829655 14.0 0.0 0.0 18.0 
222.0003767524985 0.4712384939800004 74.9994774733525 14.0 0.0 0.0 18.0 
223.0000236328612 0.30623990798864403 45.54151488757091 14.0 0.0 0.0 18.0 
224.0010411010897 0.4798046590021082 71.22031296491838 14.0 0.0 0.0 18.0 
225.0005655969919 0.32233813208070206 45.618315843621275 14.0 0.0 0.0 18.0 
226.00072077405528 0.3698466719820083 45.618315843621275 14.0 0.0 0.0 18.0 
227.00010927096716 0.26383736854649753 37.123047838593834 14.0 0.0 0.0 18.0 
228.00022421409096 0.2490193923762035 37.123047838593834 14.0 0.0 0.0 18.0 
229.00338547112557 0.30825912714422066 37.07527423642216 14.0 0.0 0.0 18.0 
230.000157884149 0.38491798142492273 45.686940623119824 14.0 0.0 0.0 17.0 
231.00159057145353 0.39991636329726027 45.686940623119824 14.0 0.0 0.0 17.0 
232.00022960597545 0.42271235232790166 45.686940623119824 14.0 0.0 0.0 17.0 
233.00085209766033 0.38612686208071795 45.686940623119824 14.0 0.0 0.0 17.0 
234.00001111146784 0.430313932238716 45.157991034386214 14.0 0.0 0.0 17.0 
235.0026980310118 0.430273598296678 45.157991034386214 14.0 0.0 0.0 17.0 
236.00012313482262 0.21339938985636048 31.175494821436246 14.0 0.0 0.0 16.0 
237.00042966398172 0.22093564765832877 24.223934672957796 14.0 0.0 0.0 15.0 
238.0085754908217 0.29502298686192446 31.175494821436246 13.0 0.0 0.0 15.0 
239.00160984757278 0.3730890087894712 37.196721707883086 13.0 0.0 0.0 15.0 
240.00231829190793 0.4327948234882714 37.196721707883086 13.0 0.0 0.0 16.0 
241.0006230948746 0.6147124481227765 39.06202314790019 13.0 0.0 0.0 14.0 
242.00189467829193 0.5161619919432318 41.59993471732463 13.0 0.0 0.0 14.0 
243.00639779143222 0.44754627207481207 41.59993471732463 13.0 0.0 0.0 14.0 
244.00050509443162 0.6215224679815528 39.50132002486029 13.0 0.0 0.0 15.0 
245.00430271037885 0.5460337486533846 39.50132002486029 13.0 0.0 0.0 15.0 
246.0000820407835 0.5932787481828078 39.67561188932359 13.0 0.0 0.0 15.0 
247.00435925532446 0.7384523160206476 47.085868439582924 13.0 0.0 0.0 15.0 
248.00025011081595 0.7270818502438869 47.085868439582924 13.0 0.0 0.0 15.0 
249.00008249352862 0.6720816474712139 47.75381710959988 13.0 0.0 0.0 15.0 
250.00057379390847 0.5864780638349568 47.75381710959988 13.0 0.0 0.0 15.0 
251.00008792163055 0.5946128080494464 47.75381710959988 13.0 0.0 0.0 15.0 
252.00072860287128 0.6815540708547342 49.64723581111531 13.0 0.0 0.0 15.0 
253.00429873135553 0.659366004085628 45.084146714025366 14.0 0.0038400216555158195 1.9200108277579204 15.0 
254.00056514948486 0.704684108911068 49.64723581111531 14.0 0.0038400216555158195 1.9200108277579204 15.0 
255.0023791572009 0.5758074520642803 45.084146714025366 16.0 0.0038400216555158195 1.9200108277579204 15.0 
256.0036549282992 0.4747164156088187 40.87679097566553 15.0 0.01864008965593768 9.320044827968843 15.0 
257.0007383892438 0.6605111413289533 48.3717592564883 15.0 0.01864008965593768 9.320044827968843 15.0 
258.00552015483964 0.609600902466515 55.47129845657352 15.0 0.03350860563615881 16.75430281807948 15.0 
259.0013200998155 0.6490188373355729 55.47129845657352 15.0 0.03350860563615881 16.75430281807948 15.0 
260.0021146177359 0.671093602970072 44.390528763726536 15.0 0.03350860563615881 16.75430281807948 15.0 
261.00245748039504 0.7718246996356627 62.910211511029274 15.0 0.03350860563615881 16.75430281807948 15.0 
262.00091347724396 0.7545846901519986 62.910211511029274 16.0 0.0 0.0 16.0 
263.00249678704347 0.9160453140395834 70.09765441018823 16.0 0.0 0.0 16.0 
264.00076267409173 0.9159981148297542 70.09765441018823 16.0 0.0 0.0 16.0 
265.0007764856098 0.9184416040256332 70.09765441018823 16.0 0.0 0.0 16.0 
266.0038756446153 1.0243290618346674 70.09765441018823 16.0 0.0 0.0 16.0 
267.0001839706448 1.1390037081022735 77.54844687700665 18.0 0.0 0.0 16.0 
268.0068011111567 1.155964724837719 84.75915738754537 18.0 0.0 0.0 17.0 
269.00070396625375 1.0822351893247981 84.75915738754537 18.0 0.0 0.0 18.0 
270.0010344620131 1.0957441778951338 84.75915738754537 18.0 0.0 0.0 17.0 
271.0010745852583 1.238980125593095 92.22508614903279 18.0 0.0 0.0 17.0 
272.0017428155821 1.3038299470395949 92.22508614903279 19.0 0.0 0.0 17.0 
273.00333411446536 1.3506329801474055 99.45430087922176 19.0 0.0 0.0 17.0 
274.00011109938606 1.3435108612215014 99.45430087922176 19.0 0.0 0.0 17.0 
275.00100586568124 1.351429232186937 99.45430087922176 19.0 0.0 0.0 17.0 
276.0005145706003 1.4527216127552174 99.45430087922176 18.0 0.0 0.0 16.0 
277.00444792561956 1.603048134124369 106.99153634826797 18.0 0.0 0.0 16.0 
278.0000552024285 2.325785944708131 123.84798653152438 18.0 0.0 0.0 17.0 
279.00403436964245 2.3865045851883466 123.84798653152438 18.0 0.0 0.0 17.0 
280.0033080675913 2.400225297958469 123.84798653152438 17.0 0.0 0.0 17.0 
281.00000399974874 2.562315178601518 131.4488793352935 17.0 0.0 0.0 17.0 
282.0000649684727 2.551455629228046 126.93234087953351 16.0 0.0 0.0 17.0 
283.00284965837733 2.7373708730906654 128.96958995276827 17.0 0.0 0.0 17.0 
284.000902161086 2.746562616715018 128.96958995276827 17.0 0.0 0.0 17.0 
285.00265850450694 2.7426360165347146 128.96958995276827 18.0 0.0 0.0 17.0 
286.0005032526078 2.889414832146192 131.53824406280262 17.0 0.0 0.0 17.0 
287.00012436976135 2.734965789325044 136.5062877570603 17.0 0.0 0.0 17.0 
288.00112849651475 2.374862672410227 136.5062877570603 17.0 0.0 0.0 17.0 
289.00083860681286 1.919914185033314 126.92969574405947 17.0 0.0 0.0 16.0 
290.0000334776986 2.096835557895272 143.77062257459266 17.0 0.0 0.0 16.0 
291.00085211133944 1.1646808121221217 131.75421677751478 17.0 0.0 0.0 16.0 
292.0009304608966 1.405463239549845 151.42985342531568 17.0 0.0 0.0 16.0 
293.00125652070346 0.02487105086115962 8.297286914648765 17.0 0.0 0.0 16.0 
294.0000945857921 0.30765287284258724 137.64625149443674 17.0 0.0 0.0 16.0 
295.00554905552207 0.39861893040937274 158.70685802491477 17.0 0.0 0.0 16.0 
296.0013175652327 0.058987057594716306 11.235260779832856 16.0 0.0 0.0 16.0 
297.00335910835355 0.10413699447224105 29.18180114349758 16.0 0.0 0.0 16.0 
298.0002488305571 0.11518310942349931 29.18180114349758 16.0 0.0 0.0 16.0 
299.00214032284686 0.12700387845389563 29.18180114349758 16.0 0.00782559951778224 3.912799758891083 16.0 
300.0013898998453 0.13476764340007247 27.493137785690607 16.0 0.0 0.0 16.0 
301.00243033815485 0.12249161407036746 27.493137785690607 16.0 0.0 0.0 16.0 
302.00075523493 0.12901690126274065 27.493137785690607 16.0 0.0 0.0 17.0 
303.0025856698354 0.11812775711956491 27.493137785690607 16.0 0.0 0.0 16.0 
304.0028875358028 0.10476832335836697 27.493137785690607 16.0 0.0 0.0 16.0 
305.00351255718465 0.11524997602478733 28.263670076251486 16.0 0.0 0.0 16.0 
306.0021747324336 0.06546792823780165 28.263670076251486 16.0 0.0 0.0 16.0 
307.00008480107437 0.14388320616581649 28.263670076251486 16.0 0.0 0.0 16.0 
308.0015796359738 0.03338828968429771 10.860719064507407 16.0 0.0 0.0 16.0 
309.0018338692679 0.04013340107707178 10.860719064507407 16.0 0.0 0.0 16.0 
310.00187851929365 0.07873237020723682 18.258254488199555 16.0 0.0 0.0 16.0 
311.0011783263544 0.07268791459317883 18.258254488199555 16.0 0.0 0.0 18.0 
312.0016834882668 0.14662549636066183 30.14229919852056 16.0 0.0 0.0 18.0 
313.0010208112904 0.10400730503007578 14.134309741004813 16.0 0.0 0.0 18.0 
314.001939576099 0.09726219363730171 14.134309741004813 16.0 0.0 0.0 17.0 
315.0002680723808 0.17837291900474372 20.929562215869026 17.0 0.0 0.0 18.0 
316.00110429825935 0.21366134906361833 20.929562215869026 17.0 0.0 0.0 19.0 
317.00179826866463 0.24909434826028307 20.929562215869026 19.0 0.0 0.0 19.0 
318.0029103797234 0.23850613843705232 25.618543557164656 19.0 0.0 0.0 19.0 
319.0008019400972 0.2569428770278774 25.618543557164656 19.0 0.0 0.0 20.0 
320.0044718230746 0.23323110533767627 20.61599965693901 20.0 0.0 0.0 21.0 
321.0027128321657 0.30524789750132486 21.76936687854416 20.0 0.0 0.0 21.0 
322.00027030946507 0.44969241222219647 25.11922467694086 19.0 0.0 0.0 21.0 
323.00181292768576 0.3966222257905341 23.93707128435429 19.0 0.0 0.0 21.0 
324.0026724095221 0.4316047144142374 26.19406236873948 18.0 0.0 0.0 22.0 
325.0003161156401 0.5439896243805259 26.19406236873948 20.0 0.0 0.0 22.0 
326.0045125382346 0.5439804805426904 25.79211109648338 19.0 0.0 0.0 22.0 
327.00305277645845 0.66833714068942 35.979659411292204 20.0 0.0 0.0 22.0 
328.0006416711808 0.5844799493248117 35.201651877522494 20.0 0.0 0.0 22.0 
329.0006775609894 0.501226847261808 35.201651877522494 19.0 0.0 0.0 21.0 
330.0006075093931 0.4932951712127938 35.201651877522494 19.0 0.0 0.0 21.0 
331.00003857782906 0.28865682372405826 26.695745901973652 19.0 0.0 0.0 21.0 
332.00077725418333 0.26967906378894535 23.23748344195471 19.0 0.0 0.0 20.0 
333.0009432814475 0.20773229289729192 21.357614333952426 19.0 0.0 0.0 19.0 
334.0042148016228 0.17031889381450954 28.192538768291087 19.0 0.0010634796232812977 0.531739811640648 19.0 
335.0008142944238 0.16550152434817342 28.192538768291087 19.0 0.022614232681166958 10.775376528942815 19.0 
336.00877871493793 0.0 0.0 19.0 0.06704374172466968 14.765661486448948 19.0 
337.0025935926989 0.0 0.0 19.0 0.06704374172466968 14.765661486448948 19.0 
338.0014916602008 0.0 0.0 19.0 0.06704374172466968 14.765661486448948 19.0 
339.0004534413164 0.0 0.0 19.0 0.02155075305788554 10.775376528942815 19.0 
340.00079142233085 0.0 0.0 19.0 0.007358763010414595 3.6793815052072887 19.0 
341.0004935457792 0.0 0.0 19.0 0.03216559574412374 11.196369595777583 18.0 
342.0019656229534 0.0 0.0 19.0 0.0462346090094667 11.196369595777583 17.0 
343.00045903747093 0.0 0.0 19.0 0.03646175245689791 11.196369595777583 18.0 
344.0001096491776 0.0 0.0 19.0 0.03646175245689791 11.196369595777583 18.0 
345.0010504550955 0.0 0.0 19.0 0.021754893136101294 7.034506632671338 17.0 
346.00093201090107 0.0 0.0 19.0 0.0232913868713454 11.233270856237823 17.0 
347.00188396241333 0.0 0.0 19.0 0.0232913868713454 11.233270856237823 17.0 
348.0072254030914 0.0 0.0 19.0 0.022466541712475675 11.233270856237823 17.0 
349.00113869804034 0.0 0.0 18.0 0.022466541712475675 11.233270856237823 18.0 
350.0014218161892 0.0 0.0 18.0 0.012674750049816715 3.8352809666729684 18.0 
351.0019529151816 0.0 0.0 18.0 0.005004188116470703 2.5020940582353717 18.0 
352.0048212429895 0.0 0.0 18.0 0.005004188116470703 2.5020940582353717 18.0 
353.0004130606257 0.0 0.0 18.0 0.005004188116470703 2.5020940582353717 17.0 
354.00122268704365 0.004371024507267801 2.1855122536339024 19.0 0.0 0.0 18.0 
355.00068937771977 0.004371024507267801 2.1855122536339024 19.0 0.0 0.0 18.0 
356.0009658015313 0.01521498320833532 7.607491604167677 19.0 0.0010463466401591328 0.5231733200795645 18.0 
357.0003260067698 0.03746879920552365 18.734399602761812 19.0 0.0010463466401591328 0.5231733200795645 18.0 
358.00000821227013 0.02842349702658128 14.2117485132907 18.0 0.0010463466401591328 0.5231733200795645 18.0 
359.00546158228116 0.051444861263749295 25.285188361744616 18.0 0.0 0.0 18.0 
360.00095186222285 0.029297981566841606 14.2117485132907 18.0 0.0 0.0 18.0 
361.00164534370623 0.04055465277238517 19.840084116062457 20.0 0.0 0.0 16.0 
362.00292862244316 0.08227668352248212 30.603869369044133 20.0 0.0 0.0 16.0 
363.0019768172583 0.08227668352248212 30.603869369044133 20.0 0.0 0.0 16.0 
364.000155550786 0.10906798587273107 37.301335393376576 21.0 0.0 0.0 19.0 
365.0069582023347 0.13622185472849413 37.301335393376576 21.0 0.0 0.0 18.0 
366.0015475287408 0.16770040115950102 37.301335393376576 21.0 0.0 0.0 18.0 
367.00833303254524 0.18700419919338973 41.43525781098663 21.0 0.0 0.0 18.0 
368.00303416279235 0.20289587117466462 41.43525781098663 21.0 0.0 0.0 18.0 
369.0003413410017 0.27183479670608984 48.27140210925327 21.0 0.0 0.0 18.0 
370.0009927661905 0.2778575355347704 48.27140210925327 21.0 0.0 0.0 18.0 
371.0008970374038 0.30204580976253914 48.27140210925327 21.0 0.004173014995701134 2.0865074978505618 18.0 
372.0057812361083 0.35227106427487276 52.325979247491716 21.0 0.0 0.0 17.0 
373.0000627235876 0.21924040852664337 38.115375256044615 20.0 0.0 0.0 18.0 
374.0005072999248 0.305376172777043 50.366116392413545 19.0 0.0 0.0 18.0 
375.00024054089323 0.15844573049605 37.116846025899065 19.0 0.01177637623952587 5.888188119762958 18.0 
376.0000184040045 0.38180230261100145 50.366116392413545 19.0 0.08855223817065765 8.46174664005494 18.0 
377.01015770548173 0.2878340283784587 49.41748740069892 19.0 0.08825916983927667 8.46174664005494 18.0 
378.0038419314923 0.4068373334921608 50.366116392413545 19.0 0.07419851382232974 8.46174664005494 18.0 
379.0007661411901 0.2734134145686247 49.24840007141469 19.0 0.0418952916430845 5.065820000076826 17.0 
380.0001584906809 0.31533117891935597 49.24840007141469 19.0 0.05161668396337683 11.525682700237923 20.0 
381.00563492016505 0.3749648184689841 54.815830561261635 19.0 0.1251952299842937 14.368566727993823 21.0 
382.00107202977296 0.38156565560687306 54.815830561261635 19.0 0.19122290537674835 14.368566727993823 19.0 
383.00178182703434 0.47034750275555703 54.815830561261635 18.0 0.19122290537674835 14.368566727993823 19.0 
384.00215996868315 0.5335885786331392 61.67126517560405 19.0 0.18396929489462105 13.516570721649316 19.0 
385.0015306197317 0.6762160820667152 67.93764535866381 20.0 0.24291481578141116 18.440814238452788 18.0 
386.00082292189563 0.5726691937235959 66.87285870794824 20.0 0.4530764536562545 22.14407057630848 18.0 
387.0015876846839 0.6159645944697403 66.87285870794824 21.0 0.5065123692016977 26.058811927260507 18.0 
388.0018518451585 0.6026049236015163 66.87285870794824 21.0 0.5686695473659519 31.078589082127053 17.0 
389.0005519517327 0.6705652197686003 73.82900716038608 21.0 0.15263684005198425 20.929781600665905 20.0 
390.00591103640767 0.8015444640585424 73.82900716038608 21.0 0.0 0.0 20.0 
391.00346933145585 0.712277360864778 78.09576461754585 21.0 0.0 0.0 20.0 
392.00077396070867 0.6003052167795643 48.96587523173193 20.0 0.0 0.0 21.0 
393.00581866705727 0.6728015157818663 78.09576461754585 21.0 0.0 0.0 21.0 
394.00205207146536 0.8386156209844778 85.13741406727706 21.0 0.0 0.0 21.0 
395.00111068305876 0.6544774120307641 55.704191937572915 21.0 0.0 0.0 20.0 
396.0000666586343 0.4529986774409061 55.704191937572915 21.0 0.0 0.0 20.0 
397.00192510526074 0.606721461043675 56.090093879705364 21.0 0.0 0.0 20.0 
398.00245062461767 0.6070103347702772 59.42813406283972 21.0 0.0 0.0 20.0 
399.00077445716835 0.6699990499157628 66.64000841393408 21.0 0.0 0.0 20.0 
400.00224198061125 0.6772697807636522 66.64000841393408 21.0 0.0 0.0 20.0 
401.00370950405414 1.0105250352051678 73.98493682689184 20.0 0.0 0.0 21.0 
402.00019556468976 0.7970688827580418 70.03734735810139 21.0 0.0 0.0 21.0 
403.0003902527878 1.0234814526095286 73.98493682689184 21.0 0.0 0.0 21.0 
404.00171284113117 1.0364455561490975 76.6947924687721 20.0 0.0 0.0 21.0 
405.00104721987725 1.1301989486609216 76.6947924687721 20.0 0.0 0.0 21.0 
406.00065026243107 1.238167440556441 76.6947924687721 20.0 0.0 0.0 21.0 
407.0029701224885 1.2552199183988473 80.78246005363661 21.0 0.0 0.0 21.0 
408.001442795948 1.0902135917807871 80.78246005363661 21.0 0.0 0.0 20.0 
409.0045113172268 0.6602120515514803 87.40548828556649 19.0 0.0 0.0 20.0 
410.00298187341986 0.5017943789525134 87.40548828556649 20.0 0.0 0.0 20.0 
411.00057439717176 0.5064188423769961 87.40548828556649 20.0 0.0 0.0 20.0 
412.00108592999453 0.35791867366932817 91.55384854909738 20.0 0.0 0.0 20.0 
413.0049205029713 0.3501087777492984 91.55384854909738 20.0 0.0 0.0 20.0 
414.00001199100217 0.0 0.0 19.0 0.0 0.0 20.0 
415.00359361259734 0.0 0.0 19.0 0.0 0.0 20.0 
416.00448196150575 0.0 0.0 19.0 0.0 0.0 20.0 
417.00168993107735 0.0 0.0 18.0 0.0 0.0 20.0 
418.00606669779506 0.0 0.0 18.0 0.0 0.0 20.0 
419.001527020648 0.013525743246102862 6.7628716230514385 18.0 0.0 0.0 20.0 
420.0004386672323 0.013525743246102862 6.7628716230514385 18.0 0.0 0.0 19.0 
421.0001791324873 0.0 0.0 18.0 0.0 0.0 19.0 
422.0075874486393 0.0 0.0 18.0 0.0 0.0 19.0 
423.0001151853604 0.0 0.0 18.0 0.0 0.0 19.0 
424.0022371539007 0.0 0.0 19.0 0.0 0.0 19.0 
425.0007747297793 0.002062275297723474 1.031137648861744 18.0 0.0 0.0 19.0 
426.0003585585752 0.008319269413956344 4.159634706978153 18.0 0.0 0.0 19.0 
427.00154463250163 0.016456814204222864 4.159634706978153 18.0 0.0 0.0 19.0 
428.0022275860608 0.014196953517623324 4.159634706978153 18.0 0.0 0.0 19.0 
429.00198327607876 0.04482105373197513 15.312050107175963 18.0 0.0 0.0 19.0 
430.00057168094867 0.06772243436993575 15.312050107175963 18.0 0.0 0.0 19.0 
431.00417155210573 0.11530506581987766 15.312050107175963 18.0 0.0 0.0 18.0 
432.0008200038951 0.1691589862747366 22.568789599781155 18.0 0.0 0.0 18.0 
433.00143950840607 0.15711739806515604 22.568789599781155 17.0 0.0 0.0 18.0 
434.004109364178 0.17853148699143084 22.568789599781155 18.0 0.0 0.0 19.0 
435.00153198839774 0.18890068834998186 21.16544975519929 18.0 0.0 0.0 19.0 
436.00350466870344 0.28642601440360577 27.82223163939733 17.0 0.0 0.0 20.0 
437.00130253934964 0.3566666361947352 27.82223163939733 17.0 0.0 0.0 20.0 
438.00083810063177 0.28534311146218605 22.41173746271076 17.0 0.0024614661548752214 1.2307330774376055 20.0 
439.0009572962652 0.2786886099857689 22.41173746271076 17.0 0.0 0.0 20.0 
440.00458059178044 0.2443804905208015 21.53049917220119 16.0 0.0 0.0 20.0 
441.0037483078256 0.39949952213142115 27.10224530084912 16.0 0.0 0.0 20.0 
442.00096391032616 0.6548895401173894 52.86744360822334 16.0 0.0 0.0 20.0 
443.0009703712339 0.608264639017852 47.361060469330965 16.0 0.0038807733177974165 1.940386658898717 19.0 
444.0028962246007 0.6551641289962374 47.361060469330965 16.0 0.0 0.0 19.0 
445.0001527690151 0.5583447121602253 47.361060469330965 16.0 0.0 0.0 20.0 
446.00192435811493 0.6327075026608829 52.79359069510366 16.0 0.0 0.0 23.0 
447.00201352147803 0.9564332059345689 54.6581206838994 17.0 0.0 0.0 22.0 
448.0001878496985 0.8844430456696598 56.35844814270797 17.0 0.0 0.0 22.0 
449.00015428997614 0.7989549926338515 56.35844814270797 18.0 0.006556043277752938 2.8803986694354933 21.0 
450.00000505822845 0.7636575260834215 56.35844814270797 18.0 7.952459388819215E-4 0.39762296944095965 21.0 
451.0122791845563 0.6745704009955107 56.35844814270797 18.0 0.003938755604191131 1.969377802095579 20.0 
452.00022214383574 0.8672559037517935 63.74188770473114 16.0 0.003938755604191131 1.969377802095579 20.0 
453.00023218028747 0.8432124141748201 57.11675209490602 16.0 0.0 0.0 19.0 
454.00534338120286 0.9340611723569151 57.11675209490602 17.0 6.847505915877725E-4 0.3423752957938859 19.0 
455.0000059288515 0.9367844866156115 57.11675209490602 15.0 6.847505915877725E-4 0.3423752957938859 19.0 
456.0016400447856 0.9850050855031177 57.11675209490602 16.0 0.0 0.0 19.0 
457.0004408399091 1.1015680512866917 64.60411967760206 16.0 0.008592007654747175 4.296003827373596 18.0 
458.0008408015403 1.057263592384261 57.207788638277975 16.0 0.003141154278452234 1.570577139226117 17.0 
459.00154878989537 1.0552234098602404 57.207788638277975 14.0 0.007518063941856339 2.188454831702046 17.0 
460.00024903201574 1.0553631571272064 61.12128084090472 14.0 0.007672432072319543 3.836216036159783 17.0 
461.0014737504093 1.0715662307633669 61.12128084090472 14.0 0.007672432072319543 3.836216036159783 17.0 
462.0038882218741 1.3059583106292625 68.61153970165878 14.0 0.0 0.0 17.0 
463.00301363515524 1.275458255536227 68.61153970165878 14.0 0.0 0.0 17.0 
464.00128722286166 1.242406443869486 68.61153970165878 14.0 0.02474712274622012 12.373561373110022 17.0 
465.00267721835615 1.2570008622627677 68.61153970165878 14.0 0.030043112650189642 12.373561373110022 17.0 
466.00138910277855 1.5179408400482037 78.5860076405005 14.0 0.04504595227423796 19.87498118513423 16.0 
467.00003671977476 1.6989660003447518 86.07473095391572 14.0 0.04504595227423796 19.87498118513423 16.0 
468.0072718628619 1.8555995426879262 86.07473095391572 14.0 0.05481818731922533 19.87498118513423 16.0 
469.0011215512805 1.8410000691437642 86.07473095391572 14.0 0.05246687595804225 18.699325504542855 16.0 
470.0046088361461 1.7283819992561127 86.07473095391572 14.0 0.05580233143417967 18.699325504542855 16.0 
471.00199406667406 1.9961483838305323 90.8941440603129 14.0 0.033137337619017555 11.682551287015144 16.0 
472.0068086161557 2.0703479438133283 86.12041905283542 14.0 0.02336510257403033 11.682551287015144 16.0 
473.00177904426477 2.665991662880201 101.88944637295987 14.0 0.02336510257403033 11.682551287015144 16.0 
474.0009014806755 2.2835651179827967 98.32952212759386 14.0 0.0 0.0 16.0 
475.00011288100484 2.39863324845253 101.88944637295987 14.0 0.02005757392505788 10.028786962528983 16.0 
476.0007109124997 2.6789260934228656 101.88944637295987 14.0 0.009257079960507945 4.628539980254033 16.0 
477.004494073768 3.0342672713649512 101.85439716019681 14.0 0.0 0.0 17.0 
478.0011085819239 3.0518335144937887 113.07365126090798 14.0 0.0 0.0 17.0 
479.00156524223615 3.018331703302039 113.07365126090798 14.0 0.0 0.0 16.0 
480.0004360861742 2.7542862408014854 101.85439716019681 14.0 0.0 0.0 16.0 
481.00013320361296 2.9613671179740493 101.85439716019681 14.0 0.0 0.0 16.0 
482.0080090191264 3.612237704661745 104.33843031419008 14.0 0.0 0.0 16.0 
483.00004377655137 3.447291025196142 106.03822263417982 14.0 0.0 0.0 16.0 
484.00370996982207 3.5837026619105172 127.94887134528096 14.0 0.0 0.0 16.0 
485.0015664692603 3.3130893312189276 106.03822263417982 14.0 0.0 0.0 16.0 
486.0086542548456 3.6273509026341237 111.83360905677631 15.0 0.0 0.0 16.0 
487.00167086199184 4.178841356543023 119.20779276199391 15.0 0.0 0.0 16.0 
488.0036053437353 4.294549107785322 134.71531616051476 15.0 0.0 0.0 17.0 
489.0044233638669 4.245705733048226 134.71531616051476 15.0 0.0 0.0 16.0 
490.00141173847254 4.440306231958416 134.71531616051476 15.0 0.0 0.0 15.0 
491.0050449508931 4.495455240446789 120.97364030698441 15.0 0.0 0.0 15.0 
492.00142040939545 4.98917054001293 135.79477768756647 15.0 0.0 0.0 15.0 
493.0014044605154 4.869372486990434 135.79477768756647 15.0 0.0 0.0 15.0 
494.0007129613538 5.2263963602482235 135.79477768756647 15.0 0.0 0.0 15.0 
495.00031324705816 4.47077175832689 135.79477768756647 15.0 0.0 0.0 16.0 
496.0035160648828 4.855910793676942 135.79477768756647 15.0 0.0 0.0 16.0 
497.0051648088517 4.573787292746301 150.6018111028165 15.0 0.0 0.0 16.0 
498.0019219719022 4.879600815352183 148.76808817968345 15.0 0.0 0.0 16.0 
499.0077979913434 4.662863867654072 148.76808817968345 15.0 0.0 0.0 16.0 
500.00179001717504 4.254170208360634 134.8112765903673 15.0 0.0 0.0 16.0 
501.00023891496596 4.716808112544845 134.8112765903673 15.0 0.0 0.0 17.0 
502.0047938805587 5.117230437651768 134.75889903695543 15.0 0.0 0.0 18.0 
503.00023247865994 5.104628120594455 134.75889903695543 15.0 0.0 0.0 17.0 
504.00386874819156 4.845765903084535 135.15137877747605 15.0 0.0 0.0 16.0 
505.0019429091163 5.078621033984886 135.15137877747605 15.0 0.0 0.0 16.0 
506.0010903843556 5.718669288206001 135.15137877747605 15.0 0.0 0.0 15.0 
507.00218194869973 6.57707783920154 142.5396722918323 15.0 0.0 0.0 15.0 
508.00340900441876 6.173556074993669 142.5396722918323 15.0 0.0 0.0 15.0 
509.0019543032771 6.251801303408869 142.5396722918323 15.0 0.0 0.0 15.0 
510.00070826731064 5.859509312972867 144.18755482325213 14.0 0.0 0.0 16.0 
511.0007415564329 6.394341769645688 144.18755482325213 14.0 0.0 0.0 16.0 
512.0010413515655 6.686162346406048 151.56610160399345 14.0 0.0 0.0 15.0 
513.001446269041 6.7032298260709355 151.56610160399345 14.0 0.0 0.0 15.0 
514.0042830202606 6.757239525016824 151.56610160399345 15.0 0.0 0.0 15.0 
515.000681243057 6.169638313841533 151.63794851365276 15.0 0.0 0.0 15.0 
516.0019715345887 5.777720034981072 151.63794851365276 15.0 0.0 0.0 15.0 
517.0018184669107 6.19906062751735 159.13693078896193 16.0 0.0 0.0 15.0 
518.0023741154725 6.434509497059898 172.77402407069218 16.0 0.03139418580476416 9.12273027417828 14.0 
519.0025446201824 5.716004702429795 151.72763469643832 15.0 0.03139418580476416 9.12273027417828 14.0 
520.0017223316136 5.851091469483782 151.72763469643832 14.0 0.03139418580476416 9.12273027417828 14.0 
521.0038696148251 6.227693184284017 159.22610396220995 14.0 0.029523480608243845 9.12273027417828 14.0 
522.0008645169931 7.173637244351442 161.79081236733413 15.0 0.07268223073087454 16.635348482107815 14.0 
523.0021804871271 7.533746959912211 172.81937775284848 15.0 0.0694610041902266 21.57940764020222 15.0 
524.000880873329 6.768508618430539 172.81937775284848 16.0 0.0694610041902266 21.57940764020222 15.0 
525.0001099420219 6.148659607745268 172.81937775284848 16.0 0.026302188909822305 13.151094454911146 15.0 
526.0003058698932 7.1573290988368 172.81937775284848 17.0 0.02396954609267859 6.460066262547059 15.0 
527.0001765359157 7.611131808058516 180.32152654736484 16.0 0.03747716071106421 12.278514092985176 15.0 
528.0017584683359 7.002221184695724 176.88938907798126 16.0 0.05098477440258223 13.213873108306018 15.0 
529.0007758944892 5.6490863659926545 176.88938907798126 16.0 0.05098477440258223 13.213873108306018 15.0 
530.0004414246811 5.114176373854166 176.88938907798126 16.0 0.03573003845413665 13.213873108306018 15.0 
531.0008416809384 5.111095048742053 177.98593056967144 16.0 0.05063607681716174 20.666892289818577 16.0 
532.0001315414096 5.588344277513141 195.5770520070871 16.0 0.06511957932822832 20.666892289818577 18.0 
533.0031590813688 4.795418523886102 179.63455480165607 16.0 0.058907982804525326 19.633083609702283 17.0 
534.0014808387937 3.882894142318897 88.3100073393257 16.0 0.058907982804525326 19.633083609702283 17.0 
535.0029559878407 3.7643589586336192 88.3100073393257 16.0 0.058907982804525326 19.633083609702283 17.0 
536.0119061004639 4.142796910735003 104.69794850377212 16.0 0.012414026697467734 6.207013348733852 18.0 
537.0002543849337 4.2673556528184005 105.02708915182399 16.0 0.02270668745755987 11.353343728779919 18.0 
538.0007504364215 3.736769624895938 104.69794850377212 15.0 0.0 0.0 18.0 
539.0013942387579 4.15776561665442 113.38786299456257 15.0 0.0 0.0 17.0 
540.0012463209379 4.190820633004457 112.54894700892896 15.0 0.02270668745755987 11.353343728779919 17.0 
541.0008516572404 3.8902086083550507 105.5017833294292 15.0 0.0 0.0 17.0 
542.0025703856052 4.6019149333692875 110.86137627804146 15.0 0.0 0.0 17.0 
543.0015742097975 4.8584994412337 115.22992315918538 15.0 0.0 0.0 17.0 
544.000391267678 4.641080399776392 115.22992315918538 16.0 0.0 0.0 17.0 
545.0002262822566 4.8765071754842975 115.22992315918538 16.0 0.0 0.0 17.0 
546.0008348052369 4.590394247765956 115.22992315918538 16.0 0.0 0.0 17.0 
547.0000210663276 4.546291809256823 124.65880212253893 16.0 0.0 0.0 18.0 
548.0033906227529 4.373306883335795 124.65880212253893 16.0 0.0 0.0 18.0 
549.0000673961524 4.035381029907066 124.65880212253893 16.0 0.0 0.0 18.0 
550.0021534448813 4.165543074379453 124.65880212253893 16.0 0.0 0.0 18.0 
551.0010869932536 3.882467632854501 110.37935373328725 15.0 0.0 0.0 18.0 
552.0001401531125 3.872563807490596 110.05762882599839 16.0 0.0 0.0 18.0 
553.0072574260948 3.897862689749388 110.05762882599839 15.0 0.03642541570676683 6.457778645069453 18.0 
554.0031642017846 3.8714163380253073 110.05762882599839 15.0 0.03642541570676683 6.457778645069453 18.0 
555.0002999001043 3.8938309950028964 110.05762882599839 15.0 0.03642541570676683 6.457778645069453 18.0 
556.0005106376144 3.9004158097153314 115.89422764679063 15.0 0.03642541570676683 6.457778645069453 18.0 
557.0013896429272 3.705329097127661 121.52732765848754 15.0 0.08183112676952178 13.822485581974775 19.0 
558.0003155017229 4.093278036235981 135.675689497995 15.0 0.1303101203797965 18.590727472367405 20.0 
559.0036652133201 3.8077760007479764 135.675689497995 15.0 0.1303101203797965 18.590727472367405 22.0 
560.0007774338811 4.133046811609084 135.675689497995 15.0 0.1303101203797965 18.590727472367405 20.0 
561.0009649074104 3.5075362144159037 117.67108277654637 15.0 0.1303101203797965 18.590727472367405 20.0 
562.0001020651564 3.9298324337502044 140.09912891276122 15.0 0.17891285392457298 26.013454652191086 19.0 
563.0000569734786 4.359944808826757 140.09912891276122 15.0 0.19854146301263226 27.17871276852469 19.0 
564.0004333526472 3.5802994738603484 140.09912891276122 15.0 0.19854146301263226 27.17871276852469 19.0 
565.001114316948 3.940712193392455 135.8624961567861 15.0 0.19854146301263226 27.17871276852469 19.0 
566.0013911772331 4.031096266652534 139.0385000092682 15.0 0.19854146301263226 27.17871276852469 19.0 
567.002198834558 4.554732428194921 144.4198094769942 15.0 0.0 0.0 19.0 
568.0001729649036 4.62812044555817 144.4198094769942 15.0 0.0 0.0 19.0 
569.0006700247081 4.3164426095134 144.4198094769942 15.0 0.0 0.0 17.0 
570.0026959397014 4.420112527528143 144.4198094769942 15.0 0.0 0.0 17.0 
571.0023374964393 4.669398209261889 148.02905498422905 15.0 0.0 0.0 17.0 
572.0023026954817 4.793745441021328 148.02905498422905 15.0 0.0 0.0 17.0 
573.0004965344555 4.8146757163536416 148.02905498422905 15.0 0.0 0.0 17.0 
574.0038035700726 4.824356916434489 148.02905498422905 15.0 0.0 0.0 18.0 
575.0005029375953 4.814069946282745 148.02905498422905 15.0 0.0 0.0 19.0 
576.0104031528198 4.37946497523593 147.83020151317072 15.0 0.0 0.0 19.0 
577.0065170708002 4.987056509490446 161.1886058893686 15.0 0.0 0.0 18.0 
578.0062311665267 4.876081720827987 161.1886058893686 15.0 0.0 0.0 18.0 
579.0000238600946 4.887083807004574 161.1886058893686 15.0 0.0 0.0 18.0 
580.0069288750923 4.432314880952857 158.79612259428097 15.0 0.0 0.0 18.0 
581.0041564292111 4.077014817542974 158.71776050633434 14.0 0.0 0.0 19.0 
582.0008978185485 3.788881670023147 169.80750686993315 15.0 0.0 0.0 20.0 
583.0009805539479 3.7593166072965287 169.91677142194345 14.0 0.0 0.0 20.0 
584.0048812417884 3.1672679640819985 169.6982434684486 14.0 0.0 0.0 18.0 
585.0005404891019 4.333187348921357 169.91677142194345 15.0 0.0 0.0 18.0 
586.0013199419052 3.0081168341436895 169.09791586295603 15.0 0.0 0.0 18.0 
587.0005077668939 3.158084991286218 169.24907714518065 15.0 0.0 0.0 18.0 
588.000949916219 2.932756111341082 174.637298034323 16.0 0.0 0.0 18.0 
589.001162561477 2.2043719423844466 169.6204280692944 16.0 0.0 0.0 18.0 
590.0044107188377 2.267044029783167 166.16793084561397 16.0 0.0 0.0 18.0 
591.0018731511309 2.3626832408978284 166.90466417337507 17.0 0.0 0.0 18.0 
592.0016246693064 1.9629350948454836 74.9956913204228 17.0 0.0 0.0 18.0 
593.0003876683783 1.9178947065966885 80.58174998785432 18.0 0.0 0.0 17.0 
594.0002733312645 1.7249392831236263 80.03777886523392 18.0 0.0 0.0 17.0 
595.0032172097489 1.7487289283404934 80.58174998785432 17.0 0.0 0.0 17.0 
596.0016560300433 1.754222559681397 80.58174998785432 17.0 0.0 0.0 16.0 
597.0001603682482 1.9043082218964271 87.25666402344308 17.0 0.0 0.0 16.0 
598.0070665438755 2.2282965158259107 96.02156445041288 17.0 0.0 0.0 16.0 
599.0003795594954 2.126723970613212 93.44373848386789 18.0 0.0 0.0 16.0 
600.0042455439001 2.115144847113122 92.89471569196627 18.0 0.0 0.0 16.0 
#####################################################################
# End of data export. Simulation finished at: 2019-02-25T20:49+0000 #
#####################################################################
