#####################################################################
# Alchemist log file - simulation started at: 2019-02-25T20:04+0000 #
#####################################################################
# seed = 40.0
#
# The columns have the following meaning: 
# time distance-rep[Mean] distance-rep[Max] leader-rep[CountDistinct] distance-share[Mean] distance-share[Max] leader-share[CountDistinct] 
0.0 NaN NaN NaN NaN NaN NaN 
1.0052444938419924 0.0 0.0 499.0 0.0 0.0 68.0 
2.0015197575387047 0.0 0.0 114.0 0.0 0.0 60.0 
3.000187207114722 0.0 0.0 97.0 0.0 0.0 56.0 
4.000040702470546 0.0 0.0 96.0 0.0 0.0 47.0 
5.005676625024284 0.0 0.0 88.0 0.0 0.0 44.0 
6.002813095750458 0.0 0.0 84.0 0.0 0.0 41.0 
7.000678165170561 0.0 0.0 81.0 0.0 0.0 40.0 
8.000302627838764 0.0 0.0 79.0 0.0 0.0 38.0 
9.000586174100006 0.0 0.0 69.0 0.0 0.0 36.0 
10.00135070246054 0.0 0.0 66.0 0.0 0.0 33.0 
11.002195068924744 0.0 0.0 64.0 0.005194460313732968 2.5972301568664875 32.0 
12.000112265363656 0.0 0.0 62.0 0.005194460313732968 2.5972301568664875 31.0 
13.000620774601986 0.0 0.0 60.0 0.009652367871431672 2.5972301568664875 31.0 
14.006086780165935 0.0 0.0 60.0 0.029127480704730695 9.725974349052137 32.0 
15.005680835395456 0.0 0.0 59.0 0.055887518723230264 13.380019009249907 31.0 
16.00488842910332 0.0 0.0 58.0 0.1614204845653166 34.89879623759356 29.0 
17.000573294666978 0.0 0.0 55.0 0.1552422778189733 34.89879623759356 33.0 
18.000620774601984 0.0 0.0 54.0 0.1642419178319448 34.89879623759356 31.0 
19.00018132387015 0.0 0.0 51.0 0.033925273018948855 9.337586009799168 32.0 
20.000102356266094 0.0 0.0 50.0 0.0 0.0 36.0 
21.000433695525857 0.0 0.0 47.0 0.07178681755139713 34.933210327675795 34.0 
22.002632358856268 0.0 0.0 48.0 0.07178681755139713 34.933210327675795 35.0 
23.000408710689786 0.0 0.0 47.0 0.0 0.0 33.0 
24.000160586818883 0.0 0.0 48.0 0.007017794545225549 1.611838905642685 30.0 
25.000704312306098 0.0 0.0 49.0 0.0 0.0 30.0 
26.005244493841992 0.0 0.0 47.0 0.0 0.0 31.0 
27.000681135129952 0.0 0.0 48.0 0.0 0.0 26.0 
28.000620774601984 0.0 0.0 46.0 0.0 0.0 26.0 
29.00163746979859 0.0 0.0 46.0 0.0 0.0 25.0 
30.000434213095666 0.0 0.0 44.0 0.0 0.0 24.0 
31.00344219239603 0.0 0.0 40.0 0.0023582979534215918 1.1791489767107919 25.0 
32.000262623115134 0.0 0.0 40.0 0.0 0.0 23.0 
33.000620774601984 0.0 0.0 40.0 0.004652712510584336 2.3263562552921826 22.0 
34.00068357889345 0.0 0.0 39.0 0.004652712510584336 2.3263562552921826 21.0 
35.00158818917533 0.0 0.0 39.0 0.004652712510584336 2.3263562552921826 21.0 
36.0034895507554 0.0 0.0 38.0 0.004652712510584336 2.3263562552921826 21.0 
37.00619798520155 0.0 0.0 39.0 0.0 0.0 21.0 
38.000620774601984 0.0 0.0 38.0 0.0 0.0 21.0 
39.00089441576426 0.0 0.0 38.0 0.0 0.0 21.0 
40.00043505515154 0.0 0.0 35.0 0.0 0.0 21.0 
41.00093175764727 0.0 0.0 34.0 0.0 0.0 21.0 
42.00074807760743 0.0 0.0 35.0 0.0 0.0 21.0 
43.000620774601984 0.0 0.0 34.0 0.0 0.0 20.0 
44.0000424664557 0.0 0.0 34.0 0.0 0.0 16.0 
45.00387855765987 0.0 0.0 35.0 0.0 0.0 16.0 
46.00145035271506 0.0 0.0 37.0 0.0 0.0 16.0 
47.000702022711856 0.0 0.0 38.0 0.0 0.0 16.0 
48.000620774601984 0.0 0.0 37.0 0.0 0.0 16.0 
49.00039776878783 0.0 0.0 36.0 0.0 0.0 16.0 
50.007291852234985 0.0 0.0 35.0 0.0 0.0 17.0 
51.001668463166624 0.0 0.0 35.0 0.0 0.0 16.0 
52.0001983920526 0.0 0.0 33.0 0.0 0.0 16.0 
53.000620774601984 0.0 0.0 31.0 0.0 0.0 16.0 
54.000549785923695 0.0 0.0 32.0 0.0 0.0 16.0 
55.000707497889955 0.0 0.0 31.0 0.0 0.0 16.0 
56.001865456293075 0.0 0.0 31.0 0.0 0.0 16.0 
57.0025325886345 0.0 0.0 30.0 0.0 0.0 16.0 
58.0005385250474 0.0 0.0 29.0 0.0 0.0 16.0 
59.001268655127085 0.0 0.0 28.0 0.0 0.0 17.0 
60.00133784378587 0.0 0.0 27.0 0.0 0.0 17.0 
61.00038378410243 0.0 0.0 24.0 0.0 0.0 17.0 
62.00013739417993 0.0 0.0 26.0 0.0 0.0 18.0 
63.000620774601984 0.0 0.0 24.0 0.0 0.0 18.0 
64.00013062331296 0.0 0.0 23.0 0.0 0.0 18.0 
65.00049378372847 0.0 0.0 23.0 0.0 0.0 18.0 
66.00040606202673 0.0 0.0 23.0 0.0 0.0 18.0 
67.00103795234325 0.0 0.0 21.0 0.0 0.0 18.0 
68.00062077460198 0.0 0.0 21.0 0.0 0.0 18.0 
69.00023614451689 0.0 0.0 21.0 0.0 0.0 18.0 
70.0003872148875 0.0 0.0 21.0 0.0 0.0 18.0 
71.00099793895264 0.0 0.0 21.0 0.0 0.0 18.0 
72.00216490279905 0.0 0.0 20.0 0.0 0.0 18.0 
73.00062077460198 0.0 0.0 20.0 0.0 0.0 18.0 
74.00462778136502 0.0 0.0 20.0 0.0 0.0 18.0 
75.00005454364337 0.0 0.0 20.0 0.0 0.0 18.0 
76.00030887807245 0.0 0.0 20.0 0.0 0.0 18.0 
77.00270022403954 0.0 0.0 20.0 0.0 0.0 18.0 
78.00062077460198 0.0 0.0 20.0 0.0 0.0 18.0 
79.00197486083569 0.0 0.0 20.0 0.0 0.0 18.0 
80.0004356355874 0.0 0.0 20.0 0.0 0.0 18.0 
81.00052506658342 0.0 0.0 20.0 0.0 0.0 18.0 
82.00053363517308 0.0 0.0 20.0 0.0 0.0 18.0 
83.00062077460198 0.0 0.0 20.0 0.0 0.0 18.0 
84.00397371724068 0.0 0.0 20.0 0.0 0.0 18.0 
85.00393991968738 0.0 0.0 20.0 0.0 0.0 18.0 
86.00034174573804 0.0 0.0 20.0 0.0 0.0 18.0 
87.00040481195141 0.0 0.0 20.0 0.0 0.0 18.0 
88.00062077460198 0.0 0.0 20.0 0.0 0.0 18.0 
89.00010081685465 0.0 0.0 20.0 0.0 0.0 18.0 
90.00179904436402 0.0 0.0 20.0 0.0 0.0 20.0 
91.00000923452714 0.0 0.0 21.0 0.0 0.0 20.0 
92.00426444201204 0.0 0.0 21.0 0.0 0.0 20.0 
93.00062077460198 0.0 0.0 22.0 0.0 0.0 20.0 
94.00150154720359 0.0 0.0 20.0 0.0 0.0 20.0 
95.0030431156705 0.0 0.0 19.0 0.0 0.0 19.0 
96.00250706314993 0.0 0.0 19.0 0.0 0.0 18.0 
97.00408008464606 0.0 0.0 19.0 0.0 0.0 17.0 
98.00062077460198 0.0 0.0 19.0 0.0 0.0 17.0 
99.00173679622385 0.0 0.0 18.0 0.0 0.0 17.0 
100.00021051666963 0.0 0.0 18.0 0.0 0.0 17.0 
101.00524449384199 0.0 0.0 18.0 0.0 0.0 17.0 
102.00220034325314 0.0 0.0 17.0 0.0 0.0 17.0 
103.00060893199891 0.0 0.0 17.0 0.0 0.0 16.0 
104.00091975010382 0.0 0.0 17.0 0.0 0.0 16.0 
105.00049073031025 0.0 0.0 17.0 0.0 0.0 17.0 
106.00186979250843 0.0 0.0 17.0 0.0 0.0 17.0 
107.00320278258502 0.0 0.0 17.0 0.0 0.0 16.0 
108.00062077460198 0.0 0.0 17.0 0.0 0.0 16.0 
109.00127354366894 0.0 0.0 17.0 0.0 0.0 16.0 
110.0000369156828 0.0 0.0 17.0 0.0 0.0 16.0 
111.0013325672562 0.0 0.0 17.0 0.0 0.0 16.0 
112.00400209689049 0.0 0.0 17.0 0.0 0.0 16.0 
113.00062077460198 0.0 0.0 17.0 0.0 0.0 16.0 
114.00007881982596 0.0 0.0 17.0 0.0 0.0 16.0 
115.0026713607032 0.0 0.0 17.0 0.0 0.0 16.0 
116.0001079300377 0.0 0.0 17.0 0.0 0.0 16.0 
117.00022346099892 0.0 0.0 17.0 0.0 0.0 15.0 
118.00004915996936 0.0 0.0 16.0 0.0 0.0 15.0 
119.00152664366408 0.0 0.0 16.0 0.0 0.0 15.0 
120.00162346138556 0.0 0.0 16.0 0.0 0.0 15.0 
121.00049653937968 0.0 0.0 16.0 0.0 0.0 15.0 
122.005123999263 0.0 0.0 16.0 0.0 0.0 15.0 
123.00062077460198 0.0 0.0 16.0 0.0 0.0 15.0 
124.00012455150183 0.0 0.0 15.0 0.0 0.0 15.0 
125.0067585725136 0.0 0.0 15.0 0.0 0.0 15.0 
126.00327897031707 0.0 0.0 15.0 0.0 0.0 15.0 
127.00183904739198 0.0048137606744535774 2.406880337226795 15.0 0.0 0.0 15.0 
128.000620774602 0.0048137606744535774 2.406880337226795 15.0 0.0 0.0 15.0 
129.01128752622765 0.0048137606744535774 2.406880337226795 14.0 0.0 0.0 15.0 
130.00106330660358 0.02035696266866213 6.9976118249166745 16.0 0.0 0.0 16.0 
131.00080887582715 0.03236920610043841 13.003733540804802 15.0 0.0 0.0 16.0 
132.00136770340075 0.04440983529920561 13.003733540804802 15.0 0.0 0.0 16.0 
133.000620774602 0.04440983529920561 13.003733540804802 15.0 0.0 0.0 16.0 
134.00030220573336 0.04440983529920561 13.003733540804802 14.0 0.0 0.0 15.0 
135.00393421428564 0.06142220270954578 17.215462837023324 14.0 0.0 0.0 15.0 
136.00371772472144 0.06142220270954578 17.215462837023324 14.0 0.0 0.0 15.0 
137.00013080719185 0.03880916895404916 19.404584477024656 15.0 0.0 0.0 15.0 
138.000620774602 0.0 0.0 16.0 0.0 0.0 15.0 
139.00130922330982 0.0 0.0 15.0 0.0 0.0 15.0 
140.0019554932515 0.0 0.0 16.0 0.0 0.0 16.0 
141.00369731564737 0.0 0.0 16.0 0.0 0.0 15.0 
142.00600093724373 0.0 0.0 15.0 0.0 0.0 17.0 
143.000620774602 0.0 0.0 15.0 0.0 0.0 17.0 
144.0033589336325 0.0 0.0 15.0 0.0 0.0 16.0 
145.00047153153687 0.0 0.0 15.0 0.0 0.0 16.0 
146.00229665184318 0.0 0.0 16.0 0.0 0.0 17.0 
147.0006280782593 0.0 0.0 17.0 0.0 0.0 16.0 
148.000620774602 0.0 0.0 17.0 0.0 0.0 16.0 
149.00006404609846 0.0 0.0 18.0 0.0 0.0 18.0 
150.0023840028555 0.0 0.0 18.0 0.0 0.0 18.0 
151.00292835540066 0.0 0.0 18.0 0.0 0.0 21.0 
152.00052887389865 0.0 0.0 18.0 0.0 0.0 18.0 
153.0004651230755 0.0 0.0 18.0 0.0 0.0 18.0 
154.00224778669502 0.0 0.0 19.0 0.0 0.0 17.0 
155.00216825265215 0.0 0.0 19.0 0.0 0.0 17.0 
156.00205563233138 0.0 0.0 19.0 0.0 0.0 17.0 
157.00543736605775 0.0 0.0 19.0 0.0 0.0 17.0 
158.000620774602 0.0 0.0 19.0 0.0 0.0 17.0 
159.00025800997818 0.0 0.0 17.0 0.0 0.0 15.0 
160.00025639305346 0.0 0.0 17.0 0.0 0.0 15.0 
161.0009236710691 0.0 0.0 17.0 0.0 0.0 14.0 
162.0007332343298 0.0 0.0 17.0 0.0 0.0 14.0 
163.000620774602 0.0 0.0 17.0 0.0 0.0 14.0 
164.0018093137862 0.0 0.0 17.0 0.0 0.0 14.0 
165.0015072152814 0.0 0.0 17.0 0.0 0.0 14.0 
166.00034160608251 0.0 0.0 17.0 0.0 0.0 14.0 
167.0036571858273 4.3414756341996906E-4 0.21707378170998481 17.0 0.0 0.0 14.0 
168.000620774602 0.0 0.0 17.0 0.0 0.0 14.0 
169.00020802134952 0.0 0.0 17.0 0.0 0.0 14.0 
170.00015090805948 0.0 0.0 17.0 0.0 0.0 14.0 
171.00249339407728 0.0 0.0 17.0 0.0 0.0 14.0 
172.00217211005372 0.0 0.0 16.0 0.0 0.0 14.0 
173.00042628046958 0.0 0.0 16.0 0.0 0.0 15.0 
174.00409620788088 0.0 0.0 16.0 0.0 0.0 15.0 
175.00147998128935 0.01520625161104064 7.603125805520307 15.0 0.0 0.0 15.0 
176.00201108880887 0.0 0.0 15.0 0.0 0.0 15.0 
177.0012946333467 0.0 0.0 15.0 0.0 0.0 15.0 
178.000620774602 0.012729279088868986 6.36463954443451 16.0 0.0 0.0 15.0 
179.00040108684445 0.012729279088868986 6.36463954443451 16.0 0.0 0.0 15.0 
180.00304667209232 0.023343833644545224 11.671916822272578 15.0 0.0 0.0 15.0 
181.00447294112834 0.023343833644545224 11.671916822272578 15.0 0.0 0.0 15.0 
182.0008655410721 0.031065129326395075 11.671916822272578 15.0 0.0 0.0 15.0 
183.00045658846517 0.0525205356085788 18.10517171256214 15.0 0.0 0.0 15.0 
184.00147221297124 0.0525205356085788 18.10517171256214 15.0 0.0 0.0 15.0 
185.002013111978 0.0525205356085788 18.10517171256214 15.0 0.0 0.0 15.0 
186.00216095097866 0.027003802484769728 9.641253401459977 16.0 0.0 0.0 15.0 
187.00000705869283 0.0 0.0 16.0 0.0 0.0 15.0 
188.000620774602 0.0 0.0 16.0 0.0 0.0 15.0 
189.0007009360012 0.0018419641173199437 0.9209820586599733 15.0 0.0 0.0 15.0 
190.00050906662455 0.0 0.0 15.0 0.0 0.0 15.0 
191.00142352820095 0.0 0.0 15.0 0.0 0.0 15.0 
192.00022450577265 0.0 0.0 15.0 0.0 0.0 15.0 
193.00013847985676 0.0018419641173199437 0.9209820586599733 14.0 0.0 0.0 15.0 
194.00252582984044 0.03461739938149275 5.943811398897111 14.0 0.0 0.0 15.0 
195.00076392726405 0.0040369953830858545 1.5092044509285643 14.0 0.0 0.0 15.0 
196.0032918413804 0.004489129054413131 1.5092044509285643 14.0 0.0 0.0 15.0 
197.0005746042792 0.01811459718669246 8.831231757682644 14.0 0.0 0.0 15.0 
198.000620774602 0.0014707201525559932 0.5092932406143689 14.0 0.0 0.0 15.0 
199.00019571003187 0.0522660007014294 7.209721085974934 14.0 0.0 0.0 15.0 
200.0062743360255 0.032385352299825934 6.730406965932872 14.0 0.0 0.0 15.0 
201.0019728665118 0.02264546476544215 7.734890965357323 14.0 0.0 0.0 15.0 
202.00466917061112 0.005815667264757095 2.6503927454695315 14.0 0.0 0.0 15.0 
203.000620774602 0.028538928835609885 7.734890965357323 14.0 0.0 0.0 15.0 
204.00073318520654 0.09157941090314196 11.429191482228788 14.0 7.08458253315313E-4 0.35422912665765693 15.0 
205.00032469508568 0.060556808068975995 11.429191482228788 14.0 7.08458253315313E-4 0.35422912665765693 15.0 
206.00189932767134 0.035756781543031406 9.792980085458538 16.0 7.08458253315313E-4 0.35422912665765693 16.0 
207.00174125446648 0.05906148512456167 11.429191482228788 16.0 7.08458253315313E-4 0.35422912665765693 16.0 
208.00053866330921 0.051253413339995155 10.016140393995045 16.0 0.0 0.0 16.0 
209.00062897167092 0.025550979251954917 7.942428654173682 16.0 0.0 0.0 16.0 
210.0018219112006 0.02445122982496614 7.942428654173682 16.0 0.004903163528699856 2.4515817643499247 16.0 
211.00222516439962 0.07414918156289958 17.993437883314698 16.0 0.0 0.0 16.0 
212.0000833192026 0.07295648107987333 17.993437883314698 16.0 0.0 0.0 16.0 
213.000620774602 0.07477962701004844 15.367127629628555 16.0 0.0 0.0 15.0 
214.00119663073687 0.07938032198715465 17.98798118981543 16.0 0.0 0.0 13.0 
215.0031556826266 0.05852148716836726 9.909940327144966 16.0 0.0 0.0 13.0 
216.0003665764735 0.06315373012272991 9.909940327144966 16.0 0.0 0.0 13.0 
217.00107509746172 0.08353906540376475 10.589523781167799 16.0 0.0 0.0 13.0 
218.0006028980626 0.05178138894817562 10.589523781167799 16.0 0.0 0.0 13.0 
219.0019160810047 0.1064701715797347 13.018503669148629 16.0 0.0 0.0 13.0 
220.00073382546495 0.08118032840070002 20.994338003598926 16.0 0.0 0.0 14.0 
221.0006763532637 0.09751149998427945 20.994338003598926 16.0 0.0 0.0 14.0 
222.00225071934148 0.05303807540330977 8.165585791789653 16.0 0.0 0.0 14.0 
223.0002635488496 0.050499270992703106 8.165585791789653 16.0 0.0 0.0 14.0 
224.00066349881976 0.08199265415198453 12.625985884186889 17.0 5.821482858071963E-4 0.29107414290359657 14.0 
225.00364648533227 0.09222399170555963 17.980701843934185 17.0 0.016527493191826944 8.26374659591346 14.0 
226.0012040437313 0.12636207316193407 21.876630697776875 17.0 0.0 0.0 15.0 
227.00576845662565 0.12082772698156119 21.876630697776875 17.0 0.0 0.0 15.0 
228.000620774602 0.11367128660730477 17.980701843934185 16.0 0.0 0.0 15.0 
229.00040209540114 0.21142881267668392 31.891690706372856 18.0 0.0 0.0 15.0 
230.00018806118607 0.21000597529035903 27.12662785106292 18.0 0.0 0.0 15.0 
231.00007639576896 0.27239472059075975 27.12662785106292 18.0 0.0 0.0 15.0 
232.00224592881935 0.20106935296776568 27.12662785106292 18.0 0.0 0.0 15.0 
233.000620774602 0.2889045532694064 34.14838220978004 18.0 0.0 0.0 16.0 
234.0020127167409 0.22098745084000254 32.57366360311454 18.0 0.0 0.0 16.0 
235.00434733472707 0.267222613432206 30.21477372211652 18.0 0.0 0.0 16.0 
236.00264327195407 0.3607632260127357 37.48212206408857 18.0 0.0 0.0 16.0 
237.00408411960638 0.33010711377709806 37.48212206408857 18.0 0.0029234062112354483 1.4617031056177154 16.0 
238.000620774602 0.32722647272672156 37.48212206408857 18.0 0.0 0.0 16.0 
239.00342924447585 0.393994008429344 41.026341034077916 18.0 0.0 0.0 16.0 
240.00159631912382 0.355770944710329 35.49433303205868 19.0 0.0 0.0 17.0 
241.00259568124855 0.3932457842458532 34.67079851910992 18.0 0.0 0.0 17.0 
242.00274274352356 0.423742716479532 34.67079851910992 18.0 0.0 0.0 17.0 
243.000620774602 0.49098409600822357 44.979652967427 18.0 0.0 0.0 17.0 
244.0005076309407 0.5626872825361546 50.79276858378364 18.0 0.0 0.0 17.0 
245.00033016306833 0.5532677267618945 50.79276858378364 18.0 0.0 0.0 17.0 
246.0008472834721 0.5889971005911251 50.79276858378364 18.0 0.0 0.0 17.0 
247.006804205437 0.6191681194409194 50.79276858378364 18.0 0.0 0.0 17.0 
248.00019554339758 0.5968969927877927 47.38655670718663 18.0 0.0 0.0 18.0 
249.0012555519572 0.6105005332088752 53.10873658939167 18.0 0.0 0.0 19.0 
250.00270654210237 0.8449652357554266 60.15241629693554 18.0 0.0 0.0 18.0 
251.00143727823132 0.819639431251011 60.15241629693554 18.0 0.0 0.0 17.0 
252.00674355256018 0.8186137633789463 60.15241629693554 18.0 0.0 0.0 17.0 
253.000620774602 0.6970702131690276 50.66272515828797 18.0 0.0 0.0 17.0 
254.00140647597019 0.8967298371942752 65.96280765636021 18.0 0.0 0.0 17.0 
255.0032769777655 0.7571117396725574 56.53964156740733 18.0 0.0 0.0 17.0 
256.00252170321824 0.7928815060975852 56.53964156740733 18.0 0.0 0.0 17.0 
257.0019683726147 0.7543234374314852 56.53964156740733 18.0 0.0 0.0 17.0 
258.00060812038856 0.819015568703324 73.00334505697572 18.0 0.0 0.0 17.0 
259.0012204082611 0.9825403973394128 80.23398460654897 18.0 0.0 0.0 17.0 
260.0039242751344 0.9822309030696716 70.79749701050054 18.0 0.0 0.0 17.0 
261.0010634104661 0.9195525494229491 70.79749701050054 18.0 0.0 0.0 17.0 
262.0027476427519 0.964770032217954 60.986329259205206 19.0 0.0 0.0 17.0 
263.000620774602 1.3654426317760522 87.03121774431378 20.0 0.0 0.0 17.0 
264.0013613596635 1.5619239434726717 94.51158973473133 20.0 0.0 0.0 17.0 
265.00066231390775 1.3862916542149732 85.27807794772917 20.0 0.0 0.0 18.0 
266.00127996905223 1.4194544416057953 85.27807794772917 20.0 0.0 0.0 18.0 
267.003201213034 1.7665987879491745 100.31124422859779 20.0 0.0 0.0 17.0 
268.000620774602 2.042953645188431 103.81746275429697 20.0 0.0 0.0 17.0 
269.00487480939995 2.2201838039544173 107.8079010410496 19.0 0.0 0.0 17.0 
270.0002556588198 2.031740188562332 113.33046432405831 19.0 0.0 0.0 16.0 
271.0006431924343 2.041922749007425 105.82822890112146 19.0 0.0 0.0 16.0 
272.0005029767161 2.170234404578947 105.82822890112146 18.0 0.0 0.0 16.0 
273.000620774602 1.8121868814180886 82.34378109140744 19.0 0.0 0.0 16.0 
274.002446783057 2.040481065019276 89.70875065441572 19.0 0.0 0.0 16.0 
275.0009772982414 2.145008259460876 89.70875065441572 19.0 0.0 0.0 16.0 
276.0008628047271 1.8812400724120355 88.19920508437008 19.0 0.0 0.0 16.0 
277.0014474995319 1.5866513110596419 88.19920508437008 19.0 0.0 0.0 16.0 
278.000620774602 1.6505659622843682 88.19920508437008 19.0 0.0 0.0 16.0 
279.0004931320317 1.8318409324002165 102.42612770762952 18.0 0.0068384940545290415 2.236132916986662 16.0 
280.0017609073138 1.8598012885886819 102.42612770762952 17.0 0.0068384940545290415 2.236132916986662 16.0 
281.0023400371419 1.896302108345516 102.42612770762952 17.0 0.015902734362307255 5.715234264166952 16.0 
282.0006122078551 1.9507780550081508 102.42612770762952 17.0 0.015902734362307255 5.715234264166952 16.0 
283.0001876632093 1.9881827942266932 98.8640027920759 17.0 0.004472265833973337 2.236132916986662 17.0 
284.0060868769066 2.5026700704466047 116.29402604659111 17.0 0.0 0.0 18.0 
285.0019088330049 2.190721385367449 95.44302674013977 17.0 0.0 0.0 17.0 
286.00027998444807 2.721681515731789 116.29402604659111 17.0 0.0 0.0 17.0 
287.0003801405585 2.1824038326382946 90.10734494663882 17.0 0.0 0.0 18.0 
288.0003104280105 2.653520193453414 100.31206314849203 17.0 0.0 0.0 18.0 
289.000415364262 2.7666239256746166 107.19079490043538 17.0 0.0 0.0 18.0 
290.0012402831016 2.71457085774407 107.19079490043538 17.0 0.0 0.0 18.0 
291.005244493842 2.8873470817254225 107.19079490043538 18.0 0.0 0.0 18.0 
292.00178330545936 2.8757804608784183 107.19079490043538 18.0 0.0 0.0 18.0 
293.000620774602 2.85559360976769 107.19079490043538 18.0 0.0 0.0 18.0 
294.00988061106455 3.3670399391841013 110.44361826643063 18.0 0.0 0.0 18.0 
295.0006142950745 3.30357800067977 110.44361826643063 18.0 0.0 0.0 18.0 
296.0022444849253 3.8154779438140634 119.17103149534347 18.0 0.0 0.0 20.0 
297.0015225411371 3.768153751837171 119.17103149534347 18.0 0.0 0.0 19.0 
298.0004529992376 3.6790143468800354 119.17103149534347 18.0 0.0 0.0 19.0 
299.00087416245015 4.21341470960678 133.22711658009803 19.0 0.0 0.0 19.0 
300.0026955876511 4.614268044594359 139.19851567808342 19.0 0.0 0.0 20.0 
301.003200622151 4.464791151810705 139.19851567808342 20.0 0.0 0.0 20.0 
302.0022521859846 4.361677094188362 132.37623993264117 19.0 0.0 0.0 20.0 
303.000620774602 4.691873761926942 143.6508409227232 20.0 0.0 0.0 19.0 
304.001378964557 5.91224266418949 149.93560621727636 19.0 0.0 0.0 19.0 
305.0020922644197 6.393933092287362 155.39806056608631 20.0 0.0 0.0 19.0 
306.0015696548237 5.884300110443925 155.39806056608631 19.0 0.0 0.0 19.0 
307.0007708135549 5.796274124629378 155.39806056608631 20.0 0.0 0.0 19.0 
308.000620774602 5.348213523420077 149.26496414791006 18.0 0.0 0.0 19.0 
309.00039409393605 5.913629036633579 155.78633661993172 19.0 0.0 0.0 20.0 
310.00615781447993 5.958596425589543 155.78633661993172 21.0 0.0 0.0 19.0 
311.0012090606623 5.325984303187766 155.78633661993172 20.0 0.0 0.0 19.0 
312.0005414888495 4.676930523667614 147.46736253867124 19.0 0.0 0.0 18.0 
313.000620774602 4.7973166856160425 144.4823361191339 19.0 0.0 0.0 17.0 
314.0003417616637 5.405035884242309 151.16118942574445 19.0 0.0 0.0 17.0 
315.000144850174 5.390985963283398 151.16118942574445 19.0 0.0 0.0 18.0 
316.0033557002115 5.388231854505093 151.16118942574445 19.0 0.0 0.0 18.0 
317.0011531912211 5.6475638221470605 151.16118942574445 18.0 0.0 0.0 18.0 
318.000620774602 5.363869510289059 148.38082543957705 18.0 0.0 0.0 17.0 
319.0009916119342 5.9618231664798085 155.27003138388255 18.0 0.0 0.0 16.0 
320.00005931677913 4.831220031333192 143.32111458014737 16.0 0.0 0.0 17.0 
321.0025928549189 4.85340168729247 143.32111458014737 17.0 0.0 0.0 16.0 
322.0000180783224 5.389176794503879 144.19130740776757 16.0 0.0 0.0 16.0 
323.000620774602 4.961797500780863 144.19130740776757 16.0 0.0 0.0 16.0 
324.0034332350017 5.297383726018741 140.6215137864346 16.0 0.0 0.0 16.0 
325.00021241824305 5.2836102185800184 143.4571542936768 16.0 0.0 0.0 16.0 
326.0005777465685 5.037556673084166 140.6215137864346 16.0 0.0 0.0 16.0 
327.00463597874756 4.395233742729602 134.83224427734433 17.0 0.0 0.0 17.0 
328.000620774602 4.330186352153237 129.5441155906256 16.0 0.0 0.0 17.0 
329.0000158274262 4.727279764368333 134.84527943072084 16.0 0.0 0.0 17.0 
330.00004364966304 4.815531990985032 124.31213103297739 16.0 0.0 0.0 17.0 
331.00005816043785 4.5475289081472505 122.34159731007179 17.0 0.0 0.0 16.0 
332.00220364221684 4.809877687834779 127.59746150991532 17.0 0.0 0.0 15.0 
333.000620774602 4.031545445729775 127.59746150991532 17.0 0.0 0.0 16.0 
334.00187298660245 3.6839619424514796 100.8819920088618 17.0 0.0 0.0 16.0 
335.001642811052 3.755760314641129 104.55303215218936 17.0 0.0 0.0 16.0 
336.0030084450794 3.9996191631480937 111.31269974593391 18.0 0.0 0.0 16.0 
337.0000662314393 3.5493455516957932 111.31269974593391 18.0 0.0 0.0 16.0 
338.000620774602 4.086028263215468 111.31269974593391 17.0 0.0 0.0 17.0 
339.0031218749944 3.784308810794367 112.72183338916614 18.0 0.0 0.0 18.0 
340.000933262975 3.8644010088177487 112.72183338916614 18.0 0.0 0.0 17.0 
341.00218203632846 3.1247627277493755 109.27963898700142 18.0 0.0 0.0 17.0 
342.0003179667385 2.60546481244721 109.27963898700142 17.0 0.0 0.0 17.0 
343.000620774602 2.6947807810122804 102.46896365317508 17.0 0.0 0.0 17.0 
344.0000775018118 2.8228982325430145 109.84091195770463 17.0 0.0 0.0 17.0 
345.0004805902093 2.680125168091489 109.84091195770463 17.0 0.0 0.0 17.0 
346.005244493842 2.4598261399888846 109.84091195770463 18.0 0.0 0.0 19.0 
347.00085581500304 2.581567403252744 109.84091195770463 17.0 0.0 0.0 19.0 
348.000620774602 2.6553889226247294 110.28109186061846 17.0 0.0 0.0 18.0 
349.0011878225713 2.8048671246202934 115.61763944837605 17.0 0.0 0.0 18.0 
350.00081253466425 2.790470824893971 115.61763944837605 17.0 0.0 0.0 18.0 
351.00237113127446 2.9722722087257623 122.44491268719452 17.0 0.0 0.0 18.0 
352.00182382734914 2.80590689286563 122.44491268719452 16.0 0.0 0.0 18.0 
353.000620774602 3.047604880131786 122.44491268719452 16.0 0.0 0.0 18.0 
354.00157839790865 3.0244228906965525 129.83480001738957 16.0 0.0 0.0 18.0 
355.0007673749021 3.039251452801685 129.83480001738957 17.0 0.0 0.0 18.0 
356.00052733708645 2.623061093766258 136.7001545881797 17.0 0.0 0.0 18.0 
357.00097422639016 2.363399940731164 128.04402446729847 17.0 0.0 0.0 18.0 
358.00018948458 2.9441557502006774 149.71252008393128 17.0 0.0 0.0 18.0 
359.00148760183697 2.9143555947016244 149.71252008393128 17.0 0.0 0.0 17.0 
360.0024581069246 2.95520455941797 150.84768573578742 17.0 0.0 0.0 17.0 
361.00250361788017 2.517064224743009 150.84768573578742 16.0 0.0 0.0 16.0 
362.00066765547007 2.344234185064932 148.0282193707256 16.0 0.0 0.0 16.0 
363.000620774602 2.3465974593155967 149.73557218759584 16.0 0.0 0.0 16.0 
364.0010831552367 1.6629227444537604 148.45704527572252 16.0 0.0 0.0 17.0 
365.0039033227869 1.9747846898650252 155.4578288207486 16.0 0.0 0.0 17.0 
366.00137228921454 0.8614863332351395 149.97025139419617 16.0 0.0 0.0 18.0 
367.00062535252385 1.7413743669344404 156.71502982875057 16.0 0.0 0.0 18.0 
368.000620774602 1.0836558534775662 146.37768630642904 16.0 0.0 0.0 18.0 
369.00034843391245 1.3576372324753447 149.6963855051298 16.0 0.0 0.0 17.0 
370.0028642759594 1.3531031771442628 148.41537864738513 16.0 0.0 0.0 17.0 
371.00261778731635 0.5010408116173639 124.9356970231853 16.0 0.0 0.0 18.0 
372.0062573844109 0.2968202670927701 121.7603562606601 15.0 0.0 0.0 17.0 
373.000620774602 0.11537703715382128 25.100433008320636 15.0 0.0 0.0 17.0 
374.0004309008241 0.0886632779307962 25.100433008320636 15.0 0.0 0.0 16.0 
375.0012831529046 0.3747818123845586 54.07108654250689 14.0 0.0 0.0 18.0 
376.000485020829 0.2542492384161767 54.07108654250689 15.0 0.0 0.0 17.0 
377.00218885402205 0.360927827998685 47.68247422368381 15.0 0.0 0.0 17.0 
378.000620774602 0.360927827998685 47.68247422368381 15.0 0.0 0.0 17.0 
379.0034526683927 0.4495011840375252 53.668358912182015 15.0 0.006914140811461121 3.457070405730576 17.0 
380.00146046858396 0.4878452883660162 53.668358912182015 15.0 0.006914140811461121 3.457070405730576 17.0 
381.00307789919964 0.5134279344799981 53.668358912182015 15.0 0.006914140811461121 3.457070405730576 17.0 
382.0005038193564 0.5758064410734445 62.98046654678717 16.0 0.0 0.0 19.0 
383.0004910892379 0.567546167706263 62.98046654678717 16.0 0.0 0.0 19.0 
384.00107814620793 0.6175034423624174 62.98046654678717 15.0 0.0 0.0 20.0 
385.0000860827554 0.7314310045734432 70.21012682812108 15.0 0.0 0.0 20.0 
386.00152048987553 0.8229599382605955 70.21012682812108 16.0 0.0 0.0 19.0 
387.0009247285415 0.9446697650429077 65.07785576402546 18.0 0.0 0.0 19.0 
388.000361527407 0.9730756947114529 65.07785576402546 18.0 0.0 0.0 19.0 
389.00148138184517 1.122267037250718 71.24759175232197 18.0 0.0 0.0 19.0 
390.00018832368113 1.3295094274211632 87.75202161519718 18.0 0.0 0.0 19.0 
391.0030609054796 1.1094257910333125 78.49638422926921 18.0 0.0 0.0 19.0 
392.0012656031453 1.1187127919133297 80.80910694199929 18.0 0.0 0.0 18.0 
393.000620774602 0.9693366223661881 80.80910694199929 17.0 0.0 0.0 18.0 
394.0007847268341 1.125500165684779 88.12802692916 16.0 0.0 0.0 18.0 
395.00238584512357 1.213969514578143 88.12802692916 16.0 0.0 0.0 18.0 
396.005244493842 0.8824285105470044 88.12802692916 16.0 0.0 0.0 18.0 
397.00301613476523 0.9201768122841587 81.91442278559902 16.0 0.0 0.0 18.0 
398.000620774602 0.9087153175375409 78.02988377158749 16.0 0.0 0.0 18.0 
399.00156258241714 0.4943770950504429 81.91442278559902 16.0 0.0 0.0 18.0 
400.0024428550387 0.3095518539565824 44.45966908998295 16.0 0.0 0.0 18.0 
401.0001351937605 0.2995936691811844 44.45966908998295 16.0 0.0 0.0 18.0 
402.00388866859396 0.27085937041410013 42.37206263800519 16.0 0.0 0.0 18.0 
403.000620774602 0.422462942463529 47.88463053807848 16.0 0.0 0.0 18.0 
404.0014038238246 0.4665254174194142 47.88463053807848 15.0 0.0 0.0 18.0 
405.00090446265983 0.5306618671662908 50.57309790216971 16.0 0.0 0.0 19.0 
406.0005281422727 0.44648869974432775 50.57309790216971 16.0 0.0 0.0 24.0 
407.000211799114 0.5046427169214499 50.57309790216971 16.0 0.0 0.0 23.0 
408.000620774602 0.6171433731383281 50.57309790216971 16.0 0.0 0.0 21.0 
409.00022597770504 0.6048453506319128 48.86963080918994 17.0 0.0 0.0 19.0 
410.0016594351505 0.6052189060606379 48.86963080918994 17.0 0.0 0.0 19.0 
411.0002853636421 0.6267396264844642 48.86963080918994 17.0 0.0 0.0 19.0 
412.00006696542033 0.6293985490738037 45.422385768732426 17.0 0.0 0.0 18.0 
413.00047097974715 0.6788433408622473 50.47766985546369 17.0 0.0 0.0 18.0 
414.0004122110729 0.6763204210454941 45.049690777938395 17.0 0.0 0.0 18.0 
415.0007588345226 0.6516146123870863 45.049690777938395 17.0 0.0 0.0 17.0 
416.00037113791177 0.704379790309982 45.049690777938395 17.0 0.0 0.0 17.0 
417.00377129427795 0.6579456835559147 38.28578274076247 17.0 0.0020814500610349057 1.04072503051745 18.0 
418.000620774602 0.617401674300115 35.446885361412455 18.0 0.0 0.0 17.0 
419.00194897023107 0.43248009130080867 35.446885361412455 18.0 0.00502508390752905 1.668712390905597 17.0 
420.00308772416355 0.44501591884859987 35.446885361412455 18.0 0.003337424781811185 1.668712390905597 17.0 
421.00042962350744 0.4832861039105153 37.81238612389441 18.0 0.003337424781811185 1.668712390905597 17.0 
422.0004397975225 0.5818044627115304 44.8893563203097 18.0 0.008976149491812954 2.819362355000891 17.0 
423.000620774602 0.614047757006773 44.8893563203097 18.0 0.005638724710001761 2.819362355000891 17.0 
424.00070208498437 0.6222102236088809 44.8893563203097 18.0 0.009267241496599469 4.633620748299734 18.0 
425.0008283967882 0.6163816383454339 44.8893563203097 18.0 0.0 0.0 18.0 
426.0048512239194 0.7067820990811036 46.352398403066275 18.0 0.0 0.0 18.0 
427.0010493105442 0.8114696832846462 51.799639557963246 18.0 0.0 0.0 18.0 
428.000620774602 0.8628392958214536 53.81645937857857 18.0 0.0 0.0 18.0 
429.00366659093703 0.8488895877334214 53.81645937857857 18.0 0.0 0.0 18.0 
430.0045757745717 0.8482123405709162 53.81645937857857 18.0 0.0 0.0 18.0 
431.0005335354542 0.8575514465952749 54.734761571251994 19.0 0.004264586114197762 2.1322930570988774 19.0 
432.0056139540577 1.086507608093815 62.13461862381888 19.0 0.004264586114197762 2.1322930570988774 19.0 
433.000620774602 1.0044581933245327 62.13461862381888 20.0 0.004264586114197762 2.1322930570988774 20.0 
434.0003536483511 1.0360169377466706 62.13461862381888 20.0 0.01892258585310588 9.461292926552915 20.0 
435.00195227127824 0.687670209693697 62.13461862381888 20.0 0.01892258585310588 9.461292926552915 20.0 
436.00046195837564 0.5740647165137686 62.40354255345585 20.0 0.0 0.0 20.0 
437.0060949236879 0.5921359090866096 63.77078961280216 20.0 0.0 0.0 20.0 
438.000620774602 0.5147030812683412 63.77078961280216 20.0 0.0 0.0 20.0 
439.0040326817784 0.5691369922279413 63.77078961280216 21.0 0.0 0.0 20.0 
440.0002108391682 0.4685615428686168 62.62761904901379 21.0 0.0 0.0 20.0 
441.0006804792392 0.34035125102021796 29.49639332979305 21.0 0.0 0.0 20.0 
442.00422533878475 0.4741064680321999 60.75602823431984 21.0 0.0 0.0 20.0 
443.0000602212052 0.3426888136317058 30.44833851717698 21.0 0.0 0.0 20.0 
444.0037908238736 0.5411237797368529 63.364655875078256 21.0 0.0 0.0 20.0 
445.0004482575083 0.5562171636701035 63.364655875078256 21.0 0.0 0.0 20.0 
446.00475963826466 0.5685413755680024 63.364655875078256 21.0 0.0 0.0 20.0 
447.00080195028437 0.5537663207698981 63.364655875078256 22.0 0.0 0.0 21.0 
448.000620774602 0.5602545917494727 63.364655875078256 22.0 0.0 0.0 21.0 
449.00097448404955 0.6223531710505535 62.892107200609246 22.0 0.0 0.0 21.0 
450.00063547913925 0.6486254880215537 62.892107200609246 22.0 0.0 0.0 21.0 
451.00096668649456 0.672647890536948 62.892107200609246 22.0 0.0 0.0 21.0 
452.0007521636586 0.7841159638849139 62.892107200609246 22.0 0.0 0.0 20.0 
453.000620774602 0.8706305332959124 62.892107200609246 21.0 0.0 0.0 20.0 
454.00006651395495 0.9614635309830476 62.4202327106525 21.0 0.0 0.0 20.0 
455.0005018858101 1.0781538007786602 62.4202327106525 20.0 0.0 0.0 20.0 
456.0017060939768 1.0443066449629725 62.4202327106525 22.0 0.0 0.0 20.0 
457.00339562237656 0.888051411217753 62.4202327106525 21.0 0.0 0.0 20.0 
458.000620774602 0.9103248330923085 62.4202327106525 21.0 0.0 0.0 20.0 
459.00044120123493 1.0394908081563798 62.1156528733689 21.0 0.0 0.0 20.0 
460.0012124106047 0.9734159086684577 62.1156528733689 21.0 0.0 0.0 20.0 
461.0001586924699 1.1345808459852187 62.1156528733689 21.0 0.0 0.0 20.0 
462.0020036462997 1.102934038092237 62.1156528733689 21.0 0.0 0.0 20.0 
463.000620774602 1.1188040242859705 62.1156528733689 22.0 0.0 0.0 20.0 
464.006881694486 1.216922892605186 63.65845072898043 22.0 0.0 0.0 20.0 
465.0024288358965 1.3326549833787498 65.75388543154253 22.0 0.0 0.0 19.0 
466.0034628818965 1.0399235144769705 69.34931936436317 21.0 0.0 0.0 19.0 
467.0001439342263 0.9064591668745534 67.2928955224329 21.0 0.0 0.0 20.0 
468.000620774602 0.9173875103209308 69.34931936436317 21.0 0.0 0.0 19.0 
469.0024238431807 0.57051657204424 73.74518784609518 21.0 0.0 0.0 19.0 
470.0014145824905 0.842821109488872 73.74518784609518 21.0 0.0 0.0 19.0 
471.0002202696064 0.2876291708396132 72.87960637224126 22.0 0.0 0.0 19.0 
472.0005273174938 0.023164993216684138 8.0351333777364 24.0 0.0 0.0 19.0 
473.000620774602 0.04640866850634022 8.0351333777364 22.0 0.0 0.0 19.0 
474.00233193298686 0.04640866850634022 8.0351333777364 22.0 0.0 0.0 19.0 
475.00151843861397 0.014868913219961945 7.434456609980941 19.0 0.0 0.0 19.0 
476.0028494980945 0.0 0.0 19.0 6.837214318167014E-4 0.34186071590835354 19.0 
477.0033091067394 0.0 0.0 19.0 0.0 0.0 19.0 
478.00026717603924 0.0 0.0 19.0 0.0 0.0 19.0 
479.0054312972622 0.0 0.0 18.0 0.0 0.0 20.0 
480.0016677202643 0.0 0.0 19.0 0.008742562620189255 4.371281310094645 20.0 
481.00066597617064 0.0 0.0 19.0 0.008742562620189255 4.371281310094645 20.0 
482.00101263488233 0.0 0.0 18.0 0.002471845280275313 1.2359226401376588 19.0 
483.0004296444746 0.0 0.0 18.0 0.002471845280275313 1.2359226401376588 19.0 
484.00162578863274 0.0 0.0 18.0 0.002471845280275313 1.2359226401376588 20.0 
485.00345082844115 0.005607760788331153 2.80388039416556 17.0 0.002471845280275313 1.2359226401376588 20.0 
486.00168238275705 0.0 0.0 17.0 0.01718305750972658 8.59152875486322 20.0 
487.00051705302513 0.006074982621652907 2.7059114212231066 17.0 0.01718305750972658 8.59152875486322 20.0 
488.000620774602 6.631597792066978E-4 0.33157988960334706 17.0 0.010822895638208645 5.411447819104296 20.0 
489.00202373113706 6.631597792066978E-4 0.33157988960334706 17.0 0.010822895638208645 5.411447819104296 20.0 
490.00320168534387 6.631597792066978E-4 0.33157988960334706 17.0 0.010822895638208645 5.411447819104296 20.0 
491.00064012745514 6.631597792066978E-4 0.33157988960334706 19.0 0.0 0.0 20.0 
492.00048018071533 0.0 0.0 19.0 0.0 0.0 20.0 
493.0001199678585 0.0 0.0 19.0 0.0 0.0 20.0 
494.00254171822036 0.0 0.0 19.0 0.0 0.0 19.0 
495.00098305701385 0.004595474740297233 2.29773737014861 18.0 0.0 0.0 19.0 
496.00176964272725 0.004595474740297233 2.29773737014861 18.0 0.0 0.0 20.0 
497.00077858358713 0.0 0.0 18.0 0.0 0.0 20.0 
498.000232678777 0.0 0.0 18.0 0.0 0.0 20.0 
499.0005998646574 0.013531937759764997 6.76596887988245 18.0 0.0 0.0 19.0 
500.0013871282557 0.0 0.0 19.0 0.0 0.0 20.0 
501.0009671887794 0.017076189648657265 8.538094824328596 19.0 0.0 0.0 20.0 
502.00081502572584 0.017076189648657265 8.538094824328596 19.0 0.0 0.0 20.0 
503.000620774602 0.017076189648657265 8.538094824328596 19.0 0.0 0.0 20.0 
504.00043188528065 0.019299377535122137 8.538094824328596 19.0 0.0 0.0 20.0 
505.00392733841784 0.023703710632032013 8.538094824328596 19.0 0.0 0.0 19.0 
506.00020376196727 0.03857091218706504 15.97169560184517 19.0 0.0 0.0 20.0 
507.0010280750765 0.04904156500935162 23.409188561443415 20.0 0.0 0.0 21.0 
508.000620774602 0.09280333339103038 23.409188561443415 20.0 0.0 0.0 21.0 
509.0012913446287 0.10786221121946807 23.409188561443415 20.0 0.0 0.0 21.0 
510.0073945623447 0.10786221121946807 23.409188561443415 20.0 0.0 0.0 21.0 
511.00166538521074 0.12257220883712387 30.85042437330233 20.0 0.0 0.0 21.0 
512.0003553861709 0.13759851336087356 38.36357663517708 20.0 0.0 0.0 21.0 
513.000620774602 0.2515261561860258 38.36357663517708 20.0 0.0 0.0 20.0 
514.0030660156935 0.2557635111502666 38.36357663517708 20.0 0.0 0.0 20.0 
515.0003490119818 0.2438785232868569 38.36357663517708 20.0 0.0 0.0 19.0 
516.0011759073815 0.23180141413759736 45.74232462390083 21.0 0.0 0.0 19.0 
517.003169870888 0.21269568318009477 24.757160901087616 21.0 0.0 0.0 19.0 
518.000620774602 0.1554044538217701 19.608454766475887 21.0 0.0 0.0 19.0 
519.0013909378399 0.1852411993624581 19.608454766475887 21.0 0.0 0.0 19.0 
520.0015818114489 0.13736073888110445 19.608454766475887 21.0 0.0 0.0 19.0 
521.0008022622417 0.1488843196124813 22.434586431869064 21.0 0.0 0.0 19.0 
522.0016606093758 0.17756892005069827 22.434586431869064 21.0 0.0 0.0 19.0 
523.000620774602 0.08617261044088108 18.035872973687987 21.0 0.0 0.0 21.0 
524.0022479113488 0.01571720730166 3.668310650089211 21.0 0.0 0.0 21.0 
525.0005631351684 0.009821316456019533 3.668310650089211 21.0 0.0 0.0 21.0 
526.0010338317792 0.0022520752341188863 1.1260376170594384 20.0 0.0 0.0 21.0 
527.0007141209963 0.007658840144508162 3.829420072254095 20.0 0.0 0.0 21.0 
528.000620774602 0.0 0.0 20.0 0.0 0.0 21.0 
529.0014407931321 0.0 0.0 20.0 0.0 0.0 21.0 
530.0000632929231 0.0 0.0 20.0 0.0 0.0 22.0 
531.0048705974984 0.0 0.0 19.0 0.0 0.0 20.0 
532.0039904648072 0.0 0.0 19.0 0.0 0.0 20.0 
533.000620774602 0.0 0.0 19.0 0.0 0.0 20.0 
534.0001757409809 0.0 0.0 20.0 0.0 0.0 21.0 
535.0013276193424 0.0 0.0 20.0 0.0 0.0 21.0 
536.0005268778639 0.0 0.0 20.0 0.0 0.0 21.0 
537.0003367263874 0.0 0.0 20.0 0.0 0.0 21.0 
538.000620774602 0.0 0.0 20.0 0.0 0.0 21.0 
539.0004921547312 0.0 0.0 20.0 0.0 0.0 21.0 
540.0024689259665 0.0 0.0 20.0 0.0 0.0 21.0 
541.000128020831 0.0 0.0 20.0 0.0 0.0 21.0 
542.0026762783644 0.0 0.0 20.0 0.0 0.0 20.0 
543.000620774602 0.0 0.0 20.0 0.0 0.0 20.0 
544.0005568088811 0.0 0.0 20.0 0.0 0.0 20.0 
545.0062847153425 0.0 0.0 20.0 0.0 0.0 20.0 
546.0004475656561 0.0 0.0 20.0 0.0 0.0 20.0 
547.0033651134545 0.0 0.0 20.0 0.0 0.0 19.0 
548.000620774602 0.0 0.0 19.0 0.0 0.0 19.0 
549.0049688619446 0.0 0.0 19.0 0.0 0.0 19.0 
550.0074574795372 0.04768731720134446 23.84365860067217 19.0 0.0 0.0 21.0 
551.0052444938419 0.04768731720134446 23.84365860067217 19.0 0.0 0.0 21.0 
552.0023322524212 0.04768731720134446 23.84365860067217 19.0 0.0 0.0 19.0 
553.000620774602 0.035725962082579166 17.862981041289487 19.0 0.0 0.0 19.0 
554.0002447400124 0.035725962082579166 17.862981041289487 19.0 0.0 0.0 19.0 
555.0000467015492 0.04748579889415606 23.742899447077974 19.0 0.0 0.0 19.0 
556.0019625450426 0.04748579889415606 23.742899447077974 19.0 0.0 0.0 19.0 
557.0001078062261 0.04748579889415606 23.742899447077974 19.0 0.0 0.0 19.0 
558.0004744490841 0.03619037735135034 18.095188675675047 19.0 0.0 0.0 19.0 
559.00224742025 0.059811798236125376 18.095188675675047 18.0 0.0 0.0 19.0 
560.0009652387844 0.07956317374574917 24.192123221447474 18.0 0.0 0.0 19.0 
561.0022280567748 0.07200566732767057 24.192123221447474 17.0 0.0 0.0 21.0 
562.0044919349215 0.07200566732767057 24.192123221447474 17.0 0.0 0.0 20.0 
563.0002601670274 0.13324887102743893 36.02450944745979 17.0 0.0 0.0 20.0 
564.0015163873494 0.27922227089621593 55.43407055097674 17.0 0.0 0.0 20.0 
565.0022966596878 0.18716008896708036 52.83618002672762 18.0 0.0 0.0 20.0 
566.000159077033 0.2699443781563069 52.83618002672762 19.0 0.015868461975323333 6.129520588108818 20.0 
567.0011727553012 0.25944828506561113 52.83618002672762 20.0 0.015868461975323333 6.129520588108818 20.0 
568.000620774602 0.21988914767133047 52.83618002672762 20.0 0.011083575987118018 3.7370775940061947 20.0 
569.0025908818197 0.2742712769150829 60.21164198812329 19.0 0.011083575987118018 3.7370775940061947 20.0 
570.0035199918859 0.2788044563256655 57.83426775766037 19.0 0.03042690394299623 6.648661662852561 20.0 
571.0006046025089 0.28779506675898586 57.83426775766037 20.0 0.0 0.0 21.0 
572.0012674591511 0.2881351241476381 57.83426775766037 19.0 0.0 0.0 20.0 
573.000620774602 0.2881351241476381 57.83426775766037 19.0 0.0 0.0 19.0 
574.0006686565168 0.39475877948261895 65.23925384815402 18.0 0.0 0.0 19.0 
575.0017067440377 0.39494291099006207 64.27192982591151 17.0 0.0 0.0 19.0 
576.0052444938419 0.4796428432340919 64.27192982591151 17.0 0.0 0.0 20.0 
577.0004695932498 0.46825827725844665 64.27192982591151 17.0 0.0 0.0 20.0 
578.000620774602 0.48166895064661336 64.27192982591151 17.0 0.0 0.0 20.0 
579.0004543077431 0.40324664647230757 70.48543219070217 17.0 0.0 0.0 19.0 
580.0005580231718 0.2954897306338066 34.181381311024865 17.0 0.0 0.0 19.0 
581.0008188559565 0.44922316174234406 69.34893604683259 17.0 0.0 0.0 19.0 
582.0028514154866 0.451666152348409 68.41259683919486 17.0 0.0 0.0 19.0 
583.000620774602 0.32694444229627795 39.168082122991876 17.0 0.0 0.0 19.0 
584.0005691198489 0.3023845314404928 39.168082122991876 17.0 0.0 0.0 19.0 
585.0029730886342 0.46407711825967085 46.592642568572444 17.0 0.0 0.0 19.0 
586.0004959497443 0.46567546919103486 50.08198345596705 16.0 0.0 0.0 19.0 
587.001851996533 0.4795810715052735 50.08198345596705 16.0 0.0 0.0 19.0 
588.0006033706363 0.4418983886931129 50.08198345596705 16.0 0.0 0.0 19.0 
589.0025193711456 0.5569217155892037 57.48387359304678 16.0 0.0 0.0 19.0 
590.0015328647108 0.7514026220383218 57.48387359304678 16.0 0.0 0.0 19.0 
591.0025924774665 0.9087551743069291 80.68049132155892 16.0 0.0 0.0 19.0 
592.0019216128051 0.8785288359224995 79.79516938337827 16.0 0.0 0.0 18.0 
593.0002952666549 0.717622673333181 59.71598405742645 16.0 0.0 0.0 18.0 
594.0014551450166 0.8806277862754384 67.0643174236937 16.0 0.0 0.0 17.0 
595.0023315524187 1.0098511728271575 67.0643174236937 17.0 0.0 0.0 17.0 
596.0039164361725 1.0285652252386253 74.51767727489585 18.0 0.0 0.0 17.0 
597.001219933276 1.1184674357065163 85.82590215027432 18.0 0.0 0.0 17.0 
598.0005272991081 1.3126444094446412 86.60151799628687 19.0 0.0 0.0 17.0 
599.0009774789595 1.0853295839396284 81.87116857583231 19.0 0.0 0.0 17.0 
600.0018111504982 1.4707255472327847 92.76834717331815 19.0 0.0 0.0 17.0 
#####################################################################
# End of data export. Simulation finished at: 2019-02-25T20:07+0000 #
#####################################################################
