#####################################################################
# Alchemist log file - simulation started at: 2019-02-25T19:57+0000 #
#####################################################################
# seed = 13.0
#
# The columns have the following meaning: 
# time distance-rep[Mean] distance-rep[Max] leader-rep[CountDistinct] distance-share[Mean] distance-share[Max] leader-share[CountDistinct] 
0.0 NaN NaN NaN NaN NaN NaN 
1.0008346171952667 0.0 0.0 498.0 0.0 0.0 79.0 
2.0000237038456747 0.0 0.0 112.0 0.0 0.0 72.0 
3.0030427210044066 0.0 0.0 102.0 0.0 0.0 63.0 
4.006240228173836 0.0 0.0 101.0 0.0 0.0 54.0 
5.002295189531443 0.0 0.0 93.0 0.0 0.0 46.0 
6.000225089698521 0.0 0.0 84.0 0.0 0.0 36.0 
7.000023703845675 0.0 0.0 76.0 0.006097736342956877 3.048868171478432 35.0 
8.002050729360114 0.0 0.0 75.0 0.006097736342956877 3.048868171478432 35.0 
9.006055948042393 0.0 0.0 72.0 0.0 0.0 35.0 
10.00045166523882 0.0 0.0 68.0 0.0 0.0 33.0 
11.00046022461223 0.0 0.0 65.0 0.0 0.0 30.0 
12.000023703845674 0.0 0.0 62.0 0.0 0.0 30.0 
13.004513412993168 0.0 0.0 60.0 0.0 0.0 30.0 
14.00122525147 0.0 0.0 62.0 0.0 0.0 29.0 
15.0008043194332 0.0 0.0 59.0 0.0 0.0 29.0 
16.001864378709264 0.0 0.0 57.0 0.0 0.0 31.0 
17.000023703845674 0.0 0.0 55.0 0.0 0.0 28.0 
18.00660301949347 0.0 0.0 54.0 0.0 0.0 25.0 
19.00038293843121 0.0 0.0 54.0 0.0 0.0 28.0 
20.002295189531445 0.0 0.0 51.0 0.005623996949434142 2.8119984747170577 24.0 
21.002602099929955 0.0 0.0 52.0 0.038833946697573216 9.444038530811866 23.0 
22.000023703845674 0.0 0.0 52.0 0.027436399141516733 9.444038530811866 24.0 
23.000522236887047 0.0 0.0 52.0 0.0 0.0 22.0 
24.002392715044724 0.0 0.0 51.0 0.0 0.0 20.0 
25.000395985916935 0.0 0.0 53.0 0.0 0.0 19.0 
26.00270934133849 0.0 0.0 52.0 0.0 0.0 19.0 
27.000023703845674 0.0 0.0 50.0 0.0 0.0 19.0 
28.000032675105338 0.0 0.0 51.0 0.0 0.0 20.0 
29.005129944518956 0.0 0.0 50.0 0.0 0.0 20.0 
30.002295189531445 0.0 0.0 46.0 0.0 0.0 20.0 
31.003175106365923 0.0 0.0 46.0 0.0 0.0 20.0 
32.00002370384567 0.0 0.0 45.0 0.003914769382712769 1.3873235683964538 19.0 
33.00180945632602 0.0 0.0 44.0 3.380709253220293E-4 0.16903546266101444 20.0 
34.00145614242631 0.0 0.0 45.0 0.0 0.0 20.0 
35.000067908873774 0.0 0.0 43.0 0.0 0.0 20.0 
36.002429052860485 0.0 0.0 43.0 0.0 0.0 19.0 
37.00002370384567 0.0 0.0 41.0 0.0 0.0 17.0 
38.00018571171002 0.0 0.0 42.0 0.0 0.0 18.0 
39.00177313477085 0.0 0.0 42.0 0.0 0.0 17.0 
40.002006520019464 0.0 0.0 41.0 0.0 0.0 17.0 
41.00551945197676 0.0 0.0 45.0 0.0 0.0 18.0 
42.00002370384567 0.0 0.0 43.0 0.0 0.0 16.0 
43.00115708607816 0.0 0.0 39.0 0.0 0.0 16.0 
44.00005063525839 0.0 0.0 38.0 0.0 0.0 16.0 
45.00053509141168 0.0 0.0 37.0 0.0 0.0 16.0 
46.001876170127254 0.0 0.0 35.0 0.0 0.0 15.0 
47.00002370384567 0.0 0.0 37.0 0.0 0.0 16.0 
48.00164311768139 0.0 0.0 36.0 0.0 0.0 16.0 
49.000655881969536 0.0 0.0 35.0 0.0 0.0 16.0 
50.0011233866405 0.0 0.0 36.0 0.0 0.0 16.0 
51.00703903103816 0.0 0.0 36.0 0.0 0.0 16.0 
52.00002370384567 0.0 0.0 33.0 0.0 0.0 16.0 
53.000089165103034 0.0 0.0 30.0 0.0 0.0 17.0 
54.00045020475318 0.0 0.0 28.0 0.0 0.0 17.0 
55.00005334788007 0.0 0.0 28.0 0.0 0.0 17.0 
56.00805704657708 0.0 0.0 27.0 0.0 0.0 17.0 
57.00002370384567 0.0015214042665042385 0.7607021332521242 26.0 0.0 0.0 17.0 
58.001590056380174 0.0015214042665042385 0.7607021332521242 26.0 0.0 0.0 17.0 
59.001617004626944 0.0 0.0 26.0 0.0 0.0 17.0 
60.00062277859035 0.047954971092155 23.977485546077617 26.0 0.0 0.0 17.0 
61.00003918053965 0.12296939070291203 36.83510917895316 25.0 0.0 0.0 17.0 
62.00002370384567 0.04929917234500642 23.977485546077617 25.0 0.0 0.0 17.0 
63.00176456159491 0.12162518945006173 36.83510917895316 25.0 0.0 0.0 17.0 
64.0009376720816 0.1363376259890952 37.092704247259945 25.0 0.0 0.0 17.0 
65.0011164259347 0.07535517590103268 37.092704247259945 25.0 0.0 0.0 17.0 
66.000210457596 0.12386485869017104 37.092704247259945 23.0 0.0 0.0 16.0 
67.00002370384567 0.07535517590103268 37.092704247259945 23.0 0.0 0.0 16.0 
68.0054532099928 0.17571209850579347 37.092704247259945 23.0 0.0 0.0 16.0 
69.0009027163714 0.08940632364864085 26.508503611067425 23.0 0.0 0.0 16.0 
70.00011371853799 0.12334407809743275 26.508503611067425 23.0 0.0 0.0 16.0 
71.00032371415254 0.22663833349561194 40.68652443664578 24.0 0.0 0.0 18.0 
72.00002370384567 0.29680473797257495 51.98857615347549 23.0 0.0 0.0 18.0 
73.00025612809675 0.24871406275828 40.68652443664578 22.0 0.0 0.0 17.0 
74.00352300712946 0.23008714221122237 48.1433409416494 23.0 0.0 0.0 17.0 
75.00162250698975 0.23483070789145896 48.1433409416494 23.0 0.0 0.0 17.0 
76.00160415272666 0.23483070789145896 48.1433409416494 23.0 0.0 0.0 17.0 
77.00002370384567 0.24932777418004715 40.70750283892448 23.0 0.0 0.0 17.0 
78.00395637814118 0.25083391026574886 40.70750283892448 22.0 0.0 0.0 17.0 
79.00032157431234 0.2197938442180199 40.70750283892448 24.0 0.0 0.0 17.0 
80.00110152899065 0.13292714328920377 33.50343220517661 24.0 0.0 0.0 17.0 
81.00211460468303 0.0 0.0 22.0 0.0 0.0 17.0 
82.00002370384567 0.0 0.0 22.0 0.0 0.0 17.0 
83.00184478693376 0.0 0.0 21.0 0.0 0.0 16.0 
84.00167183642297 0.0 0.0 21.0 0.0 0.0 16.0 
85.0004213108228 0.0 0.0 21.0 0.0 0.0 16.0 
86.00074209267028 0.0 0.0 20.0 0.0 0.0 16.0 
87.00002370384567 0.0 0.0 20.0 0.0 0.0 16.0 
88.00151200953866 0.0 0.0 20.0 0.0 0.0 16.0 
89.00413904461 0.0 0.0 20.0 0.0 0.0 15.0 
90.0008889846672 0.0 0.0 20.0 0.0 0.0 15.0 
91.0011417603756 0.0 0.0 20.0 0.0 0.0 15.0 
92.00002370384567 0.0 0.0 20.0 0.0 0.0 15.0 
93.00113258947054 0.0 0.0 19.0 0.0 0.0 15.0 
94.00416581190746 0.0 0.0 20.0 0.0 0.0 15.0 
95.00200643689442 0.0 0.0 20.0 0.0 0.0 15.0 
96.0007545013896 0.0 0.0 20.0 0.0 0.0 14.0 
97.00002370384567 0.0 0.0 20.0 0.0 0.0 14.0 
98.00041976466636 0.0 0.0 21.0 0.0 0.0 15.0 
99.00087244972208 0.0 0.0 21.0 0.0 0.0 15.0 
100.00013078464154 0.0 0.0 20.0 0.0 0.0 15.0 
101.00286027842058 0.0 0.0 19.0 0.0 0.0 15.0 
102.00002370384567 0.0 0.0 18.0 0.0 0.0 15.0 
103.00020213142093 0.0 0.0 18.0 0.0 0.0 16.0 
104.0058390044259 0.0 0.0 18.0 0.0 0.0 16.0 
105.00229518953145 0.0 0.0 19.0 0.0 0.0 16.0 
106.00164218763932 0.0 0.0 18.0 0.0 0.0 16.0 
107.00002370384567 0.0 0.0 18.0 0.0 0.0 16.0 
108.00010495991961 0.0 0.0 19.0 0.0 0.0 16.0 
109.00031515398196 0.01751233726076209 8.756168630380955 18.0 0.0 0.0 16.0 
110.00229518953145 0.08704337459870422 42.13462362706019 18.0 0.0 0.0 16.0 
111.00013082373314 0.19882947642458235 49.64853786460307 17.0 0.0 0.0 16.0 
112.00002370384567 0.09953240069537704 34.47916746944901 16.0 0.0 0.0 16.0 
113.0045321252706 0.08674800018817462 34.47916746944901 16.0 0.0 0.0 16.0 
114.00385934006816 0.2009717127625399 57.11185628718238 15.0 0.0 0.0 16.0 
115.00066311188755 0.08653771083946597 35.48936805283401 15.0 0.0 0.0 16.0 
116.00026046218115 0.10127601162543093 35.48936805283401 15.0 0.0 0.0 16.0 
117.00002370384567 0.10127601162543093 35.48936805283401 15.0 0.0 0.0 16.0 
118.00202391016667 0.08863002278065184 35.48936805283401 15.0 0.0 0.0 16.0 
119.00221776758389 0.08863002278065184 35.48936805283401 15.0 0.0 0.0 16.0 
120.00048823033205 0.07504792428359923 28.048470677188874 15.0 0.0 0.0 16.0 
121.00008145201551 0.1081587860050468 35.55858775737127 15.0 0.0 0.0 16.0 
122.00002370384567 0.1081587860050468 35.55858775737127 16.0 0.0 0.0 17.0 
123.00036355307579 0.09551260687078185 35.55858775737127 16.0 0.0 0.0 17.0 
124.00624022817384 0.09581024083978093 35.55858775737127 16.0 0.0026158662086220997 1.3079331043110471 17.0 
125.00229518953145 0.0854174325619643 35.58774522999761 16.0 0.0 0.0 18.0 
126.00278158974282 0.14901670020379587 35.58774522999761 17.0 0.0 0.0 19.0 
127.00002370384567 0.14901670020379587 35.58774522999761 17.0 0.0 0.0 18.0 
128.00017883577007 0.1736876739922538 35.58774522999761 17.0 0.0 0.0 19.0 
129.0000139788505 0.14757392173783884 35.58774522999761 17.0 0.0 0.0 19.0 
130.0002411886232 0.1627079833367196 28.21624760855272 17.0 0.0 0.0 18.0 
131.0047409599428 0.2502859780236341 35.68611536955217 17.0 0.0 0.0 18.0 
132.00002370384567 0.2502859780236341 35.68611536955217 17.0 0.0 0.0 17.0 
133.00372446924803 0.29778240616500584 35.68611536955217 17.0 0.0 0.0 17.0 
134.00238625290328 0.2607096163453653 35.68611536955217 17.0 0.0 0.0 17.0 
135.00160996202305 0.2534745326936935 35.68611536955217 17.0 0.0 0.0 17.0 
136.00424682255942 0.3312518438447801 35.61707918031843 17.0 0.0 0.0 17.0 
137.00002370384567 0.3518117873284416 35.61707918031843 17.0 0.0 0.0 17.0 
138.01133980318122 0.3930086275129298 35.61707918031843 17.0 0.0 0.0 17.0 
139.00287680661359 0.37369618602014215 35.61707918031843 17.0 0.0 0.0 16.0 
140.00004773553292 0.3859646121279606 34.251350397110684 16.0 0.0 0.0 16.0 
141.0065552204029 0.5167048605159652 34.251350397110684 16.0 0.01003320621962859 5.01660310981427 16.0 
142.00002370384567 0.5395024156405394 34.251350397110684 16.0 0.0 0.0 17.0 
143.00651756320855 0.4822426974125403 34.251350397110684 16.0 0.0 0.0 17.0 
144.00125622314377 0.6521359247094896 34.251350397110684 15.0 0.0 0.0 17.0 
145.00002612840885 0.6284342676574814 34.251350397110684 17.0 0.0 0.0 17.0 
146.00117259067449 0.665235059834098 33.2584463983313 15.0 0.0 0.0 17.0 
147.00002370384567 0.5860634936524384 33.2584463983313 15.0 0.0 0.0 17.0 
148.00081163704456 0.5477258647421153 33.2584463983313 15.0 0.0 0.0 18.0 
149.00199603292796 0.49426890859772965 33.2584463983313 15.0 0.0 0.0 18.0 
150.0001829326635 0.4995881261622924 36.35233009788334 15.0 0.0 0.0 19.0 
151.00009720772596 0.49065605796456535 43.866848793397395 15.0 0.0 0.0 18.0 
152.00002370384567 0.40614903037030015 34.57281552260753 15.0 0.0 0.0 18.0 
153.00008095012274 0.4250315695661935 34.57281552260753 15.0 0.0 0.0 17.0 
154.00624022817385 0.31494952192670134 35.13688797838026 16.0 0.0 0.0 17.0 
155.00098270936346 0.24432804861730273 45.36173823136326 16.0 0.0 0.0 17.0 
156.0013361820527 0.08633621502828567 40.2255297508535 17.0 0.0 0.0 17.0 
157.00002370384567 0.005885155526578822 2.942577763289421 17.0 0.0 0.0 17.0 
158.00032603112388 0.005885155526578822 2.942577763289421 17.0 0.0 0.0 17.0 
159.00142282594155 0.0 0.0 17.0 0.0 0.0 17.0 
160.00142601434985 0.0 0.0 16.0 0.0 0.0 17.0 
161.0013115167832 0.0 0.0 16.0 0.0 0.0 17.0 
162.00002370384567 0.0 0.0 16.0 0.0 0.0 17.0 
163.0009201646184 0.0 0.0 16.0 0.0 0.0 17.0 
164.00136697235524 0.0 0.0 16.0 0.0 0.0 17.0 
165.00046838525319 0.0 0.0 16.0 0.0 0.0 17.0 
166.00003130027454 0.0 0.0 16.0 0.0 0.0 15.0 
167.00002370384567 0.0 0.0 17.0 0.0 0.0 16.0 
168.003118319298 0.0 0.0 18.0 0.0 0.0 16.0 
169.0044007332031 0.0 0.0 18.0 0.0 0.0 16.0 
170.00015386924903 0.0018542401754213544 0.9271200877106764 18.0 0.0 0.0 16.0 
171.0017254843281 0.0018542401754213544 0.9271200877106764 18.0 0.0 0.0 16.0 
172.00002370384567 0.0029634272967146596 0.9271200877106764 18.0 0.0 0.0 16.0 
173.00015233607465 0.03963974587296938 8.225418959561495 18.0 0.0 0.0 16.0 
174.00140161915056 0.0074122748559374545 3.7061374279687413 18.0 0.0 0.0 16.0 
175.00229518953145 0.02318890795384628 7.888316548954435 18.0 0.0 0.0 16.0 
176.00496625987037 0.022184111929097573 7.385918536580078 18.0 0.0 0.0 17.0 
177.00002370384567 0.015818363693528334 7.909181846764113 17.0 0.0 0.0 16.0 
178.00377114151203 0.029632672472623873 14.816336236312083 17.0 0.0 0.0 16.0 
179.002197523366 0.05658196926892016 15.019774509610187 17.0 0.0 0.0 16.0 
180.00107048489727 0.08585541372167312 14.840160499674482 17.0 0.0 0.0 16.0 
181.00330054880627 0.11589496274089335 15.019774509610187 17.0 0.0 0.0 15.0 
182.00002370384567 0.17058650512239895 18.968004449420448 17.0 0.0 0.0 16.0 
183.00136116111952 0.2300688453289229 26.38488526129916 18.0 0.0 0.0 15.0 
184.00010996949285 0.27558595317277434 26.38488526129916 17.0 0.0 0.0 15.0 
185.00125249904627 0.3070721281565178 23.610395943210136 17.0 0.0 0.0 15.0 
186.00064704890735 0.3054851175912846 23.610395943210136 17.0 0.0 0.0 15.0 
187.00002370384567 0.2464433189084896 23.610395943210136 17.0 0.0 0.0 15.0 
188.00306497486014 0.6662371916756661 49.98708286343816 17.0 0.0 0.0 16.0 
189.00145800578625 0.833111989555387 80.1887634983321 17.0 0.0 0.0 16.0 
190.00229518953145 1.1316786263062635 87.97638965026255 17.0 0.0 0.0 16.0 
191.00107051843972 0.7635767969279756 87.97638965026255 17.0 0.0 0.0 16.0 
192.00002370384567 0.8233733050073689 80.55221375802199 17.0 0.0 0.0 16.0 
193.00234165171867 0.9385636418157114 87.58249732039167 17.0 0.0 0.0 16.0 
194.00169644790523 1.2905877618674857 87.94620029816338 17.0 0.0 0.0 16.0 
195.00067885451003 1.2658699902964519 87.94620029816338 17.0 0.0 0.0 15.0 
196.00141999656938 1.4163897359434585 80.52303034839656 17.0 0.0016384792907394336 0.8192396453697199 15.0 
197.00002370384567 1.6335445576380148 80.52303034839656 17.0 0.0016384792907394336 0.8192396453697199 14.0 
198.0003591784748 1.6769357886850738 49.906751054626596 18.0 0.0016384792907394336 0.8192396453697199 15.0 
199.00021296211088 1.9015359960286224 68.53748869494677 18.0 0.0 0.0 15.0 
200.00229518953145 1.8288098779060071 68.53748869494677 18.0 0.0 0.0 15.0 
201.00111673138056 1.904099415321373 80.24551399538171 18.0 0.0 0.0 16.0 
202.00002370384567 2.2815810621093684 89.14063215054182 18.0 0.0 0.0 16.0 
203.0001037669272 2.5032665830365666 88.03835365113355 18.0 0.0 0.0 16.0 
204.00423545813797 2.820704872864085 104.00429588098865 18.0 0.0 0.0 16.0 
205.00165789101203 2.862426605198902 88.03835365113355 19.0 0.0 0.0 16.0 
206.00001966337072 2.7745005591403125 104.00429588098865 19.0 0.0 0.0 17.0 
207.00002370384567 2.5281600939491216 104.00429588098865 19.0 0.0 0.0 17.0 
208.00048525153554 3.3538776742206884 98.44673816991866 19.0 0.0 0.0 17.0 
209.00129515276248 3.6755399144478935 118.92898367558837 19.0 0.0 0.0 17.0 
210.0013880760073 3.6434418219967677 118.92898367558837 21.0 0.0 0.0 18.0 
211.00008743284278 3.883127439585869 134.66750034884774 21.0 0.0 0.0 18.0 
212.00002370384567 3.4239596538776405 134.66750034884774 21.0 0.0 0.0 18.0 
213.0006116098785 4.2911283915308545 155.7702460592917 21.0 0.0 0.0 18.0 
214.00592962133982 4.551328146800005 155.7702460592917 21.0 0.0 0.0 18.0 
215.00229518953145 4.625236032489926 155.7702460592917 21.0 0.0 0.0 17.0 
216.00150443874148 4.402950644576474 148.40478510862778 21.0 0.0 0.0 17.0 
217.00002370384567 4.937238498786062 163.8723661927615 21.0 0.0 0.0 18.0 
218.00253113515208 5.617705351021686 178.05422013837244 20.0 0.0 0.0 17.0 
219.0022902331735 6.210605199731416 198.05722959309395 20.0 0.0 0.0 17.0 
220.00142780980937 6.203569540038057 195.2034360698238 19.0 0.0 0.0 17.0 
221.00182982903502 5.429037694345361 178.05422013837244 19.0 0.0 0.0 17.0 
222.00002370384567 5.5288988875370855 178.05422013837244 20.0 0.0 0.0 18.0 
223.00001366740102 5.990387950153204 179.81889346439203 20.0 0.0 0.0 18.0 
224.0025594723372 6.100862109758018 179.81889346439203 20.0 0.0 0.0 18.0 
225.00070797363057 7.102880224065266 202.11573405098216 20.0 0.0 0.0 18.0 
226.00009866595582 7.72753487357098 202.11573405098216 20.0 0.0 0.0 18.0 
227.00001483175933 7.666402060209911 201.85853083847388 20.0 0.0 0.0 18.0 
228.00386088804277 8.309108610188783 209.57169781196097 20.0 0.0 0.0 18.0 
229.0043173976932 8.92841274663787 210.03993478436234 20.0 0.0 0.0 18.0 
230.00003677533155 8.642771514534765 210.03993478436234 20.0 0.0 0.0 18.0 
231.0012702957867 8.632088669817069 213.2094053538292 20.0 0.0 0.0 18.0 
232.00002370384567 8.784598652888027 213.2094053538292 20.0 0.0 0.0 18.0 
233.00081626865392 9.608389669927737 220.62474127867807 20.0 0.0 0.0 19.0 
234.00068174739215 9.454895447582453 220.62474127867807 20.0 0.0 0.0 18.0 
235.00207374019243 9.309436580680376 223.31026069556503 20.0 0.0 0.0 18.0 
236.0008802797401 8.722239116017764 219.0734152961483 21.0 0.007307694085306092 3.653847042653041 18.0 
237.00002370384567 8.610173660857727 219.0734152961483 21.0 0.007307694085306092 3.653847042653041 16.0 
238.00285170168658 9.301750027835945 227.36141286817934 21.0 0.0 0.0 16.0 
239.0030604246648 9.256243612442015 230.81735014335254 20.0 0.0 0.0 17.0 
240.00224804982994 9.67648230105889 234.86895938960345 20.0 0.0 0.0 16.0 
241.0013089010344 8.714982896693368 234.86895938960345 20.0 0.0055499299019824205 2.063548036532808 16.0 
242.00002370384567 8.067929736437106 228.13496246407868 19.0 0.0055499299019824205 2.063548036532808 18.0 
243.00204448845497 8.66974089186326 235.44450750306044 19.0 0.0014228338289168014 0.7114169144583968 18.0 
244.00594433994942 7.981267753202875 234.76982370736363 19.0 0.0 0.0 18.0 
245.00022503996766 7.455481557823875 234.76982370736363 18.0 0.0 0.0 17.0 
246.00430020211388 7.488458964406496 234.76982370736363 18.0 0.009771884239153913 4.430331675554697 17.0 
247.00002370384567 6.8237407536605845 230.7034148760397 18.0 0.0054390700613297415 2.263924586642645 17.0 
248.00001612387865 7.075390665361813 238.13008361680875 18.0 0.004527849173285315 2.263924586642645 17.0 
249.0017345106866 7.130633963110787 238.13008361680875 18.0 0.0 0.0 17.0 
250.00229518953145 6.55981626147794 238.13008361680875 19.0 0.003925320737548404 1.962660368774209 16.0 
251.00217699756632 6.374320184689483 236.87982161029902 19.0 0.003925320737548404 1.962660368774209 19.0 
252.00002370384567 6.042818872327559 236.87982161029902 18.0 0.003925320737548404 1.962660368774209 19.0 
253.0006021488002 6.024317614759449 243.72048494465844 18.0 0.003925320737548404 1.962660368774209 19.0 
254.00286673048979 5.668370676874562 244.3186753257433 18.0 0.003925320737548404 1.962660368774209 19.0 
255.00221481179125 5.6748598476393255 244.3186753257433 18.0 0.0 0.0 20.0 
256.00372117477633 5.571099564075291 243.83539271963485 18.0 0.0 0.0 18.0 
257.00002370384567 5.857189455659934 244.97092846527858 18.0 0.0 0.0 18.0 
258.00019621995045 6.127991627563221 252.40612851361328 18.0 0.0 0.0 18.0 
259.0046038436155 6.082385571702109 252.46394973470012 18.0 0.0 0.0 18.0 
260.0008254010522 6.0697770129905 252.46394973470012 18.0 0.0 0.0 18.0 
261.0045408184059 6.57425008729289 256.94616770611924 18.0 0.0 0.0 18.0 
262.00002370384567 7.108454074580057 259.3996763083974 18.0 0.0 0.0 19.0 
263.00112064907245 6.605249756823704 266.78947745875877 19.0 0.0 0.0 20.0 
264.0010369497893 6.630055055319783 266.78947745875877 18.0 0.0 0.0 20.0 
265.0003207208587 6.658532541652412 266.78947745875877 19.0 0.0 0.0 20.0 
266.0016224848375 6.65560680716869 261.1279947849006 19.0 0.0 0.0 20.0 
267.00002370384567 6.21056231392984 262.59907071379524 19.0 0.0 0.0 20.0 
268.00437910283847 6.44400367378472 270.0123217309032 18.0 0.0 0.0 19.0 
269.00219859948703 5.968731785316075 270.0854582935168 18.0 0.0 0.0 19.0 
270.0022951895314 5.532088183098699 270.0854582935168 18.0 0.0 0.0 19.0 
271.00061949607425 5.828584562826421 270.0854582935168 18.0 0.0 0.0 19.0 
272.00002370384567 4.453478344237441 267.5886994011601 18.0 0.0 0.0 19.0 
273.00239791891715 5.0307593937738995 275.08918261227586 19.0 0.0 0.0 19.0 
274.0007543354364 5.152418953390484 277.5659866949652 19.0 0.0 0.0 19.0 
275.0022951895314 4.212130972844535 275.08918261227586 19.0 0.0 0.0 19.0 
276.0011931518143 4.246430164565021 275.56841280444706 20.0 0.0 0.0 19.0 
277.00002370384567 3.7148606015438537 275.56841280444706 20.0 0.0 0.0 19.0 
278.0003191155228 3.293034778763062 283.0229414796196 20.0 0.0 0.0 19.0 
279.00023452334864 3.402627110897439 283.0229414796196 20.0 0.0 0.0 18.0 
280.0021655522764 2.9562645430377548 283.0229414796196 21.0 0.0 0.0 19.0 
281.00050614646415 1.8249637300857862 283.0229414796196 21.0 0.0 0.0 18.0 
282.00002370384567 0.8119789603053491 254.49007942127207 21.0 0.0 0.0 18.0 
283.00191466101336 0.9063427330429087 256.86640728546104 21.0 0.0 0.0 18.0 
284.00068562608527 1.9487822316469405 269.7691994188683 21.0 0.0 0.0 18.0 
285.0009386792978 1.9816698616787798 269.7691994188683 21.0 0.0 0.0 18.0 
286.00119780549943 0.15938107822004574 27.52600294514346 21.0 0.0 0.0 18.0 
287.00002370384567 0.5578880359376579 269.24979555241407 21.0 0.0 0.0 17.0 
288.0024516814538 0.5857848877245432 283.1982214458577 21.0 0.0 0.0 18.0 
289.0059588944234 0.6102860882753134 283.1982214458577 22.0 0.0 0.0 18.0 
290.0022951895314 0.004895636758049324 2.4478183790246533 22.0 0.0 0.0 19.0 
291.0026570692755 0.019710020914764287 9.85501045738215 23.0 0.0 0.0 19.0 
292.00002370384567 0.019710020914764287 9.85501045738215 21.0 0.0 0.0 19.0 
293.00218447417586 0.0752156983302974 22.33236026769478 21.0 0.0 0.0 18.0 
294.0002959810948 0.01611169678463339 5.420478440071889 21.0 0.0 0.0 18.0 
295.00149355158663 0.01611169678463339 5.420478440071889 20.0 0.0 0.0 18.0 
296.00694847586607 0.045952438197573504 12.8840436775385 20.0 0.0 0.0 18.0 
297.00002370384567 0.05327076861690081 12.8840436775385 20.0 0.0 0.0 18.0 
298.00327759973186 0.11279111467373172 22.555658503589513 20.0 0.0 0.0 18.0 
299.0022062551942 0.058571384373081195 22.555658503589513 20.0 0.0 0.0 18.0 
300.0022951895314 0.04221764341943042 11.053523809941339 20.0 0.0 0.0 18.0 
301.00114330507546 0.07097531051872714 18.039601547710618 20.0 0.0 0.0 18.0 
302.00002370384567 0.1309494565694346 29.987073025353766 20.0 0.0 0.0 18.0 
303.00098591909637 0.07097531051872714 18.039601547710618 20.0 0.0 0.0 18.0 
304.0035318156009 0.11620759148750029 22.65332149351792 19.0 0.0 0.0 18.0 
305.0007747873321 0.17504269619911886 30.02403436057898 19.0 0.0 0.0 18.0 
306.0003329883846 0.26813986204717527 39.41638993935803 19.0 0.0 0.0 18.0 
307.00002370384567 0.08664709063805656 32.535206252305414 19.0 0.0 0.0 17.0 
308.0009511017682 0.006936256760759682 3.4681283803798237 19.0 0.0 0.0 16.0 
309.0011215214576 0.0 0.0 19.0 0.0 0.0 15.0 
310.0000224446637 0.023633881578987187 5.106250956270571 19.0 0.0 0.0 15.0 
311.0009940805749 0.014222376142986992 4.279918146042718 19.0 0.0 0.0 14.0 
312.00002370384567 0.01898184257428491 5.106250956270571 19.0 0.0 0.0 15.0 
313.00657549300473 0.0 0.0 19.0 0.0 0.0 15.0 
314.0032241919562 0.0 0.0 19.0 0.0 0.0 15.0 
315.0001237784841 0.01752562385131718 5.711709444060489 19.0 0.0 0.0 15.0 
316.00252107065 0.013943823462647359 5.711709444060489 19.0 0.0 0.0 15.0 
317.00002370384567 0.0 0.0 18.0 0.0 0.0 14.0 
318.0007590577715 0.0025204045745264355 1.260202287263212 18.0 0.0 0.0 14.0 
319.00061356447287 0.0 0.0 16.0 0.0 0.0 14.0 
320.0022951895314 0.0 0.0 17.0 0.0 0.0 14.0 
321.0005376946338 0.0 0.0 17.0 0.0 0.0 13.0 
322.00002370384567 0.0 0.0 17.0 0.0 0.0 13.0 
323.0011559313342 0.0 0.0 17.0 0.0 0.0 13.0 
324.00058285362263 0.0035062299449844497 1.7531149724922273 17.0 0.0 0.0 13.0 
325.0005337903557 0.02227918106250496 9.12379750494685 17.0 0.0 0.0 13.0 
326.0001237173853 0.01824759500989382 9.12379750494685 17.0 0.0 0.0 13.0 
327.00002370384567 0.02700526349356755 9.12379750494685 18.0 0.0 0.0 17.0 
328.0003516834856 0.0310368495461788 9.12379750494685 18.0 0.0 0.0 16.0 
329.0014775035097 0.01824759500989382 9.12379750494685 19.0 0.0 0.0 16.0 
330.00059914878705 0.05667823440500051 16.300881909948515 19.0 0.0 0.0 15.0 
331.00108670996445 0.06259601884790268 13.721194552290626 19.0 0.0 0.0 15.0 
332.00002370384567 0.035153629743321396 8.78639735424008 20.0 0.0 0.0 16.0 
333.00523670436405 0.03533739105515687 8.78639735424008 20.0 0.0 0.0 16.0 
334.0006622504569 0.06277978015973798 13.721194552290626 20.0 0.0 0.0 16.0 
335.0005233939565 0.08712144716536475 17.06465226323519 19.0 0.0 0.0 16.0 
336.0053337177786 0.12612193830070526 17.06465226323519 19.0 0.0 0.0 16.0 
337.00002370384567 0.04211837925496822 7.5899262197701205 19.0 0.0 0.0 16.0 
338.00332069466424 0.08265548640213935 12.688917980848942 19.0 0.0 0.0 16.0 
339.00007350013647 0.0016869789233596015 0.843489461679809 18.0 0.0 0.0 16.0 
340.00210854607485 0.0064031144941088716 3.2015572470544384 18.0 0.0 0.0 16.0 
341.0000911363376 0.0 0.0 18.0 0.0 0.0 16.0 
342.00002370384567 0.0 0.0 18.0 0.0 0.0 16.0 
343.0008293881896 0.0 0.0 18.0 0.0 0.0 16.0 
344.0000805197215 0.0 0.0 18.0 0.0 0.0 16.0 
345.0022951895314 0.005305052177603889 1.3439717687215023 18.0 0.0 0.0 18.0 
346.00177208892217 0.005305052177603889 1.3439717687215023 19.0 0.0 0.0 18.0 
347.00002370384567 0.005305052177603889 1.3439717687215023 19.0 0.0 0.0 18.0 
348.0022357118492 0.002687943537443027 1.3439717687215023 19.0 0.0 0.0 18.0 
349.00237730784744 0.0 0.0 19.0 0.0 0.0 18.0 
350.00005573745455 0.0 0.0 19.0 0.0 0.0 18.0 
351.00025692752536 0.0 0.0 19.0 0.0 0.0 18.0 
352.00002370384567 0.0 0.0 19.0 0.0 0.0 18.0 
353.0041029439848 0.0 0.0 18.0 0.0 0.0 18.0 
354.00252912800005 0.0 0.0 18.0 0.0 0.0 18.0 
355.0022951895314 0.0 0.0 18.0 0.0 0.0 18.0 
356.0011877318416 0.0 0.0 18.0 0.0 0.0 18.0 
357.00002370384567 0.0 0.0 18.0 0.0 0.0 18.0 
358.0010556999427 0.0 0.0 18.0 0.0 0.0 18.0 
359.0030388784271 0.0 0.0 18.0 0.0 0.0 18.0 
360.00076357824514 0.0 0.0 18.0 0.0 0.0 18.0 
361.00031833505557 0.0 0.0 18.0 0.0 0.0 18.0 
362.00002370384567 0.0 0.0 18.0 0.0 0.0 18.0 
363.0014563454599 0.0 0.0 19.0 0.0 0.0 19.0 
364.0037551487736 0.0 0.0 19.0 0.0 0.0 18.0 
365.0022951895314 0.04499621684740916 12.645573398299462 19.0 0.0 0.0 18.0 
366.00073575828685 0.055929570395396935 16.752902309601012 19.0 0.0 0.0 18.0 
367.00002370384567 0.022423765776194857 11.211882888097449 22.0 0.0 0.0 19.0 
368.0011062592307 0.04921452062186223 11.211882888097449 21.0 0.0 0.0 19.0 
369.0031261644763 0.09016569463014784 20.475587004142795 20.0 0.0 0.0 18.0 
370.0022951895314 0.07745241046745657 20.475587004142795 20.0 0.0 0.0 18.0 
371.00029796054014 0.04422693666033023 12.204169827437909 20.0 0.0 0.0 17.0 
372.00002370384567 0.05558542139599352 12.204169827437909 20.0 0.0 0.0 17.0 
373.0027914905771 0.02560150685707535 6.847407237688145 20.0 0.0 0.0 17.0 
374.0001828010198 0.013513063602608318 5.953346190849544 20.0 0.0 0.0 17.0 
375.0006854442618 0.013513063602608318 5.953346190849544 20.0 0.0 0.0 17.0 
376.0009756144295 0.06484179993499863 11.696846055061997 20.0 0.0 0.0 17.0 
377.00002370384567 0.0837188415604106 11.696846055061997 20.0 0.0 0.0 18.0 
378.0001946733931 0.07991504281924164 11.696846055061997 20.0 0.0034790752156827593 1.7395376078413847 18.0 
379.00314845696323 0.03949755566747678 5.5144936905266775 21.0 0.018971562155440606 9.103178261824695 18.0 
380.0022951895314 0.033734329621134644 5.5144936905266775 21.0 7.652056317912736E-4 0.3826028158956376 17.0 
381.00206458396394 0.1109243525899577 12.027996587270763 21.0 0.0 0.0 17.0 
382.00002370384567 0.1042236088594625 12.899843259578546 21.0 0.0 0.0 17.0 
383.00141066856463 0.12294068503757445 18.085825800533883 21.0 0.0 0.0 17.0 
384.0023415085914 0.11061659042808457 18.085825800533883 22.0 0.0 0.0 17.0 
385.00040617621613 0.12675146983382066 18.085825800533883 22.0 0.0 0.0 18.0 
386.0016147181454 0.18479818677199691 25.412648769068454 23.0 0.0 0.0 20.0 
387.00002370384567 0.2512844414442538 25.412648769068454 22.0 0.0 0.0 18.0 
388.0011452149682 0.2654043235054858 31.570543371264478 21.0 0.0 0.0 18.0 
389.0000402157085 0.27565391726303434 31.570543371264478 21.0 0.0 0.0 18.0 
390.00137317054526 0.255034837205803 31.570543371264478 21.0 0.0 0.0 18.0 
391.0012117808709 0.39960413171656184 38.87905247012051 21.0 0.0 0.0 18.0 
392.00002370384567 0.466401361790326 38.87905247012051 21.0 0.0 0.0 18.0 
393.0008890015222 0.3842014959700957 36.636391810513175 21.0 0.0 0.0 18.0 
394.0007276118478 0.38367132861550923 41.48610585075704 21.0 0.0 0.0 19.0 
395.00056622217346 0.4059830854432989 41.48610585075704 21.0 0.0 0.0 19.0 
396.0004048324991 0.5397800270905448 41.48610585075704 21.0 0.0 0.0 19.0 
397.00002370384567 0.6514892408994036 38.447995920533685 21.0 0.0 0.0 19.0 
398.0000820531504 0.5522928256062929 37.586810704478495 20.0 0.014679685665120472 7.339842832560208 19.0 
399.00233580978613 0.5340700177764952 31.851876017561437 20.0 0.025671269639798138 8.276447218250695 19.0 
400.00003738220596 0.5975646848697194 39.633684294116904 20.0 0.025671269639798138 8.276447218250695 19.0 
401.001020095487 0.6666617687358283 46.86611755307641 20.0 0.025671269639798138 8.276447218250695 19.0 
402.00002370384567 0.6458317303560644 46.86611755307641 20.0 0.025671269639798138 8.276447218250695 19.0 
403.0018748176863 0.6885418703448584 46.86611755307641 19.0 0.025671269639798138 8.276447218250695 19.0 
404.0000262295563 0.5184044694006765 39.84169029422608 19.0 0.0023215326534589587 1.1607663267294868 19.0 
405.0005543916277 0.6128531872759344 46.79878133209439 19.0 0.005265650128240871 2.632825064120425 19.0 
406.0003093209994 0.580183408233503 46.79878133209439 21.0 0.006800134973370708 2.632825064120425 18.0 
407.00002370384567 0.44972183345300304 38.42068591075039 21.0 0.006800134973370708 2.632825064120425 17.0 
408.00151133798164 0.38172163023137134 39.86828504205266 19.0 0.0 0.0 17.0 
409.00253918191464 0.6419105565313673 47.347317830428864 19.0 0.0 0.0 17.0 
410.0022951895314 0.6436729289353508 48.612097504221964 19.0 0.010814331222478261 2.055627297950849 17.0 
411.0013366125533 0.4901343680636088 48.612097504221964 19.0 0.016575479601458696 2.3051696645965762 17.0 
412.00002370384567 0.4449064609385628 48.612097504221964 19.0 0.004610339329193133 2.3051696645965762 17.0 
413.0003987614192 0.4343676268559933 48.612097504221964 19.0 0.0 0.0 17.0 
414.0027565796316 0.4325581560666364 45.943998781524016 19.0 9.712490186087692E-4 0.4856245093043867 17.0 
415.0022951895314 0.4960055112331243 45.943998781524016 19.0 0.01453578099290292 6.294546489322926 17.0 
416.00508421981056 0.611523222644704 53.40671760380437 19.0 0.016638288711951048 4.834488944157272 17.0 
417.00002370384567 0.5517522606550336 53.40671760380437 19.0 0.01566284971630282 4.834488944157272 17.0 
418.0021716050066 0.4788686784705463 53.40671760380437 20.0 0.009668977888314587 4.834488944157272 18.0 
419.00283807415303 0.5185182836198167 53.40671760380437 21.0 0.0 0.0 19.0 
420.000677430742 0.6110758542494101 51.03532876841368 20.0 0.0 0.0 19.0 
421.0008645188945 0.7422808598998692 58.467764402403134 20.0 0.0 0.0 18.0 
422.00002370384567 0.7422808598998692 58.467764402403134 20.0 0.0 0.0 18.0 
423.00220279234986 0.7556154367103826 58.467764402403134 20.0 0.0 0.0 18.0 
424.003003289932 0.6883029775903992 56.19095654703062 20.0 0.0 0.0 17.0 
425.0022951895314 0.6737866203164988 63.59096863864772 20.0 0.0 0.0 17.0 
426.00114240252276 0.8340639571439017 63.59096863864772 20.0 0.0 0.0 17.0 
427.00002370384567 0.8192089763582592 63.59096863864772 20.0 0.0 0.0 17.0 
428.00192126901953 0.6794824079617469 39.896629279059596 20.0 0.0 0.0 17.0 
429.0001048118287 0.6748418118166164 39.896629279059596 19.0 0.0 0.0 17.0 
430.0022951895314 0.8089606673651245 47.43683228126511 19.0 0.0 0.0 17.0 
431.00016076292076 0.7284187360564199 52.9873210033428 19.0 0.0 0.0 17.0 
432.00002370384567 0.7291445861682767 52.9873210033428 19.0 0.0 0.0 17.0 
433.0007468385104 0.6167617075866367 43.27082596162481 19.0 0.0 0.0 18.0 
434.0000718243517 0.5614572259411613 43.27082596162481 19.0 0.0 0.0 17.0 
435.0017399063357 0.6745443769704054 57.90656573549063 19.0 0.0 0.0 17.0 
436.00115736044745 0.6040247813227866 53.9177112814408 19.0 0.0 0.0 17.0 
437.00002370384567 0.4749688388017806 40.755414263834865 20.0 0.0 0.0 17.0 
438.0001738731275 0.4749688388017806 40.755414263834865 20.0 0.0 0.0 17.0 
439.0054713841733 0.48927005183853517 40.755414263834865 20.0 0.0 0.0 17.0 
440.0022951895314 0.5869293897651072 47.77244625863523 20.0 0.0 0.0 18.0 
441.0007189668748 0.6545155043368239 48.28497495932612 20.0 0.0 0.0 18.0 
442.00002370384567 0.6499850248272155 47.72559240111693 20.0 0.0 0.0 18.0 
443.00102331022964 0.6660247203627109 47.72559240111693 20.0 0.0 0.0 18.0 
444.00382631625087 0.5556557924016647 43.15325452501057 20.0 0.0 0.0 17.0 
445.0003785077886 0.6756803909575604 55.295291273639094 20.0 0.0 0.0 17.0 
446.00046001937187 0.7652529269886589 55.295291273639094 20.0 0.0 0.0 17.0 
447.00002370384567 0.7565205266662163 55.295291273639094 20.0 0.0 0.0 17.0 
448.0003896967294 0.6460267101738488 53.586853775915785 20.0 0.0 0.0 17.0 
449.0050138402878 0.4234381878601406 43.27099793588175 20.0 0.0 0.0 17.0 
450.00049039328417 0.49400059365566373 44.442505539728955 19.0 0.0 0.0 17.0 
451.00184821006184 0.600296857421752 50.79591059745954 19.0 0.0 0.0 17.0 
452.00002370384567 0.5865212150300795 44.442505539728955 19.0 0.0 0.0 17.0 
453.0014799732418 0.6015666448714331 44.442505539728955 19.0 0.0 0.0 17.0 
454.0003962575364 0.5864014391552701 44.442505539728955 18.0 0.0 0.0 18.0 
455.0019956952641 0.558951288514036 50.85662201795819 18.0 0.0 0.0 15.0 
456.0062854400642 0.7542421437407539 59.370619091692106 18.0 0.0 0.0 15.0 
457.00002370384567 0.6365576417695202 45.73726267442885 18.0 0.0 0.0 15.0 
458.00042739760113 0.6514820648446811 48.69766370679531 18.0 0.0 0.0 15.0 
459.0034963443453 0.6365650743959416 48.69766370679531 18.0 0.0 0.0 15.0 
460.00007347506386 0.6963479379216198 53.141485464785546 18.0 0.0 0.0 15.0 
461.00028300245697 0.8019080008013406 56.10291738029815 18.0 0.0 0.0 15.0 
462.00002370384567 0.9403703264916123 63.62957350813082 18.0 0.0 0.0 15.0 
463.0008693692141 0.5647661722544336 43.27279327268036 18.0 0.0 0.0 16.0 
464.0016175251639 0.6771029991707308 63.505560807261304 18.0 0.0 0.0 16.0 
465.00118184375987 0.5937795046347727 48.584735162982014 18.0 0.0 0.0 16.0 
466.0007534233595 0.6924338718903255 50.68319638243423 17.0 0.0 0.0 16.0 
467.00002370384567 0.7150675282906979 56.91403847340763 17.0 0.0 0.0 16.0 
468.0014073587721 0.6160399168293069 51.91665782102757 17.0 0.0 0.0 16.0 
469.00031596666315 0.6111092828800474 56.91403847340763 17.0 0.004430656571495007 2.2153282857475176 16.0 
470.0012600091814 0.6599489231514276 59.33470102205433 17.0 0.004430656571495007 2.2153282857475176 16.0 
471.0015755178537 0.49546935866530734 50.511473835870135 17.0 0.004430656571495007 2.2153282857475176 16.0 
472.00002370384567 0.480650305607471 49.079888136631325 17.0 0.009582824367862708 4.791412183931357 16.0 
473.0026634899589 0.480650305607471 49.079888136631325 17.0 0.009582824367862708 4.791412183931357 16.0 
474.00624022817385 0.4654812771199428 49.079888136631325 17.0 0.061704964666604904 6.644483399843239 16.0 
475.0022951895314 0.5211817572646282 56.53082605729753 17.0 0.037248594461199 6.644483399843239 15.0 
476.00060816266887 0.6920955484525216 63.61350738195097 18.0 0.033214214407875725 6.644483399843239 15.0 
477.00002370384567 0.5647431896809811 56.53082605729753 18.0 0.043623681061924074 12.592759924877413 15.0 
478.0001131554408 0.5797763250721972 56.53082605729753 18.0 0.016345603310293246 6.456537464447024 17.0 
479.00162651560873 0.45180007411123824 51.882577519170724 18.0 0.016345603310293246 6.456537464447024 16.0 
480.0015970684843 0.495983234784761 59.24825834232746 17.0 0.016345603310293246 6.456537464447024 17.0 
481.0003529770419 0.43515989072599254 55.78914419360058 17.0 0.003432528381399137 1.716264190699576 16.0 
482.00002370384567 0.41992910792876825 55.78914419360058 17.0 0.0 0.0 16.0 
483.0002818387704 0.32338045447092234 42.82372475278544 17.0 0.0 0.0 16.0 
484.0009301960834 0.3083525581119049 42.82372475278544 17.0 0.0 0.0 16.0 
485.0022951895314 0.27448601352516266 40.60138416363961 16.0 0.0 0.0 16.0 
486.0013328006913 0.17474554486398203 22.39478544860603 15.0 0.0 0.0 16.0 
487.00002370384567 0.13118936039277915 22.39478544860603 15.0 0.0 0.0 16.0 
488.0044405475614 0.10316393516571618 22.39478544860603 16.0 0.0 0.0 16.0 
489.001049677853 0.0972024999061951 14.821927179790663 16.0 0.0 0.0 16.0 
490.0001944036294 0.14605591819161898 14.821927179790663 16.0 0.0 0.0 16.0 
491.0036528036424 0.10667620344559622 15.188421010407495 16.0 0.0 0.0 16.0 
492.00002370384567 0.06457455302691771 15.188421010407495 16.0 0.0010098094021529346 0.5049047010764696 16.0 
493.00053636660067 0.06457455302691771 15.188421010407495 17.0 0.0 0.0 16.0 
494.002623484643 0.029639017089114265 14.819508544557038 16.0 0.0 0.0 16.0 
495.0022951895314 0.07490020998313769 22.630596447011868 16.0 0.0 0.0 16.0 
496.00787590503387 0.0 0.0 16.0 0.0 0.0 16.0 
497.00002370384567 0.0 0.0 16.0 0.0 0.0 15.0 
498.000985943578 0.0 0.0 16.0 0.0 0.0 15.0 
499.00477677258846 0.0022890258641935454 1.1445129320967737 16.0 0.0 0.0 15.0 
500.0003148839395 0.0022890258641935454 1.1445129320967737 16.0 0.0 0.0 15.0 
501.00081429772814 0.0022890258641935454 1.1445129320967737 16.0 0.0 0.0 15.0 
502.00002370384567 0.0022890258641935454 1.1445129320967737 16.0 0.0 0.0 14.0 
503.00222533724605 0.0022890258641935454 1.1445129320967737 16.0 0.0 0.0 14.0 
504.00152862329736 0.0038082867908186043 1.9041433954093065 16.0 0.0 0.0 14.0 
505.0022951895314 0.0038082867908186043 1.9041433954093065 16.0 0.0 0.0 14.0 
506.00167309801407 0.0038082867908186043 1.9041433954093065 16.0 0.0 0.0 14.0 
507.00002370384567 0.0038082867908186043 1.9041433954093065 16.0 0.0 0.0 14.0 
508.00090884871906 0.06457015421300001 30.38093371109059 16.0 0.0 0.0 14.0 
509.0030519894416 0.0038082867908186043 1.9041433954093065 16.0 0.0 0.0 14.0 
510.0006929509434 0.08107020960048553 30.38093371109059 16.0 0.0 0.0 16.0 
511.00064232782455 0.02141420882918278 10.154171089152157 15.0 0.0 0.0 16.0 
512.0000237038457 0.0956509624384934 37.67131013009447 15.0 0.0 0.0 15.0 
513.0005919415316 0.030756028148995633 10.154171089152157 15.0 0.0 0.0 15.0 
514.000331674519 0.06606068556760099 17.131643099135005 16.0 0.0 0.0 15.0 
515.0022951895314 0.07877876180638141 18.372541197442217 15.0 0.0 0.0 15.0 
516.00080795 0.14173483321212138 38.127446088384914 15.0 0.0 0.0 15.0 
517.0000237038457 0.06547994103535142 13.279619884929929 15.0 0.0 0.0 15.0 
518.0011679190532 0.11381591902959402 18.372541197442217 15.0 0.0 0.0 16.0 
519.000222498388 0.0898871748922262 18.13350520538802 15.0 0.0 0.0 17.0 
520.00037890654 0.1524603991266283 38.79201385614513 15.0 0.0 0.0 16.0 
521.0026753805121 0.07487637141433807 22.586172449370196 16.0 0.0 0.0 17.0 
522.0000237038457 0.11614529651535455 38.79201385614513 16.0 0.0 0.0 16.0 
523.000182449392 0.04139506656882918 11.62928141737737 16.0 0.0 0.0 16.0 
524.0003591213057 0.05237228298204641 11.62928141737737 15.0 0.0 0.0 16.0 
525.0021678042673 0.09576341719473801 19.04348774345135 15.0 0.0 0.0 16.0 
526.001181151335 0.07165193002014952 15.285414699440395 15.0 0.0 0.0 16.0 
527.0000237038457 0.0627507396488931 15.285414699440395 15.0 0.0 0.0 16.0 
528.000379081811 0.059295937410933565 15.285414699440395 15.0 0.0 0.0 16.0 
529.000368778566 0.06317521840201808 15.285414699440395 15.0 0.0 0.0 16.0 
530.0006068887822 0.0794212557220238 15.285414699440395 15.0 0.0 0.0 16.0 
531.0010746822425 0.10662427340872904 19.502658137233595 15.0 0.0 0.0 16.0 
532.0000237038457 0.16072282333696952 19.502658137233595 15.0 0.0 0.0 16.0 
533.0060883038683 0.15850148412711948 19.502658137233595 15.0 0.0 0.0 15.0 
534.0012234635549 0.18554466442774986 36.87610980701308 15.0 0.0 0.0 15.0 
535.001230653972 0.17776635524597653 24.622970974018727 15.0 0.0 0.0 15.0 
536.0111073268637 0.26613779155115386 41.760225009875654 15.0 0.0 0.0 15.0 
537.0000237038457 0.2268624541791495 21.630285455277544 15.0 0.0 0.0 15.0 
538.0008703290806 0.26030629735242744 34.48242965440849 16.0 0.0 0.0 15.0 
539.0039924028155 0.1526213784846091 21.630285455277544 16.0 0.0 0.0 16.0 
540.001908588107 0.21527905129615585 37.4321491016496 16.0 0.0 0.0 16.0 
541.0013260008354 0.2530203709012568 37.4321491016496 16.0 0.0 0.0 16.0 
542.0000237038457 0.30720433885227494 37.4321491016496 16.0 0.0 0.0 16.0 
543.0011872630865 0.30906180584065196 32.214664613149665 16.0 0.0 0.0 16.0 
544.0012133674826 0.2936684169654214 32.214664613149665 16.0 0.0 0.0 16.0 
545.0022951895314 0.41271472239960666 39.651353897765915 16.0 0.0 0.0 16.0 
546.00032886828 0.520458585774343 39.651353897765915 18.0 0.0 0.0 16.0 
547.0000237038457 0.49152751486398544 39.651353897765915 17.0 0.0 0.0 16.0 
548.0001454701415 0.5703212382335069 36.48469654935934 20.0 0.0 0.0 16.0 
549.0006746715864 0.5330735091873354 36.48469654935934 19.0 0.0 0.0 16.0 
550.0015848188608 0.578909560763502 36.48469654935934 19.0 0.0 0.0 14.0 
551.0002904521785 0.5753471421474736 44.06732309586391 19.0 0.0 0.0 14.0 
552.0000128715296 0.35773508299345175 44.06732309586391 19.0 0.0 0.0 14.0 
553.0018054711237 0.15153251326792483 30.94513650355526 19.0 0.0 0.0 14.0 
554.0011244320507 0.09955537316312058 30.326458456814493 17.0 0.0 0.0 14.0 
555.0007532586128 0.10377866864517142 30.326458456814493 19.0 0.0 0.0 14.0 
556.0005312322896 0.10377866864517142 30.326458456814493 19.0 0.0 0.0 14.0 
557.0000237038457 0.10377866864517142 30.326458456814493 18.0 0.0 0.0 14.0 
558.0040538983262 0.10377866864517142 30.326458456814493 19.0 0.0 0.0 14.0 
559.000229158458 0.16159187379416454 37.66624368936152 17.0 0.0 0.0 14.0 
560.0016596070185 0.17128735605412462 42.5139848193412 17.0 0.0 0.0 14.0 
561.0009437114504 0.18647005808256856 42.5139848193412 17.0 0.0 0.0 14.0 
562.0000237038457 0.18647005808256856 42.5139848193412 17.0 0.0 0.0 14.0 
563.0031756826426 0.1997217789068716 42.5139848193412 17.0 0.0 0.0 14.0 
564.0016353141775 0.1608283331091146 26.131073720314333 17.0 0.0 0.0 14.0 
565.0017338355128 0.1731636017544354 27.52574482652983 17.0 0.0 0.0 14.0 
566.0005877222872 0.1637235227808509 27.52574482652983 18.0 0.0 0.0 14.0 
567.0000237038457 0.05640988568716232 26.040967852664494 18.0 0.0 0.0 14.0 
568.001865162036 0.0 0.0 18.0 0.0 0.0 14.0 
569.0006200198943 0.0 0.0 18.0 0.0 0.0 14.0 
570.0020318165463 0.0 0.0 18.0 0.0 0.0 14.0 
571.0058504694831 0.007234293002355977 3.617146501178013 19.0 0.0 0.0 14.0 
572.0000237038457 0.0 0.0 19.0 0.0 0.0 14.0 
573.0029322061774 0.0 0.0 19.0 0.0 0.0 14.0 
574.0032815460123 0.006758806146215502 2.401531257850678 19.0 0.0 0.0 14.0 
575.0000580400689 0.006758806146215502 2.401531257850678 19.0 0.0 0.0 13.0 
576.000063346541 0.007481087569525638 2.401531257850678 17.0 0.0 0.0 12.0 
577.0000237038457 0.007481087569525638 2.401531257850678 17.0 0.0 0.0 12.0 
578.0003597192498 0.020820792844455857 9.071383895315762 17.0 0.0 0.0 12.0 
579.0004013196124 0.008460341871359411 3.252299120422606 17.0 0.0 0.0 11.0 
580.0004211128081 0.0217539231604906 10.876961580245307 16.0 0.0 0.0 11.0 
581.0011722592307 0.0033639829064524697 1.6819914532262317 16.0 0.0 0.0 11.0 
582.0000151771787 0.004504479431016588 2.2522397155082956 16.0 0.0 0.0 13.0 
583.0037959826736 0.026258402591507263 10.876961580245307 16.0 0.0 0.0 13.0 
584.0011798090328 0.01828114592633998 5.161637740617039 16.0 0.0 0.0 13.0 
585.0022951895314 0.029560758821998646 7.8920461633375965 16.0 0.0 0.0 13.0 
586.0011439217008 0.028911630239402016 7.8920461633375965 17.0 0.0 0.0 13.0 
587.0000237038457 0.04914003725533123 10.114203507964561 17.0 0.0 0.0 13.0 
588.0005761958718 0.06379278125500726 13.000064515257606 17.0 0.0 0.0 13.0 
589.0048022583162 0.10535899273679011 18.87936885760783 17.0 0.0 0.0 13.0 
590.0022951895314 0.12620479547083444 18.87936885760783 17.0 0.0 0.0 13.0 
591.0010840951758 0.16043781032401727 21.072283886340983 17.0 0.0 0.0 13.0 
592.0000237038457 0.11725212917731098 21.072283886340983 17.0 0.0 0.0 14.0 
593.0012148786852 0.16559004503496078 24.168957928824597 17.0 0.0 0.0 16.0 
594.0059140272899 0.15493769193466236 27.175009736923244 17.0 0.0 0.0 15.0 
595.0009422938924 0.1280953463889042 30.326759836956853 18.0 0.0 0.0 15.0 
596.0005174516849 0.11726444796513331 30.326759836956853 17.0 0.0 0.0 15.0 
597.0000237038457 0.06879507091639493 14.798137890018978 16.0 0.0 0.0 15.0 
598.0011311041499 0.15955241649974913 28.784288970610817 18.0 0.0 0.0 15.0 
599.0062402281739 0.21694900523600533 33.98580719165719 18.0 0.0 0.0 15.0 
600.0009039966523 0.20152060281618356 21.605353893549136 18.0 0.0 0.0 15.0 
#####################################################################
# End of data export. Simulation finished at: 2019-02-25T20:01+0000 #
#####################################################################
