#####################################################################
# Alchemist log file - simulation started at: 2019-02-25T20:14+0000 #
#####################################################################
# seed = 72.0
#
# The columns have the following meaning: 
# time distance-rep[Mean] distance-rep[Max] leader-rep[CountDistinct] distance-share[Mean] distance-share[Max] leader-share[CountDistinct] 
0.0 NaN NaN NaN NaN NaN NaN 
1.0007886324645694 0.0 0.0 500.0 0.0 0.0 76.0 
2.0035270953497317 0.0 0.0 110.0 0.0 0.0 68.0 
3.0005240022441995 0.0 0.0 102.0 0.0 0.0 55.0 
4.00027773762257 0.0 0.0 95.0 0.0 0.0 48.0 
5.000062972459318 0.0 0.0 95.0 0.0 0.0 44.0 
6.001738609609668 0.0 0.0 86.0 0.0 0.0 43.0 
7.002201226723482 0.0 0.0 83.0 0.0 0.0 42.0 
8.001414779849929 0.0 0.0 82.0 0.0 0.0 38.0 
9.000318848803905 0.0 0.0 77.0 0.0 0.0 39.0 
10.001019627092855 0.0 0.0 73.0 0.0 0.0 35.0 
11.001058426371026 0.0 0.0 68.0 0.0 0.0 38.0 
12.003527095349732 0.0 0.0 67.0 0.0 0.0 34.0 
13.001713435788856 0.0 0.0 63.0 0.0 0.0 36.0 
14.000882932950736 0.0 0.0 62.0 0.0 0.0 37.0 
15.001019627092855 0.0 0.0 60.0 0.0 0.0 31.0 
16.000445353147327 0.0 0.0 62.0 0.0 0.0 30.0 
17.000750941042128 0.0 0.0 61.0 0.0 0.0 26.0 
18.003905929399266 0.0 0.0 58.0 0.0 0.0 24.0 
19.001114485451698 0.0 0.0 61.0 0.0 0.0 23.0 
20.001019627092855 0.0 0.0 57.0 0.0 0.0 23.0 
21.00108301495901 0.0 0.0 54.0 0.0 0.0 23.0 
22.00352709534973 0.0 0.0 55.0 0.0 0.0 22.0 
23.001132193286484 0.0 0.0 53.0 0.0 0.0 18.0 
24.001114485451698 0.0 0.0 50.0 0.0 0.0 24.0 
25.001019627092855 0.0 0.0 51.0 0.0 0.0 24.0 
26.000304908943292 0.0 0.0 50.0 0.0 0.0 23.0 
27.00352709534973 0.0 0.0 50.0 0.0032744851553142655 1.6372425776571333 22.0 
28.001760974974943 0.0 0.0 46.0 0.0032744851553142655 1.6372425776571333 22.0 
29.00041477394226 0.0 0.0 47.0 0.0 0.0 22.0 
30.001019627092855 0.0 0.0 47.0 0.0 0.0 22.0 
31.001738609609667 0.0 0.0 47.0 0.0 0.0 20.0 
32.00019477380296 0.0 0.0 46.0 0.0 0.0 20.0 
33.0022425171779 0.0 0.0 45.0 0.00462744070280434 2.313720351402168 18.0 
34.00098818361198 0.0 0.0 43.0 0.0 0.0 19.0 
35.00101962709286 0.0 0.0 44.0 0.0 0.0 21.0 
36.00173860960967 0.0 0.0 44.0 0.0 0.0 20.0 
37.000116792986034 0.0 0.0 42.0 0.0 0.0 22.0 
38.00390592939927 0.0 0.0 44.0 0.0 0.0 22.0 
39.000625493063666 0.0 0.0 45.0 0.0 0.0 21.0 
40.000071897935406 0.0 0.0 44.0 0.0 0.0 21.0 
41.00173860960967 0.0 0.0 40.0 0.0 0.0 21.0 
42.00007355150302 0.0 0.0 37.0 0.0 0.0 21.0 
43.00085197985434 0.0 0.0 37.0 0.0 0.0 21.0 
44.00085212079778 0.0 0.0 36.0 0.0 0.0 20.0 
45.000695911915265 0.0 0.0 36.0 0.0 0.0 19.0 
46.00173860960967 0.0 0.0 36.0 0.0 0.0 19.0 
47.00135848189498 0.0 0.0 35.0 0.0 0.0 19.0 
48.000548052747085 0.0 0.0 35.0 0.0 0.0 19.0 
49.001114485451694 0.0 0.0 36.0 0.0 0.0 19.0 
50.00101962709286 0.0 0.0 35.0 0.0 0.0 19.0 
51.00173860960967 0.0 0.0 34.0 0.0 0.0 19.0 
52.00171403264836 0.041903719881477876 20.95185994073904 34.0 0.0 0.0 19.0 
53.00044654233758 0.041903719881477876 20.95185994073904 33.0 0.0 0.0 19.0 
54.001114485451694 0.041903719881477876 20.95185994073904 32.0 0.0 0.0 19.0 
55.000232059589734 0.05686540578176982 28.43270289088511 35.0 0.0 0.0 19.0 
56.00024623121432 0.07189762210749137 35.948811053745885 35.0 0.0 0.0 19.0 
57.00170630744469 0.07189762210749137 35.948811053745885 35.0 0.0 0.0 19.0 
58.00122386607874 0.16255749301733777 45.329935454923174 33.0 0.0 0.0 20.0 
59.000675838941035 0.07189762210749137 35.948811053745885 32.0 0.0 0.0 20.0 
60.00018372874611 0.2217904219222054 59.98472194202543 32.0 0.0 0.0 19.0 
61.00092688000932 0.11996944388404987 59.98472194202543 32.0 0.0 0.0 19.0 
62.001277851469354 0.0 0.0 33.0 0.0 0.0 19.0 
63.00101385434465 0.0 0.0 33.0 0.0 0.0 19.0 
64.0011144854517 0.0 0.0 29.0 0.0 0.0 19.0 
65.00004882121607 0.0 0.0 28.0 0.0 0.0 18.0 
66.00058284476269 0.0 0.0 28.0 0.0 0.0 18.0 
67.00034517703341 0.0 0.0 26.0 0.0 0.0 18.0 
68.00390592939927 0.0 0.0 26.0 0.0 0.0 18.0 
69.00060290427747 0.0 0.0 26.0 0.0 0.0 17.0 
70.00101962709286 0.0 0.0 27.0 0.0 0.0 18.0 
71.00173860960967 0.0 0.0 27.0 0.0 0.0 19.0 
72.00023202380986 0.0 0.0 26.0 0.0 0.0 21.0 
73.0005408494458 0.0 0.0 27.0 0.0 0.0 21.0 
74.0011144854517 0.0 0.0 25.0 0.0 0.0 20.0 
75.00101962709286 0.0 0.0 26.0 0.0 0.0 19.0 
76.00173860960967 0.0 0.0 27.0 0.0 0.0 18.0 
77.00106915939911 0.0 0.0 26.0 0.0 0.0 18.0 
78.00118089372076 0.0 0.0 23.0 0.0 0.0 18.0 
79.0011144854517 0.0 0.0 24.0 0.0 0.0 18.0 
80.00101962709286 0.0 0.0 23.0 0.0 0.0 17.0 
81.0010423024931 0.0 0.0 23.0 0.0 0.0 17.0 
82.00036878359096 0.0 0.0 23.0 0.0 0.0 17.0 
83.00320871934908 5.78019431530835E-4 0.2890097157654168 23.0 0.0 0.0 17.0 
84.0011144854517 0.015548913458284814 7.774456729142429 24.0 0.0 0.0 17.0 
85.00101962709286 0.015548913458284814 7.774456729142429 23.0 0.0 0.0 17.0 
86.00173860960967 0.0205025525520825 7.774456729142429 23.0 0.0 0.0 17.0 
87.00198372985808 0.0205025525520825 7.774456729142429 21.0 0.0 0.0 17.0 
88.00077153564594 0.055436798488623686 15.237273449111115 22.0 0.0 0.0 17.0 
89.0011144854517 0.024962251590401607 9.94145885385845 22.0 0.0 0.0 17.0 
90.00101962709286 0.005079333882684623 2.5396669413423183 22.0 0.0 0.0 17.0 
91.00002793164586 0.012124125201635976 6.062062600817995 22.0 0.0 0.0 17.0 
92.00087948452571 0.012124125201635976 6.062062600817995 22.0 0.0 0.0 17.0 
93.0009661807812 0.06175877553372925 17.41350340331195 21.0 0.0 0.0 17.0 
94.00006731397073 0.06175877553372925 17.41350340331195 21.0 0.0 0.0 17.0 
95.00007051171765 0.06175877553372925 17.41350340331195 21.0 0.0 0.0 17.0 
96.00173860960967 0.09126679212011805 24.796180929870786 21.0 0.0 0.0 17.0 
97.00160531224527 0.10616361502229159 28.285626581275068 21.0 0.0 0.0 17.0 
98.0016586035824 0.13505086851345824 32.24417264881524 21.0 0.0 0.0 17.0 
99.00082085510999 0.13805183395363507 33.744655368903835 21.0 0.0 0.0 17.0 
100.0006017985028 0.13805183395363507 33.744655368903835 21.0 0.0 0.0 17.0 
101.00173860960967 0.15306869236286128 33.744655368903835 21.0 0.0 0.0 17.0 
102.00333529299589 0.09649743920031133 33.744655368903835 21.0 0.0 0.0 18.0 
103.00024317016646 0.04402594105714772 22.012970528573874 21.0 0.0 0.0 18.0 
104.00056044952248 0.04402594105714772 22.012970528573874 23.0 0.0 0.0 18.0 
105.00101962709286 0.04402594105714772 22.012970528573874 22.0 0.0 0.0 18.0 
106.00019166028672 0.0 0.0 23.0 0.0 0.0 18.0 
107.00179584733004 0.0 0.0 23.0 0.0 0.0 19.0 
108.00082028170878 0.0 0.0 23.0 0.0 0.0 19.0 
109.00072136040708 0.0 0.0 22.0 0.0 0.0 19.0 
110.00101962709286 0.0 0.0 23.0 0.0 0.0 19.0 
111.00173860960967 0.0 0.0 23.0 0.0 0.0 19.0 
112.00064544895945 0.0 0.0 21.0 0.0 0.0 19.0 
113.00164710557397 0.0 0.0 21.0 0.0 0.0 18.0 
114.0011144854517 0.0 0.0 21.0 0.0 0.0 18.0 
115.00101962709286 0.0 0.0 21.0 0.0 0.0 18.0 
116.00087199658354 0.0 0.0 21.0 0.0 0.0 18.0 
117.00222025336 2.212368982100074E-5 0.01106184491050044 20.0 0.0 0.0 18.0 
118.00022336187403 2.212368982100074E-5 0.01106184491050044 20.0 0.0 0.0 18.0 
119.0011144854517 0.0 0.0 20.0 0.0 0.0 18.0 
120.00101962709286 2.212368982100074E-5 0.01106184491050044 20.0 0.0 0.0 18.0 
121.00173860960967 0.0 0.0 20.0 0.0 0.0 18.0 
122.00184819915489 0.0 0.0 20.0 0.0 0.0 18.0 
123.00122152071779 0.0 0.0 20.0 0.0 0.0 18.0 
124.00074300312272 9.166851940302074E-4 0.45834259701510405 20.0 0.0 0.0 18.0 
125.00101962709286 9.166851940302074E-4 0.45834259701510405 20.0 0.0 0.0 18.0 
126.00173860960967 0.011443922615095277 5.7219613075476445 21.0 0.0 0.0 19.0 
127.00079364427629 0.06055489050488658 24.555483944895656 21.0 0.0 0.0 18.0 
128.0004964539841 0.06055489050488658 24.555483944895656 21.0 0.0 0.0 18.0 
129.0011144854517 0.0 0.0 21.0 0.004270796357582148 2.135398178791064 18.0 
130.00101962709286 0.0 0.0 21.0 0.004270796357582148 2.135398178791064 18.0 
131.0002707098381 0.0 0.0 21.0 0.004270796357582148 2.135398178791064 18.0 
132.00352709534974 0.0 0.0 20.0 0.004270796357582148 2.135398178791064 18.0 
133.00175318850802 0.0 0.0 19.0 0.019494585185514144 9.747292592757077 18.0 
134.0011144854517 0.0 0.0 19.0 0.006776541540647405 2.306861250698148 18.0 
135.00101962709286 0.0 0.0 19.0 0.004613722501396312 2.306861250698148 18.0 
136.00173860960967 0.0 0.0 19.0 0.004613722501396312 2.306861250698148 16.0 
137.00329288045972 0.0 0.0 19.0 0.004613722501396312 2.306861250698148 16.0 
138.00130024432394 0.0 0.0 19.0 0.004613722501396312 2.306861250698148 16.0 
139.0011144854517 0.0 0.0 19.0 0.00757623567663812 2.4364042185504786 16.0 
140.0007379753551 0.0 0.0 19.0 0.014352853860664538 4.740022711781791 16.0 
141.00173860960967 0.0 0.0 19.0 0.014352853860664538 4.740022711781791 15.0 
142.0001906435909 0.0 0.0 19.0 0.02936917484373555 12.248183203317211 15.0 
143.00109659762313 0.0 0.0 20.0 0.02936917484373555 12.248183203317211 16.0 
144.00108459509664 0.0 0.0 20.0 0.0 0.0 19.0 
145.00101962709286 0.0 0.0 20.0 0.0 0.0 18.0 
146.00173860960967 0.0 0.0 20.0 0.0 0.0 18.0 
147.00233278031425 0.0 0.0 20.0 0.0 0.0 17.0 
148.00074317994262 0.0 0.0 20.0 0.0 0.0 17.0 
149.0011144854517 0.0 0.0 20.0 0.0 0.0 16.0 
150.00101962709286 0.0 0.0 20.0 0.0 0.0 16.0 
151.00173860960967 0.0 0.0 19.0 0.0 0.0 15.0 
152.00171421768553 0.0 0.0 19.0 0.0 0.0 15.0 
153.00289250685702 0.0 0.0 19.0 0.0 0.0 15.0 
154.00006229672442 0.0 0.0 19.0 0.0 0.0 15.0 
155.00101962709286 0.0 0.0 18.0 0.0 0.0 15.0 
156.00173860960967 0.0 0.0 19.0 0.0 0.0 15.0 
157.00217755761122 0.0 0.0 19.0 0.0 0.0 15.0 
158.0006937554265 0.0 0.0 19.0 0.0 0.0 15.0 
159.0011144854517 0.0 0.0 19.0 0.0 0.0 15.0 
160.00101962709286 0.0 0.0 19.0 0.0 0.0 15.0 
161.00044378332214 0.0 0.0 19.0 0.0 0.0 15.0 
162.001784079294 0.0 0.0 17.0 0.0 0.0 15.0 
163.00022024176775 0.0 0.0 18.0 0.0 0.0 15.0 
164.0011144854517 0.0 0.0 17.0 0.0 0.0 15.0 
165.00101962709286 0.0 0.0 17.0 0.0 0.0 15.0 
166.00173860960967 0.0 0.0 17.0 0.0 0.0 15.0 
167.00352709534974 0.0 0.0 17.0 0.0 0.0 15.0 
168.0001432855914 0.0 0.0 17.0 0.0 0.0 15.0 
169.0000564580586 0.0 0.0 17.0 0.0 0.0 15.0 
170.0004129660045 0.0 0.0 17.0 0.0 0.0 15.0 
171.0003070101076 0.0 0.0 17.0 0.0 0.0 15.0 
172.00228218562486 0.0 0.0 17.0 0.0 0.0 15.0 
173.0022528079021 0.0 0.0 17.0 0.0 0.0 15.0 
174.00069031396893 0.0 0.0 16.0 0.0 0.0 16.0 
175.00070453701875 0.0 0.0 16.0 0.0 0.0 16.0 
176.00173860960967 0.002805173894819971 1.4025869474099864 16.0 0.0 0.0 16.0 
177.0002305059363 0.0 0.0 17.0 0.0 0.0 16.0 
178.0001455359933 0.0 0.0 17.0 0.0 0.0 17.0 
179.0011144854517 0.0 0.0 17.0 0.0 0.0 17.0 
180.00101962709286 0.0 0.0 17.0 0.0 0.0 17.0 
181.00173860960967 0.0 0.0 17.0 0.0 0.0 17.0 
182.00124538776893 0.024157944511746625 7.360857888068182 17.0 0.0 0.0 18.0 
183.00038046269344 0.0 0.0 17.0 0.0 0.0 18.0 
184.0011144854517 0.0 0.0 17.0 0.0 0.0 18.0 
185.00101962709286 0.0 0.0 17.0 0.0 0.0 18.0 
186.00173860960967 0.0 0.0 17.0 0.0 0.0 17.0 
187.001602535467 0.0 0.0 17.0 0.0 0.0 18.0 
188.0001575911482 0.0 0.0 18.0 0.0 0.0 19.0 
189.00070777709308 0.0 0.0 18.0 0.0 0.0 19.0 
190.00025515190654 0.0 0.0 18.0 0.0 0.0 19.0 
191.00148010674783 0.0 0.0 18.0 0.0 0.0 19.0 
192.00127327354332 0.0 0.0 18.0 0.0 0.0 19.0 
193.00100552686774 0.0 0.0 18.0 0.0 0.0 19.0 
194.0011144854517 0.0 0.0 19.0 0.0 0.0 19.0 
195.00067770902214 0.0 0.0 20.0 0.0 0.0 21.0 
196.00055051358544 0.04049314295617888 13.427392097435046 21.0 0.002659370526092126 1.079861235636855 21.0 
197.00016162508928 0.09146158368789105 26.961359949602212 21.0 0.0069557703284507735 2.148199901179339 21.0 
198.00151142613797 0.16818747344582824 39.29636920495099 21.0 0.0069557703284507735 2.148199901179339 21.0 
199.000121168199 0.11520953293861508 39.768758900946324 21.0 0.005196563024685772 2.148199901179339 22.0 
200.00101962709286 0.0 0.0 22.0 0.005196563024685772 2.148199901179339 22.0 
201.00007346982457 0.0 0.0 22.0 0.06384563035073307 9.564561113196987 22.0 
202.00266974880176 0.0 0.0 22.0 0.07875975517547873 17.021623525569908 22.0 
203.00390592939925 7.222199939027431E-4 0.36110999695137025 22.0 0.07875975517547873 17.021623525569908 22.0 
204.0011144854517 0.020314473175693796 10.157236587846825 22.0 0.07798723789665603 17.021623525569908 22.0 
205.00101962709286 0.07316298757259547 18.601017556901212 22.0 0.07890517565258194 17.021623525569908 22.0 
206.00041318799404 0.19167775305493384 39.30726685813667 22.0 0.13799792374974937 24.442880549567832 22.0 
207.0022723530953 0.2772666662040895 44.725935796018405 23.0 0.03731256691313251 14.93992223388048 23.0 
208.00073966547785 0.3525619546457853 48.736655637520556 23.0 0.0 0.0 23.0 
209.0011144854517 0.3417171257089346 48.736655637520556 23.0 0.0 0.0 23.0 
210.00101962709286 0.29729793762945317 48.736655637520556 23.0 0.0 0.0 22.0 
211.00045977917677 0.2315789150876067 54.88725341314591 25.0 1.6008926770803066E-4 0.0800446338540155 22.0 
212.00218445044268 0.05430170827512237 14.377186071849934 25.0 0.0 0.0 22.0 
213.00099639345515 0.04286987143011573 14.377186071849934 24.0 0.0 0.0 22.0 
214.0011144854517 0.16266577496718423 39.47287399447572 23.0 0.0 0.0 22.0 
215.00050260254113 0.16352511023031988 39.902541626043586 24.0 0.0 0.0 23.0 
216.00173860960967 0.41676511290209267 49.57105096689048 23.0 0.0 0.0 22.0 
217.00112825073512 0.504978550699983 55.35010565953499 23.0 0.012124134951926503 3.3213295719537825 22.0 
218.00008197904035 0.4643428614152645 55.35010565953499 24.0 0.011669719077422647 3.0941216347018496 22.0 
219.00011225881255 0.4733441288300951 55.35010565953499 23.0 0.0 0.0 22.0 
220.00037616085345 0.4842732385969244 55.35010565953499 23.0 0.0 0.0 22.0 
221.00035763828993 0.561448261377459 50.13987263146308 23.0 0.0 0.0 22.0 
222.00157873567855 0.6000591308169856 56.089523979949945 24.0 0.0 0.0 22.0 
223.00117809667933 0.5885956015789559 56.089523979949945 24.0 0.0 0.0 22.0 
224.0011144854517 0.5795129718415448 56.089523979949945 23.0 0.0 0.0 22.0 
225.00101962709286 0.5785989186103606 51.090289230076024 23.0 0.0 0.0 22.0 
226.00173860960967 0.606211476034116 57.20058941438407 25.0 0.0 0.0 22.0 
227.00183354536512 0.8678781836451003 75.43357268369374 25.0 0.0 0.0 21.0 
228.0017024335112 0.8395924592229852 75.43357268369374 24.0 0.0 0.0 22.0 
229.0011144854517 0.8221153017965519 75.43357268369374 26.0 0.0 0.0 22.0 
230.00101962709286 0.8313654291125021 75.43357268369374 25.0 0.0 0.0 22.0 
231.001604150867 0.880754165824815 75.43357268369374 26.0 0.0 0.0 22.0 
232.00200871857078 0.7622744346155789 58.88404833367747 25.0 0.0 0.0 23.0 
233.00058550266758 0.9251613918725832 76.27045462300697 25.0 0.0 0.0 23.0 
234.0011144854517 0.8658400608212763 76.27045462300697 24.0 0.0 0.0 22.0 
235.0007386691673 0.8898165990544059 76.27045462300697 24.0 0.0 0.0 22.0 
236.00173860960967 0.8077641386481562 67.61020496687837 25.0 0.0 0.0 22.0 
237.0000336602757 0.8461520852046298 67.61020496687837 25.0 0.0 0.0 22.0 
238.00390592939925 1.0478387343426572 77.45784958035546 25.0 0.0 0.0 21.0 
239.0011144854517 0.9554563867432294 67.61020496687837 24.0 0.0 0.0 20.0 
240.00074840159812 1.0287849541756242 62.202830738121236 24.0 0.0 0.0 19.0 
241.00085411348587 1.0903988765453008 69.62010387777053 24.0 0.0 0.0 20.0 
242.00191919009927 1.1497849343476696 69.62010387777053 24.0 0.0 0.0 20.0 
243.001018871761 1.1845399299877402 73.60794884702972 24.0 0.0 0.0 20.0 
244.00017325465848 1.2048687086412548 73.60794884702972 24.0 0.0 0.0 20.0 
245.00101962709286 1.199015478933977 73.60794884702972 24.0 0.0 0.0 20.0 
246.00082826829072 0.8941241709486564 68.99840491666873 23.0 0.0 0.0 22.0 
247.0013771269236 0.6465353988149894 57.1880623937177 23.0 0.0 0.0 22.0 
248.00086835270295 0.5505509929381112 36.88145053081968 22.0 0.0 0.0 22.0 
249.00010896021556 0.572428596657565 36.88145053081968 21.0 0.0 0.0 21.0 
250.00101962709286 0.7142850605397844 44.66198337253692 22.0 0.0 0.0 21.0 
251.00173860960967 0.8215275685008864 44.66198337253692 22.0 0.0 0.0 22.0 
252.00290522004292 0.7835490285782236 44.66198337253692 23.0 0.0 0.0 23.0 
253.00390592939925 0.8056127838134941 44.66198337253692 22.0 0.0 0.0 23.0 
254.0011144854517 0.742299598101854 51.97066675422295 21.0 0.0 0.0 21.0 
255.00101962709286 0.7397535452001083 38.03161741195896 21.0 0.0 0.0 21.0 
256.000034374889 1.046915724065163 46.97037871677864 21.0 0.0 0.0 19.0 
257.003135685855 1.1924117290777294 50.5026014150676 21.0 0.0 0.0 19.0 
258.0020007953532 1.023366039927391 46.97037871677864 21.0 0.0 0.0 19.0 
259.0011144854517 0.9044551686301834 36.30373794962324 21.0 0.0 0.0 19.0 
260.0010196270929 1.1791615469617416 53.13263666708136 21.0 0.0 0.0 19.0 
261.0017386096097 1.5032499019128822 53.13263666708136 21.0 0.0 0.0 20.0 
262.0034857396457 1.3351147201306532 53.13263666708136 21.0 0.0 0.0 20.0 
263.003082710643 1.2279814604023553 40.92627790135964 21.0 0.0 0.0 20.0 
264.0011144854517 1.157581498190692 38.713879394788364 22.0 0.0 0.0 20.0 
265.0010196270929 1.3396449055925252 46.230879895070785 22.0 0.0 0.0 20.0 
266.0017386096097 1.41445562324156 46.230879895070785 21.0 0.004703503333734234 2.351751666867102 20.0 
267.00036764385413 1.3562089444078225 45.814469989289336 22.0 0.004703503333734234 2.351751666867102 20.0 
268.00371381301125 1.0963272754063131 35.09073552323858 21.0 0.0 0.0 20.0 
269.0011144854517 1.0831256256878148 33.782287561652794 21.0 0.0 0.0 19.0 
270.0010196270929 1.0653444026470928 41.68653357177337 21.0 0.0 0.0 19.0 
271.001153321233 1.3256744379034828 54.497222469425424 21.0 0.0 0.0 19.0 
272.0029432404173 1.2648158184546388 54.497222469425424 21.0 0.0 0.0 19.0 
273.0010206243154 1.188066260376224 44.7716080268126 21.0 0.0 0.0 19.0 
274.0011144854517 1.192958726245169 49.10742385657801 20.0 0.0 0.0 19.0 
275.00058090224326 1.243415557618145 50.166148943648636 20.0 0.0 0.0 19.0 
276.00094290835784 1.4285051711571046 53.11490101570013 20.0 0.010252522460881293 2.1532472482443836 20.0 
277.00236999978057 1.3385655305326862 53.11490101570013 20.0 0.002586112753231919 1.293056376615965 20.0 
278.0014008081642 1.3124873624837992 53.11490101570013 20.0 0.0 0.0 20.0 
279.00008440295784 1.2901419689049587 49.28524545504956 20.0 0.002929190414960894 1.4645952074804427 19.0 
280.000574256307 1.3181981494610278 63.39898798809202 20.0 0.002929190414960894 1.4645952074804427 19.0 
281.0017386096097 1.4791211822620738 63.672893076893274 21.0 0.0027140062682250304 1.3570031341125173 19.0 
282.0021176637412 1.4192181417781125 44.18408701789389 21.0 0.0 0.0 20.0 
283.0009456925693 0.7965900365218039 44.18408701789389 21.0 0.0 0.0 22.0 
284.0011144854517 0.4768880710435021 41.4315108583269 21.0 0.0 0.0 21.0 
285.0010196270929 0.17444511633448384 33.66175951303899 21.0 0.0 0.0 21.0 
286.0017235174436 0.26349990384615635 35.275031534566324 21.0 0.0 0.0 19.0 
287.0004972712508 0.06765899029731283 33.82949514865663 21.0 0.0 0.0 19.0 
288.0023223550843 0.2566642517732994 33.82949514865663 21.0 0.0 0.0 20.0 
289.00068838018484 0.08370927585827505 32.344182526933395 22.0 0.0 0.0 20.0 
290.0010196270929 0.1653675767069142 29.60386841303753 22.0 0.0 0.0 21.0 
291.0011732101437 0.08570084607307493 19.311197785210624 20.0 0.0 0.0 21.0 
292.0005231222632 0.13642423056638583 25.765062481964748 20.0 0.0 0.0 21.0 
293.00130426761007 0.0 0.0 20.0 0.0 0.0 21.0 
294.0002699088881 0.0 0.0 20.0 0.0 0.0 21.0 
295.000992800965 0.0 0.0 20.0 0.0 0.0 21.0 
296.0017386096097 0.0 0.0 19.0 0.0 0.0 21.0 
297.00352709534974 0.0 0.0 18.0 0.0 0.0 21.0 
298.00010436720044 0.0 0.0 18.0 0.0 0.0 21.0 
299.0011144854517 0.0 0.0 20.0 0.0 0.0 19.0 
300.0010196270929 0.0 0.0 21.0 0.0 0.0 19.0 
301.0011737794952 0.0 0.0 20.0 0.0 0.0 18.0 
302.0023877822007 0.0 0.0 20.0 0.0 0.0 18.0 
303.00010010384904 0.0 0.0 19.0 0.0 0.0 18.0 
304.0011144854517 0.0 0.0 19.0 0.0 0.0 18.0 
305.00019999071753 0.0 0.0 19.0 0.0 0.0 18.0 
306.0017386096097 0.0 0.0 19.0 0.0 0.0 18.0 
307.0001429327255 0.0 0.0 19.0 0.0 0.0 18.0 
308.00390592939925 0.0 0.0 19.0 0.0 0.0 19.0 
309.0011144854517 0.0 0.0 19.0 0.0 0.0 19.0 
310.0010196270929 0.0 0.0 19.0 0.0 0.0 18.0 
311.00040449843794 0.0 0.0 19.0 0.0 0.0 18.0 
312.0003871048125 0.0 0.0 19.0 0.0 0.0 18.0 
313.0005881334129 0.0 0.0 18.0 0.0 0.0 17.0 
314.00091460557513 0.0 0.0 17.0 0.0 0.0 17.0 
315.0010196270929 0.0 0.0 16.0 0.0 0.0 17.0 
316.0017386096097 0.0 0.0 16.0 0.007704192686958893 1.9940072237405388 17.0 
317.00352709534974 0.0 0.0 15.0 0.0 0.0 17.0 
318.0020561268689 0.0 0.0 15.0 0.0 0.0 16.0 
319.0011144854517 0.018719187331353342 9.359593665676613 16.0 0.0 0.0 16.0 
320.0010196270929 0.0 0.0 17.0 0.0 0.0 17.0 
321.0017386096097 0.014398242832392327 4.4868384437787086 18.0 0.0 0.0 16.0 
322.000169106929 0.01431061593328188 4.443024994223492 17.0 0.0 0.0 16.0 
323.0032389310377 0.006049172906597537 2.712282972417455 19.0 0.0 0.0 15.0 
324.0003389687436 0.002961849528655427 1.168621283446413 19.0 0.0 0.0 15.0 
325.0010196270929 0.002961849528655427 1.168621283446413 19.0 0.0 0.0 15.0 
326.00024923937485 0.028061618529300652 8.491679320243122 17.0 0.0044021922822972915 2.201096141148639 15.0 
327.00328782599695 0.01957489048939235 4.248315300288965 17.0 0.0044021922822972915 2.201096141148639 15.0 
328.0012712784238 0.04884855962426873 10.072375654745997 17.0 0.0118147827746712 3.706295246187011 15.0 
329.0009959630393 0.0709895594335486 12.013729578138225 17.0 0.007412590492373985 3.706295246187011 14.0 
330.0000867801207 0.04696210027727231 10.072375654745997 17.0 0.0 0.0 14.0 
331.0016426435388 0.1599366276022994 11.94161818209625 17.0 0.005455239032204573 2.210366274402361 14.0 
332.00352709534974 0.19006270698494845 17.449551971540927 17.0 0.0 0.0 14.0 
333.0006351741183 0.27095957493803907 26.772422990761754 17.0 0.0 0.0 14.0 
334.0011144854517 0.2506427490137806 21.305866477864527 17.0 0.007806960548175293 3.9034802740876273 14.0 
335.00084638566017 0.3025360982388071 21.51919931123743 17.0 0.0 0.0 14.0 
336.00101642577187 0.48292707392217193 27.378366180152312 17.0 0.009919438840417226 2.886118360933466 14.0 
337.0001597775174 0.41498607381217134 27.378366180152312 17.0 0.0 0.0 14.0 
338.0019452228975 0.4989300238481497 47.79825585899084 17.0 0.0 0.0 14.0 
339.0011144854517 0.4345934178555226 47.79825585899084 17.0 0.0 0.0 14.0 
340.0010196270929 0.5390897953253864 54.280126348848114 17.0 0.0057722367218669595 2.886118360933466 14.0 
341.0017386096097 0.7821686697491481 73.13637905138188 17.0 0.003532119027049365 1.7660595135246808 14.0 
342.00352709534974 0.7844503132648707 73.13637905138188 17.0 0.003532119027049365 1.7660595135246808 14.0 
343.00126652374956 1.2250606931803132 89.7606598952006 17.0 0.003532119027049365 1.7660595135246808 14.0 
344.0003623633563 1.4238638686654765 100.73623497890566 17.0 0.0 0.0 14.0 
345.0006142119402 1.8139008129109142 119.7309660351329 18.0 0.0354508151763757 17.725407588187892 15.0 
346.0003844774381 2.1614468542494176 131.37755120958974 18.0 0.007672455931009417 3.8362279655046905 15.0 
347.0013009217446 2.367609716563014 131.37755120958974 18.0 0.010833128871272048 3.8362279655046905 16.0 
348.0004130906403 1.8954432576766709 115.17998444027876 18.0 0.0 0.0 16.0 
349.0011144854517 1.6703404191328999 131.37755120958974 18.0 0.0 0.0 18.0 
350.0010196270929 0.38630960800895303 27.04259931606194 18.0 0.0 0.0 17.0 
351.0017386096097 0.5974996487281129 34.40487072125791 18.0 0.0 0.0 17.0 
352.00313445939173 0.6105903506826237 34.40487072125791 20.0 0.0 0.0 17.0 
353.00168883414904 0.5958052968372937 33.57385889835959 20.0 0.0 0.0 17.0 
354.000607213606 0.606721520169548 33.57385889835959 20.0 0.0 0.0 17.0 
355.0001536203871 0.6388431808317544 33.57385889835959 20.0 0.0 0.0 17.0 
356.0017386096097 0.9571038060196783 40.94896090965722 20.0 0.0 0.0 17.0 
357.0001510706585 0.9792948719048111 40.94896090965722 20.0 0.0 0.0 18.0 
358.0011408604466 1.0164682644077643 47.6018730490394 20.0 0.0 0.0 18.0 
359.00009205634757 1.0424038650107452 47.6018730490394 20.0 0.0 0.0 18.0 
360.0010196270929 1.0755541557153343 47.6018730490394 20.0 0.0 0.0 18.0 
361.0017386096097 1.5314684641779872 54.99858303210601 20.0 0.0 0.0 18.0 
362.0000621252386 1.4922663322764462 55.99284525272671 21.0 0.0 0.0 18.0 
363.00077943814176 1.6519226969566698 62.42352609182632 21.0 0.0 0.0 17.0 
364.0005866070817 1.7695414080693241 62.42352609182632 22.0 0.0 0.0 17.0 
365.00053123413744 1.9077206806453304 62.42352609182632 20.0 0.0 0.0 17.0 
366.0005942414259 2.1153217575710057 64.65180268990758 20.0 0.0 0.0 17.0 
367.00352709534974 2.40727815412486 70.40996868722272 21.0 0.0 0.0 18.0 
368.00390592939925 2.6449722819647565 83.34826359601749 21.0 0.0 0.0 18.0 
369.0011144854517 2.4897533953604642 75.39854402465937 21.0 0.0 0.0 18.0 
370.0010196270929 2.619205067682136 83.34826359601749 21.0 0.0 0.0 18.0 
371.0017386096097 3.1291669880103385 89.88695198237383 20.0 0.0 0.0 18.0 
372.00352709534974 2.9349266004917114 89.88695198237383 20.0 0.0 0.0 18.0 
373.00064681452153 3.302037189400998 99.39689987633562 20.0 0.0 0.0 17.0 
374.00080960298527 3.1765422831438643 90.14983266738 19.0 0.0 0.0 17.0 
375.0006561248815 3.5259789081991615 91.9258321757656 19.0 0.0 0.0 17.0 
376.0017386096097 4.14526619777884 99.40367056195385 19.0 0.0 0.0 17.0 
377.00285350092213 4.1111071771890755 107.4896759724142 19.0 0.0 0.0 17.0 
378.00022610757566 4.356722826895013 117.47336206681894 19.0 0.0 0.0 16.0 
379.0011144854517 4.567212477914121 109.9324022843058 19.0 0.0 0.0 16.0 
380.00061670218145 4.620633665036203 109.9324022843058 19.0 0.0 0.0 16.0 
381.00092314046276 4.148323599100261 102.6363396448354 19.0 0.0 0.0 16.0 
382.0000329961344 4.248720583334338 102.6363396448354 19.0 0.0 0.0 16.0 
383.0000604288284 4.367382218546342 105.14488857734574 19.0 0.0 0.0 15.0 
384.00027609842897 4.516625265398306 105.14488857734574 19.0 0.0 0.0 14.0 
385.0010196270929 4.80190299452074 105.14488857734574 19.0 0.0 0.0 14.0 
386.00005702499203 4.311542225551766 97.78307559932819 19.0 0.0 0.0 16.0 
387.0011011002719 4.306910282973462 102.14872022998048 18.0 0.0 0.0 15.0 
388.0027392336834 4.236002917951284 102.14872022998048 19.0 0.0 0.0 14.0 
389.00055701914323 4.442330565936358 105.14101759666892 20.0 0.0 0.0 15.0 
390.0001309243948 4.926828356555064 105.14101759666892 22.0 0.0 0.0 15.0 
391.00068996877263 4.472959220232447 102.14872022998048 21.0 0.0 0.0 15.0 
392.000724312741 4.355510878334576 100.7356924038076 21.0 0.0 0.0 15.0 
393.002774843313 5.083419719390526 106.9054137001641 21.0 0.0 0.0 15.0 
394.0011144854517 4.858433082069796 106.9054137001641 20.0 0.0 0.0 14.0 
395.00035023849875 4.869218451516776 106.9054137001641 20.0 0.0 0.0 14.0 
396.0012307583098 4.827182412926054 101.8221441214842 20.0 0.0 0.0 14.0 
397.0021437669108 5.089715249780755 105.22610958446012 20.0 0.0 0.0 14.0 
398.0005235633408 4.952503559965946 107.11655696759976 20.0 0.0 0.0 15.0 
399.0011144854517 5.109637021254466 107.11655696759976 19.0 0.0 0.0 17.0 
400.0010196270929 5.444116956320229 112.33928020763693 20.0 0.0 0.0 16.0 
401.0017386096097 5.18509173694825 104.99243444713278 20.0 0.0 0.0 16.0 
402.00323812999613 5.586537257184521 114.98888672270743 20.0 0.0 0.0 16.0 
403.0013285091381 5.58568738584545 114.98888672270743 20.0 0.0 0.0 16.0 
404.0011144854517 5.859894673416703 116.92866752457519 20.0 0.011816951186286463 5.908475593143265 16.0 
405.0007867503953 6.0401697017209965 116.92866752457519 20.0 0.0 0.0 17.0 
406.0007366967938 5.449043933066878 109.84146567309011 20.0 0.0 0.0 17.0 
407.00087359015953 5.454014040208249 115.6850417035671 20.0 0.0 0.0 19.0 
408.0007710229085 6.005190006654816 118.88529549244555 20.0 0.0 0.0 18.0 
409.0011144854517 5.832809138915779 118.97604472378242 20.0 0.0 0.0 18.0 
410.0010196270929 6.076136265162358 118.97604472378242 19.0 0.0 0.0 19.0 
411.0017386096097 6.088643822046133 116.11341850835709 18.0 0.0 0.0 19.0 
412.00352709534974 6.58704507272243 124.81731542519896 18.0 0.0 0.0 19.0 
413.0022956563667 6.469695869533821 124.81731542519896 18.0 0.0 0.0 19.0 
414.0011144854517 6.477337042358155 124.81731542519896 18.0 0.0 0.0 19.0 
415.00032047811504 6.599589207768397 145.99661510220358 18.0 0.0 0.0 19.0 
416.0007593656361 6.22179522732901 138.87699815878722 19.0 0.0 0.0 19.0 
417.00352709534974 6.7417080131211335 160.8693656144393 19.0 0.0 0.0 19.0 
418.0009227296405 7.034236873365605 160.8693656144393 19.0 0.0 0.0 19.0 
419.00028927736844 7.363508583047612 174.6095672071849 18.0 0.0 0.0 19.0 
420.0010196270929 7.5863788327491495 174.6095672071849 18.0 0.0 0.0 18.0 
421.0017386096097 6.962608394721053 167.414222861511 18.0 0.0 0.0 18.0 
422.0007528323241 6.9880449119957175 167.414222861511 18.0 0.0 0.0 18.0 
423.00248119415147 7.284292437676332 167.414222861511 18.0 0.0 0.0 18.0 
424.0011144854517 6.943339805365073 161.12749905083865 18.0 0.0 0.0 18.0 
425.0010196270929 6.94125638077365 161.12749905083865 18.0 0.0 0.0 18.0 
426.0017386096097 6.6915596302734235 167.6765415508347 18.0 0.0 0.0 18.0 
427.0021939118144 6.730189137743733 167.6765415508347 18.0 0.0 0.0 18.0 
428.00390592939925 6.7509745852691365 167.6765415508347 18.0 0.0 0.0 19.0 
429.00109814420466 6.405627669811077 161.39275144466342 18.0 0.0 0.0 18.0 
430.0010196270929 6.774084764065958 175.12188554188782 18.0 0.0 0.0 18.0 
431.0014157884511 6.209272755426961 167.9792606306023 18.0 0.0 0.0 18.0 
432.00105583265577 6.208538009858487 167.9792606306023 18.0 0.0 0.0 18.0 
433.0000136172903 6.595990919730432 175.67089290942909 19.0 0.0 0.0 18.0 
434.0011144854517 6.474732209004692 175.67089290942909 19.0 0.0 0.0 18.0 
435.0002675683471 5.070756679935318 175.67089290942909 20.0 0.0 0.0 18.0 
436.00037697274166 4.525410563064289 168.44991071555637 20.0 0.0 0.0 18.0 
437.00264027470786 4.143756302884836 168.44991071555637 20.0 0.0 0.0 18.0 
438.00119447683375 3.8482217623478143 168.32583972837398 20.0 0.0 0.0 18.0 
439.0011144854517 4.322585688555906 168.44991071555637 21.0 0.0 0.0 18.0 
440.000243624407 3.022611720486692 161.93925067463255 20.0 0.0 0.0 18.0 
441.0017386096097 2.410974370508343 99.7594648422662 20.0 0.0 0.0 18.0 
442.0009792422903 2.5526473073407807 99.7594648422662 20.0 0.0 0.0 18.0 
443.00158418943715 2.4425140622289003 104.19833181563723 20.0 0.0 0.0 19.0 
444.0011144854517 2.576144504085667 104.19833181563723 21.0 0.0 0.0 19.0 
445.0010196270929 2.620320002326206 104.19833181563723 22.0 0.0 0.0 20.0 
446.0013977087152 2.4789668082818115 96.74091663814522 22.0 0.0 0.0 20.0 
447.0013187177024 2.29471305124311 104.21581314245526 22.0 0.0 0.0 21.0 
448.00220455802815 2.300878064408544 104.21581314245526 22.0 0.0 0.0 21.0 
449.0005079956048 2.2192844953227806 104.21581314245526 22.0 0.0 0.0 21.0 
450.0010196270929 2.252748921111337 104.21581314245526 22.0 0.0 0.0 21.0 
451.0013074557232 2.053895160921097 96.76068044935869 21.0 0.0 0.0 20.0 
452.00352709534974 2.0413778840059296 96.76068044935869 21.0 0.0 0.0 20.0 
453.00331939972074 2.088543051784552 104.173324019929 19.0 0.0 0.0 20.0 
454.00047482652593 2.0862857013058194 104.173324019929 19.0 0.0 0.0 19.0 
455.00094472900685 1.9789802243468833 104.173324019929 19.0 0.0 0.0 18.0 
456.00162143311985 1.6766763337956503 96.72068835177942 18.0 0.0 0.0 18.0 
457.0031623904456 1.7683619837030076 104.20309545511805 18.0 0.0 0.0 18.0 
458.00390592939925 1.672445438738913 104.20309545511805 18.0 0.0 0.0 18.0 
459.0011144854517 1.6747009727357247 104.20309545511805 18.0 0.0 0.0 19.0 
460.0010196270929 1.548655449498357 104.20309545511805 17.0 0.0 0.0 19.0 
461.0014622285198 1.5789119207019955 104.20309545511805 17.0 0.0 0.0 19.0 
462.00209276863313 1.40657638362187 96.8699587763341 17.0 0.0 0.0 19.0 
463.00280314567 1.3628051986074852 101.23410544950184 17.0 0.0 0.0 19.0 
464.00096343466754 0.9466124062762085 87.19427238646153 17.0 0.0 0.0 19.0 
465.0010196270929 0.6909882582023049 88.15816284183694 17.0 0.0 0.0 18.0 
466.0017386096097 0.8209102584193141 87.37571367092079 17.0 0.0 0.0 18.0 
467.00303867452686 0.6593156381463146 80.8538145492036 16.0 0.0 0.0 18.0 
468.0010485128366 0.7682830586936779 80.8538145492036 15.0 0.0 0.0 18.0 
469.0011144854517 0.47189506034905837 84.48746270621439 15.0 0.0 0.0 18.0 
470.0006414679722 0.3842373972607673 75.09309355214998 15.0 0.0 0.0 18.0 
471.0010436953019 0.4281350276816219 75.39059454277088 15.0 0.0 0.0 18.0 
472.00065521139976 0.4247852801968361 35.79457614643087 15.0 0.0 0.0 18.0 
473.00149970003866 0.46196058799551376 37.599218294248004 15.0 0.0 0.0 17.0 
474.0011144854517 0.4093101329696621 37.599218294248004 15.0 0.0 0.0 18.0 
475.0010196270929 0.450522472291523 37.599218294248004 16.0 0.0 0.0 19.0 
476.0017386096097 0.41291081627324516 37.599218294248004 16.0 0.0 0.0 19.0 
477.0004934419041 0.26897778433303077 39.04586287307791 16.0 0.0 0.0 18.0 
478.00173804644805 0.25994252226755993 30.88578183660755 16.0 0.0 0.0 18.0 
479.0011144854517 0.2791857407411624 30.88578183660755 16.0 0.0 0.0 18.0 
480.0010196270929 0.285572447591782 30.88578183660755 16.0 0.0 0.0 18.0 
481.00019530255963 0.2989509872148336 30.663874785486797 16.0 0.0 0.0 19.0 
482.0008196719267 0.2375906908570814 29.075858836840183 15.0 0.0 0.0 19.0 
483.00125492256575 0.26699738164510806 35.960407788559934 15.0 0.0 0.0 19.0 
484.0011144854517 0.19872097922232188 29.075858836840183 15.0 0.0 0.0 19.0 
485.0001749963263 0.21281883441813582 29.075858836840183 15.0 0.0 0.0 19.0 
486.0000593575617 0.16299386400583665 29.075858836840183 16.0 0.0 0.0 19.0 
487.00016492133 0.16467197531186517 29.007096886826957 16.0 0.0 0.0 19.0 
488.00381867124037 0.11428276408204624 29.007096886826957 16.0 0.0 0.0 19.0 
489.0011144854517 0.08417258574644315 29.007096886826957 16.0 0.0 0.0 19.0 
490.0010196270929 0.12884782483858317 29.007096886826957 16.0 0.0 0.0 19.0 
491.0017386096097 0.08417258574644315 29.007096886826957 16.0 0.0 0.0 19.0 
492.0028740219933 0.08428719719131628 29.104065909461468 16.0 0.0 0.0 19.0 
493.0004422056287 0.08428719719131628 29.104065909461468 16.0 0.0 0.0 19.0 
494.00106768422006 0.08428719719131628 29.104065909461468 16.0 0.0 0.0 19.0 
495.0007653282695 0.08428719719131628 29.104065909461468 16.0 0.0 0.0 19.0 
496.0017386096097 0.08428719719131628 29.104065909461468 15.0 0.0 0.0 17.0 
497.0019441499084 0.08485838151003064 36.505915400366604 16.0 0.0 0.0 17.0 
498.0002246633259 0.08768316141175585 29.119564068844937 15.0 0.0 0.0 17.0 
499.0011144854517 0.08768316141175585 29.119564068844937 14.0 0.0 0.0 18.0 
500.0001670543671 0.08768316141175585 29.119564068844937 15.0 0.0 0.0 18.0 
501.001229767816 0.09814053207037489 29.119564068844937 15.0 0.0 0.0 18.0 
502.0008701532085 0.11276625628938788 36.49247884109076 14.0 0.0 0.0 18.0 
503.003458350543 0.11264609171504578 29.078970067583413 14.0 0.0 0.0 18.0 
504.0011144854517 0.1540130260088147 29.078970067583413 14.0 0.0 0.0 18.0 
505.0010196270929 0.16421244326142848 29.078970067583413 14.0 0.0 0.0 18.0 
506.0004782338954 0.1572803147522078 29.078970067583413 15.0 0.0 0.0 19.0 
507.00085871732637 0.18692281594444674 36.52033845443819 15.0 0.0 0.0 18.0 
508.0010370114288 0.2021783448552354 31.063445242027598 15.0 0.0 0.0 18.0 
509.00021254152347 0.2195921589432121 31.063445242027598 15.0 0.0 0.0 18.0 
510.0010196270929 0.08717460449339456 14.756661350954658 15.0 0.0 0.0 18.0 
511.0017386096097 0.052160976677529995 16.378596412559773 17.0 0.0 0.0 18.0 
512.0035270953497 0.06631520107257641 13.802987180295077 18.0 0.0 0.0 18.0 
513.0039059293993 0.04296771088215469 13.802987180295077 18.0 0.0 0.0 18.0 
514.0002472856447 0.07096876852795767 20.814603917736974 19.0 0.0 0.0 18.0 
515.0008557526684 0.05300330450857016 20.814603917736974 18.0 0.0 0.0 18.0 
516.001707912637 0.08152004340991767 26.87390869485057 19.0 0.0 0.0 18.0 
517.0035270953497 0.0597398811372534 26.87390869485057 19.0 0.0 0.0 18.0 
518.0002496913066 0.12407648245877761 26.87390869485057 18.0 0.0 0.0 18.0 
519.0011144854517 0.16144704145126923 39.66712709822292 18.0 0.0 0.0 18.0 
520.0010196270929 0.19501086971587384 39.66712709822292 18.0 0.0 0.0 18.0 
521.0017386096097 0.23564390905341273 46.25855141458908 18.0 0.0 0.0 18.0 
522.0004295749211 0.22075902128985683 46.25855141458908 18.0 0.0 0.0 20.0 
523.0021001486804 0.23883250313571402 46.25855141458908 18.0 0.0 0.0 19.0 
524.0011144854517 0.3198341211755154 40.40271868996473 19.0 0.0 0.0 19.0 
525.0008396537045 0.32135617877145506 47.38879537924683 19.0 0.0 0.0 19.0 
526.0017386096097 0.39390712775333575 54.092431060192865 19.0 0.0 0.0 19.0 
527.0000463478654 0.6018755736533279 54.092431060192865 18.0 0.0 0.0 19.0 
528.0039059293993 0.5243646592132304 54.092431060192865 18.0 0.0 0.0 18.0 
529.0011144854517 0.6449942612922461 61.33109060217714 18.0 0.0 0.0 18.0 
530.0010196270929 0.6027929019767917 61.33109060217714 18.0 0.0 0.0 18.0 
531.0017386096097 0.7650566252763176 61.33109060217714 18.0 0.0 0.0 18.0 
532.0035270953497 0.8189481900205219 68.04927138093672 18.0 0.0 0.0 18.0 
533.0011728076921 0.8917721463155227 68.04927138093672 18.0 0.0 0.0 19.0 
534.0011144854517 0.8398286861858237 68.04927138093672 18.0 0.0 0.0 19.0 
535.0010196270929 0.7584891714401424 53.00060104907473 18.0 0.0 0.0 18.0 
536.0007183400597 0.858006718661154 51.94035317478753 18.0 0.0 0.0 18.0 
537.0008147380009 1.0122552273582357 60.96816534151202 18.0 0.0 0.0 17.0 
538.0027584478156 0.9112276707055255 45.41023519110735 18.0 0.0 0.0 17.0 
539.0011144854517 1.2549675163277643 66.18555970822337 18.0 0.0 0.0 16.0 
540.0010196270929 1.3002810632552055 66.18555970822337 18.0 0.0 0.0 16.0 
541.0010100669874 1.2696831830623216 71.90197113732961 18.0 0.0 0.0 16.0 
542.0007376597267 1.1906790519673502 71.90197113732961 18.0 0.0 0.0 16.0 
543.002463068698 1.2821349213247304 71.90197113732961 18.0 0.0 0.0 16.0 
544.0011144854517 1.3365839629417515 74.74719162347384 17.0 0.0 0.0 16.0 
545.0010196270929 1.1807255227383944 58.69612949866212 17.0 0.0 0.0 17.0 
546.0000015367508 1.36470309571721 65.95163031334272 17.0 0.0 0.0 16.0 
547.0015928108854 1.3559089969645628 65.95163031334272 17.0 0.0 0.0 16.0 
548.0039059293993 1.3576305325431746 65.95163031334272 20.0 0.0 0.0 16.0 
549.0011144854517 1.3709770499193152 70.14647496938073 21.0 0.0 0.0 16.0 
550.0005859830412 1.2115056988896897 73.05233748273594 24.0 0.0 0.0 16.0 
551.0005574418075 0.7486233738585245 70.14647496938073 21.0 0.0 0.0 16.0 
552.0029811565161 0.6106176468942579 58.713149344930116 21.0 0.0 0.0 16.0 
553.0007671691743 0.6252138644694704 58.713149344930116 21.0 0.0 0.0 16.0 
554.0011144854517 0.6319281280128383 58.713149344930116 21.0 0.0 0.0 16.0 
555.0000632279751 0.5217118570960619 57.64898285125798 20.0 0.0 0.0 17.0 
556.0001297268115 0.779673562449908 65.11563206201726 20.0 0.0 0.0 17.0 
557.0002541955524 0.5373528837607483 66.82253334770166 20.0 0.0 0.0 17.0 
558.0001203873046 0.7838217828232186 66.82253334770166 19.0 0.0 0.0 17.0 
559.0000866916494 0.7826775968409376 66.82253334770166 19.0 0.0 0.0 17.0 
560.0010196270929 0.779934522441027 66.82253334770166 18.0 0.0 0.0 17.0 
561.0006678875081 1.0906552347851899 79.61116877318807 18.0 0.0 0.0 17.0 
562.0033166772968 1.0932436105104315 80.65833652728685 18.0 0.0 0.0 17.0 
563.001468525772 1.2621960716893625 80.65833652728685 18.0 0.005521726678569691 2.760863339284839 17.0 
564.0010492369346 1.1295872482758635 77.41207933534298 18.0 0.013298729346055506 3.8885013337429086 17.0 
565.0010196270929 1.4761563634576382 95.05163462592617 18.0 0.013298729346055506 3.8885013337429086 17.0 
566.0005726474806 1.6016745432786785 102.45471028349999 18.0 0.007777002667485867 3.8885013337429086 17.0 
567.0006020703581 1.9243244249644282 124.62007546730035 18.0 0.01482313305944131 3.8885013337429086 17.0 
568.0039059293993 2.104263692962467 124.62007546730035 18.0 0.006086962847627545 3.0434814238137733 17.0 
569.0011144854517 2.2664440947674134 124.62007546730035 18.0 0.03671605195921523 15.314544555793788 16.0 
570.0006585096233 2.330945984444876 124.62007546730035 18.0 0.00449299034372267 2.246495171861312 16.0 
571.00105068091 2.5659535621644887 132.10667634610962 18.0 0.00449299034372267 2.246495171861312 16.0 
572.0005983980067 2.5769179552636823 124.72061611892849 18.0 0.009614403239198427 2.246495171861312 16.0 
573.0009665206169 2.5894469620822242 124.72061611892849 18.0 0.013306263261937583 5.0405946796224725 16.0 
574.0011144854517 2.7790259535638904 124.72061611892849 18.0 0.028010642375025593 8.964726507890305 16.0 
575.0004710822022 2.7853116328521277 124.72061611892849 18.0 0.024066948080496517 8.964726507890305 16.0 
576.0015432652973 3.0496372464065447 127.5657586577812 17.0 0.027292021983189172 8.964726507890305 16.0 
577.0035270953497 3.064256778144102 127.5657586577812 17.0 0.009779464505018974 4.889732252509475 16.0 
578.0000602460362 3.0873935669688852 127.5657586577812 17.0 0.0147748568225731 4.889732252509475 15.0 
579.0011144854517 3.1213117579561778 134.94719394479995 17.0 0.0147748568225731 4.889732252509475 16.0 
580.0001748577565 3.1303231041425392 134.94719394479995 18.0 0.0147748568225731 4.889732252509475 18.0 
581.0001116523706 3.313863500205443 142.40458336587744 18.0 0.0 0.0 17.0 
582.0013106591882 3.63257898159121 142.40458336587744 18.0 0.0 0.0 17.0 
583.0022466331948 3.5717331800382572 149.7914941769514 18.0 0.0 0.0 17.0 
584.0010279314031 3.71043297520441 149.7914941769514 18.0 0.0 0.0 17.0 
585.0010196270929 3.7396050182201184 149.7914941769514 18.0 0.0 0.0 17.0 
586.000322689996 3.724022125642176 132.3778954381225 18.0 0.0 0.0 17.0 
587.0029916071725 4.01190854694513 157.28118361289648 18.0 0.0 0.0 17.0 
588.0010001365314 3.5566215358768987 127.76223346783053 18.0 0.0 0.0 17.0 
589.0011144854517 3.5162051330661668 127.76223346783053 18.0 0.0 0.0 18.0 
590.0003135334435 3.9538788339554074 127.76223346783053 18.0 0.0 0.0 18.0 
591.0012644276654 3.956944486664196 135.22221994327577 18.0 0.0 0.0 18.0 
592.0030848977972 4.126856801713172 135.22221994327577 18.0 0.0 0.0 18.0 
593.0013672007861 4.164441398668448 136.61295256547385 17.0 0.0 0.0 19.0 
594.000851957823 4.327799143092644 136.61295256547385 17.0 0.0 0.0 18.0 
595.0010196270929 4.74348954528561 136.61295256547385 17.0 0.0 0.0 18.0 
596.0017386096097 5.170862247625962 161.1785651843589 17.0 0.0 0.0 18.0 
597.0010343946358 5.211660476626798 161.1785651843589 17.0 0.0 0.0 18.0 
598.0002880562606 5.2425443356615204 161.1785651843589 18.0 0.0 0.0 18.0 
599.0004770001284 5.311128656296503 161.1785651843589 18.0 0.0 0.0 18.0 
600.0000567499285 5.615187969213048 161.1785651843589 18.0 0.0 0.0 18.0 
#####################################################################
# End of data export. Simulation finished at: 2019-02-25T20:17+0000 #
#####################################################################
