#####################################################################
# Alchemist log file - simulation started at: 2019-02-25T20:24+0000 #
#####################################################################
# seed = 115.0
#
# The columns have the following meaning: 
# time distance-rep[Mean] distance-rep[Max] leader-rep[CountDistinct] distance-share[Mean] distance-share[Max] leader-share[CountDistinct] 
0.0 NaN NaN NaN NaN NaN NaN 
1.0046439183490081 0.0 0.0 498.0 0.0 0.0 85.0 
2.0016727871120406 0.0 0.0 114.0 0.0 0.0 74.0 
3.0038475386119847 0.0 0.0 110.0 0.0 0.0 62.0 
4.000715799973946 0.0 0.0 105.0 0.0 0.0 57.0 
5.004174672453547 0.0 0.0 93.0 0.0 0.0 55.0 
6.0048654555901875 0.0 0.0 92.0 0.0 0.0 46.0 
7.000139140930621 0.0 0.0 89.0 0.0 0.0 44.0 
8.00125593335269 0.0 0.0 85.0 0.0 0.0 42.0 
9.000130887058015 0.0 0.0 81.0 0.0 0.0 39.0 
10.000102879503908 0.0 0.0 79.0 0.0 0.0 35.0 
11.002510686020024 0.0 0.0 73.0 0.0 0.0 34.0 
12.004597195848536 0.0 0.0 68.0 0.0035070901657036444 1.753545082851815 34.0 
13.005196404191423 0.0 0.0 67.0 0.0 0.0 34.0 
14.000715799973946 0.0 0.0 65.0 0.0 0.0 25.0 
15.000154385899776 0.0 0.0 65.0 0.0 0.0 26.0 
16.00636940295869 0.0 0.0 61.0 0.0 0.0 24.0 
17.001507717866872 0.0 0.0 59.0 0.0 0.0 25.0 
18.0019785413124 0.0 0.0 59.0 0.0 0.0 24.0 
19.000715799973946 0.0 0.0 56.0 0.03787047679834012 14.41864542905455 23.0 
20.000022695330017 0.0 0.0 50.0 0.03787047679834012 14.41864542905455 23.0 
21.00050876328422 0.0 0.0 49.0 0.03787047679834012 14.41864542905455 19.0 
22.009289745140592 0.0 0.0 47.0 0.0 0.0 20.0 
23.002063122311522 0.0 0.0 45.0 0.0 0.0 18.0 
24.000715799973946 0.0 0.0 43.0 0.0 0.0 23.0 
25.00024285783583 0.0 0.0 42.0 0.01146234234177948 5.731171170889752 22.0 
26.00308327828807 0.0 0.0 41.0 0.01146234234177948 5.731171170889752 22.0 
27.003994862977823 0.0 0.0 41.0 0.01146234234177948 5.731171170889752 21.0 
28.000370779845152 0.0 0.0 41.0 0.0 0.0 20.0 
29.000715799973946 0.0 0.0 40.0 0.0 0.0 20.0 
30.00190504046284 0.0 0.0 41.0 0.0 0.0 20.0 
31.00333295228945 0.0 0.0 38.0 0.0 0.0 18.0 
32.00179431034144 0.0 0.0 39.0 0.0 0.0 20.0 
33.00000893525523 0.0 0.0 38.0 0.0 0.0 19.0 
34.00045182938031 0.0 0.0 39.0 0.006810145711014646 3.4050728555073135 19.0 
35.00077999898753 0.0 0.0 38.0 0.006810145711014646 3.4050728555073135 18.0 
36.0010880917015 0.0 0.0 36.0 0.006810145711014646 3.4050728555073135 19.0 
37.00170727082325 0.0 0.0 36.0 0.006810145711014646 3.4050728555073135 19.0 
38.0011035573265 0.0 0.0 36.0 0.0 0.0 21.0 
39.000411295192 0.0 0.0 36.0 0.0 0.0 19.0 
40.00146063515886 0.0 0.0 34.0 0.0 0.0 19.0 
41.00031042181859 0.0 0.0 34.0 0.0 0.0 20.0 
42.00033165502061 0.0 0.0 31.0 0.0 0.0 19.0 
43.0036616283937 0.0 0.0 29.0 0.0 0.0 19.0 
44.000715799973946 0.05205986396331027 23.599583422124823 29.0 0.0 0.0 19.0 
45.00099520781923 0.0048606971190606986 2.393985100132028 29.0 0.0 0.0 19.0 
46.00037672436807 0.0048606971190606986 2.393985100132028 29.0 0.0 0.0 19.0 
47.009347418691846 0.03803895016991737 16.58912652542847 28.0 0.0 0.0 19.0 
48.0071525093432 0.011064842813511808 5.496057947357599 29.0 0.0 0.0 20.0 
49.000715799973946 0.0 0.0 31.0 0.0 0.0 20.0 
50.00546083636919 0.0 0.0 29.0 0.0 0.0 20.0 
51.00001816629335 0.0 0.0 29.0 0.0 0.0 20.0 
52.00153748852368 0.0 0.0 29.0 0.0 0.0 20.0 
53.00212279672641 0.0 0.0 29.0 0.0 0.0 20.0 
54.000715799973946 0.0 0.0 29.0 0.0 0.0 19.0 
55.00000455787428 0.0 0.0 29.0 0.0 0.0 19.0 
56.000567469423935 0.010371313716019785 5.1856568580099065 30.0 0.014333798235728919 7.166899117864432 19.0 
57.001657581680696 0.015616783297745539 7.8083916488727425 30.0 0.0 0.0 18.0 
58.0015148249441 0.001842477867879261 0.9212389339396339 28.0 0.0 0.0 17.0 
59.00069572139048 0.001842477867879261 0.9212389339396339 28.0 0.0 0.0 17.0 
60.00210783644439 0.0742628227765327 19.70150756344364 28.0 0.0 0.0 17.0 
61.00192195425337 0.007794425988388839 3.8972129941944047 30.0 0.0 0.0 17.0 
62.002672043879215 0.0 0.0 30.0 0.0 0.0 17.0 
63.00045197990692 0.0 0.0 29.0 0.0 0.0 17.0 
64.00071579997395 0.0 0.0 30.0 0.0 0.0 17.0 
65.0010938653264 0.0 0.0 29.0 0.0 0.0 17.0 
66.00222770365562 0.0 0.0 29.0 0.0 0.0 17.0 
67.00087182504421 0.0 0.0 31.0 0.0 0.0 17.0 
68.00030374973477 0.0 0.0 31.0 0.0 0.0 17.0 
69.00065959410372 0.005285532107336249 2.6427660536681117 31.0 0.0 0.0 17.0 
70.00255865896644 0.005285532107336249 2.6427660536681117 31.0 0.0 0.0 17.0 
71.00018227124397 0.008157279118590094 2.6427660536681117 30.0 0.0 0.0 17.0 
72.00250392355531 0.005285532107336249 2.6427660536681117 29.0 0.0 0.0 17.0 
73.0010047638611 0.045757602511300344 12.821630110750476 29.0 0.0 0.0 18.0 
74.00071579997395 0.005298320142436864 2.649160071218432 29.0 0.0 0.0 18.0 
75.00001475045124 0.05792126579529317 15.945429047667517 27.0 0.0 0.0 18.0 
76.00069562592799 0.1125156744170169 15.945429047667517 26.0 0.0 0.0 18.0 
77.00048929289686 0.1502261896974724 23.41055170999917 24.0 0.0 0.0 18.0 
78.00009707269834 0.14354524753645273 21.940713743288 28.0 0.0 0.0 18.0 
79.00047526844949 0.14395632382637896 21.940713743288 27.0 0.0 0.0 18.0 
80.0033280720777 0.15849864350331805 21.940713743288 26.0 0.0015197184636926968 0.7598592318463488 18.0 
81.00146422827709 0.12498614508597451 15.960903210266508 25.0 0.0015197184636926968 0.7598592318463488 18.0 
82.0004044519824 0.14146491473564807 15.960903210266508 25.0 0.0015197184636926968 0.7598592318463488 18.0 
83.00242562742437 0.09301069149431858 15.818043917854197 25.0 0.0015197184636926968 0.7598592318463488 20.0 
84.00071579997395 0.13795167630175287 15.818043917854197 23.0 0.0 0.0 19.0 
85.00098682022457 0.16743178247712326 15.818043917854197 22.0 0.0 0.0 20.0 
86.00274463359037 0.15260231983686603 11.628493202781812 22.0 0.0 0.0 20.0 
87.00012714449196 0.1769669614492772 41.04017944822178 22.0 0.0 0.0 20.0 
88.00212787582522 0.13245633660901826 41.04017944822178 22.0 0.0 0.0 20.0 
89.00071579997395 0.11728071681743903 41.04017944822178 22.0 0.0 0.0 20.0 
90.00144418987506 0.08824646826968584 33.6226626312108 23.0 0.0 0.0 20.0 
91.00453244454967 0.07341157506777277 33.6226626312108 22.0 0.0 0.0 20.0 
92.00668407853182 0.07085430776403048 32.9677098300765 22.0 0.0 0.0 20.0 
93.00082547640207 0.06943031519208066 32.9677098300765 22.0 0.0 0.0 20.0 
94.0004555017153 0.06593541966015275 32.9677098300765 22.0 0.0 0.0 20.0 
95.00113266722575 0.05111160053886255 25.555800269431415 22.0 0.0 0.0 20.0 
96.00293367904504 0.05111160053886255 25.555800269431415 22.0 0.0 0.0 20.0 
97.00135670612525 0.05004973939681003 24.86487426156802 21.0 0.0 0.0 20.0 
98.00233137865706 0.04972974852313603 24.86487426156802 22.0 0.0 0.0 19.0 
99.0003427567365 0.04972974852313603 24.86487426156802 21.0 0.0 0.0 19.0 
100.00298288796138 0.04972974852313603 24.86487426156802 20.0 0.0 0.0 20.0 
101.00508745769532 0.04210890740046879 17.46767515954778 20.0 0.0 0.0 21.0 
102.00064199076294 0.07544552917183281 17.46767515954778 20.0 0.0 0.0 21.0 
103.00056605971207 0.1442326958079709 30.23738579352863 20.0 0.0 0.0 21.0 
104.00071579997395 0.1741269105937077 39.086986915224685 20.0 0.0 0.0 20.0 
105.00045022147782 0.218453391069038 39.086986915224685 20.0 0.0 0.0 20.0 
106.00117724598533 0.1255366914413247 25.95016006387263 21.0 0.0 0.0 20.0 
107.00144198593694 0.07363637131357932 14.929944667359365 22.0 0.0 0.0 20.0 
108.00190967610108 0.0188261745397596 9.413087269879753 23.0 0.0 0.0 20.0 
109.00071579997395 0.0 0.0 21.0 0.0 0.0 20.0 
110.00013550942793 0.0188261745397596 9.413087269879753 21.0 0.0 0.0 20.0 
111.00636940295868 0.004162462236740496 2.0812311183702548 21.0 0.0 0.0 20.0 
112.00203679435272 0.004162462236740496 2.0812311183702548 20.0 0.0 0.0 20.0 
113.00383978076086 0.005932776165394982 2.966388082697506 20.0 0.0 0.0 20.0 
114.00071579997395 0.005932776165394982 2.966388082697506 20.0 0.0 0.0 20.0 
115.00079558510673 0.0 0.0 19.0 0.0 0.0 20.0 
116.00120779536034 0.0 0.0 19.0 0.0 0.0 20.0 
117.0043989031643 0.016242855651159935 5.689240927195414 19.0 0.0 0.0 20.0 
118.00093404777662 0.05813448645550636 20.94581540217314 19.0 0.0 0.0 20.0 
119.00019355530351 0.03024739400251811 12.69151010287456 19.0 0.0 0.0 20.0 
120.00017079857123 0.06320350980247068 18.910244798360736 19.0 0.0 0.0 20.0 
121.00173036074442 0.06320350980247068 18.910244798360736 20.0 0.0 0.0 21.0 
122.00118249390654 0.17862943798275735 25.80098025963798 20.0 0.0 0.0 20.0 
123.00125275800895 0.200427157626238 25.80098025963798 20.0 0.0 0.0 20.0 
124.00061621316759 0.19375639404340006 25.86967480413807 20.0 0.0 0.0 19.0 
125.00166312282722 0.2404805897125908 31.564526560905193 19.0 0.0 0.0 18.0 
126.00491457740388 0.3088484602624405 35.87323661768548 20.0 0.0 0.0 18.0 
127.00934741869185 0.29190977241570226 26.36845238971506 19.0 0.0 0.0 18.0 
128.00088442214795 0.36828305062108474 32.78774413406873 20.0 0.0 0.0 18.0 
129.00071579997393 0.45345830569222756 36.04592859652996 19.0 0.0 0.0 17.0 
130.00085605263214 0.43518081137540465 36.04592859652996 20.0 0.0 0.0 18.0 
131.0050136965922 0.4787397007647715 36.04592859652996 20.0 0.0 0.0 18.0 
132.0023993164206 0.529208603833855 42.986226631958004 20.0 0.0 0.0 18.0 
133.00104562133484 0.6988054907693493 42.29538444376709 20.0 0.0 0.0 18.0 
134.00001138734817 0.6574575500558328 42.29538444376709 20.0 0.0 0.0 18.0 
135.0069406776143 0.5541617564018877 36.25680417535622 20.0 0.0 0.0 18.0 
136.00133295511858 0.549578276421875 36.25680417535622 20.0 0.0 0.0 18.0 
137.0025239262077 0.7887893486591975 59.69751649558418 20.0 0.0 0.0 18.0 
138.0014602923378 1.028224559789822 59.69751649558418 20.0 0.0 0.0 18.0 
139.00009279506062 0.9991960762166272 59.69751649558418 20.0 0.0 0.0 18.0 
140.00197181903525 0.7927670287484577 59.69751649558418 20.0 0.0 0.0 18.0 
141.00040166912112 0.5741472339252188 59.69751649558418 20.0 0.0 0.0 18.0 
142.000406521721 0.6493382313688589 46.54900250709068 20.0 0.0 0.0 18.0 
143.0012070434528 0.9879165180241907 60.0145246485514 20.0 0.0 0.0 18.0 
144.00071579997393 0.8141221982981086 60.0145246485514 20.0 0.0 0.0 18.0 
145.00240968049005 0.4821056511096941 56.11940324956379 20.0 0.0 0.0 18.0 
146.0005138658311 0.6534059972102179 60.73824347937136 20.0 0.0 0.0 18.0 
147.00060058161216 0.8789868448125117 60.73824347937136 20.0 0.0 0.0 18.0 
148.0005752683895 0.6892406522006962 67.6049371896861 20.0 0.0 0.0 18.0 
149.00071579997393 0.8181874515461385 67.6049371896861 20.0 0.0 0.0 17.0 
150.00010038525585 0.6278364036346271 67.6049371896861 20.0 0.0 0.0 16.0 
151.00191653506982 0.21783092775180282 60.355841194633 20.0 0.0 0.0 16.0 
152.00141367496147 0.01997339052326804 4.708085906063502 22.0 0.0 0.0 16.0 
153.0015466888255 0.07335292818630956 8.254794831616664 21.0 0.0 0.0 16.0 
154.00071579997393 0.030084177899176497 6.412115855791086 20.0 0.0 0.0 17.0 
155.00209152324481 0.044374057406162654 6.412115855791086 20.0 0.0 0.0 17.0 
156.0023175875255 0.10328714907721348 13.031712140831928 20.0 0.0 0.0 17.0 
157.00512050632628 0.129741484639245 12.757256338675603 20.0 0.0 0.0 16.0 
158.00177102285448 0.1299946539433486 17.639578335280248 20.0 0.0 0.0 18.0 
159.00071579997393 0.20731313735088547 17.788353569757902 20.0 0.0 0.0 17.0 
160.00397968066227 0.21642301035817946 18.583033356362364 20.0 0.0 0.0 17.0 
161.00636940295868 0.17856489582075696 16.26150075156491 20.0 0.0 0.0 17.0 
162.000871578972 0.2511157664614969 24.834973052119096 21.0 0.0 0.0 17.0 
163.0008219712588 0.23727724584691506 24.834973052119096 21.0 0.0 0.0 16.0 
164.00071579997393 0.23490398315689165 21.704188922662894 20.0 0.0 0.0 16.0 
165.00031382411672 0.2893046016330227 24.834973052119096 18.0 0.0 0.0 17.0 
166.0034525042502 0.3104547651298537 24.834973052119096 19.0 0.0 0.0 16.0 
167.00031649329708 0.22158738495431252 20.817661500111768 18.0 0.0 0.0 16.0 
168.00009542453125 0.23933114743481984 27.047736937733134 19.0 0.0 0.0 16.0 
169.00071579997393 0.26007713596522825 27.047736937733134 19.0 0.0 0.0 16.0 
170.0003147336273 0.2181377407803786 27.047736937733134 18.0 0.0 0.0 16.0 
171.00290217905587 0.19953759897307058 22.229725772550466 17.0 0.0 0.0 16.0 
172.00013059985926 0.24670990891034816 26.95830449700128 17.0 0.0 0.0 16.0 
173.0029501133143 0.1675470217511184 22.03513292426652 17.0 0.0 0.0 16.0 
174.00071579997393 0.11524178946513354 19.716746402898536 17.0 0.0 0.0 16.0 
175.00075348013212 0.12110566983183925 19.716746402898536 17.0 0.0 0.0 16.0 
176.00291681884724 0.12993740002626306 28.195379339733535 17.0 0.0 0.0 16.0 
177.00519502663528 0.12403184541801857 28.521610889009423 17.0 0.0 0.0 16.0 
178.0057665408076 0.227560146276757 28.521610889009423 17.0 0.0 0.0 16.0 
179.00005186430164 0.06587982841456021 19.20232000854989 17.0 0.0 0.0 16.0 
180.00192523237232 0.03635458852436047 9.360221347660001 17.0 0.0 0.0 17.0 
181.00263645188343 0.06342831002846298 9.360221347660001 17.0 0.0 0.0 17.0 
182.00170751970373 0.09768665862055553 21.938882674684805 18.0 0.0 0.0 17.0 
183.00121002448313 0.09122256175663043 15.230469979738189 19.0 0.0 0.0 18.0 
184.00071579997393 0.09122256175663043 15.230469979738189 18.0 0.0 0.0 17.0 
185.00271648930712 0.09122256175663043 15.230469979738189 18.0 0.0 0.0 17.0 
186.00082523350875 0.14302811174719848 15.230469979738189 18.0 0.0 0.0 17.0 
187.0023663178828 0.15502327367872287 15.69798689032072 18.0 0.0 0.0 17.0 
188.00162485139484 0.20963683587386447 34.034207970780955 19.0 0.0 0.0 17.0 
189.00071579997393 0.12508575662967894 13.125992933698143 19.0 0.0 0.0 17.0 
190.00136405883043 0.12503546461973503 13.125992933698143 19.0 0.0 0.0 17.0 
191.00226330570447 0.15063945234848586 19.147246695360053 19.0 0.0 0.0 17.0 
192.00079063919722 0.2449141675723893 27.695366223793457 19.0 0.0 0.0 17.0 
193.0007318967259 0.2210738218276139 20.500736135565404 19.0 0.0 0.0 17.0 
194.00071579997393 0.20179238018074527 20.500736135565404 18.0 0.0 0.0 17.0 
195.00100012829202 0.23811685339957944 20.500736135565404 18.0 0.0 0.0 17.0 
196.00502620928748 0.2430227126052649 27.359154228815584 19.0 0.0 0.0 19.0 
197.0028146802372 0.4328126031282233 28.69090430875511 20.0 0.0 0.0 18.0 
198.00058018454897 0.37949532675097064 28.69090430875511 20.0 0.0 0.0 18.0 
199.00071579997393 0.42138613630146293 28.69090430875511 20.0 0.0 0.0 18.0 
200.00019089652153 0.3096366099855997 28.69090430875511 19.0 0.0 0.0 18.0 
201.0033139855589 0.17117771828594297 23.806633092401455 19.0 0.0 0.0 18.0 
202.00139413867265 0.18256117100558558 16.7446100703647 19.0 0.0 0.0 18.0 
203.00194660034623 0.1918929274116796 20.283349096167512 19.0 0.0 0.0 18.0 
204.00071579997393 0.2022260792318386 16.7446100703647 19.0 0.0 0.0 19.0 
205.0004234661058 0.14310996849695345 18.911279252936822 19.0 0.0 0.0 19.0 
206.00145880778445 0.1470860891804096 16.7446100703647 19.0 0.0 0.0 19.0 
207.00437315525465 0.19657575721064385 13.10667169735757 19.0 0.0 0.0 19.0 
208.0009530949928 0.1752619074745169 13.803466776320107 19.0 0.0 0.0 19.0 
209.00000514433034 0.24629626532596202 13.803466776320107 19.0 0.0 0.0 19.0 
210.00016803565072 0.18713149561678963 13.803466776320107 19.0 0.0 0.0 19.0 
211.00226986819732 0.22800733221424863 14.260966903699284 19.0 0.0 0.0 18.0 
212.00040381120616 0.3429011238273625 29.64430925378602 19.0 0.0 0.0 18.0 
213.0039275050484 0.4402590065349284 35.04162523447175 19.0 0.0 0.0 19.0 
214.00071579997393 0.4720367288391829 35.04162523447175 19.0 0.0 0.0 21.0 
215.00256708410424 0.48479389790897265 36.499705721976596 19.0 0.0 0.0 23.0 
216.0023001143568 0.4777453603340137 30.958391361065765 19.0 0.0 0.0 23.0 
217.00144007895858 0.7345048849142578 58.87732830162793 19.0 0.0 0.0 22.0 
218.00133276813625 0.7564665969937457 43.51953249919055 19.0 0.0 0.0 21.0 
219.00071579997393 0.8403299876684881 66.3018010949014 19.0 0.0 0.0 21.0 
220.00295095410502 1.0645785294959156 66.3018010949014 19.0 0.0 0.0 21.0 
221.00005016655373 0.9520169457087974 63.0487869522442 20.0 0.0 0.0 21.0 
222.00307049084202 0.9670189737648431 67.32358246624369 20.0 0.0 0.0 21.0 
223.00230606149387 1.0608507318993006 67.32358246624369 20.0 0.0 0.0 21.0 
224.00060682627236 1.0281658420971371 74.39709964609284 20.0 0.0 0.0 21.0 
225.0071042241501 1.1360705817388317 74.39709964609284 20.0 0.0 0.0 21.0 
226.00025349994274 1.1869747340069 75.17560715052872 21.0 0.0 0.0 21.0 
227.00416007697856 1.1341005416964474 82.6672145616522 22.0 0.0 0.0 21.0 
228.00095922190164 1.1547758618254875 82.6672145616522 21.0 0.0 0.0 21.0 
229.00071579997393 0.6648422808328228 72.34237461331458 21.0 0.0 0.0 21.0 
230.00208674894128 0.8629435298298388 76.97506083292302 21.0 0.0 0.0 21.0 
231.00137585298063 0.7943396493907401 83.22009134743877 22.0 0.0 0.0 21.0 
232.0008315628883 0.5242323675704395 34.68126430184347 21.0 0.0 0.0 21.0 
233.00168123485582 0.7140169669245228 43.837951380095035 21.0 0.0 0.0 21.0 
234.00071579997393 0.5477776215853783 43.837951380095035 21.0 0.0 0.0 21.0 
235.00118578855484 0.5200698609042793 40.204557974907374 21.0 0.0 0.0 21.0 
236.00004483660328 0.544407918930708 33.55796973969868 21.0 0.0 0.0 20.0 
237.00145787819102 0.63377413237799 44.35101031636688 21.0 0.0 0.0 21.0 
238.00251540614235 0.7170684512259509 44.35101031636688 21.0 0.0 0.0 21.0 
239.00071579997393 0.5918237892801357 44.35101031636688 21.0 0.0 0.0 20.0 
240.0005157998392 0.527661972865677 44.35101031636688 21.0 0.0 0.0 20.0 
241.0002867105177 0.5141647790878755 35.722946371245655 21.0 0.0 0.0 19.0 
242.00220440941163 0.6630785508730355 45.68123417420691 21.0 0.0 0.0 19.0 
243.0018269982566 0.6795172199441757 45.68123417420691 21.0 0.0 0.0 19.0 
244.00054386775284 0.6130346107736074 39.910949829133955 21.0 0.0 0.0 19.0 
245.00180659649615 0.6253152000102485 39.910949829133955 21.0 0.0 0.0 19.0 
246.0013551534258 0.703438334279011 40.66488223136406 22.0 0.0 0.0 20.0 
247.00098417193848 0.9921184481484442 44.37860433665173 22.0 0.0 0.0 19.0 
248.0042485885425 0.8854395473190821 43.3750664315219 21.0 0.0 0.0 20.0 
249.0003748943418 0.8882147017329501 43.3750664315219 21.0 0.0 0.0 20.0 
250.00199466692035 0.8136029934154481 43.3750664315219 22.0 0.0 0.0 20.0 
251.00059849115655 0.9392582705087662 43.3750664315219 22.0 0.0 0.0 20.0 
252.00204041470892 1.0261939491175238 43.3750664315219 20.0 0.0 0.0 20.0 
253.00069930715387 1.0254737468193207 48.36635825977831 21.0 0.0 0.0 20.0 
254.00071579997393 0.9249841521923977 48.70336742914091 20.0 0.0 0.0 20.0 
255.00256868647563 0.8370033001111445 48.70336742914091 20.0 0.0 0.0 20.0 
256.0002192267073 0.9098616793605718 52.24433006673121 20.0 0.0 0.0 20.0 
257.00359123586543 1.0754834735066405 55.80548644574833 20.0 0.0 0.0 20.0 
258.0000347016106 1.028032821313202 55.80548644574833 20.0 0.0 0.0 18.0 
259.00071579997393 1.0512320066283052 63.01646755695418 20.0 0.0 0.0 18.0 
260.00084425603774 0.9005630123632687 52.24433006673121 21.0 0.0 0.0 18.0 
261.0000451242272 0.9783138950687755 60.626118409046285 21.0 0.0 0.0 18.0 
262.0005866761599 0.9570135162722159 60.626118409046285 21.0 0.0 0.0 18.0 
263.0013679034877 0.7259339781568009 57.20806275559721 21.0 0.0 0.0 18.0 
264.0001129734371 0.8428822136678893 62.39683370127864 23.0 0.0 0.0 18.0 
265.0027794584651 0.8482001659531679 60.626118409046285 23.0 0.0 0.0 18.0 
266.00121505522617 0.7897105406627137 67.29995971074663 23.0 0.0 0.0 18.0 
267.00042245755793 0.7545755680554066 53.27847352323897 23.0 0.0 0.0 18.0 
268.0040053177546 0.7513630520795154 56.49570899497314 23.0 0.0 0.0 18.0 
269.00071579997393 0.4140758385670824 56.49570899497314 23.0 0.0 0.0 18.0 
270.0018364662259 0.3945380799866213 56.49570899497314 23.0 0.0 0.0 18.0 
271.0000757704081 0.4479889275907735 60.527314455181966 23.0 0.0 0.0 18.0 
272.0013461582969 0.27109584399427655 56.48042718361057 21.0 0.0 0.0 18.0 
273.0055287344089 0.1369121243615623 26.84508515044564 22.0 0.0 0.0 19.0 
274.0000056478454 0.08322195406067107 19.67768067314273 20.0 0.0 0.0 20.0 
275.00120135496326 0.08322195406067107 19.67768067314273 21.0 0.0 0.0 20.0 
276.0003396263418 0.058285026843043805 14.699785999874479 21.0 0.0 0.0 19.0 
277.0014046839226 0.08730275546275153 22.216972341911116 20.0 0.0 0.0 19.0 
278.00213643423365 0.157525617392991 29.5941042747898 21.0 0.0 0.0 19.0 
279.00071579997393 0.157525617392991 29.5941042747898 20.0 0.0 0.0 19.0 
280.00393409232333 0.157525617392991 29.5941042747898 18.0 0.0 0.0 21.0 
281.003831652335 0.11739663922686035 29.5941042747898 18.0 0.0 0.0 20.0 
282.0029491738687 0.17544992846365143 37.02258528598077 18.0 0.0 0.0 20.0 
283.0020849371475 0.11314774314071234 21.67549606806844 20.0 0.0 0.0 22.0 
284.00071579997393 0.23419510928214365 44.4138644375559 21.0 0.0 0.0 22.0 
285.00222643386735 0.1908441171460066 44.4138644375559 19.0 0.0 0.0 22.0 
286.0063616221578 0.06577413601615832 20.517559324969653 19.0 0.0 0.0 22.0 
287.00036410931096 0.045620139119285044 12.369508683109473 19.0 0.0 0.0 22.0 
288.0007537047711 0.05645997780849891 17.789428027716355 19.0 0.00914707921990007 4.573539609950018 21.0 
289.00071579997393 0.11464324819023218 18.575015785443753 19.0 0.00914707921990007 4.573539609950018 21.0 
290.00162379866475 0.1957069589456536 52.55860034332267 19.0 0.00914707921990007 4.573539609950018 22.0 
291.0006451033562 0.09110140763060258 17.789428027716355 18.0 0.0 0.0 21.0 
292.0001261618758 0.26084164987621034 59.91816367915487 18.0 0.00914707921990007 4.573539609950018 21.0 
293.00443523616667 0.3037358198798851 59.91816367915487 18.0 0.0 0.0 21.0 
294.00071579997393 0.3309815657131912 59.91816367915487 17.0 0.0 0.0 21.0 
295.0011948443339 0.3312500005495914 52.51207254774215 17.0 0.0 0.0 21.0 
296.0006636368135 0.5211067790298628 59.824020711601975 17.0 0.0 0.0 21.0 
297.00078245527703 0.6717095404956384 59.824020711601975 17.0 0.0 0.0 21.0 
298.00365452836024 0.7485806977786825 59.824020711601975 17.0 0.0 0.0 21.0 
299.00071579997393 0.9263041809670682 60.33635199574093 17.0 0.0 0.0 21.0 
300.00200603783696 0.9509365885077545 60.33635199574093 17.0 0.0 0.0 21.0 
301.0005832325924 1.066915845864 60.33635199574093 17.0 0.0 0.0 21.0 
302.0005268445783 1.184171528894226 67.6732647104223 18.0 0.0 0.0 22.0 
303.00017409006983 1.0099389576293047 60.15417401142764 18.0 0.0 0.0 22.0 
304.00071579997393 1.0240856759428478 60.15417401142764 18.0 0.0 0.0 22.0 
305.00453657658176 1.1095744928501456 89.2054073538539 18.0 0.0 0.0 22.0 
306.0007705206946 1.4026580883848343 96.54205702349373 18.0 0.0 0.0 21.0 
307.000154749969 1.4941244038604224 96.54205702349373 18.0 0.0 0.0 20.0 
308.002167107109 1.4736616578818311 89.2091728863943 18.0 0.0 0.0 20.0 
309.0005377326328 1.465751958079149 89.2091728863943 18.0 0.0 0.0 20.0 
310.0006087379385 1.5495290062814637 89.2091728863943 18.0 0.0 0.0 20.0 
311.0021453795663 1.7444965262369472 89.2091728863943 18.0 0.0 0.0 20.0 
312.0002586874096 1.875146582219907 96.67706691060005 19.0 0.0 0.0 20.0 
313.0071525093432 2.165280482860072 105.88710139482805 18.0 0.0 0.0 20.0 
314.00024995102467 2.299038554213867 105.88710139482805 18.0 0.0 0.0 20.0 
315.0010229493309 2.0822750919873623 105.88710139482805 19.0 0.0 0.0 20.0 
316.00251838026406 1.2356399270682947 67.35775998951004 19.0 0.0 0.0 20.0 
317.00325584210236 0.522165295669115 46.739329110113204 19.0 0.0 0.0 20.0 
318.00183536001913 0.057650026700317054 17.341063768971594 19.0 0.0 0.0 19.0 
319.00071579997393 0.05001542639515814 17.341063768971594 19.0 0.0 0.0 18.0 
320.0059587308326 0.044947398772615034 17.341063768971594 19.0 0.0 0.0 18.0 
321.0063694029587 0.021480728162615415 10.74036408130766 19.0 0.0 0.0 19.0 
322.00142182949156 0.038671390510548076 8.742598549668827 19.0 0.0 0.0 20.0 
323.00003047658316 0.017485197099337737 8.742598549668827 19.0 0.0 0.0 20.0 
324.00071579997393 0.017485197099337737 8.742598549668827 19.0 0.0 0.0 19.0 
325.0005824663702 0.017485197099337737 8.742598549668827 20.0 0.0 0.0 19.0 
326.00031594207985 0.003915214140681556 1.9576070703407709 19.0 0.0 0.0 19.0 
327.0038869255479 0.009466762884123363 4.633850949850682 19.0 0.0 0.0 19.0 
328.00570660273553 0.00753006949238894 3.665504253983471 19.0 0.0 0.0 20.0 
329.00071579997393 0.00753006949238894 3.665504253983471 19.0 0.0 0.0 20.0 
330.0071042241501 1.990609844219768E-4 0.09953049221098809 19.0 0.0 0.0 20.0 
331.00569556099396 0.008763603242860485 2.3038315290978915 19.0 0.0 0.0 20.0 
332.000107389594 0.008899307781313334 2.3038315290978915 19.0 0.0 0.0 20.0 
333.0071525093432 0.016289892770300192 3.763144763719879 19.0 0.0 0.0 20.0 
334.00071579997393 0.010794769419974093 5.3973847099870795 19.0 0.0 0.0 20.0 
335.00277124692553 0.008634350584342426 2.540753236836082 19.0 0.0 0.0 20.0 
336.00407128593173 0.003313029349737238 1.6565146748686175 19.0 0.0 0.0 20.0 
337.00228584822906 0.009277777512816165 4.638888756408079 19.0 0.0094969077598461 4.748453879923034 20.0 
338.0004015602556 0.010709689130010785 4.638888756408079 19.0 0.0094969077598461 4.748453879923034 20.0 
339.00071579997393 0.010709689130010785 4.638888756408079 19.0 0.0094969077598461 4.748453879923034 19.0 
340.00311995343947 0.03452310036716568 11.700965116197239 19.0 0.0 0.0 19.0 
341.00063659143564 0.03452310036716568 11.700965116197239 19.0 0.0 0.0 19.0 
342.00012557999366 0.06415818156743373 19.11439149690446 19.0 0.0 0.0 19.0 
343.0021019226526 0.0697675080476891 19.11439149690446 18.0 0.0 0.0 19.0 
344.00071579997393 0.0697675080476891 19.11439149690446 19.0 0.0 0.0 19.0 
345.0012166997092 0.00560932648025535 2.804663240127695 17.0 0.0 0.0 19.0 
346.0037883603151 0.08756780633107535 33.50343040307749 17.0 0.0 0.0 19.0 
347.0001555801209 0.00767740286040283 3.8387014302014393 17.0 0.0 0.0 19.0 
348.0006320175549 0.08628187985339392 27.592039991326857 18.0 0.0 0.0 18.0 
349.00071579997393 0.035400670160366035 12.510731045317982 18.0 0.0 0.0 18.0 
350.00054753714727 0.035400670160366035 12.510731045317982 18.0 0.0 0.0 19.0 
351.0026868041233 0.035400670160366035 12.510731045317982 18.0 0.0 0.0 20.0 
352.0020225748413 0.03671461147340116 12.510731045317982 19.0 0.0 0.0 19.0 
353.0007083671479 0.053072049127890944 12.510731045317982 18.0 0.0 0.0 19.0 
354.000309803084 0.1293509669458587 22.926366244749573 17.0 0.0 0.0 19.0 
355.0032693536799 0.17150428525755776 36.655646694471756 17.0 0.0 0.0 19.0 
356.00060699409823 0.16271423219287873 22.926366244749573 17.0 0.0 0.0 19.0 
357.00201873022064 0.15550707402381594 22.926366244749573 18.0 0.0 0.0 19.0 
358.00277051732814 0.2687071699312142 40.24071087864348 20.0 0.0 0.0 19.0 
359.00071579997393 0.2532050998091115 32.81304526411924 20.0 0.0 0.0 20.0 
360.00147594535207 0.30118087584750375 32.81304526411924 20.0 0.0 0.0 21.0 
361.00029278112765 0.2947746007177481 32.81304526411924 20.0 0.0 0.0 21.0 
362.0043265502793 0.24583792388088385 32.81304526411924 20.0 0.0 0.0 21.0 
363.00038722668 0.31680166299926493 38.54486568454166 20.0 0.0 0.0 21.0 
364.0005159256043 0.28880596865428176 38.54486568454166 20.0 0.0 0.0 21.0 
365.00192652438847 0.3071794229424308 38.54486568454166 20.0 0.0 0.0 21.0 
366.00586500608597 0.322230160676811 38.54486568454166 20.0 0.0059199986128454585 2.9599993064227306 21.0 
367.0020405906996 0.322230160676811 38.54486568454166 20.0 0.0059199986128454585 2.9599993064227306 21.0 
368.0007465759368 0.29082052492823257 32.71281966816508 20.0 0.0 0.0 21.0 
369.00071579997393 0.25639140619649486 27.530679865806462 20.0 0.0 0.0 21.0 
370.0000053509111 0.2532793533385785 27.530679865806462 19.0 0.0 0.0 22.0 
371.00163370530584 0.2684443148532609 32.12328747528372 19.0 0.0 0.0 21.0 
372.0003157561873 0.3677893427843205 49.672513965529475 19.0 0.0 0.0 21.0 
373.00017936180257 0.3222972378121107 39.05975723496263 19.0 0.0 0.0 21.0 
374.00071579997393 0.298954809394078 39.05975723496263 19.0 0.0 0.0 21.0 
375.00024717942 0.40787849664549236 50.09874697334885 19.0 0.0 0.0 20.0 
376.0013253976042 0.30105762254100765 50.09874697334885 19.0 0.0 0.0 20.0 
377.0007533633682 0.4073755769845583 50.09874697334885 19.0 0.0 0.0 20.0 
378.0025450228984 0.44287918018021544 50.64572422720073 19.0 0.0 0.0 20.0 
379.0004670179416 0.4410557268499634 54.245893756222785 19.0 0.0 0.0 19.0 
380.0032513146586 0.34237387827937965 50.64572422720073 19.0 0.0 0.0 19.0 
381.005629972309 0.35730477337282174 50.64572422720073 19.0 0.0 0.0 19.0 
382.00118774380195 0.3480043980395409 50.64572422720073 19.0 0.0 0.0 19.0 
383.0000819612695 0.43880803520161255 62.296116429888684 19.0 0.0 0.0 19.0 
384.00071579997393 0.43345019280199276 62.296116429888684 19.0 0.0 0.0 19.0 
385.0026927573684 0.4162651386590101 62.296116429888684 19.0 0.0 0.0 18.0 
386.0015578908052 0.5197224389139092 62.296116429888684 18.0 0.0 0.0 18.0 
387.00071047511113 0.48537682185646347 62.296116429888684 18.0 0.0 0.0 18.0 
388.00182372464553 0.5091892845505567 44.02842986728365 18.0 0.0 0.0 18.0 
389.0005958501868 0.555687955283222 48.595375182534326 18.0 0.0 0.0 18.0 
390.00041072179374 0.5410122729751794 48.595375182534326 18.0 0.0 0.0 18.0 
391.0020626587208 0.4718663500344681 41.39702566381152 18.0 0.0 0.0 19.0 
392.00121678196376 0.483175518501735 41.39702566381152 19.0 0.0 0.0 20.0 
393.00115976464957 0.6172785025046046 48.377556230370715 19.0 0.0 0.0 21.0 
394.0004781970765 0.6787652665219654 48.377556230370715 18.0 0.0 0.0 20.0 
395.00213961304206 0.7163483958217929 44.09631249678077 18.0 0.0 0.0 21.0 
396.0008825746402 0.6139202965100988 41.835262899678355 18.0 0.0 0.0 20.0 
397.0011970165116 0.6307333706667037 41.835262899678355 18.0 0.0 0.0 20.0 
398.0000108770239 0.7169238912153773 47.83870189108768 19.0 0.0 0.0 20.0 
399.00071579997393 0.513082490357218 52.12403260443867 20.0 0.0 0.0 20.0 
400.000649550437 0.38054256385171814 54.98913212657658 20.0 0.0 0.0 20.0 
401.00039025383603 0.17488689581639041 49.540820317381474 20.0 0.0 0.0 20.0 
402.00277578058177 0.2806182865743676 54.98913212657658 20.0 0.0 0.0 19.0 
403.0026188941893 0.17119634754733076 49.06772782684246 20.0 0.0 0.0 19.0 
404.00071579997393 0.17119634754733076 49.06772782684246 20.0 0.0 0.0 19.0 
405.0034949310719 0.19479062697850485 52.08416266521749 21.0 0.0 0.0 19.0 
406.00042555356407 0.0906223016480699 40.52029337042592 21.0 0.0 0.0 19.0 
407.00306148812837 0.19479062697850485 52.08416266521749 21.0 0.0 0.0 19.0 
408.00141220391794 0.19643137862893162 51.97547936971529 21.0 0.0 0.0 19.0 
409.00071579997393 0.09248041988950122 40.9749126095285 21.0 0.0 0.0 19.0 
410.0009045428518 0.12358875865883487 58.34532115114581 21.0 0.0033180211947259446 1.6590105973629647 19.0 
411.00003946706124 0.25584721707061 66.12922920588721 21.0 0.0033180211947259446 1.6590105973629647 19.0 
412.001325981092 0.13915657476831816 66.12922920588721 21.0 0.0033180211947259446 1.6590105973629647 19.0 
413.0037914521765 0.008218273624936616 3.933904500685827 24.0 0.0033180211947259446 1.6590105973629647 19.0 
414.0002434864853 0.008218273624936616 3.933904500685827 23.0 0.0 0.0 18.0 
415.0071042241501 0.004436715720308726 2.0431255483718473 23.0 0.0 0.0 19.0 
416.00195596419934 0.07281326122540334 34.18827275254725 23.0 0.03633959136890701 18.169795684453476 18.0 
417.00484702166904 0.07950603330070126 34.18827275254725 23.0 0.03633959136890701 18.169795684453476 18.0 
418.0034657235669 0.11994176337928114 32.99671790598691 23.0 0.021710717780489403 10.85535889024473 18.0 
419.00071579997393 0.08453347569580867 32.99671790598691 23.0 0.021710717780489403 10.85535889024473 18.0 
420.0001640023008 0.12035603119037999 32.99671790598691 23.0 0.037314229750386944 16.949337699836605 18.0 
421.0015051391838 0.09731572063650304 34.88613512019461 23.0 0.05131960441874504 16.949337699836605 18.0 
422.0017293225358 0.14691080321464292 34.88613512019461 22.0 0.0 0.0 19.0 
423.0013280693285 0.19499236891713884 34.28824052679337 22.0 0.0 0.0 18.0 
424.00071579997393 0.16974141643335133 34.28824052679337 22.0 0.0 0.0 18.0 
425.0025762742642 0.26511879403313904 34.28824052679337 22.0 0.0 0.0 18.0 
426.0009381649936 0.2698212225273251 36.639454773886456 22.0 0.0 0.0 18.0 
427.001595928873 0.33472561867408956 36.639454773886456 21.0 0.0 0.0 18.0 
428.0009372104563 0.39959191908541214 36.43996153735259 21.0 0.0 0.0 18.0 
429.00071579997393 0.39959191908541214 36.43996153735259 21.0 0.0 0.0 18.0 
430.0043698908861 0.3760129336056092 36.43996153735259 21.0 0.0 0.0 18.0 
431.0023993967546 0.40547322864529955 39.71339742318625 20.0 0.0 0.0 20.0 
432.00054815001187 0.37735203040511706 39.71339742318625 21.0 0.0 0.0 19.0 
433.005895697561 0.5101158813918342 44.60169806416761 21.0 0.0 0.0 18.0 
434.00071579997393 0.4688695998460259 43.78114889569494 22.0 0.0 0.0 18.0 
435.00332805137265 0.4706722978562052 43.78114889569494 22.0 0.0 0.0 19.0 
436.00476527062307 0.4737907190453527 47.34024394402758 20.0 0.0 0.0 19.0 
437.0003107621963 0.31657616526226745 24.866643528541886 20.0 0.0 0.0 19.0 
438.0014770545325 0.57978618034415 43.34550187502339 21.0 0.0 0.0 19.0 
439.0004213131716 0.4201537106787797 27.26618745307195 21.0 0.0 0.0 19.0 
440.0022929180544 0.4329726058252689 27.26618745307195 21.0 0.0 0.0 19.0 
441.00136861767254 0.4173406503589807 27.26618745307195 21.0 0.0 0.0 19.0 
442.0004579744736 0.42372774651397105 27.26618745307195 21.0 0.0 0.0 19.0 
443.0012727572717 0.5563034226740592 28.451236146769475 21.0 0.0 0.0 19.0 
444.00043938239423 0.5853771566778089 30.07428219230573 21.0 0.0 0.0 19.0 
445.0027469703221 0.6558774359190833 47.60938634175608 21.0 0.0 0.0 18.0 
446.0002063612625 0.6405051274111547 43.332552930712865 21.0 0.0 0.0 18.0 
447.00417095119457 0.6612790378441865 43.332552930712865 21.0 0.0 0.0 18.0 
448.0002564402511 0.8316201410386527 49.87884468938415 20.0 0.0 0.0 18.0 
449.0005359397797 0.8457786429253994 49.87884468938415 20.0 0.0 0.0 18.0 
450.00272095002197 0.842475641013744 50.00370113596384 20.0 0.0 0.0 18.0 
451.0003183272951 0.8346724577290939 50.00370113596384 20.0 0.0 0.0 18.0 
452.0018648015882 0.8575296301658636 50.00370113596384 20.0 0.0 0.0 18.0 
453.0032404841285 1.0457939545150818 57.34144332524352 19.0 0.0 0.0 18.0 
454.0002026411942 1.0434420649873148 57.34144332524352 19.0 0.0 0.0 18.0 
455.0004575877877 1.049232153467753 64.54173922541491 19.0 0.0 0.0 18.0 
456.00098730786556 1.0477636852695817 64.54173922541491 19.0 0.0 0.0 18.0 
457.00358008006054 1.0630798111002437 64.54173922541491 19.0 0.0 0.0 18.0 
458.0002054158898 1.2250013030268656 71.96313783815577 20.0 0.0 0.0 18.0 
459.00071579997393 1.2635057905342337 71.96313783815577 20.0 0.0 0.0 19.0 
460.00049888760583 1.1384678223313593 63.11856909533833 21.0 4.587875756449807E-4 0.2293937878224881 19.0 
461.00416970371776 0.9688257340775226 52.57884903894845 21.0 4.587875756449807E-4 0.2293937878224881 19.0 
462.00195546444036 1.3191157382461605 79.12049981092161 21.0 0.0 0.0 20.0 
463.00038191021827 1.1428694963669388 63.134425817256556 21.0 0.0 0.0 21.0 
464.00071579997393 1.1827392927981342 63.134425817256556 21.0 0.0 0.0 22.0 
465.00147106098734 1.1826465118239509 63.134425817256556 21.0 0.0 0.0 22.0 
466.0024124006466 1.1714163760693161 63.134425817256556 21.0 0.0 0.0 22.0 
467.00052639855477 1.1558004730683067 66.9550212505863 21.0 0.0 0.0 22.0 
468.0026790183235 1.1461099015305416 73.6648795868835 20.0 0.0 0.0 20.0 
469.00071579997393 1.2282641090934798 73.6648795868835 20.0 0.0 0.0 20.0 
470.00121470224184 1.2046740042645918 73.6648795868835 20.0 0.0 0.0 20.0 
471.00083572183087 1.065610635181298 73.6648795868835 20.0 0.0 0.0 20.0 
472.0018308767517 1.3118121951419792 78.55686541090483 20.0 0.0 0.0 20.0 
473.0013789121329 1.3677504782205259 85.28589443819317 20.0 0.0 0.0 19.0 
474.00071579997393 1.6151025930008733 84.3126216528114 19.0 0.0 0.0 19.0 
475.0027773190851 1.6360825164154962 84.3126216528114 20.0 0.0 0.0 19.0 
476.00429789850216 1.6403438201378908 84.3126216528114 20.0 0.0 0.0 18.0 
477.000484325015 1.532948608771752 83.97651255349092 19.0 0.0 0.0 17.0 
478.000062833347 1.378492965798236 90.75882410553777 19.0 0.0 0.0 17.0 
479.00071579997393 1.2703108536520564 90.75882410553777 19.0 0.0 0.0 17.0 
480.00323596728515 0.918968223906714 90.75882410553777 19.0 0.0 0.0 18.0 
481.0009154056066 0.7893354190173354 93.95249171002581 19.0 0.0 0.0 20.0 
482.0009926184032 0.9800143387962131 93.89328207793523 19.0 0.0 0.0 20.0 
483.00055312793194 1.0535914916960136 101.47053953236451 19.0 0.0 0.0 19.0 
484.00071579997393 0.9680255143691455 101.47053953236451 18.0 0.01157487973201056 3.156469363571148 19.0 
485.00217072804264 1.129199482043377 101.47053953236451 18.0 0.01157487973201056 3.156469363571148 18.0 
486.0014947641769 1.262594918533569 108.01224489601213 19.0 0.01157487973201056 3.156469363571148 19.0 
487.00368441200396 0.6008050532917931 55.43461336012925 18.0 0.06402201084697547 11.831033287516789 19.0 
488.0015744721728 0.9740353847306648 92.32593048265772 17.0 0.06402201084697547 11.831033287516789 18.0 
489.00029515701476 1.0273505595156553 92.32593048265772 16.0 0.07853332021499076 17.609341807665572 18.0 
490.0003010261824 0.7941160921699284 55.327814923126766 16.0 0.05768223897828919 17.010086201627843 18.0 
491.0012442284083 0.9606744377358273 92.32593048265772 16.0 0.0 0.0 18.0 
492.00365313282293 0.8136199340320261 57.49178914351188 16.0 0.0 0.0 18.0 
493.0071525093432 0.8786358374312707 61.45193051347377 15.0 0.0 0.0 17.0 
494.00071579997393 0.8519231987687546 49.89609504405544 15.0 0.0 0.0 17.0 
495.00011795372376 0.8335778596685407 47.16009652065068 16.0 0.0 0.0 17.0 
496.00207678043495 0.8721253690909776 47.16009652065068 17.0 0.0 0.0 18.0 
497.004504698856 0.9271902935153404 51.66706835832474 16.0 0.0 0.0 18.0 
498.00069879851736 1.1809864840147914 61.56211989883508 16.0 0.0 0.0 18.0 
499.00071579997393 1.0525651668933156 61.28433787599158 16.0 0.0 0.0 18.0 
500.0014478668912 0.9631209610606646 61.28433787599158 16.0 0.0 0.0 17.0 
501.00177524954285 0.8299895132298503 57.07377572116843 16.0 0.0 0.0 17.0 
502.000033049461 0.6030150224601176 40.77153943711741 16.0 0.0 0.0 17.0 
503.0007805784772 0.7496840940432827 40.77153943711741 16.0 0.0 0.0 17.0 
504.00071579997393 0.7328550533999787 40.77153943711741 16.0 0.0 0.0 16.0 
505.0071042241501 0.6712659139820633 46.73171614103134 16.0 0.0 0.0 16.0 
506.0031586617677 0.6937721866051528 46.73171614103134 17.0 0.0 0.0 16.0 
507.0049304482274 0.8365915919146096 39.80553131658283 18.0 0.0 0.0 16.0 
508.00266876732076 0.6607332254258039 39.80553131658283 18.0 0.0 0.0 16.0 
509.00071579997393 0.2709506426408459 34.53034071969708 18.0 0.0 0.0 16.0 
510.00348985464393 0.21252080392181188 34.53034071969708 18.0 0.0 0.0 16.0 
511.0003396370177 0.218426096814134 34.53034071969708 18.0 0.0 0.0 16.0 
512.0005199310583 0.2116187958587293 34.53034071969708 18.0 0.0 0.0 17.0 
513.0010931450829 0.33196175872969214 48.522974376370314 19.0 0.0 0.0 18.0 
514.0001234389094 0.3070492455944045 48.522974376370314 19.0 0.0 0.0 18.0 
515.0007247994361 0.3148436591207448 48.522974376370314 19.0 0.0 0.0 18.0 
516.0025250597947 0.3148436591207448 48.522974376370314 19.0 0.0 0.0 18.0 
517.0001222321456 0.33932996175598773 48.522974376370314 19.0 0.0 0.0 18.0 
518.0000277368139 0.5635448423167196 61.096525252727815 19.0 0.0 0.0 18.0 
519.0006474112078 0.46361281453344755 26.34618004523142 19.0 0.0 0.0 18.0 
520.0059046656996 0.6398804548225832 62.46285500552915 19.0 0.0 0.0 18.0 
521.0003742990324 0.6617921873321945 53.983782659917125 19.0 0.0 0.0 18.0 
522.0000657076456 0.6044513957948439 53.983782659917125 19.0 0.0 0.0 18.0 
523.0005530746821 1.0300625703345268 60.838596162292674 18.0 0.0 0.0 18.0 
524.0007157999739 1.0955152953267724 60.838596162292674 18.0 0.0 0.0 17.0 
525.0001746180865 1.0023367057288202 60.838596162292674 18.0 0.0 0.0 17.0 
526.0013562833365 1.022381998936289 53.68376203556838 18.0 0.0 0.0 18.0 
527.0002425580318 1.0446121529264587 53.68376203556838 17.0 0.0 0.0 18.0 
528.0009433656286 1.5727595312542564 60.54834839940986 18.0 0.0 0.0 18.0 
529.0007157999739 1.699107522788271 60.54834839940986 17.0 0.0 0.0 18.0 
530.001976363776 1.7253126458048846 60.54834839940986 17.0 0.0 0.0 18.0 
531.0010263657899 1.731560904910862 60.54834839940986 17.0 0.0 0.0 18.0 
532.0001968248968 1.6939622990968808 53.302639897196855 17.0 0.0 0.0 18.0 
533.002716853703 2.229237177943944 60.17778609720409 18.0 0.0 0.0 18.0 
534.0007157999739 2.287422368186373 60.17778609720409 18.0 0.0 0.0 18.0 
535.000857724826 2.3646730459662813 60.17778609720409 18.0 3.9885581918179113E-4 0.19942790959089507 18.0 
536.0010028018675 2.4757450179548783 60.17778609720409 18.0 0.0 0.0 18.0 
537.0012245573582 2.405536023143678 57.22060719958864 18.0 0.0 0.0 18.0 
538.0020023667175 3.1611531583868504 62.812018108181746 19.0 0.0 0.0 18.0 
539.0006306812803 3.0863190208308344 62.812018108181746 19.0 0.0 0.0 18.0 
540.0006303280192 3.034797471648132 62.812018108181746 19.0 0.0 0.0 17.0 
541.0001511182089 3.0790591239930807 62.812018108181746 18.0 0.0 0.0 16.0 
542.0047598337165 2.863271934699548 62.37725680148327 18.0 0.0 0.0 16.0 
543.0001445340808 3.7896766506525292 67.1795815177237 18.0 0.0 0.0 16.0 
544.0007157999739 3.5970985544432286 69.39791970693517 16.0 0.0 0.0 16.0 
545.0005798452097 3.919025182861012 69.98487481850543 17.0 0.0 0.0 16.0 
546.0001754061302 3.743915034479151 69.98487481850543 16.0 0.0 0.0 16.0 
547.0014807605008 3.5954828831650842 69.98487481850543 16.0 0.0 0.0 16.0 
548.0034725003851 4.323197709381728 77.30490850724982 16.0 0.0 0.0 16.0 
549.0007157999739 3.934276862864299 75.15923382822422 16.0 0.0 0.0 16.0 
550.0016278944059 3.6536076188111024 74.22187030272153 16.0 0.0 0.0 15.0 
551.0010291367008 3.288252439847911 73.27700586986674 16.0 0.0 0.0 15.0 
552.0053865618358 3.2483246252550715 73.27700586986674 16.0 0.0 0.0 15.0 
553.000331655292 3.708750891737826 79.15267521394605 16.0 0.0 0.0 15.0 
554.0003038328548 3.81984040998055 79.15267521394605 16.0 0.0 0.0 15.0 
555.007080298765 4.0643301579943305 79.15267521394605 16.0 0.0 0.0 16.0 
556.0024766536429 3.9492382448544427 77.06291962896813 16.0 0.0 0.0 16.0 
557.0016573215986 3.8445491744771934 77.67935016304955 16.0 0.0 0.0 17.0 
558.001132679872 4.17587123043221 83.24476768563545 16.0 0.0 0.0 17.0 
559.0007157999739 4.38910517176424 83.24476768563545 16.0 0.0 0.0 17.0 
560.0002770599236 4.337666281539628 87.02769039382162 16.0 0.0 0.0 17.0 
561.0012212235272 4.398855960513564 84.2596197003628 16.0 0.0 0.0 17.0 
562.0010631058731 4.3248681390091015 82.67103710479887 16.0 0.0 0.0 17.0 
563.0002035068885 4.625199360051474 97.74859445148354 17.0 0.0 0.0 18.0 
564.0007157999739 4.626708108237392 97.74859445148354 17.0 0.0 0.0 18.0 
565.0071042241501 4.460709719117744 97.74859445148354 17.0 0.0 0.0 18.0 
566.0015102894013 4.697981891014664 97.74859445148354 17.0 0.0 0.0 17.0 
567.0008046783244 4.062990201908022 90.91797380695533 17.0 0.0 0.0 17.0 
568.0001074232949 4.432368425992803 91.06528169959569 17.0 0.0 0.0 17.0 
569.0002519750809 4.255539081863675 91.06528169959569 17.0 0.0 0.0 17.0 
570.0003940725908 3.973447628446087 91.06528169959569 17.0 0.012580955545464213 6.2904777727321175 17.0 
571.0017612207814 3.98324845729217 83.928837550678 17.0 0.026910651918399833 13.45532595919991 18.0 
572.0041133979527 3.823022935694772 83.928837550678 18.0 0.026910651918399833 13.45532595919991 18.0 
573.0038512593712 3.88058629019738 88.30500868566946 19.0 0.026910651918399833 13.45532595919991 18.0 
574.0007157999739 3.71486702905004 88.30500868566946 20.0 0.026910651918399833 13.45532595919991 19.0 
575.0017487657838 3.181958689689771 88.30500868566946 20.0 0.0 0.0 19.0 
576.002689828409 3.2428739192017084 93.29465996035674 19.0 0.0 0.0 20.0 
577.0018300037692 2.9995844862351198 93.29465996035674 19.0 0.0 0.0 20.0 
578.0006357398244 3.2205637898357415 97.92869106815556 19.0 0.0 0.0 20.0 
579.000233683785 3.1443508891068648 97.92869106815556 19.0 0.0 0.0 20.0 
580.0060244362564 2.803661554006885 97.92869106815556 19.0 0.0 0.0 20.0 
581.0002494998872 2.7921875827601106 96.92055498407876 19.0 0.0 0.0 20.0 
582.0006552234208 2.5083705895070603 86.19713014075313 19.0 0.0 0.0 20.0 
583.0016786292433 2.2830976585813247 81.73498602483392 19.0 0.0 0.0 20.0 
584.0007157999739 2.4993824141770626 83.34375031106515 19.0 0.0 0.0 20.0 
585.0045181225277 2.437358651398194 83.34375031106515 19.0 0.0 0.0 19.0 
586.0000373063453 2.2743783725971642 81.4543924033976 19.0 0.0 0.0 19.0 
587.000046014075 2.4170607487118487 81.4543924033976 19.0 0.0 0.0 19.0 
588.0010103447788 2.39758766434785 84.25650961201018 19.0 0.0 0.0 19.0 
589.0007157999739 2.203764194473401 84.25650961201018 19.0 0.0 0.0 19.0 
590.0030660122532 2.030786217870997 83.49695418650799 19.0 0.0 0.0 19.0 
591.0002867210258 1.9146158357813667 84.1720324551132 19.0 0.0 0.0 19.0 
592.001880349125 1.5853690432031238 66.55565424200068 19.0 0.0 0.0 19.0 
593.0046257799046 1.6817500022367677 87.07715770336699 20.0 0.0 0.0 19.0 
594.0007157999739 1.7961185119575165 84.75352945621427 21.0 0.0 0.0 20.0 
595.0023594022415 1.7265485211357638 87.39043806964258 22.0 0.0 0.0 19.0 
596.0001465949788 1.8554478560865564 84.96901976926557 23.0 0.0 0.0 19.0 
597.0021492775483 1.550313429416914 70.01665641044002 22.0 0.0 0.0 19.0 
598.0017987087984 1.4973126051635228 72.83805122265676 22.0 0.0 0.0 18.0 
599.0007157999739 1.5142459408898639 72.83805122265676 21.0 0.0 0.0 18.0 
600.0002299212385 1.4012176675269599 71.08051117375351 21.0 0.0 0.0 17.0 
#####################################################################
# End of data export. Simulation finished at: 2019-02-25T20:27+0000 #
#####################################################################
