#####################################################################
# Alchemist log file - simulation started at: 2019-02-25T19:57+0000 #
#####################################################################
# seed = 17.0
#
# The columns have the following meaning: 
# time distance-rep[Mean] distance-rep[Max] leader-rep[CountDistinct] distance-share[Mean] distance-share[Max] leader-share[CountDistinct] 
0.0 NaN NaN NaN NaN NaN NaN 
1.0004070598870336 0.0 0.0 498.0 0.0 0.0 77.0 
2.0057827632294045 0.0 0.0 106.0 0.0 0.0 69.0 
3.0021159709014356 0.0 0.0 101.0 0.0 0.0 60.0 
4.001705784116431 0.0 0.0 99.0 0.0 0.0 53.0 
5.001517229126912 0.0 0.0 90.0 0.0 0.0 48.0 
6.000112226901434 0.0 0.0 82.0 0.0 0.0 43.0 
7.002063436108287 0.0 0.0 84.0 0.0 0.0 41.0 
8.000747376961602 0.0 0.0 78.0 0.0 0.0 35.0 
9.001666883946513 0.0 0.0 72.0 0.0 0.0 33.0 
10.000353776900806 0.0 0.0 66.0 0.0 0.0 31.0 
11.001398921469502 0.0 0.0 65.0 0.0 0.0 31.0 
12.000357824099632 0.010150420283650874 5.075210141825437 63.0 0.0 0.0 27.0 
13.001765415113244 0.010150420283650874 5.075210141825437 62.0 0.0 0.0 24.0 
14.00265337690141 0.010150420283650874 5.075210141825437 60.0 0.0 0.0 25.0 
15.001517229126911 0.010150420283650874 5.075210141825437 59.0 0.0 0.0 24.0 
16.000241199246737 0.008946039786729683 4.473019893364864 53.0 0.0 0.0 22.0 
17.001546302128073 0.047122320481601296 11.950381670930284 55.0 0.0061815036851370995 2.9606404684892595 23.0 
18.000084157030358 0.023900763341860722 11.950381670930284 56.0 0.045847978538912676 13.400984298012617 27.0 
19.003234916887187 0.0 0.0 53.0 0.01987355055830658 9.936775279153352 25.0 
20.000115148957313 0.0 0.0 50.0 0.0 0.0 21.0 
21.002128853563846 0.0 0.0 46.0 0.0 0.0 21.0 
22.007416567320725 0.0 0.0 43.0 0.0 0.0 20.0 
23.008400946733474 0.0 0.0 41.0 0.0 0.0 20.0 
24.001367381057634 0.0 0.0 40.0 0.0 0.0 19.0 
25.00151722912691 0.0 0.0 40.0 0.0 0.0 19.0 
26.000399183813233 0.0 0.0 38.0 0.0 0.0 19.0 
27.002536183941064 0.0 0.0 37.0 0.0 0.0 19.0 
28.001036588414795 0.0 0.0 35.0 0.0 0.0 18.0 
29.00034472393644 0.0 0.0 34.0 0.00869634796055657 4.34817398027829 18.0 
30.00151722912691 0.009592675082899405 4.796337541449702 33.0 0.029200755469569562 4.443103175638612 18.0 
31.001921115163036 0.009592675082899405 4.796337541449702 33.0 0.03141490965527559 4.961537473767663 18.0 
32.00181668535766 0.024372378969870132 7.389851943485382 33.0 0.05781292474455333 13.199007544638931 17.0 
33.00100701910469 0.029722898758058287 7.471597435543714 33.0 0.05781292474455333 13.199007544638931 17.0 
34.00063151588689 0.027224226271885574 10.505534940158611 34.0 0.07859041109403811 12.407689733198623 19.0 
35.000986092404055 0.023664641682275417 8.725742645353591 33.0 0.08579942565769984 12.407689733198623 20.0 
36.0002660477434 0.023664641682275417 8.725742645353591 33.0 0.0 0.0 21.0 
37.00252234060619 0.023664641682275417 8.725742645353591 32.0 0.0 0.0 20.0 
38.005510224219954 0.06336072326142045 17.089132938865646 31.0 0.0 0.0 20.0 
39.00127642439061 0.06545796310431187 20.97607812119176 31.0 0.0 0.0 20.0 
40.00137034566427 0.056684273344207274 18.351368641779743 31.0 0.0 0.0 20.0 
41.00050929603764 0.03958006999410462 18.351368641779743 31.0 0.0 0.0 20.0 
42.00205572075084 0.0 0.0 30.0 0.0 0.0 20.0 
43.003500828355754 0.0 0.0 30.0 0.0 0.0 20.0 
44.001472163353085 0.0 0.0 29.0 0.0 0.0 20.0 
45.0014913610369 0.0 0.0 29.0 0.0 0.0 20.0 
46.00020334583922 0.0 0.0 29.0 0.0 0.0 20.0 
47.00387218434788 0.0 0.0 27.0 0.0 0.0 20.0 
48.003300252005516 0.006127604046685613 3.0638020233428165 28.0 0.0 0.0 21.0 
49.00240318800339 0.0 0.0 28.0 0.0 0.0 21.0 
50.00151722912691 0.0 0.0 28.0 0.0 0.0 21.0 
51.000967413841515 0.0 0.0 29.0 0.0 0.0 21.0 
52.00241547537103 0.0 0.0 30.0 0.0 0.0 21.0 
53.00054679244853 0.0 0.0 29.0 0.0 0.0 21.0 
54.0012534939911 0.0 0.0 29.0 0.0 0.0 20.0 
55.00151722912691 0.0 0.0 30.0 0.0 0.0 20.0 
56.002263371219584 0.0 0.0 30.0 0.0 0.0 20.0 
57.00000819813755 0.0 0.0 30.0 0.0 0.0 20.0 
58.003601356774396 0.0 0.0 29.0 0.0 0.0 20.0 
59.00000744460787 0.0 0.0 29.0 0.0 0.0 20.0 
60.00151722912691 0.0 0.0 30.0 0.0 0.0 20.0 
61.002263371219584 0.0 0.0 30.0 0.0 0.0 20.0 
62.002330884288966 0.0 0.0 29.0 0.0 0.0 20.0 
63.00350660154793 0.0 0.0 28.0 0.0 0.0 20.0 
64.00088394891164 0.0 0.0 29.0 0.0 0.0 20.0 
65.0015172291269 0.0 0.0 29.0 0.0 0.0 20.0 
66.00226337121958 0.0 0.0 28.0 0.0 0.0 20.0 
67.00230384376007 0.0 0.0 28.0 0.0 0.0 20.0 
68.00123127677062 0.0 0.0 27.0 0.0 0.0 20.0 
69.00009033314389 0.010927715964542848 3.5033821616619036 28.0 0.0 0.0 20.0 
70.0015172291269 0.049900338184340864 12.045393729885546 27.0 0.0 0.0 20.0 
71.00039862176466 0.10580898202780842 18.652253819860306 28.0 0.0 0.0 20.0 
72.0017633603708 0.10523393811062279 18.652253819860306 28.0 0.0 0.0 20.0 
73.00016023637532 0.15121988063515543 23.255967453169774 28.0 0.0 0.0 20.0 
74.00139268179387 0.2082590925080694 23.255967453169774 25.0 0.0 0.0 20.0 
75.0015172291269 0.39350479636367375 33.96381736655303 26.0 0.0 0.0 20.0 
76.00111834325423 0.39235119464256996 32.708895788251084 23.0 0.0 0.0 20.0 
77.00116070711616 0.01597485222293542 7.987426111467755 22.0 0.0 0.0 20.0 
78.00133758995315 0.0 0.0 22.0 0.0 0.0 20.0 
79.00129347114337 0.0 0.0 22.0 0.0 0.0 20.0 
80.0015172291269 0.0 0.0 22.0 0.0 0.0 20.0 
81.00226337121958 0.0011385152887515965 0.5692576443757957 22.0 0.0 0.0 20.0 
82.00249940278393 0.0011385152887515965 0.5692576443757957 21.0 0.0 0.0 19.0 
83.00040293827512 0.0011385152887515965 0.5692576443757957 21.0 0.0 0.0 19.0 
84.00209501648634 0.012581267613136975 4.925646981836792 21.0 0.0 0.0 19.0 
85.0015172291269 0.0 0.0 21.0 0.0 0.0 18.0 
86.00226337121958 0.0 0.0 21.0 0.0 0.0 18.0 
87.00253068472517 0.0 0.0 21.0 0.0 0.0 18.0 
88.0033854715665 0.0 0.0 20.0 0.0 0.0 18.0 
89.00116313591059 0.0 0.0 19.0 0.0 0.0 17.0 
90.00073009465645 0.0 0.0 19.0 0.0 0.0 17.0 
91.0013790481049 0.0 0.0 19.0 0.013535849479390186 6.767924739695076 17.0 
92.00176494328187 0.0 0.0 19.0 0.0 0.0 17.0 
93.00134718499496 0.0 0.0 19.0 0.0 0.0 17.0 
94.00137033975976 0.024877408141677562 10.284704759505303 19.0 0.0 0.0 17.0 
95.0015172291269 0.0 0.0 19.0 0.0 0.0 17.0 
96.00021929602833 0.033290297932974694 9.656242007243833 19.0 0.0 0.0 19.0 
97.00124908452013 0.042658105472721475 10.284704759505303 19.0 0.0 0.0 19.0 
98.00042302977073 0.03122552886719392 8.596367478921422 19.0 0.0 0.0 19.0 
99.0035053991005 0.02936145938471081 9.439217886203892 20.0 0.0 0.0 20.0 
100.00005842015082 0.03472217387100554 9.439217886203892 20.0 0.0 0.0 20.0 
101.00078051296875 0.03465205936289861 9.439217886203892 20.0 0.0 0.0 20.0 
102.00126856785052 0.03465205936289861 9.439217886203892 20.0 0.0 0.0 20.0 
103.00261481445737 0.03570053533402741 9.439217886203892 20.0 0.0 0.0 20.0 
104.00020380924977 0.03406093347610053 13.09648856243794 20.0 0.0 0.0 20.0 
105.00148319236273 0.037455202154629184 9.233650771192572 20.0 0.0 0.0 21.0 
106.00119440554815 0.036308394306699035 9.233650771192572 21.0 0.0 0.0 21.0 
107.00430664248707 0.07549876739044009 17.46089779842663 21.0 0.0 0.0 20.0 
108.0024431083118 0.07549876739044009 17.46089779842663 20.0 0.0 0.0 20.0 
109.00193201814726 0.18366350357071462 26.6776869571691 20.0 0.0 0.0 20.0 
110.00082581984829 0.28720520768803687 28.673918778591258 20.0 0.0 0.0 20.0 
111.00122626384729 0.2512980780143702 28.673918778591258 21.0 0.0 0.0 20.0 
112.00575106476342 0.0024271672328771347 1.2135836164385694 20.0 0.0 0.0 19.0 
113.00074701549316 0.0024271672328771347 1.2135836164385694 19.0 0.0 0.0 19.0 
114.00085256214632 0.0024271672328771347 1.2135836164385694 19.0 0.0 0.0 19.0 
115.00045078910253 0.034068795507949876 15.649496863518493 19.0 0.0019825049328846315 0.9912524664423188 19.0 
116.00115934417047 0.03129899372703706 15.649496863518493 19.0 0.026470468376994478 11.073612024606916 19.0 
117.0005830177137 0.03129899372703706 15.649496863518493 18.0 0.056165746297107744 11.073612024606916 19.0 
118.0006784386026 0.0 0.0 17.0 0.056165746297107744 11.073612024606916 18.0 
119.00577820667273 0.03450336685175958 15.649496863518493 17.0 0.024224497129017034 8.504630561973471 18.0 
120.0015172291269 0.006528077699628775 1.6618522874530584 17.0 0.024224497129017034 8.504630561973471 18.0 
121.00226337121958 0.0032043731247226918 1.6021865623613394 17.0 0.0 0.0 18.0 
122.0024314599848 0.0022933062188229894 1.1466531094114885 17.0 0.0 0.0 17.0 
123.00017725595009 0.0022933062188229894 1.1466531094114885 17.0 0.0 0.0 18.0 
124.0007269789178 0.0022933062188229894 1.1466531094114885 17.0 0.0 0.0 18.0 
125.0015172291269 0.02121250630395659 8.615042017179036 17.0 0.0 0.0 18.0 
126.00146231765055 0.030989451116590037 15.49472555829496 17.0 0.0 0.0 17.0 
127.00059745123409 0.030989451116590037 15.49472555829496 18.0 0.0 0.0 17.0 
128.00058380106037 0.030989451116590037 15.49472555829496 19.0 0.0 0.0 17.0 
129.00224665102755 0.045843960976518376 22.921980488259152 19.0 0.0 0.0 17.0 
130.0015172291269 0.0737613547504297 22.921980488259152 18.0 0.0 0.0 17.0 
131.0008602935201 0.06917552233716602 22.921980488259152 18.0 0.0 0.0 17.0 
132.00241064812656 0.023331561360647242 11.665780680323678 17.0 0.0 0.0 17.0 
133.00014684599128 0.023331561360647242 11.665780680323678 17.0 0.0 0.0 17.0 
134.00011634466384 0.023331561360647242 11.665780680323678 17.0 0.0 0.0 17.0 
135.00017391937598 0.11820844990431861 37.60867504568583 17.0 0.0 0.0 17.0 
136.00226337121958 0.05763838137550108 26.323720197002302 16.0 0.0 0.0 17.0 
137.0006385764336 0.05264744039400486 26.323720197002302 16.0 0.0 0.0 17.0 
138.0000355582977 0.05264744039400486 26.323720197002302 16.0 0.0 0.0 18.0 
139.00077227126735 0.07770483880165473 33.659932946435134 16.0 0.0 0.0 18.0 
140.00002866644942 0.013331676443592053 4.168111606733504 16.0 0.0 0.0 18.0 
141.00226337121958 0.0 0.0 16.0 0.0 0.0 18.0 
142.00496380030197 0.02236229342871156 8.268000463893145 16.0 0.0 0.0 18.0 
143.0002123602003 0.02236229342871156 8.268000463893145 16.0 0.0 0.0 18.0 
144.00241137748188 0.01065281347461763 2.9131462504626597 17.0 0.0 0.0 18.0 
145.00017872898684 0.05888407002782248 15.657260967436684 17.0 0.0 0.0 18.0 
146.00076924211174 0.0021539845786660923 1.0769922893330488 16.0 0.0 0.0 18.0 
147.00079275598569 0.016582273302620774 8.291136651310381 16.0 0.0 0.0 18.0 
148.00053242704055 0.0 0.0 16.0 0.0 0.0 18.0 
149.00366665986343 0.004744606762069944 2.372303381034982 16.0 0.0 0.0 18.0 
150.0002647409594 0.008294602438951342 2.372303381034982 16.0 0.0 0.0 18.0 
151.00226337121958 0.003549995676881341 1.2620529677483319 15.0 0.0 0.0 18.0 
152.00273237425176 0.02027508478358992 8.362544553354326 15.0 0.0 0.0 16.0 
153.00015303364313 0.017750978848093336 8.362544553354326 15.0 0.0 0.0 16.0 
154.00173353538793 0.03736254328884442 8.362544553354326 15.0 0.0 0.0 16.0 
155.0015172291269 0.055049642568381234 15.982502237149902 15.0 0.0 0.0 17.0 
156.00069409889954 0.1940524462709599 30.21628552485282 15.0 0.0 0.0 16.0 
157.00153919969998 0.16429791956295617 28.266514383418638 15.0 0.0 0.0 15.0 
158.00102918264307 0.16185073565101032 28.266514383418638 15.0 0.0 0.0 15.0 
159.001018423171 0.3524345655753174 36.735254475325945 15.0 0.0 0.0 15.0 
160.00036036328527 0.2242372526131316 30.27686852276321 15.0 0.0 0.0 15.0 
161.0001558750063 0.3637415879755211 36.735254475325945 15.0 0.0 0.0 15.0 
162.00552351355987 0.3101367157876497 36.735254475325945 15.0 0.0 0.0 16.0 
163.00120141669288 0.29624078000838644 36.735254475325945 16.0 0.0 0.0 16.0 
164.00404989495004 0.5220937906836166 45.84553940170815 16.0 0.0 0.0 16.0 
165.0015172291269 0.48595277288203265 45.84553940170815 16.0 0.0 0.0 16.0 
166.00022985844052 0.5864376284079927 45.84553940170815 16.0 0.0 0.0 16.0 
167.00353571612666 0.6611084720979831 53.34803792162157 16.0 0.0 0.0 16.0 
168.00172786622886 0.8243266157558043 61.03102225372231 16.0 0.0 0.0 16.0 
169.0013612282734 0.903415877664825 61.03102225372231 16.0 0.0 0.0 16.0 
170.00024134814845 0.9489895325844682 68.5532020701371 16.0 0.0 0.0 16.0 
171.00102092323144 1.0847667765489728 68.5532020701371 15.0 0.0 0.0 16.0 
172.0025840597197 0.7873798345250946 66.60578764811231 16.0 0.0 0.0 18.0 
173.00501590924762 0.7817772348495745 60.086541362882485 16.0 0.0 0.0 16.0 
174.00069884828088 0.7227235392691278 64.08405310919483 15.0 0.0 0.0 16.0 
175.0015172291269 0.9342601996666646 75.46595454540795 17.0 0.0 0.0 16.0 
176.00164633289052 1.1861196696364953 75.46595454540795 16.0 0.0 0.0 16.0 
177.0005250194924 0.8699337412556737 66.71145633739616 16.0 0.0 0.0 17.0 
178.00092349824058 1.0196279947777607 75.17941366661046 16.0 0.0 0.0 17.0 
179.00220194215234 1.3074626982700777 83.39939013616561 16.0 0.0 0.0 17.0 
180.00049335387615 1.3528178287524497 83.39939013616561 16.0 0.0 0.0 17.0 
181.00124066298028 1.3626140603165608 84.25054065557885 16.0 0.0 0.0 17.0 
182.00412553021255 1.1495218691621207 83.39939013616561 16.0 0.0 0.0 17.0 
183.00567072821164 1.1639937148793946 83.39939013616561 16.0 0.0 0.0 16.0 
184.0037421364631 1.1046363146502856 66.80952208674665 16.0 0.0 0.0 16.0 
185.0001747044817 1.1788052913482507 74.24242653410943 16.0 0.0 0.0 16.0 
186.00226337121958 1.1734945162639276 74.24242653410943 16.0 0.0 0.0 16.0 
187.00092350817903 1.1584661766608144 69.64574084177497 16.0 0.0 0.0 16.0 
188.00212409220362 1.1584542043804873 69.64574084177497 16.0 0.0 0.0 16.0 
189.000497127485 1.3050398447687412 77.01442662426814 16.0 0.0 0.0 16.0 
190.0015172291269 1.410434217826939 77.01442662426814 16.0 0.0 0.0 16.0 
191.00226337121958 1.5458871123821891 90.5470442155401 16.0 0.0 0.0 17.0 
192.0012740837412 1.2116228727032836 66.70267951415951 16.0 0.0 0.0 17.0 
193.01211366415984 1.2870070286957744 68.63207658225463 17.0 0.0 0.0 17.0 
194.00365095513175 1.4225814286044107 76.00124274773702 17.0 0.0 0.0 17.0 
195.0015172291269 1.451639327708424 76.00124274773702 17.0 0.0 0.0 17.0 
196.00005520523794 1.3747690628618048 76.00124274773702 17.0 0.0 0.0 17.0 
197.00163306860793 1.4671912345419644 76.00124274773702 17.0 0.0 0.0 17.0 
198.0010644684396 1.2531123784609643 66.54885314030514 17.0 0.0 0.0 16.0 
199.00055999804795 1.6239632863386833 84.45471222124831 17.0 0.0 0.0 16.0 
200.0015172291269 1.9920587040226603 91.88137276818361 17.0 0.0 0.0 16.0 
201.00009297917146 2.0857512766326196 90.88714228003897 17.0 0.0 0.0 16.0 
202.0014531300399 1.6528973706863914 91.88137276818361 18.0 0.0 0.0 17.0 
203.00177518104633 1.9545725535034453 91.88137276818361 18.0 0.0 0.0 17.0 
204.00103766487692 1.6268707664726862 88.43236724245105 18.0 0.0 0.0 17.0 
205.0015172291269 1.6399025728004581 97.68863696072731 18.0 0.0 0.0 17.0 
206.00226337121958 2.1531746946845542 95.89951802575774 18.0 0.0 0.0 17.0 
207.00494993757144 1.9627894884093837 95.89951802575774 18.0 0.0 0.0 17.0 
208.00263940898202 1.7824786470021807 95.89951802575774 18.0 0.0 0.0 17.0 
209.00001115379666 1.9176478110001547 103.23566405493995 19.0 0.0 0.0 17.0 
210.001239381913 1.9293601629693402 102.70567886632278 18.0 0.0 0.0 17.0 
211.00226337121958 1.8896677010659633 95.23476650011673 19.0 0.0 0.0 17.0 
212.00026322090895 1.8828878232642634 95.23476650011673 19.0 0.0 0.0 18.0 
213.00116005613935 1.905677448278989 95.23476650011673 19.0 0.0 0.0 18.0 
214.0027727833397 2.037874080144311 95.23476650011673 19.0 0.0 0.0 18.0 
215.00023644171785 2.105871733377128 102.6387836335901 19.0 0.0 0.0 19.0 
216.00173633403935 2.1166667691515015 102.6387836335901 19.0 0.0 0.0 19.0 
217.0057775404425 2.4492058378882375 109.11944855429607 19.0 0.0 0.0 20.0 
218.00130047444864 2.434236433221709 109.11944855429607 19.0 0.0 0.0 20.0 
219.00170750823764 2.5295149489410327 116.51800473046677 19.0 0.0 0.0 19.0 
220.00031374336248 2.8161406305604753 116.51800473046677 20.0 0.0 0.0 19.0 
221.00170768438548 2.789277603598988 116.51800473046677 19.0 0.0 0.0 19.0 
222.00020875322073 2.5996175754758943 112.58788865923583 19.0 0.0 0.0 19.0 
223.00055852010473 2.5341172173268385 109.03901480085221 19.0 0.0 0.0 21.0 
224.0087949379793 2.9741055960308973 127.49014515508009 19.0 0.0 0.0 19.0 
225.00150208803373 2.819377542027037 116.45601959228327 19.0 0.0 0.0 19.0 
226.00226337121958 3.0644092960402762 127.49014515508009 18.0 0.0 0.0 19.0 
227.00192530197182 3.0771315729165694 127.49014515508009 18.0 0.0 0.0 19.0 
228.0010320765161 2.8210798969802147 112.89038934397553 18.0 0.0 0.0 19.0 
229.00275763167397 3.031773648097322 118.80629382746952 18.0 0.0 0.0 19.0 
230.0015172291269 3.0439721378694076 118.80629382746952 17.0 0.0 0.0 19.0 
231.00226337121958 3.0430416977407715 126.23246693861734 17.0 3.0714046686057504E-5 0.015357023343028686 19.0 
232.00009612633733 3.032135582711318 126.23246693861734 17.0 0.0 0.0 19.0 
233.00316317582718 2.8511145215528546 126.23246693861734 17.0 0.0 0.0 20.0 
234.00158225220406 3.3057111894051787 134.48417294779404 17.0 0.0 0.0 20.0 
235.0015172291269 3.9349935968928205 148.4949166592442 17.0 0.0 0.0 20.0 
236.00226337121958 3.724418198408653 141.43014460624937 17.0 0.0 0.0 20.0 
237.0011058864128 4.012280452388988 148.80858843726878 18.0 0.0 0.0 18.0 
238.00011825953192 4.012153287253299 148.80858843726878 18.0 0.0 0.0 18.0 
239.00026420946762 4.642670861049077 160.72491463044844 18.0 0.0 0.0 19.0 
240.00112540182988 4.744058860231204 160.72491463044844 18.0 0.0 0.0 19.0 
241.00001118897927 4.705986346933786 160.72491463044844 18.0 0.0 0.0 19.0 
242.0020004558972 4.743960178888005 160.72491463044844 18.0 0.0 0.0 18.0 
243.00002919528174 5.060640628184228 160.72491463044844 18.0 0.008031635431741424 4.015817715870696 18.0 
244.0021078510172 5.783932471036527 169.10354274712887 18.0 0.008031635431741424 4.015817715870696 18.0 
245.0015172291269 5.871341314886425 169.10354274712887 18.0 0.008031635431741424 4.015817715870696 18.0 
246.00226337121958 6.234946772333816 178.28508517689193 18.0 0.008031635431741424 4.015817715870696 18.0 
247.00155520324802 8.337588591018399 178.49182479098926 18.0 0.023069656891331784 3.417052050641189 18.0 
248.00005056530148 8.326842392996536 178.59809798289717 18.0 0.018314406310519376 3.417052050641189 20.0 
249.00195159201195 8.617214412057447 185.7464913284544 19.0 0.032806430651193236 7.699253189906841 19.0 
250.0015172291269 8.510250771593698 186.0694437990672 20.0 0.04618316490852281 8.005663889838416 19.0 
251.00165325272087 9.66342085694617 186.0694437990672 19.0 0.04597375704063106 8.005663889838416 19.0 
252.00082408536548 9.558089617911516 186.0694437990672 18.0 0.03632117695427738 8.005663889838416 20.0 
253.00303424338364 10.331967795398294 186.45394448087183 18.0 0.0 0.0 19.0 
254.00171275948162 11.09409696088019 193.72913374056373 18.0 0.0 0.0 19.0 
255.00113126734217 11.506852203491608 194.13078096454313 17.0 0.0 0.0 18.0 
256.0012097815454 11.514320116785624 200.38201754153755 17.0 0.0 0.0 17.0 
257.0002982179179 12.319174984404023 200.38201754153755 17.0 0.0 0.0 17.0 
258.0017356190774 12.321152715162553 200.38201754153755 17.0 0.0 0.0 18.0 
259.0043351374376 12.70163096265283 207.8534085800547 17.0 0.0 0.0 18.0 
260.0015172291269 13.306981963142817 207.8534085800547 17.0 0.0 0.0 18.0 
261.0003239003958 12.872013117380028 215.17724863424877 17.0 0.0 0.0 18.0 
262.00124859121 13.73744888990907 215.17724863424877 17.0 0.0 0.0 17.0 
263.00084645537027 15.018991010079311 222.2810949044843 18.0 0.0 0.0 17.0 
264.00218975530333 15.426645020493675 229.75948762492408 18.0 0.0 0.0 18.0 
265.0005313831885 15.95695680726534 229.75948762492408 19.0 0.0 0.0 18.0 
266.00226337121956 16.028166781370828 222.57900567103314 18.0 0.0 0.0 18.0 
267.0005012668595 15.69136580617358 229.97410661599372 18.0 0.0 0.0 18.0 
268.0020497245041 17.598870405852605 229.97410661599372 18.0 0.0 0.0 18.0 
269.0014131250032 17.547370191499464 229.97410661599372 18.0 0.0 0.0 18.0 
270.0015172291269 17.914027459217483 237.38134678834518 18.0 0.0 0.0 18.0 
271.00226337121956 17.7012884278939 244.81817897685926 19.0 0.0 0.0 18.0 
272.0002938701134 18.02688469024656 244.81817897685926 19.0 0.0 0.0 18.0 
273.00154730565026 17.922768037164445 244.81817897685926 19.0 0.0 0.0 18.0 
274.0026092099005 19.283085857623213 252.22917037509245 19.0 0.0 0.0 18.0 
275.0015172291269 19.233167295673457 252.22917037509245 19.0 0.0 0.0 18.0 
276.00226337121956 18.80324255620466 246.7457726793882 19.0 0.0 0.0 18.0 
277.0018684312306 19.499751216047912 246.7457726793882 19.0 0.0 0.0 18.0 
278.0004966057285 20.393597405742803 246.7457726793882 19.0 0.0 0.0 18.0 
279.002747985337 21.6817638313939 267.1549875126365 18.0 0.0 0.0 18.0 
280.0015172291269 21.560858611155115 261.66885580411366 19.0 0.0 0.0 19.0 
281.00226337121956 23.01179337969973 261.66885580411366 19.0 0.0 0.0 20.0 
282.0002136566427 22.147771359959012 261.66885580411366 19.0 0.0 0.0 19.0 
283.00022549169 22.447118888258387 261.66885580411366 19.0 0.0 0.0 19.0 
284.0013344273685 23.573133952871864 269.27351517388377 20.0 0.0 0.0 19.0 
285.00087316211795 22.92293781151618 255.48779480685863 20.0 0.0 0.0 19.0 
286.00196634799556 23.456097788472388 255.48779480685863 20.0 0.0 0.0 19.0 
287.0016102194473 23.266929349917767 261.9467087774865 19.0 0.0 0.0 19.0 
288.0076120506205 22.789264485753872 262.9405624417132 19.0 0.0 0.0 19.0 
289.0013322471636 23.76110364219372 270.4275209329122 19.0 0.0 0.0 19.0 
290.00065133725946 24.032988672715494 270.4275209329122 19.0 0.0 0.0 19.0 
291.00226337121956 24.077126706185222 270.4275209329122 19.0 0.0 0.0 18.0 
292.0043009378596 22.846631262742083 263.9012639007217 20.0 0.0 0.0 18.0 
293.00248159223526 22.78590798785177 261.87196033267554 20.0 0.0 0.0 18.0 
294.00081139726143 23.384963071469357 276.9276963634921 20.0 0.0 0.0 18.0 
295.0000444039708 23.755883066344577 269.48606240320066 20.0 0.0 0.0 18.0 
296.00226337121956 24.239620209089324 269.48606240320066 20.0 0.0 0.0 19.0 
297.00258074323887 24.217558998868 269.48606240320066 20.0 0.0 0.0 19.0 
298.0025010693529 24.02492835613401 269.48606240320066 20.0 0.0 0.0 19.0 
299.0028826338305 23.204319350516506 269.48606240320066 19.0 0.0 0.0 19.0 
300.0015172291269 22.862100969139966 266.931600906323 21.0 0.0 0.0 19.0 
301.0002441058554 22.682031360381465 259.3724368869351 22.0 0.0 0.0 19.0 
302.00013956083 20.255830913392785 259.3724368869351 21.0 0.0 0.0 19.0 
303.0012783603699 20.71465685159201 259.3724368869351 21.0 0.0 0.0 19.0 
304.0001751629689 19.518938786823544 259.3724368869351 21.0 0.0 0.0 19.0 
305.0004689901008 20.56768987216181 257.0029894240967 21.0 0.0 0.0 19.0 
306.00116968355024 19.931875540167393 255.69264259939746 22.0 0.0 0.0 20.0 
307.0008884005239 20.008889997262862 263.13400869898067 22.0 0.0 0.0 20.0 
308.0007243650312 19.79797029218192 263.13400869898067 21.0 0.0 0.0 19.0 
309.0006039554101 18.612501411501913 262.21071241876115 21.0 0.0 0.0 19.0 
310.0002492317648 18.50618906414293 259.9836956518211 21.0 0.0 0.0 20.0 
311.00011160397696 18.867527134342534 259.9836956518211 21.0 0.0 0.0 20.0 
312.001704583328 19.094726087052322 264.7281482243797 21.0 0.0 0.0 19.0 
313.00262040823526 19.275283585130957 267.4420233352474 22.0 0.0 0.0 18.0 
314.006270112838 18.71115398567487 267.4420233352474 22.0 0.0 0.0 18.0 
315.0015172291269 18.54049624202116 264.395371786067 22.0 0.0 0.0 17.0 
316.0003135189829 18.68988701945962 264.395371786067 22.0 0.0 0.0 17.0 
317.00740505310597 18.80861419298589 269.20522776451776 22.0 0.0 0.0 17.0 
318.0010454923598 19.400568932036695 271.91824057269986 20.0 0.0 0.0 16.0 
319.00341998199923 18.886708009460587 272.31518425687176 21.0 0.009927364546106607 4.963682273053337 15.0 
320.0015172291269 20.004753084890528 275.0290748281099 21.0 0.0 0.0 15.0 
321.00041361213266 19.33464739667478 275.0290748281099 21.0 0.0 0.0 16.0 
322.0003573354911 18.833194755526097 279.83864018141935 20.0 0.0 0.0 16.0 
323.0016608657921 19.00481330005434 282.55253087132434 20.0 0.0 0.0 16.0 
324.0015560003625 20.089405071695246 285.8232970715611 20.0 0.0 0.0 17.0 
325.00089187773693 19.81310558647377 285.8232970715611 20.0 0.0 0.0 16.0 
326.0010876714715 19.74962865716799 285.8232970715611 19.0 0.0 0.0 16.0 
327.0006804627503 19.949997692098993 293.2831391494027 19.0 0.0 0.0 16.0 
328.0019686609729 19.438363781081925 293.2831391494027 19.0 0.0 0.0 14.0 
329.0016273690283 18.806378831202117 296.5256175486491 19.0 0.0 0.0 14.0 
330.0014624599862 19.462494107353496 296.5256175486491 19.0 0.0 0.0 15.0 
331.00226337121956 9.082780953893195 296.5256175486491 19.0 0.0 0.0 15.0 
332.00061387752913 7.6969844744223 303.9877900120392 19.0 0.0 0.0 14.0 
333.00419724061675 7.226684135201236 303.9877900120392 19.0 0.0 0.0 14.0 
334.0010781778444 7.6624224265607035 307.44243565667193 18.0 0.0 0.0 14.0 
335.0012996053282 7.787409060650161 307.44243565667193 18.0 0.0 0.0 15.0 
336.0014516212693 7.696800865983289 307.44243565667193 18.0 0.0 0.0 15.0 
337.00035447638055 7.9051572393418015 314.9023287066706 17.0 0.0 0.0 15.0 
338.00053349391845 7.8015211892604315 314.9023287066706 18.0 0.0 0.0 14.0 
339.00405869062183 7.639148388893955 309.5836782249145 17.0 0.0 0.0 14.0 
340.0015172291269 7.989567093820949 309.5836782249145 17.0 0.0 0.0 13.0 
341.0012339552126 7.287955789823039 309.5836782249145 17.0 0.0 0.0 13.0 
342.0008188342343 6.885870986427878 314.32963279828743 16.0 0.0 0.0 13.0 
343.0003239856721 6.877748475426589 317.0426868699923 16.0 0.0 0.0 13.0 
344.0014305494042 7.232960883502153 335.5263628403103 16.0 0.0 0.0 13.0 
345.0000137465401 6.358405946131418 335.5263628403103 16.0 0.0 0.0 13.0 
346.00135464618916 5.434616808250426 335.5263628403103 16.0 0.0 0.0 13.0 
347.00318234073035 5.954162765280429 354.2089263488548 16.0 0.0 0.0 13.0 
348.00009399210694 5.951424960669587 354.2733302021013 16.0 0.0 0.0 13.0 
349.0006508571464 4.841385343001295 328.049585888004 16.0 0.0 0.0 13.0 
350.0015172291269 5.154526041446763 320.5272699651957 16.0 0.0 0.0 12.0 
351.0017657488896 4.924143853955709 320.5272699651957 16.0 0.0 0.0 12.0 
352.0008955471866 4.4807114915389565 320.5272699651957 16.0 0.0 0.0 12.0 
353.0032006653661 4.612004756625146 320.5272699651957 16.0 0.0 0.0 12.0 
354.000785607926 4.626378390996129 320.5272699651957 17.0 0.0 0.0 13.0 
355.0001812778169 4.953140653006238 309.4681024812718 17.0 0.0 0.0 13.0 
356.000363871589 4.94248607956247 309.4681024812718 17.0 0.0 0.0 13.0 
357.00121169480474 4.96975342851816 316.98995037864734 17.0 0.0 0.0 13.0 
358.0017663734857 5.528092399459511 339.31823879627825 17.0 0.0 0.0 13.0 
359.0020677801698 5.586241023357819 331.883844797032 17.0 0.0 0.0 14.0 
360.0012117403706 5.3830967006937 309.5730743140292 17.0 0.0 0.0 15.0 
361.0005940317774 5.328984945237704 309.5730743140292 17.0 0.0 0.0 15.0 
362.0012324150106 5.389850433237897 317.030523988206 17.0 0.0 0.0 15.0 
363.0001797211197 5.850287134671588 332.05547465614234 17.0 0.0 0.0 15.0 
364.0022459455593 5.729017014351162 324.6984118777767 17.0 0.0 0.0 15.0 
365.0015172291269 6.170736203768561 328.47394093428466 17.0 0.0 0.0 13.0 
366.0005719802124 5.31338690186323 309.6790200248884 17.0 0.0 0.0 13.0 
367.00086903130176 6.24280316136325 328.47394093428466 17.0 0.0 0.0 13.0 
368.00282586513964 6.341030871525693 328.47394093428466 17.0 0.0 0.0 13.0 
369.0020841333391 6.642205504608286 321.05870311038746 16.0 0.0 0.0 13.0 
370.0015172291269 6.418177541768104 318.3758787898714 16.0 0.0 0.0 13.0 
371.00226337121956 7.135609790637507 352.80114661238827 17.0 0.0 0.0 13.0 
372.00128511551907 7.671989200976801 353.2379573388415 17.0 0.0 0.0 13.0 
373.0060869241138 8.690560901838946 353.2379573388415 18.0 0.0 0.0 13.0 
374.0065337744228 8.417930726914518 345.79330402255755 17.0 0.0 0.0 13.0 
375.0015172291269 8.351015927461354 345.79330402255755 17.0 0.0 0.0 15.0 
376.00226337121956 10.634971316441433 345.79330402255755 16.0 0.0 0.0 15.0 
377.00081228620706 10.692189991738852 346.1622469929416 16.0 0.0 0.0 15.0 
378.0002084755161 11.42118496729003 346.1622469929416 16.0 0.0 0.0 15.0 
379.00090272006605 11.670144482833157 346.1622469929416 16.0 0.0 0.0 15.0 
380.0010501792696 11.308257260619445 338.6703399990289 16.0 0.0 0.0 14.0 
381.00226337121956 12.006832278774343 338.6703399990289 16.0 0.003690411734385927 1.8452058671929592 14.0 
382.0005499530359 12.414673714789874 337.83523905343475 17.0 0.0 0.0 14.0 
383.00236717243797 12.46070001775893 337.83523905343475 17.0 0.0 0.0 14.0 
384.0004891377657 12.280400604821978 337.83523905343475 17.0 0.0 0.0 14.0 
385.0015172291269 11.311170479426067 325.4278127300223 18.0 0.0 0.0 14.0 
386.0014177883528 12.037473076668759 330.47027811315854 18.0 0.0 0.0 15.0 
387.00058426471213 12.031143553217287 330.47027811315854 18.0 0.0 0.0 16.0 
388.0015768847837 12.71383637065679 330.58802351737154 18.0 0.0 0.0 16.0 
389.00052063049316 12.715535503179188 330.47027811315854 18.0 0.0 0.0 16.0 
390.0015172291269 12.99406917880463 323.30144541370964 18.0 0.0 0.0 16.0 
391.00129201452785 11.488830387272195 323.48474150611673 18.0 0.0 0.0 16.0 
392.005226814878 12.558240949484183 323.48474150611673 18.0 0.0 0.0 16.0 
393.0002632525506 12.1189917673768 323.48474150611673 18.0 0.0 0.0 16.0 
394.00021499628986 11.68641411968165 323.48474150611673 18.0 0.0 0.0 15.0 
395.0015172291269 11.146988995975027 324.4190937774449 18.0 0.0 0.0 15.0 
396.0006053906831 11.727448299252478 323.9610924087357 18.0 9.154549233092037E-4 0.4577274616545992 15.0 
397.0010902369427 11.057613709932763 323.9610924087357 18.0 0.0 0.0 15.0 
398.003511334646 11.778487168704984 323.9610924087357 18.0 0.0 0.0 15.0 
399.00037664947695 11.286799634468125 324.29732758438126 18.0 0.0 0.0 15.0 
400.00122051553797 10.741845873857423 325.16072915198015 18.0 0.0 0.0 15.0 
401.00197035879387 11.223592631516757 324.29732758438126 18.0 0.0 0.0 15.0 
402.001259301086 10.038989178656257 327.67348329028687 19.0 0.0 0.0 15.0 
403.00010494405035 8.89918862233825 303.913387055034 19.0 0.005928872439631716 2.9644362198158376 16.0 
404.00248554348923 9.494992215308526 305.19432974425456 19.0 0.005928872439631716 2.9644362198158376 16.0 
405.00027101396796 9.474816283045556 304.39776087836896 19.0 0.0 0.0 16.0 
406.00146776744276 7.164204408107577 293.0911850300105 20.0 0.0 0.0 16.0 
407.0022453699303 5.794236314188234 293.0911850300105 20.0 0.0 0.0 16.0 
408.0006504153574 4.657978413200511 289.2662418018358 20.0 0.0 0.0 16.0 
409.0000771317692 4.5797311382094055 290.0994907074028 20.0 0.0 0.0 16.0 
410.00061629802826 4.03303644819956 289.9068815809964 20.0 0.0 0.0 16.0 
411.0002287258771 3.5420628319920056 289.89038565341025 21.0 0.0 0.0 17.0 
412.0000890148485 3.657599117287494 289.7603142889504 21.0 0.0 0.0 18.0 
413.0022289511144 3.2208554561470772 289.7603142889504 21.0 0.006852859730638799 2.0255350612286236 17.0 
414.0020570834111 3.2300472080440046 290.31718828502375 21.0 0.015073477878896515 4.110309074128878 17.0 
415.0001912206809 3.3629561960192587 290.31718828502375 21.0 0.02895754727011765 4.293901657469149 17.0 
416.00021072336364 2.119206596748971 283.53650369380756 21.0 0.02895754727011765 4.293901657469149 17.0 
417.00230679870134 1.440683629498943 59.118729462500085 21.0 0.10457593892917907 37.80919582953092 17.0 
418.0027668056512 1.5096135174778995 73.73191112616638 21.0 0.16956776415337202 44.94878410092798 17.0 
419.00187745193443 1.4923453238762925 73.73191112616638 21.0 0.17573388223339606 44.94878410092798 17.0 
420.0015172291269 1.7985546531412033 100.17866852300614 22.0 0.1970935144469476 52.46485588409402 17.0 
421.00226337121956 1.6467818729835915 73.73191112616638 22.0 0.1970935144469476 52.46485588409402 17.0 
422.0012647991633 1.7486357968427229 73.73191112616638 22.0 0.1970935144469476 52.46485588409402 17.0 
423.0011618999695 1.6275954701876758 84.77897802706417 22.0 0.23104089385830354 56.057829475635856 17.0 
424.0011977867887 1.972405042439678 105.44128418938135 21.0 0.24349017507356552 56.057829475635856 17.0 
425.0001329179406 1.9706476315978334 107.59344117858535 21.0 0.2586342165205605 63.62985019913327 19.0 
426.0010078441794 1.741278248068416 84.77897802706417 21.0 0.2586342165205605 63.62985019913327 20.0 
427.001631747692 1.9520495929291186 107.59344117858535 21.0 0.0 0.0 20.0 
428.00051607316857 1.9080010170403832 110.65110126100166 21.0 0.0 0.0 19.0 
429.00178492033433 2.001793016010751 110.65110126100166 21.0 0.0 0.0 19.0 
430.0015172291269 1.9804640403835632 95.93883634908485 21.0 0.0 0.0 19.0 
431.0000602116399 1.9720862243525814 95.93883634908485 21.0 0.0 0.0 20.0 
432.00186796163763 1.9438363954746762 95.93883634908485 20.0 0.0 0.0 20.0 
433.0001249421242 1.5231005664459398 107.08208897108375 20.0 0.0 0.0 19.0 
434.00577378227314 1.4285890237303438 107.08208897108375 20.0 0.0 0.0 19.0 
435.00070217817995 1.705184457932526 107.08208897108375 20.0 0.0 0.0 19.0 
436.00226337121956 1.7096028047962515 107.08208897108375 20.0 0.0 0.0 19.0 
437.00057127942586 1.801706658908668 107.08208897108375 19.0 0.0 0.0 19.0 
438.00026565744463 1.7984537839950359 110.95519744045754 19.0 0.0 0.0 19.0 
439.00100813204955 1.811757847820765 117.84992354065031 19.0 0.004348423425017881 2.174211712508935 19.0 
440.0002079697975 2.116374114577019 117.84992354065031 19.0 0.0 0.0 19.0 
441.0015270148727 2.1569127101885486 117.84992354065031 19.0 0.0 0.0 18.0 
442.00332103411 2.04501615684891 117.84992354065031 20.0 0.0 0.0 18.0 
443.00078529260264 2.084636119577757 124.87137188836391 20.0 0.0 0.0 18.0 
444.00005627495545 2.3109753208538177 131.7291673488317 20.0 0.0 0.0 18.0 
445.0015172291269 2.5739790756757617 131.7291673488317 20.0 0.0 0.0 19.0 
446.00226337121956 2.5067884132769946 131.7291673488317 20.0 0.0 0.0 19.0 
447.0011192945918 2.413463895427306 131.7291673488317 20.0 0.0 0.0 19.0 
448.00046480061263 2.412646042864924 139.0885303272347 20.0 0.0 0.0 19.0 
449.00010850265346 2.7344232931370884 145.96559178529486 20.0 0.0 0.0 20.0 
450.000402857018 2.284964693126403 126.02841881928475 21.0 0.0 0.0 19.0 
451.00112577780044 1.9189024652693407 80.65716297190966 20.0 0.0 0.0 19.0 
452.00128653873077 1.929299569653257 87.03938070691117 20.0 0.0 0.0 19.0 
453.0003480846372 1.473180862663627 80.65716297190966 19.0 0.0 0.0 19.0 
454.00043407535776 1.6661694403342762 80.65716297190966 18.0 0.0 0.0 18.0 
455.0001794052816 1.482547477415339 78.42456212994949 19.0 0.0 0.0 18.0 
456.0003520335532 1.8494359286770528 87.07916327212331 17.0 0.0 0.0 18.0 
457.0005489373623 1.8052093529801205 87.07916327212331 18.0 0.0 0.0 18.0 
458.00017601510456 1.8558260671362437 87.07916327212331 17.0 0.0 0.0 18.0 
459.0060744155104 1.8631835338009053 79.52225464302882 17.0 0.0 0.0 18.0 
460.0015172291269 2.215628855556459 86.88449410300882 17.0 0.0 0.0 18.0 
461.0017618990918 2.1421812935088944 86.88449410300882 17.0 0.0 0.0 18.0 
462.0003441996774 1.931490163754568 78.18598521376629 17.0 0.0 0.0 18.0 
463.00166276927973 1.975540152955755 78.18598521376629 17.0 0.0 0.0 18.0 
464.0063051183533 2.133047115867104 79.33315425784645 17.0 0.0 0.0 18.0 
465.0015172291269 2.3866035431318684 86.71237696244731 17.0 0.0 0.0 18.0 
466.00036078897904 2.2111085353642648 78.13681856281988 17.0 0.0 0.0 18.0 
467.00030765607767 2.255315888073407 75.28714497309875 17.0 0.0 0.0 18.0 
468.00194924557456 2.307203769079111 77.90403952101445 17.0 0.0 0.0 18.0 
469.00054852885955 2.369221419970738 79.29785895579198 17.0 0.0 0.0 18.0 
470.0010439485623 2.4315122034823866 86.83400337957784 17.0 0.0 0.0 18.0 
471.00226337121956 2.6837016582397775 90.25350787483688 17.0 0.0 0.0 18.0 
472.00070566680483 2.378868893344395 90.25350787483688 18.0 0.0 0.0 18.0 
473.0014898673846 2.0207511883432265 78.6829032883237 18.0 0.0 0.0 18.0 
474.00470411103294 1.8778614534816145 70.92872267924787 17.0 0.0 0.0 17.0 
475.0015172291269 2.099935596210438 78.45571696760669 17.0 0.0 0.0 17.0 
476.0013546382552 2.06268456961921 78.45571696760669 17.0 0.0 0.0 17.0 
477.0010403497796 2.0822600658128363 71.06400910632243 17.0 0.0 0.0 17.0 
478.0024243521502 2.095322240558213 71.06400910632243 17.0 0.0 0.0 16.0 
479.00145823793736 2.1659732199546395 79.59680273618602 17.0 0.0 0.0 16.0 
480.0015172291269 2.4760135609200917 91.29348414967103 16.0 0.0 0.0 16.0 
481.00226337121956 2.3443680347741953 87.12406813698607 16.0 0.0 0.0 16.0 
482.000060576026 2.3496504232087183 87.12406813698607 16.0 0.0 0.0 16.0 
483.0018549814625 2.0598412399412394 87.12406813698607 15.0 0.0 0.0 16.0 
484.0000322194781 2.139661738105715 81.38776262623912 15.0 0.0 0.0 16.0 
485.00146320340383 2.317041778007351 88.8992308675501 15.0 0.0 0.0 16.0 
486.0016004246718 2.490021071047649 88.8992308675501 15.0 0.0 0.0 16.0 
487.00118889856566 2.4922016731207903 96.20526053725894 15.0 0.0 0.0 16.0 
488.00423948828376 2.3948544928714983 96.20526053725894 15.0 0.0 0.0 16.0 
489.00079288454646 2.3043399042382666 96.20526053725894 16.0 0.0 0.0 16.0 
490.0015172291269 2.7664090425953796 103.78796264183995 16.0 0.0 0.0 16.0 
491.00226337121956 0.964120296586592 45.66224284007248 15.0 0.0 0.0 16.0 
492.0002266430438 1.2217891688036244 64.05848173998874 16.0 0.0 0.0 16.0 
493.00007031975906 0.7396466441113342 50.86133583406533 17.0 0.0 0.0 16.0 
494.00000700755066 0.705700990849188 50.86133583406533 18.0 0.0 0.0 16.0 
495.0015172291269 0.24188616495820348 37.86881650545061 18.0 0.006269705414054018 3.1348527070270222 16.0 
496.00226337121956 0.09468994187762536 15.896984407789233 18.0 0.006269705414054018 3.1348527070270222 19.0 
497.00026392850566 0.09468994187762536 15.896984407789233 19.0 0.006269705414054018 3.1348527070270222 18.0 
498.0045306531699 0.08279635601778373 15.896984407789233 19.0 0.0 0.0 17.0 
499.0066502082783 0.0 0.0 19.0 0.0 0.0 17.0 
500.0015172291269 0.0 0.0 18.0 0.0058912700015144644 2.945635000757221 17.0 
501.00094196421696 0.0 0.0 19.0 0.0058912700015144644 2.945635000757221 17.0 
502.0030264953507 0.0 0.0 19.0 0.0058912700015144644 2.945635000757221 17.0 
503.0008227807606 0.0 0.0 18.0 0.0 0.0 17.0 
504.0034487800701 0.0 0.0 19.0 0.0 0.0 17.0 
505.0006961448263 0.0 0.0 19.0 0.0 0.0 17.0 
506.0006643518925 0.0 0.0 18.0 0.0 0.0 17.0 
507.0020104111362 0.0 0.0 18.0 0.0 0.0 17.0 
508.0015082175192 0.0 0.0 18.0 0.0 0.0 17.0 
509.0001166026535 0.0 0.0 18.0 0.0 0.0 17.0 
510.0015172291269 0.018994647071954945 7.028145926413174 17.0 0.0 0.0 17.0 
511.00144698719635 0.0340182146616425 9.980961404408134 17.0 0.0 0.0 17.0 
512.0027380730381 0.0340182146616425 9.980961404408134 17.0 0.0 0.0 18.0 
513.0010784567723 0.026755135475824254 9.980961404408134 17.0 0.0 0.0 18.0 
514.0015372711849 0.021508563751435165 10.754281875717652 16.0 0.0 0.0 17.0 
515.0002771918198 0.05617989645743544 17.335666353000192 16.0 0.0 0.0 17.0 
516.0003587143502 0.021508563751435165 10.754281875717652 16.0 0.0 0.0 17.0 
517.0018491355763 0.021508563751435165 10.754281875717652 16.0 0.0 0.0 17.0 
518.0054541527821 0.020375765759762687 6.942108014621937 16.0 0.0 0.0 17.0 
519.0000152012057 0.020375765759762687 6.942108014621937 16.0 0.0 0.0 18.0 
520.0015172291269 0.04979973167234941 14.297391727252574 16.0 0.0 0.0 19.0 
521.0022633712196 0.04979973167234941 14.297391727252574 17.0 0.0 0.0 17.0 
522.0040205506912 0.04979973167234941 14.297391727252574 17.0 0.0 0.0 17.0 
523.0000891779803 0.023172454618897147 10.602474108922053 17.0 0.0 0.0 17.0 
524.0022404592343 0.03639955802424034 9.470692473355882 17.0 0.0 0.0 17.0 
525.0007456500766 0.03639955802424034 9.470692473355882 17.0 0.0 0.0 17.0 
526.0022633712196 0.051147092496219286 9.470692473355882 17.0 0.0 0.0 18.0 
527.0023461508495 0.051147092496219286 9.470692473355882 17.0 0.0 0.0 18.0 
528.001789128934 0.03626759072670625 8.777359821895487 17.0 0.0 0.0 18.0 
529.005296565781 0.08349229598471856 15.28904711702387 17.0 0.0 0.0 18.0 
530.0012517804895 0.1338634741762294 21.20488277869785 17.0 0.0 0.0 16.0 
531.0002394126275 0.12520695292845768 22.589910868615817 17.0 0.0 0.0 16.0 
532.0015772908963 0.1419908641234187 22.589910868615817 17.0 0.0 0.0 16.0 
533.0006131342126 0.07192773933817505 22.589910868615817 17.0 0.0 0.0 19.0 
534.0057099580729 0.1706832936461377 36.12321706734389 17.0 0.0 0.0 19.0 
535.0012971874555 0.1782247605335752 36.12321706734389 17.0 0.0 0.0 18.0 
536.0008298059741 0.19300011729970962 37.49638345148452 17.0 0.0 0.0 17.0 
537.0042981406356 0.19052961906990765 37.49638345148452 17.0 0.0 0.0 17.0 
538.002311158934 0.19052961906990765 37.49638345148452 17.0 0.0 0.0 17.0 
539.0000942531345 0.12716255744553315 40.08186443689155 17.0 0.0 0.0 17.0 
540.0002394726555 0.04658357556585478 8.276462477140285 17.0 0.0 0.0 17.0 
541.0014076052126 0.05610705205312474 8.276462477140285 17.0 0.0 0.0 18.0 
542.0001379047591 0.03919305606162052 8.276462477140285 18.0 0.0 0.0 17.0 
543.0015670318497 0.056112700902652954 11.029107388412882 19.0 0.0 0.0 17.0 
544.0047619099919 0.06909081409424586 14.644009769060517 19.0 0.0 0.0 17.0 
545.000208316118 0.05978543637586697 14.644009769060517 21.0 0.0 0.0 16.0 
546.0020715766979 0.05978543637586697 14.644009769060517 21.0 0.0 0.0 16.0 
547.0057591381615 0.07965112716408357 14.644009769060517 20.0 0.0 0.0 16.0 
548.009240238539 0.12468993155232351 22.11876267203101 19.0 0.0 0.0 16.0 
549.0030109603975 0.11705639070068147 23.823159817520946 18.0 0.0 0.0 16.0 
550.0015172291269 0.11283052638462165 23.823159817520946 18.0 0.0 0.0 15.0 
551.0020680686043 0.13356379081375594 23.823159817520946 17.0 0.0 0.0 15.0 
552.0012081313766 0.14685627805552492 23.823159817520946 17.0 0.0 0.0 15.0 
553.0014742065558 0.2401249248116976 29.49350492069979 17.0 0.0 0.0 15.0 
554.0004449142394 0.1960786298693916 29.49350492069979 17.0 0.0 0.0 15.0 
555.00128357882 0.19989260443460508 29.49350492069979 17.0 0.0 0.0 15.0 
556.0022633712196 0.23390058187020651 29.49350492069979 17.0 0.0 0.0 15.0 
557.009195616572 0.17340603184757544 21.7629646402375 17.0 0.0 0.0 15.0 
558.0013901014792 0.2205566690983894 24.668365568331637 17.0 0.0 0.0 15.0 
559.0014083881797 0.26439598753161386 28.184203862482036 17.0 0.0 0.0 15.0 
560.000731971632 0.2978163790833467 28.184203862482036 17.0 0.0 0.0 15.0 
561.0010140192408 0.25894331030737655 28.184203862482036 17.0 0.0 0.0 15.0 
562.0026603631895 0.23475008521352528 31.342245319375763 17.0 0.0 0.0 15.0 
563.0033698586572 0.3292707985096236 33.570519986464745 17.0 0.0 0.0 15.0 
564.001020016098 0.2395191101444045 36.71488271447046 17.0 0.0 0.0 15.0 
565.0007128257456 0.3645311591219358 36.71488271447046 17.0 0.0 0.0 15.0 
566.0014569844973 0.4237316436063834 40.11334517957533 17.0 0.0 0.0 15.0 
567.0009573223878 0.11850148887152055 13.858725874365689 17.0 0.0 0.0 15.0 
568.0000960709092 0.20189940469004844 29.5086066667362 17.0 0.0 0.0 15.0 
569.000178295908 0.207060638834928 29.5086066667362 17.0 0.0 0.0 15.0 
570.0002803475302 0.25794071521723866 35.057668267768406 17.0 0.0 0.0 15.0 
571.0017294062125 0.3057641863380735 35.057668267768406 17.0 0.0 0.0 15.0 
572.0010052435099 0.3029432274437538 40.41930268061844 17.0 0.0 0.0 15.0 
573.0012675050049 0.3274158529479423 40.41930268061844 17.0 0.0 0.0 16.0 
574.0005201909831 0.32864293363388686 40.41930268061844 17.0 0.0 0.0 16.0 
575.0015172291269 0.36636322402520194 46.19502475405358 16.0 0.0 0.0 16.0 
576.0022633712196 0.4283110139707136 46.19502475405358 16.0 0.0 0.0 16.0 
577.00454254733 0.3431022854296746 34.70928952257145 17.0 0.0 0.0 16.0 
578.0000002918373 0.3986478241780579 40.04628969035207 17.0 0.0 0.0 16.0 
579.0062820261594 0.5798436810987712 51.67657384813586 18.0 0.0 0.0 16.0 
580.0009281033987 0.6833495269457194 40.04628969035207 17.0 0.0 0.0 17.0 
581.0013418950709 0.824100827274954 45.80039421141552 18.0 0.0 0.0 18.0 
582.00061221187 0.9011107946641246 45.80039421141552 18.0 0.0 0.0 17.0 
583.0015300940696 0.8502184360903559 51.278140193151245 18.0 0.0 0.0 17.0 
584.0005124495361 0.7734813417022417 40.970173245584306 18.0 0.0 0.0 17.0 
585.0009681912188 0.8218704194022861 41.88856595161715 18.0 0.0 0.0 17.0 
586.0010405637152 1.055716650016533 48.17921763224152 18.0 0.0 0.0 17.0 
587.0003755393857 1.0670619661846625 61.63096002743913 18.0 0.0 0.0 17.0 
588.0019152502271 1.1505873377041493 54.36923368825916 16.0 0.0 0.0 16.0 
589.0004094886644 1.3411335875224464 55.627886616477326 16.0 0.0 0.0 16.0 
590.0000807398412 1.2622892001405561 49.545535772039614 16.0 2.6553799139367087E-4 0.13276899569683565 16.0 
591.0022633712196 1.448635142424661 56.878524965433655 16.0 2.6553799139367087E-4 0.13276899569683565 16.0 
592.0000813490004 1.4880904345441281 56.878524965433655 16.0 0.0 0.0 16.0 
593.0041429374875 1.5410993595340108 56.878524965433655 16.0 0.0 0.0 16.0 
594.0015565466726 1.5067509583654517 56.878524965433655 16.0 0.0 0.0 16.0 
595.0015172291269 1.503248979772602 71.78073558117967 16.0 0.0 0.0 16.0 
596.0018219169086 1.4617470283551963 71.78073558117967 16.0 0.0 0.0 16.0 
597.0004893693994 1.4326250488029895 71.78073558117967 16.0 0.0 0.0 16.0 
598.0013403719679 1.3784125061988983 71.78073558117967 16.0 0.0 0.0 16.0 
599.0018634233134 1.4719728810516644 79.43848482628397 16.0 0.0 0.0 16.0 
600.0006223452812 1.375996353692864 47.879980138803944 17.0 0.0 0.0 16.0 
#####################################################################
# End of data export. Simulation finished at: 2019-02-25T20:00+0000 #
#####################################################################
