#####################################################################
# Alchemist log file - simulation started at: 2019-02-25T20:07+0000 #
#####################################################################
# seed = 58.0
#
# The columns have the following meaning: 
# time distance-rep[Mean] distance-rep[Max] leader-rep[CountDistinct] distance-share[Mean] distance-share[Max] leader-share[CountDistinct] 
0.0 NaN NaN NaN NaN NaN NaN 
1.0018865039102354 0.0 0.0 498.0 0.0 0.0 73.0 
2.0025769019928474 0.0 0.0 106.0 0.0 0.0 65.0 
3.000213132359654 0.0 0.0 101.0 0.0 0.0 60.0 
4.001986120488709 0.0 0.0 99.0 0.0 0.0 50.0 
5.001311561395727 0.0 0.0 90.0 0.0 0.0 46.0 
6.001886503910235 0.0 0.0 82.0 0.0 0.0 42.0 
7.001038686919312 0.0 0.0 84.0 0.0 0.0 41.0 
8.000727756775513 0.0 0.0 72.0 0.0 0.0 38.0 
9.000976638715445 0.0 0.0 73.0 0.0 0.0 35.0 
10.002334086723568 0.0 0.0 67.0 0.0 0.0 34.0 
11.00055245252562 0.0 0.0 65.0 0.0 0.0 33.0 
12.000232069103097 0.0 0.0 64.0 0.13176673822723303 27.459647381683027 34.0 
13.00016930837671 0.0 0.0 62.0 0.0 0.0 33.0 
14.004108707361414 0.0 0.0 57.0 0.0 0.0 36.0 
15.001243079939803 0.0 0.0 57.0 0.01525370365005938 4.548887883676201 31.0 
16.001211240862467 0.0 0.0 55.0 0.0 0.0 30.0 
17.001198761154352 0.0 0.0 54.0 0.0 0.0 31.0 
18.000476984584825 0.0 0.0 45.0 0.006414078022712798 3.2070390113564144 28.0 
19.000011615008432 0.0 0.0 47.0 0.01637820243038188 4.982062203834516 26.0 
20.002028282279415 0.0 0.0 43.0 0.028887510285332332 7.0434880979252625 25.0 
21.001886503910235 0.0 0.0 44.0 0.05538505338831308 13.24877155149045 25.0 
22.003463634636393 0.0 0.0 44.0 0.09851107319430866 14.244549015584226 24.0 
23.003337223164575 0.0 0.0 42.0 0.09965757113606928 14.244549015584226 23.0 
24.006334823990034 0.0 0.0 44.0 0.1126697082813546 18.676970498105362 24.0 
25.003401556295955 0.0 0.0 41.0 0.0 0.0 24.0 
26.000728730900068 0.0 0.0 41.0 0.0 0.0 21.0 
27.000215405036883 0.0 0.0 42.0 0.0 0.0 20.0 
28.000668178828676 0.0 0.0 39.0 0.0 0.0 16.0 
29.00008137390318 0.0 0.0 40.0 0.0 0.0 16.0 
30.00119871646963 0.0 0.0 38.0 0.0 0.0 16.0 
31.001530780752546 0.0 0.0 39.0 0.0 0.0 16.0 
32.00146067587052 0.0 0.0 38.0 0.0 0.0 16.0 
33.00223663000809 0.0 0.0 37.0 0.0 0.0 16.0 
34.001482331236105 0.0 0.0 38.0 0.0 0.0 16.0 
35.0026475734019 0.0 0.0 37.0 0.0 0.0 15.0 
36.001886503910235 0.0033655729625677454 1.6827864812838698 39.0 0.0 0.0 14.0 
37.006902222467346 0.0033655729625677454 1.6827864812838698 38.0 0.0 0.0 14.0 
38.00058177918766 0.01126171353768523 2.961367859072169 36.0 0.0 0.0 14.0 
39.00053083762031 0.0 0.0 35.0 0.0 0.0 13.0 
40.001307122487916 0.0 0.0 36.0 0.0 0.0 13.0 
41.00138591781988 0.029653207503342046 10.131778096349251 38.0 0.0 0.0 13.0 
42.00438175518655 0.0 0.0 39.0 0.0 0.0 13.0 
43.0004431969896 0.0 0.0 39.0 0.0 0.0 13.0 
44.00203315455199 0.0 0.0 38.0 0.0 0.0 14.0 
45.00402191917361 0.0 0.0 37.0 0.0 0.0 16.0 
46.001886503910235 0.0 0.0 38.0 0.0 0.0 16.0 
47.00232494092385 0.0 0.0 38.0 0.0 0.0 16.0 
48.00018614233116 0.0 0.0 38.0 0.0 0.0 16.0 
49.00174927241156 0.0 0.0 37.0 0.0 0.0 16.0 
50.000496257618394 0.0 0.0 36.0 0.0 0.0 16.0 
51.001886503910235 0.0 0.0 38.0 0.0 0.0 16.0 
52.00435358705411 0.0 0.0 36.0 0.0 0.0 16.0 
53.00280577638388 0.0 0.0 34.0 0.0 0.0 16.0 
54.004292208475164 0.0 0.0 36.0 0.0 0.0 16.0 
55.00113020800847 0.0 0.0 33.0 0.0 0.0 16.0 
56.00121502876427 0.0 0.0 32.0 0.0 0.0 16.0 
57.0017494293943 0.0 0.0 32.0 0.0 0.0 15.0 
58.00361603794558 0.0 0.0 31.0 0.0 0.0 15.0 
59.006358328007295 0.0 0.0 28.0 0.0 0.0 17.0 
60.002262239788976 0.0 0.0 28.0 0.0 0.0 17.0 
61.00139577852632 0.0 0.0 28.0 0.0 0.0 17.0 
62.00203424758436 0.0 0.0 27.0 0.0 0.0 17.0 
63.00120037470114 0.0 0.0 27.0 0.0 0.0 17.0 
64.00198733838616 0.0 0.0 27.0 0.0 0.0 16.0 
65.00063659420209 0.0 0.0 26.0 0.0 0.0 16.0 
66.00188650391024 0.0 0.0 26.0 0.0 0.0 16.0 
67.00224383514508 0.0 0.0 27.0 0.0 0.0 16.0 
68.00330173215058 0.0 0.0 27.0 0.0 0.0 16.0 
69.00345591625452 0.0 0.0 27.0 0.0 0.0 16.0 
70.00211471971528 0.0 0.0 26.0 0.0 0.0 16.0 
71.00188650391024 0.0 0.0 25.0 0.0 0.0 16.0 
72.00265997449542 0.0 0.0 23.0 0.0 0.0 16.0 
73.00348144845569 0.0 0.0 24.0 0.0 0.0 16.0 
74.00062640366662 0.0 0.0 23.0 0.0 0.0 15.0 
75.00006009509508 0.0 0.0 22.0 0.0 0.0 15.0 
76.00057185959612 0.0 0.0 21.0 0.0 0.0 15.0 
77.00042552691151 0.0 0.0 21.0 0.0 0.0 15.0 
78.00008715490081 0.0 0.0 21.0 0.0 0.0 15.0 
79.00554900855882 0.01360924157357549 6.804620786787808 21.0 0.0 0.0 15.0 
80.001525208736 0.01360924157357549 6.804620786787808 21.0 0.0 0.0 16.0 
81.00067063046767 0.01360924157357549 6.804620786787808 21.0 0.0 0.0 16.0 
82.00305005706667 0.027818164547141484 13.909082273570846 21.0 0.0 0.0 16.0 
83.00184978049818 0.027818164547141484 13.909082273570846 21.0 0.0 0.0 17.0 
84.0022974297005 0.003591490312811102 1.7957451564055589 20.0 0.0 0.0 18.0 
85.00094394809197 0.042281411419699176 21.1407057098495 20.0 0.0 0.0 19.0 
86.00129367239307 0.010845547615170937 5.4227738075854575 19.0 0.0 0.0 18.0 
87.00017865010241 0.0 0.0 18.0 0.0 0.0 18.0 
88.00671763217805 0.0 0.0 18.0 0.0 0.0 18.0 
89.00462810734953 0.00694594089537704 3.4729704476885104 18.0 0.0 0.0 18.0 
90.00081050667342 0.00988027088428795 3.4729704476885104 18.0 0.0 0.0 18.0 
91.00188650391024 0.03694493910272925 13.532334109220784 18.0 0.0 0.0 18.0 
92.00168299526776 0.03647570671307851 14.764882908850751 18.0 0.0 0.0 18.0 
93.00239894902185 0.05362909767814284 16.07407833378514 18.0 0.0 0.0 19.0 
94.00064133817023 0.16888872383075923 43.51658816961208 18.0 0.0 0.0 19.0 
95.00111639488078 0.08735189817505201 17.923518631660528 19.0 0.0 0.0 19.0 
96.00065286386464 0.15597730467128715 43.51658816961208 19.0 0.0 0.0 21.0 
97.00419014015698 0.11414464810881601 36.40063008098872 20.0 0.0 0.0 20.0 
98.00044644399 0.12298520795294518 36.40063008098872 19.0 0.0 0.0 20.0 
99.00036971390084 0.1521899069358897 43.71457604066262 19.0 0.0 0.0 19.0 
100.00019778984993 0.0 0.0 19.0 0.0 0.0 19.0 
101.00153132033692 0.0 0.0 19.0 0.0 0.0 19.0 
102.00071280495307 0.0 0.0 19.0 0.0 0.0 19.0 
103.00059371144853 0.0 0.0 19.0 0.0 0.0 19.0 
104.00067590984254 0.0 0.0 19.0 0.0 0.0 19.0 
105.0013953591882 0.0 0.0 19.0 0.0 0.0 19.0 
106.00146407444744 0.0 0.0 19.0 0.0 0.0 19.0 
107.00172888235262 0.0 0.0 19.0 0.0 0.0 19.0 
108.00083839869478 0.00206823605847469 1.0341180292373338 20.0 0.0 0.0 18.0 
109.00541252252803 0.03461669030039361 9.055714148529745 20.0 0.0 0.0 18.0 
110.00582961476557 0.05076273661733401 14.648195161124448 21.0 0.0 0.0 18.0 
111.00188650391024 0.04578723059898644 14.648195161124448 21.0 0.0 0.0 18.0 
112.00400177911042 0.0 0.0 20.0 0.0 0.0 18.0 
113.0004613060525 0.0 0.0 22.0 0.0 0.0 18.0 
114.00021544574632 0.0 0.0 22.0 0.0 0.0 18.0 
115.00002067981482 0.0 0.0 23.0 0.0 0.0 18.0 
116.00188650391024 0.0 0.0 23.0 0.0 0.0 18.0 
117.00055694630598 0.0 0.0 23.0 0.0 0.0 18.0 
118.00207481325572 0.015307277773062471 7.653638886531212 22.0 0.0 0.0 18.0 
119.00344741700233 0.007525492385975879 3.7627461929879473 22.0 0.0 0.0 18.0 
120.0011532249176 0.007144937640054147 3.5724688200270975 22.0 0.0 0.0 18.0 
121.0010483178456 0.013030220905731013 3.5724688200270975 22.0 0.0 0.0 18.0 
122.00504840845483 0.013030220905731013 3.5724688200270975 22.0 1.0497567971845062E-4 0.052487839859225005 18.0 
123.00103000140145 0.03239194420658244 9.680861650425811 22.0 0.0 0.0 19.0 
124.00006988355483 0.12199786747425517 21.337019507966602 22.0 0.0 0.0 19.0 
125.00151898837686 0.0721086942650962 16.270017020062426 22.0 0.0 0.0 19.0 
126.00179735948342 0.07985747054170429 16.270017020062426 20.0 0.0 0.0 19.0 
127.00248861136919 0.16209114358596674 23.846201090166744 21.0 0.0 0.0 19.0 
128.0022714365284 0.09597238928263219 13.581863895611548 20.0 0.0 0.0 19.0 
129.00321657820913 0.16821896462416222 20.20076537339753 20.0 0.0 0.0 19.0 
130.00490864208388 0.16171571050972308 20.20076537339753 20.0 0.0 0.0 19.0 
131.00032578541078 0.12866595333044348 15.10256093826547 20.0 0.0 0.0 19.0 
132.00558115720122 0.17698784076130403 24.16094371543005 20.0 0.0 0.0 19.0 
133.00025624130765 0.14678271888477296 24.16094371543005 21.0 0.0 0.0 20.0 
134.00036426385407 0.1503030033457786 21.92812328892967 21.0 0.0 0.0 21.0 
135.00018626290947 0.1996781260923636 21.92812328892967 21.0 0.0 0.0 21.0 
136.0002307703495 0.15726492327378572 20.03165536904146 21.0 0.0 0.0 21.0 
137.00058400317477 0.15726492327378572 20.03165536904146 21.0 0.0 0.0 21.0 
138.00034190918817 0.12664094007771262 20.719852681820925 21.0 0.0 0.0 21.0 
139.00246175181306 0.17396603929588766 25.34986889601086 21.0 0.0 0.0 21.0 
140.00055876742906 0.21196229159054417 25.34986889601086 20.0 0.0 0.0 21.0 
141.0003600546108 0.21196229159054417 25.34986889601086 21.0 0.0 0.0 21.0 
142.0006369702384 0.1580151883572277 22.17889758109851 20.0 0.0 0.0 21.0 
143.00121527561896 0.16611320434755045 22.17889758109851 20.0 0.0 0.0 21.0 
144.0033594919333 0.2251238341622919 29.129570321860996 20.0 0.0 0.0 21.0 
145.00269991129827 0.2084485942187783 29.129570321860996 19.0 0.0 0.0 22.0 
146.00056033049347 0.20493630862572487 26.253099383666978 19.0 0.0 0.0 22.0 
147.00254202762875 0.28288218471639515 38.97293804533507 19.0 0.0 0.0 21.0 
148.0031270956207 0.23435507412744708 26.253099383666978 19.0 0.0 0.0 21.0 
149.00319719729293 0.22064389224720532 32.346415429759304 19.0 0.0 0.0 20.0 
150.00132584541146 0.28033669036205744 28.780544356268024 19.0 0.0 0.0 20.0 
151.00121830624133 0.27489341322246547 28.780544356268024 20.0 0.0 0.0 20.0 
152.00026000158903 0.2615519706361233 28.780544356268024 19.0 0.0 0.0 19.0 
153.00019210142625 0.22085563767247685 28.780544356268024 19.0 0.0 0.0 19.0 
154.0004430939305 0.17825078404374115 20.94140716863859 18.0 0.0 0.0 22.0 
155.00336480730508 0.20189051892878807 27.585819784920403 18.0 0.0 0.0 20.0 
156.00188650391024 0.1728629734077008 27.585819784920403 17.0 0.0 0.0 20.0 
157.00047384957335 0.1933697085663321 27.585819784920403 17.0 0.0 0.0 18.0 
158.00109298875807 0.2026261684648252 21.235423485862896 17.0 0.0 0.0 18.0 
159.00352881784139 0.18435215723925513 27.759100762866325 17.0 0.0 0.0 18.0 
160.00103170495166 0.18703936501877244 27.759100762866325 16.0 0.0 0.0 18.0 
161.00053013711394 0.23907551281393014 27.759100762866325 17.0 0.0 0.0 18.0 
162.0047104070952 0.31145352413652394 40.84568220038233 17.0 0.0 0.0 18.0 
163.0003995906625 0.2724998699724043 40.84568220038233 17.0 0.0 0.0 18.0 
164.00243237228952 0.5328743210630225 39.68910785422622 17.0 0.0 0.0 18.0 
165.00787721058177 0.43230684003029596 43.80052978232541 17.0 0.0 0.0 18.0 
166.00147724405576 0.6251530610262115 40.53859705509805 18.0 0.0 0.0 19.0 
167.00047147761293 0.7624185492019874 40.31172160997471 18.0 0.0 0.0 18.0 
168.0032079363585 0.7439961192281588 40.31172160997471 18.0 0.0 0.0 19.0 
169.00069681675475 0.7683727862403831 40.31172160997471 21.0 0.0 0.0 19.0 
170.0003703128899 0.9906485102416489 51.7540127799721 22.0 0.0 0.0 19.0 
171.00004985802175 0.8924664184333619 51.7540127799721 20.0 0.0 0.0 20.0 
172.00311080047106 0.8863398159561084 40.10330047340716 21.0 0.0 0.0 20.0 
173.00065404693618 1.0530005396766777 46.65934856944003 20.0 0.0 0.0 19.0 
174.00221447972407 0.9594790691180622 46.65934856944003 20.0 0.0 0.0 20.0 
175.0001023486798 0.9699631518677272 46.65934856944003 20.0 0.0 0.0 20.0 
176.00188650391024 1.0636556155393417 46.65934856944003 19.0 0.0 0.0 19.0 
177.00036512265586 1.2040671571381427 48.18702875620153 19.0 0.0 0.0 19.0 
178.00101579890014 1.1652300411209173 45.82752798805075 20.0 0.0 0.0 20.0 
179.00030603762508 1.3805195707298707 97.61202363785901 20.0 0.0 0.0 19.0 
180.00197246639704 1.2884108822866767 52.84295168829246 20.0 0.0 0.0 19.0 
181.0014781924622 1.3026978097601396 52.84295168829246 20.0 0.0 0.0 19.0 
182.002039253202 1.1830589942145007 48.84516035974798 20.0 0.0 0.0 19.0 
183.00412438712897 1.3658365497822422 54.08424536349841 20.0 0.0 0.0 19.0 
184.00121236793186 1.1620301487418065 55.907987725552715 20.0 0.0 0.0 19.0 
185.00377607534037 1.6142711764527984 100.21034914140671 20.0 0.0 0.0 20.0 
186.00158399276933 1.595185908398662 100.21034914140671 20.0 0.0 0.0 20.0 
187.00363887086615 1.3872398688637506 88.8293794956744 21.0 0.0 0.0 21.0 
188.00095746625092 1.3113411231459398 60.647946531836794 21.0 0.0 0.0 21.0 
189.00171126781598 1.6168202839732904 88.8293794956744 21.0 0.0 0.0 21.0 
190.0016923487715 1.4317361253923775 88.8293794956744 21.0 0.0 0.0 21.0 
191.00056600293374 1.754644330372044 88.8293794956744 21.0 0.0 0.0 21.0 
192.00106132173266 1.630417959202939 77.28185026388797 21.0 0.0 0.0 23.0 
193.0042669989005 1.5424508792686937 77.28185026388797 21.0 0.0 0.0 24.0 
194.00102380413094 2.390352615524906 86.90178324733563 22.0 0.0 0.0 23.0 
195.0007554379712 1.909175961948544 77.28185026388797 23.0 0.0 0.0 23.0 
196.00188650391024 2.3485695401140965 78.70840215760097 22.0 0.0 0.0 21.0 
197.00320391724915 2.521167218816034 78.63190136108886 23.0 0.0 0.0 20.0 
198.00034400150045 2.6938016496241883 96.7127108748848 21.0 0.0 0.0 20.0 
199.0063583280073 3.2304814232410437 104.75096800460193 20.0 0.0 0.0 20.0 
200.0042010300364 3.651273320543099 109.60700546448788 20.0 0.0 0.0 20.0 
201.000433004194 3.700840626962779 116.43203324440901 20.0 0.0 0.0 20.0 
202.00203407803744 3.994316578606609 119.69895758618065 19.0 0.0 0.0 20.0 
203.00627554729232 4.037812479725719 119.69895758618065 19.0 0.0 0.0 20.0 
204.0001397026723 4.089593446048375 119.69895758618065 18.0 0.0 0.0 20.0 
205.00232426994614 4.003909452771452 119.69895758618065 18.0 0.0 0.0 21.0 
206.00188650391024 4.225821515431961 119.69895758618065 18.0 0.0 0.0 20.0 
207.00070378194144 4.631579032777137 144.86540819918105 18.0 0.0 0.0 20.0 
208.00134404003504 4.64207596494522 144.86540819918105 18.0 0.0 0.0 19.0 
209.00537847674298 4.784770003754105 144.86540819918105 18.0 0.0 0.0 19.0 
210.00258467061641 5.066381260929547 145.1655333536013 19.0 0.0 0.0 20.0 
211.00188650391024 5.411722796702481 149.9530232424026 19.0 0.0 0.0 21.0 
212.00203399819145 5.6780254680909135 149.63142930680715 19.0 0.0 0.0 20.0 
213.00013006720008 5.981516373322428 149.63142930680715 19.0 0.0 0.0 21.0 
214.001310375222 6.029558136636256 149.63142930680715 19.0 0.0 0.0 21.0 
215.00007323670536 5.9646441992410715 148.05497594518005 19.0 0.0 0.0 21.0 
216.00070863728553 6.148594153768579 148.05497594518005 19.0 0.0 0.0 21.0 
217.00098053354597 5.415488272624072 141.3391949245742 19.0 0.0 0.0 21.0 
218.00311338438914 5.312903337739925 141.3391949245742 19.0 0.0 0.0 21.0 
219.0053472688497 5.348573825229244 138.43526792747417 19.0 0.0 0.0 21.0 
220.00160983426576 5.476542428170043 138.43526792747417 19.0 0.0 0.0 21.0 
221.00154999959878 5.508301523010899 144.70317604191342 19.0 0.0 0.0 21.0 
222.00404224716843 5.066886409624578 137.99613585226507 19.0 0.0 0.0 22.0 
223.00146618368396 4.980815847611548 137.99613585226507 19.0 0.0 0.0 22.0 
224.00006084336331 4.8341044743654 137.99613585226507 19.0 0.0 0.0 22.0 
225.00092022629966 4.979353757954889 137.99613585226507 19.0 0.0 0.0 22.0 
226.00028453825843 4.84400762802148 137.99613585226507 19.0 0.0 0.0 22.0 
227.00192866175774 3.9893849436482083 115.51126720484945 19.0 0.0 0.0 24.0 
228.0005876248958 3.7690215031603693 115.51126720484945 19.0 0.0 0.0 24.0 
229.00219490410853 3.77618981287457 111.05287434996637 19.0 0.0 0.0 23.0 
230.0015348382812 3.692516663084673 115.80356274118003 19.0 0.0 0.0 23.0 
231.00032723016545 3.694934387849644 115.80356274118003 20.0 3.835350735781157E-4 0.1917675367890581 22.0 
232.00034092809642 3.324485553980014 109.47270335908183 20.0 3.835350735781157E-4 0.1917675367890581 23.0 
233.00311831773055 3.2236520429533333 109.19215313408262 19.0 0.0 0.0 23.0 
234.0063583280073 3.486426750556709 124.30161327319485 19.0 0.0 0.0 24.0 
235.00209913284928 3.4225559844160616 125.25988852527269 19.0 0.0 0.0 23.0 
236.00188650391024 4.308585848380781 132.13609651233008 19.0 0.0 0.0 23.0 
237.00169600512723 3.920226175140168 119.14349283727 20.0 0.0 0.0 23.0 
238.00126208575355 4.101506536999263 129.69042894146895 21.0 0.0 0.0 23.0 
239.00187125289156 3.883473340502443 129.69042894146895 21.0 0.0 0.0 23.0 
240.00197465824118 3.9066671949604426 123.47623703593877 21.0 0.0 0.0 23.0 
241.00183373078048 4.031364622329903 136.32948971709556 21.0 0.0 0.0 23.0 
242.00054474593537 3.4085296008470345 116.62659324856816 21.0 0.0 0.0 23.0 
243.00157832347287 3.3580575030947757 116.62659324856816 21.0 0.0 0.0 23.0 
244.00392082142335 3.30977242749309 116.62659324856816 21.0 0.0 0.0 21.0 
245.00296450812957 3.2704799031395924 110.43415142933912 21.0 0.0 0.0 21.0 
246.00060876114276 3.3543573520513426 113.70411475094994 21.0 0.0 0.0 21.0 
247.00217158987456 3.0126352408847006 106.90554676363178 21.0 0.0 0.0 20.0 
248.00014623870888 2.8342660130007156 106.90554676363178 21.0 0.0 0.0 19.0 
249.0003778852621 2.9758122304695687 106.90554676363178 21.0 0.0 0.0 18.0 
250.00305724527433 2.947362497898808 112.9378194526085 20.0 0.0 0.0 17.0 
251.00188650391024 3.074169117758385 112.9378194526085 21.0 0.0 0.0 17.0 
252.0009156000652 2.8866708946988195 106.19857293073295 21.0 0.0 0.0 17.0 
253.00053824130103 2.8324530402153196 106.19857293073295 21.0 0.0 0.0 17.0 
254.0010238124261 2.796535134775847 106.19857293073295 21.0 0.0 0.0 17.0 
255.00368910774975 2.8453370027241527 96.48980556574526 21.0 0.0 0.0 16.0 
256.0008548983895 2.49393153391483 96.48980556574526 20.0 0.0 0.0 16.0 
257.00088266710344 2.0448246072953604 89.7852428923747 21.0 0.0 0.0 16.0 
258.00717684842346 1.9809699353114032 89.7852428923747 21.0 0.0 0.0 16.0 
259.0033285775628 2.0061972023165664 95.68544322597586 21.0 0.0 0.0 16.0 
260.00465890260796 1.8907249350240474 95.68544322597586 21.0 0.0 0.0 16.0 
261.00025926412803 1.8887310843670042 95.68544322597586 20.0 0.0 0.0 16.0 
262.0033297980606 1.7458622720699404 88.96764513362172 20.0 0.0 0.0 16.0 
263.0008847492223 1.4809560897378953 66.24390764378518 20.0 0.0 0.0 16.0 
264.00282542501463 1.4000806832709993 66.24390764378518 20.0 0.0 0.0 15.0 
265.0040103966487 1.3949954393038089 60.75184559739927 20.0 0.0 0.0 15.0 
266.0012902470194 1.4837727272393664 62.59578242971901 20.0 0.0 0.0 15.0 
267.000027209974 1.3175585298808665 56.21108001578068 20.0 0.0 0.0 15.0 
268.0015987164123 1.2896205693972687 56.21108001578068 22.0 0.0 0.0 16.0 
269.00004777507735 1.2254456558845497 56.21108001578068 22.0 0.0 0.0 15.0 
270.0011391232763 1.2040967442726658 56.21108001578068 22.0 0.0 0.0 15.0 
271.00028122956763 1.1398965452889718 61.676462369804256 21.0 0.0 0.0 15.0 
272.00038803284133 0.9881043369715851 55.66852927715823 21.0 0.0 0.0 17.0 
273.0006875448797 1.0148439267320721 55.66852927715823 21.0 0.0 0.0 16.0 
274.0058374744102 1.0625129985663362 55.66852927715823 22.0 0.0 0.0 15.0 
275.0031491099475 1.0107187778915996 55.66852927715823 22.0 0.0 0.0 15.0 
276.00097195048704 1.0081645452821972 61.14559761774194 22.0 0.0 0.0 15.0 
277.0012650959144 0.9660202890153665 60.358777324101084 22.0 0.0 0.0 15.0 
278.00057818181006 1.0152456172091922 60.358777324101084 22.0 0.0 0.0 15.0 
279.00248133123586 1.0017444621533274 60.358777324101084 22.0 0.0 0.0 15.0 
280.0025392043742 0.8166625555935767 60.358777324101084 22.0 0.0 0.0 15.0 
281.0018865039102 0.8481369464188722 65.8361583615656 22.0 0.0 0.0 15.0 
282.00000732845814 1.012163559247155 69.0499496372039 23.0 0.0 0.0 15.0 
283.0014730891039 1.1025723525263242 71.99068472264219 23.0 0.0 0.0 15.0 
284.0062931680053 1.1169345280540226 71.99068472264219 23.0 0.0 0.0 15.0 
285.001368252242 1.0851992301491826 70.73418740112112 23.0 0.0 0.0 15.0 
286.0018865039102 0.8281493321905877 68.84452145565393 22.0 0.0 0.0 14.0 
287.003163387002 1.0702761150440412 76.55595552869016 21.0 0.0 0.0 14.0 
288.004530059413 1.0689255569322362 70.05597340599184 20.0 0.0 0.0 14.0 
289.00122823579846 1.4951551600447182 76.22995107249119 19.0 0.0 0.0 14.0 
290.0021946644875 1.5060737711853942 75.56515096156284 19.0 0.0 0.0 15.0 
291.00014805468885 1.9115333754810657 111.52933866141444 19.0 0.0 0.0 14.0 
292.0028357827851 1.8168927094090344 111.52933866141444 19.0 0.0 0.0 14.0 
293.00130164221906 1.9440673124192724 89.93238569543661 21.0 0.0 0.0 14.0 
294.00249602610137 1.2270531267266434 76.32247610143895 20.0 0.0 0.0 14.0 
295.0106016214734 1.212628951160543 76.32247610143895 20.0 0.0 0.0 15.0 
296.0018865039102 1.2089873641270767 76.32247610143895 21.0 0.0 0.0 15.0 
297.0010680047981 0.9669469741167332 78.136796700525 21.0 0.0 0.0 13.0 
298.0023895810866 0.8091589711927073 78.136796700525 22.0 0.0046681247671382965 1.9975752218540777 13.0 
299.0001293975756 0.49008371160150577 73.54078523354724 22.0 0.007588172121956149 3.4575988992630187 13.0 
300.0043032366481 0.48784746471904383 75.63854230247193 22.0 0.007588172121956149 3.4575988992630187 15.0 
301.00072605696596 0.1869836151590862 73.169244907603 22.0 0.0 0.0 16.0 
302.0020035847176 0.0547995787642105 21.00212297103147 21.0 0.0 0.0 16.0 
303.00086288952605 0.0547995787642105 21.00212297103147 21.0 0.0 0.0 15.0 
304.00090040455353 0.0555661819268649 21.109347044428034 21.0 0.0 0.0 16.0 
305.0032258383023 0.0555661819268649 21.109347044428034 21.0 0.0 0.0 16.0 
306.0016174576622 0.042218694088856194 21.109347044428034 22.0 0.0 0.0 17.0 
307.0003232850788 0.11992600123860127 31.66768515099153 22.0 0.0 0.0 18.0 
308.0025280624569 0.12020609221967393 31.807730641528195 23.0 0.0 0.0 17.0 
309.00123135310844 0.12085269321295371 31.807730641528195 23.0 0.0 0.0 17.0 
310.0017393098255 0.14430874369368396 31.807730641528195 23.0 0.0 0.0 18.0 
311.0018865039102 0.1586032711271946 31.807730641528195 23.0 0.0 0.0 19.0 
312.00007928665775 0.17279727185589724 35.55974922854563 23.0 0.0 0.0 20.0 
313.0047962358345 0.1511863121673397 35.55974922854563 23.0 0.0 0.0 20.0 
314.0020172324863 0.27694608588390496 35.861630092437736 22.0 0.0 0.0 19.0 
315.0022687370616 0.33879322544583385 35.861630092437736 23.0 0.0 0.0 19.0 
316.0002703904942 0.44514180071622905 35.861630092437736 23.0 0.0 0.0 19.0 
317.00005037130194 0.5317049308866255 43.09219469997933 22.0 0.0 0.0 19.0 
318.00575822325357 0.5287858270811456 43.09219469997933 22.0 0.0 0.0 19.0 
319.00315697082664 0.5956872478234865 37.11310060932294 22.0 0.0 0.0 19.0 
320.0030724654169 0.6585956521541659 39.229992411051995 22.0 0.0 0.0 19.0 
321.0018865039102 0.7414893176178002 44.595606733116085 23.0 0.0 0.0 20.0 
322.0009349769989 0.6601771036173217 45.113605346438675 23.0 0.0 0.0 21.0 
323.0002168317154 0.8408635799029186 50.199571899208394 23.0 0.0 0.0 20.0 
324.0050722696734 0.7410227871070466 45.113605346438675 23.0 0.0 0.0 20.0 
325.00048823790644 0.8471396889479915 50.199571899208394 24.0 0.0 0.0 20.0 
326.0018865039102 0.9270031050982064 52.59776792380825 25.0 0.0 0.0 21.0 
327.0001264437876 0.8827598172418716 55.98700036778777 25.0 0.0 0.0 21.0 
328.00057709588503 0.95511035153551 61.28781842655917 25.0 6.267125249639723E-4 0.3133562624819888 21.0 
329.0009535924847 1.0083625396600338 61.28781842655917 25.0 0.0 0.0 20.0 
330.00076767925316 0.840965568329244 55.98700036778777 24.0 0.0 0.0 20.0 
331.0018865039102 0.9739398815777704 56.96924978724991 23.0 0.0 0.0 19.0 
332.0004981004691 1.0803275092461397 60.3707818321995 23.0 0.0 0.0 19.0 
333.0018850679347 1.091059123661746 60.3707818321995 22.0 0.0 0.0 19.0 
334.0006926100225 1.054637257135002 60.3707818321995 22.0 0.0 0.0 19.0 
335.0001364457747 1.1205128147233576 60.3707818321995 22.0 0.0 0.0 18.0 
336.00127377327107 1.0575005930909254 59.508664900764586 22.0 0.0 0.0 18.0 
337.0010817878817 1.1409478821624683 62.82476438912255 22.0 0.0 0.0 18.0 
338.0011064096555 1.1038750501318666 62.82476438912255 21.0 0.0 0.0 18.0 
339.00140279895305 1.041322498399957 62.82476438912255 21.0 0.0 0.0 19.0 
340.00009446123335 1.1971663714716996 67.86382563165523 21.0 0.0 0.0 18.0 
341.00078786429106 1.1474452656999092 66.87985551607312 22.0 0.0 0.0 20.0 
342.00052994027595 1.1058931617970853 73.35097524492858 22.0 0.0 0.0 20.0 
343.0005006535948 1.306178835442392 73.35097524492858 22.0 0.0 0.0 20.0 
344.00127141359064 1.0920568059488687 68.53842548979873 22.0 0.0 0.0 20.0 
345.000029474546 1.264706116200465 73.10249190056237 22.0 0.0 0.0 20.0 
346.0018865039102 1.2127765669335357 67.77551517211543 22.0 0.0 0.0 20.0 
347.00000085083605 1.05905118703409 65.70847396122679 22.0 0.0 0.0 20.0 
348.00297794428366 1.5743436405171205 80.16556949447312 22.0 0.0 0.0 20.0 
349.001863013013 1.6471872609400358 84.40415378465252 22.0 0.0 0.0 20.0 
350.00008865859894 1.9447563372372774 93.37909936436637 22.0 0.0 0.0 20.0 
351.0015498438551 2.006124187297069 92.81510636398684 22.0 0.0 0.0 20.0 
352.0024375919351 1.855012555959325 87.08644206138831 23.0 0.0 0.0 20.0 
353.0071829986718 1.9684043664460493 91.27616304923691 24.0 0.0 0.0 20.0 
354.0037337420741 1.9524113295726204 91.27616304923691 24.0 0.0 0.0 20.0 
355.00032949151966 2.1810904886523135 102.48134413714286 24.0 0.0 0.0 20.0 
356.0018865039102 2.1127579453171346 102.45287142321064 25.0 0.0 0.0 20.0 
357.00919256708636 2.1783953600482175 102.45287142321064 25.0 0.0 0.0 19.0 
358.00470226395703 2.170416645943572 102.45287142321064 25.0 0.0 0.0 19.0 
359.0051509703449 2.264650056705952 102.45287142321064 25.0 0.0 0.0 19.0 
360.0017790655976 2.048582370857626 92.25630758790487 24.0 0.0 0.0 19.0 
361.0018865039102 1.9837431485108314 92.13400703187938 24.0 0.0 0.0 18.0 
362.0002989597135 2.1133949649755146 94.53879967174015 24.0 0.0 0.0 19.0 
363.00000456192623 2.09684763270561 94.53879967174015 24.0 0.0 0.0 18.0 
364.00067148965536 1.8988354805768206 94.53879967174015 24.0 0.0 0.0 18.0 
365.00491942391227 2.657990855464998 103.22489261911 24.0 0.0 0.0 18.0 
366.00058285932914 3.111189114591606 109.5643555052352 24.0 0.0 0.0 18.0 
367.00166312790213 3.5193705143304057 136.96352199106627 21.0 0.0 0.0 17.0 
368.00097575182014 3.913917015414732 136.75926070556687 21.0 0.0 0.0 17.0 
369.0008943745251 4.967070826209911 141.65022382076012 21.0 0.0 0.0 17.0 
370.0010120278218 4.543141123769056 136.69927526039987 20.0 0.0 0.0 17.0 
371.0012115527049 5.550555480170922 149.2038207096483 19.0 0.0 0.0 17.0 
372.0099130370138 4.637237334895122 120.73907372094044 20.0 0.0 0.0 17.0 
373.0005478084498 5.157062819306224 149.2038207096483 20.0 0.0 0.0 17.0 
374.00151983087363 5.192381461197752 144.51987871391123 20.0 0.0 0.0 17.0 
375.00025843788586 5.976940944382281 144.51987871391123 19.0 0.0 0.0 17.0 
376.0018865039102 5.564414617850606 144.46721346691908 20.0 0.0 0.0 17.0 
377.0038902176431 5.589845411837964 151.98318428211388 19.0 0.0 0.0 18.0 
378.0004127033361 5.488385916869557 151.98318428211388 19.0 0.0 0.0 18.0 
379.00208925234267 5.532663677025696 151.98318428211388 19.0 0.0 0.0 18.0 
380.00293738228834 5.626241158908483 151.98318428211388 19.0 0.011928358518194442 5.964179259097193 18.0 
381.0018865039102 6.352388553238519 162.87068053242058 20.0 0.02352564142993509 11.762820714967603 19.0 
382.00176731136355 5.399286526979821 135.60443464293718 21.0 0.03134825166199089 11.762820714967603 18.0 
383.0029098958983 5.564130105511722 162.87068053242058 21.0 0.031395372395139315 10.714844902870766 18.0 
384.000661160913 3.8613895320912293 104.27348160242599 21.0 0.031395372395139315 10.714844902870766 18.0 
385.0024862137582 3.1781617501125234 100.9792108497864 23.0 0.031395372395139315 10.714844902870766 18.0 
386.0018865039102 2.987488670530914 97.65589821769765 23.0 0.031395372395139315 10.714844902870766 19.0 
387.0056647804487 3.2077221432820653 102.93880746570909 23.0 0.055539433009321335 16.72137347793071 19.0 
388.0004183994364 3.0947212754067106 101.830779938217 22.0 0.02921970377914679 10.221575463460482 19.0 
389.0043313588171 3.1353157648514207 101.830779938217 22.0 0.02921970377914679 10.221575463460482 19.0 
390.00028915940413 3.6214226475135662 102.93880746570909 22.0 0.02921970377914679 10.221575463460482 19.0 
391.0018865039102 2.9771731785252897 98.8319787731354 21.0 0.02921970377914679 10.221575463460482 19.0 
392.0010376758907 3.1832552620933954 101.59642238081756 21.0 0.08514470483995938 16.710490331968856 19.0 
393.004667848892 2.328688208354131 85.42285943793439 20.0 0.05888707022777556 14.933001852933046 20.0 
394.00031239360385 2.877643133397744 98.8319787731354 21.0 0.029021066521909472 10.121015225434604 19.0 
395.00124189885577 2.646940480707952 85.42285943793439 21.0 0.029021066521909472 10.121015225434604 17.0 
396.00080610494615 2.7696151367377593 79.30379043907755 19.0 0.052946144141737025 16.710599231148933 17.0 
397.00275579290144 2.7089509629221196 81.19837081451556 19.0 0.14465708077428968 17.770998913713328 17.0 
398.00206375087487 2.481066814396841 81.19837081451556 19.0 0.13195986608963595 17.770998913713328 17.0 
399.000163798928 2.1843949569702494 81.19837081451556 19.0 0.13195986608963595 17.770998913713328 17.0 
400.0010961029926 2.7819023067943984 116.3445592701845 19.0 0.2728353360397624 70.43773497506339 17.0 
401.0018865039102 2.7385276385388333 116.3445592701845 20.0 0.276292015453604 65.65674756422817 17.0 
402.0044205514468 2.6697454421971707 116.3445592701845 20.0 0.36280495533643886 71.98586711073506 17.0 
403.0047868343719 2.111804122791493 116.3445592701845 20.0 0.3698692478482398 71.98586711073506 17.0 
404.00300517330584 1.9374446729019175 116.88835845572618 19.0 0.3698692478482398 71.98586711073506 17.0 
405.00226406112915 1.4729312451807677 116.88835845572618 18.0 0.3698692478482398 71.98586711073506 17.0 
406.0018865039102 1.6081400734489617 124.05914013251572 18.0 0.381837919512432 64.94374997756245 17.0 
407.000145039485 1.717928863894359 124.05914013251572 18.0 0.403357657055978 71.34155511906675 17.0 
408.00151630423574 1.515204240176507 124.05914013251572 18.0 0.4095081434451473 71.34155511906675 17.0 
409.006355702602 1.7502990637095928 125.65573982996023 18.0 0.4095081434451473 71.34155511906675 17.0 
410.00598435509033 2.1023884730817346 132.79201980777725 18.0 0.4095081434451473 71.34155511906675 17.0 
411.0018865039102 2.113348228091333 132.79201980777725 19.0 0.3955507311926273 64.36284899280645 18.0 
412.0010920182628 2.1096412353612233 132.79201980777725 19.0 0.49682179549768385 70.91048948629941 19.0 
413.0043991498193 1.9353373600267947 132.79201980777725 19.0 0.0 0.0 19.0 
414.0000780516557 2.007310414588106 134.98328969885188 19.0 0.0 0.0 19.0 
415.0006513743031 2.2256816569291007 142.03771770716935 19.0 0.0 0.0 19.0 
416.0018865039102 2.0497746816331297 142.03771770716935 19.0 0.0 0.0 19.0 
417.0012976543557 2.0528863485064557 142.03771770716935 19.0 0.0 0.0 19.0 
418.003210636534 2.073118386595737 142.03771770716935 19.0 0.0 0.0 18.0 
419.00018591670954 2.1301210062336944 144.33050366415642 19.0 0.0 0.0 18.0 
420.0001958752301 2.1459085130362383 144.33050366415642 19.0 0.0 0.0 18.0 
421.0018865039102 2.1516779329152658 137.32786588505462 20.0 0.0 0.0 18.0 
422.0012957331277 2.1471734772517164 137.32786588505462 20.0 0.0 0.0 18.0 
423.0010589870942 2.166834786302459 137.32786588505462 19.0 0.0 0.0 18.0 
424.00063276166406 2.0991348495637845 139.69091660258738 20.0 0.0 0.0 20.0 
425.0015167229701 1.9536220429904136 136.12959596094356 20.0 0.0 0.0 19.0 
426.0018865039102 2.098371240850907 136.12959596094356 20.0 0.0 0.0 19.0 
427.00058470063175 2.2537027024291714 136.12959596094356 20.0 0.0 0.0 19.0 
428.0009217343889 2.1076992796014085 136.12959596094356 20.0 0.0 0.0 19.0 
429.0063583280073 1.963520310717286 141.0816449963334 20.0 0.0 0.0 20.0 
430.0006214544466 2.0324280805171244 144.3256836148928 20.0 0.0 0.0 19.0 
431.0018865039102 1.6877448873501768 128.43771350487833 21.0 0.0 0.0 19.0 
432.0033945356701 1.6733039373317455 128.43771350487833 21.0 0.0 0.0 18.0 
433.0005943420167 1.6720207617954803 128.43771350487833 21.0 0.0 0.0 18.0 
434.0001800554945 1.7212703440920767 131.42186671200017 21.0 0.0 0.0 19.0 
435.0016370214006 1.6042716343913879 131.42186671200017 20.0 0.0 0.0 19.0 
436.0018865039102 1.5780987187407822 124.53979285202422 21.0 0.0 0.0 20.0 
437.0058981383632 1.5769869106637613 124.53979285202422 20.0 0.0 0.0 20.0 
438.0007117587761 1.5881296987878617 124.53979285202422 20.0 0.0 0.0 20.0 
439.00010386921224 1.8002404148366238 127.7130915661923 20.0 0.0 0.0 20.0 
440.0018211941039 1.6643745728120705 120.87711520095638 20.0 0.0 0.0 19.0 
441.0018865039102 1.6462705391448 120.87711520095638 20.0 0.0 0.0 19.0 
442.00032732785803 1.6874420700568207 120.87711520095638 20.0 0.0 0.0 19.0 
443.00067300588637 1.657242083521106 124.20781230272462 20.0 0.0 0.0 19.0 
444.00098733990376 1.7333338622220062 124.20781230272462 19.0 0.0 0.0 19.0 
445.0033668687839 1.7468864864705465 128.73289429750815 19.0 0.0 0.0 19.0 
446.0018865039102 1.5972316260032935 128.73289429750815 19.0 0.0 0.0 19.0 
447.00149795929553 1.5972316260032935 128.73289429750815 19.0 0.0 0.0 19.0 
448.0002743496472 1.58700535805256 128.73289429750815 19.0 0.0 0.0 19.0 
449.0006423621301 1.625755419069289 132.42111109219024 19.0 0.0 0.0 19.0 
450.0000458649958 1.6286764633474753 139.01445419932634 19.0 0.0 0.0 18.0 
451.0018865039102 1.8610112055974084 139.01445419932634 19.0 0.0 0.0 17.0 
452.0003272008984 1.8758745722610393 139.01445419932634 19.0 0.0 0.0 17.0 
453.0025268697101 1.8493879908418795 139.01445419932634 19.0 0.0 0.0 18.0 
454.00063228438717 1.6898182987636439 143.08269770656148 19.0 0.0 0.0 17.0 
455.00151637364445 1.454888850517612 149.58995695227276 19.0 0.0 0.0 17.0 
456.0009811237155 1.7025675331671515 149.58995695227276 19.0 0.0 0.0 16.0 
457.00188434360985 1.3184913227909514 149.58995695227276 19.0 0.0 0.0 16.0 
458.0053986851739 1.3070569024080807 149.58995695227276 19.0 0.0 0.0 16.0 
459.0008224566009 1.5630987627743318 153.4624997059322 19.0 6.636524107210571E-5 0.03318262053605281 16.0 
460.0003458347198 1.573314958572638 159.9432267467547 20.0 6.636524107210571E-5 0.03318262053605281 16.0 
461.0002062138829 1.5522501183783948 159.9432267467547 21.0 0.0 0.0 17.0 
462.00333842524236 1.5522501183783948 159.9432267467547 21.0 0.0 0.0 18.0 
463.00170813935193 1.5522501183783948 159.9432267467547 22.0 0.0 0.0 18.0 
464.00467208446724 1.599592383499706 164.162242158001 22.0 0.0 0.0 18.0 
465.003713969157 1.3654658095307068 170.6645658602347 22.0 0.0 0.0 18.0 
466.0018865039102 1.606311813416403 170.6645658602347 22.0 0.0 0.0 18.0 
467.0022669659961 1.3629448921388665 170.6645658602347 22.0 0.0 0.0 18.0 
468.0023298666644 1.3659378257152233 170.6645658602347 22.0 0.0 0.0 18.0 
469.0000238769955 0.8053757696392628 135.23148598038222 22.0 0.0 0.0 18.0 
470.00029243017434 0.83020953944394 135.23148598038222 22.0 0.0 0.0 18.0 
471.00009774001506 0.8303553195614266 139.1678724738657 22.0 0.0 0.0 18.0 
472.0000018804364 0.566525245212676 139.1678724738657 22.0 0.0 0.0 19.0 
473.0002003310039 0.2783357449477339 139.1678724738657 22.0 0.0 0.0 20.0 
474.0022061496631 0.020466343296954757 10.233171648477338 22.0 0.0 0.0 19.0 
475.0002130800266 0.051989369971384786 17.543535863050153 22.0 0.0 0.0 19.0 
476.0018865039102 0.06479349902492915 23.945600389822346 22.0 0.0 0.0 19.0 
477.0010394716033 0.0 0.0 22.0 0.0 0.0 19.0 
478.0023963965995 0.0 0.0 22.0 0.0 0.0 19.0 
479.00010917297055 0.0 0.0 22.0 0.0 0.0 19.0 
480.0036866854099 0.0 0.0 22.0 0.0 0.0 18.0 
481.0018865039102 0.02022664950493402 10.113324752467037 22.0 0.0 0.0 18.0 
482.0010811629543 0.033044154211465046 16.522077105732563 23.0 0.0 0.0 17.0 
483.0005954453816 0.0 0.0 23.0 0.0 0.0 18.0 
484.00005112471456 0.0 0.0 23.0 0.0 0.0 18.0 
485.00327895470053 0.02331296224088525 11.656481120442606 23.0 0.0 0.0 17.0 
486.0018865039102 0.02331296224088525 11.656481120442606 22.0 0.0 0.0 17.0 
487.002354848381 0.037539684109726044 18.033533885540578 20.0 0.0 0.0 17.0 
488.000528201265 0.08323485000129094 18.033533885540578 20.0 0.0 0.0 17.0 
489.00020900467126 0.09771651318932945 18.033533885540578 20.0 0.0 0.0 17.0 
490.0005376767294 0.0863321474367019 13.415065321143402 20.0 0.0 0.0 17.0 
491.00040679121395 0.10333488984074853 13.415065321143402 19.0 0.0 0.0 17.0 
492.0007787033764 0.13567864086805345 19.546863632079777 21.0 0.0 0.0 21.0 
493.0016719235954 0.18580675661919022 19.546863632079777 21.0 0.0 0.0 21.0 
494.0007903034555 0.2683091740691039 19.546863632079777 22.0 0.0 0.0 22.0 
495.00420295231584 0.2221609419857249 17.807429959697515 22.0 0.0 0.0 22.0 
496.0018865039102 0.3016357258100415 24.54874402100026 22.0 0.0 0.0 22.0 
497.0010157491445 0.4073891427908758 24.54874402100026 21.0 0.0 0.0 21.0 
498.0001886212676 0.3924993285294084 29.73478460290616 21.0 0.0 0.0 21.0 
499.0013704216166 0.3997034346835565 29.73478460290616 21.0 0.0 0.0 21.0 
500.0016716043008 0.45975338604131594 29.73478460290616 21.0 0.0 0.0 20.0 
501.0018865039102 0.41412645734212544 33.9293545066252 21.0 0.0 0.0 20.0 
502.00015382160245 0.5816733914031281 33.9293545066252 21.0 0.0 0.0 20.0 
503.0017391838305 0.5636252480671365 39.25306535525533 21.0 0.0 0.0 20.0 
504.00072835782544 0.7503749921919054 39.25306535525533 21.0 0.0 0.0 20.0 
505.00200651700584 0.16145050604156014 25.089484170970877 21.0 0.0 0.0 20.0 
506.0018865039102 0.29367085021226286 28.06588921744435 21.0 0.0 0.0 20.0 
507.0042619259539 0.1894719939877516 28.06588921744435 21.0 0.0 0.0 20.0 
508.00048506664245 0.21537042517739302 26.79793887011465 21.0 0.0031715644823378402 1.5857822411689142 20.0 
509.00061642120204 0.3349010419849778 34.00880877504352 20.0 0.0031715644823378402 1.5857822411689142 20.0 
510.00046389433135 0.3458054889310929 34.00880877504352 20.0 0.0 0.0 19.0 
511.0003962903574 0.29283699565583654 34.00880877504352 20.0 0.0 0.0 19.0 
512.0001315421362 0.2955543653741906 35.352867659208755 20.0 0.0 0.0 18.0 
513.0006838224405 0.43330340989334526 40.532148099463114 20.0 0.0 0.0 18.0 
514.001371483587 0.5136651861537672 42.4926438712165 20.0 0.0 0.0 18.0 
515.0038834540887 0.5352325530287712 42.4926438712165 20.0 0.0 0.0 18.0 
516.0001715824504 0.4940402926044685 42.4926438712165 19.0 0.0 0.0 18.0 
517.0033513001916 0.40174933261549167 44.00902760467457 20.0 0.0 0.0 18.0 
518.0009165411155 0.18947871617784506 40.82249441468366 20.0 0.0 0.0 18.0 
519.0004852509129 0.1505360251222544 18.349518233559053 20.0 0.002065032098549235 0.5952348058847576 18.0 
520.0017562648961 0.16543840381801858 25.800707581440918 19.0 8.745624867797229E-4 0.43728124338986163 18.0 
521.000908051887 0.16543840381801858 25.800707581440918 19.0 0.0 0.0 18.0 
522.0031192590801 0.1778241826661103 25.800707581440918 19.0 0.0 0.0 18.0 
523.0001951852581 0.20301460675852911 25.800707581440918 20.0 0.0 0.0 19.0 
524.0013045881598 0.34724520020623717 33.31425399125192 20.0 0.0 0.0 19.0 
525.0008276397941 0.27329433536355696 28.853002691327617 20.0 0.0 0.0 19.0 
526.0006995852432 0.3067103375847805 28.853002691327617 20.0 0.0 0.0 19.0 
527.0004359419698 0.30613546486822324 28.853002691327617 20.0 0.0 0.0 19.0 
528.002172780313 0.2897648315181228 28.853002691327617 20.0 0.0 0.0 19.0 
529.0006426428026 0.3421557821116859 36.94076697923842 20.0 0.03241655666046077 6.448592077060312 19.0 
530.0016359513317 0.2682742481532068 32.82849762379499 20.0 0.010044277678536053 5.0221388392679955 20.0 
531.0002359415195 0.25623772016123514 32.82849762379499 20.0 0.010044277678536053 5.0221388392679955 21.0 
532.0013620683876 0.28588961132032326 34.35437396619756 20.0 0.010044277678536053 5.0221388392679955 19.0 
533.0075104445825 0.15426292428684452 27.324118491617156 20.0 0.0 0.0 19.0 
534.0002952365852 0.14327665795443592 22.110497603585486 20.0 0.008545234787669971 4.272617393834992 19.0 
535.0003178136259 0.2124647173535861 27.095976733952313 20.0 0.03361968502357437 7.586749741032605 19.0 
536.0003551443905 0.020921566064777648 6.4160697532203415 19.0 0.02507445023590441 7.586749741032605 20.0 
537.001745548683 0.008089426558337002 2.775871231670976 19.0 0.0 0.0 20.0 
538.0017150854161 0.029210572623386357 8.172050843414155 19.0 0.0 0.0 20.0 
539.0001972081875 0.04004492178542057 12.856805729654639 19.0 0.0 0.0 20.0 
540.0033035686401 0.04583081909237893 12.856805729654639 19.0 0.0 0.0 20.0 
541.0005413656794 0.03837689227704866 12.856805729654639 19.0 0.0 0.0 20.0 
542.0031704770502 0.03837689227704866 12.856805729654639 19.0 0.0 0.0 20.0 
543.0042495603237 0.03958125819029564 6.39197893918913 19.0 0.0 0.0 20.0 
544.001934974491 0.08692192504282625 20.312965693311895 19.0 0.0 0.0 20.0 
545.0008742268742 0.09120695173496814 25.161751099996593 19.0 0.0 0.0 20.0 
546.0018865039102 0.07381029527382976 13.407532424412608 19.0 0.0 0.0 17.0 
547.0000285662858 0.04794690649787303 13.407532424412608 19.0 0.0 0.0 17.0 
548.0017096026272 0.18519767747942054 32.584414825238326 19.0 0.0 0.0 17.0 
549.0007300394436 0.13766658947674174 21.210025269913615 19.0 0.0 0.0 17.0 
550.000910782024 0.11801315752735775 21.210025269913615 19.0 0.0 0.0 17.0 
551.0008083831038 0.02328091254097871 9.785201241376853 19.0 0.0 0.0 17.0 
552.0006749918595 0.0 0.0 18.0 0.0 0.0 17.0 
553.0012376368478 0.019420112988791278 6.688235645105578 18.0 0.0 0.0 18.0 
554.000975696924 0.019420112988791278 6.688235645105578 18.0 0.0 0.0 18.0 
555.0024265144355 0.019420112988791278 6.688235645105578 18.0 0.0 0.0 18.0 
556.0018865039102 0.026245345036824803 6.688235645105578 18.0 0.0 0.0 19.0 
557.0013773488787 0.006825232048033725 3.41261602401687 18.0 0.0 0.0 18.0 
558.001980867213 0.06553402365593552 10.811368534259458 18.0 0.0 0.0 18.0 
559.0004883179449 0.06553402365593552 10.811368534259458 18.0 0.0 0.0 18.0 
560.0016305021524 0.06553402365593552 10.811368534259458 18.0 0.0 0.0 18.0 
561.0018865039102 0.11073483002309582 17.735376701922178 18.0 0.0 0.0 17.0 
562.0006152050196 0.05998588900848543 17.735376701922178 19.0 0.0 0.0 17.0 
563.003401647805 0.1822685635849023 25.091085928832 19.0 0.0 0.0 17.0 
564.0030633157006 0.08870156043935595 15.108164988158165 19.0 0.0 0.0 17.0 
565.0002069011398 0.07289449748093535 15.108164988158165 18.0 0.0 0.0 17.0 
566.0018865039102 0.08449371011931765 20.676945125179827 18.0 0.0 0.0 17.0 
567.0003163993887 0.07410128136934709 20.676945125179827 18.0 0.0 0.0 17.0 
568.0004818056487 0.05967919361631052 15.108164988158165 19.0 0.0 0.0 18.0 
569.0001467131724 0.07272072757806824 21.628931969037097 19.0 0.0 0.0 17.0 
570.0046917958929 0.08369898396733012 27.118060163668105 19.0 0.0 0.0 17.0 
571.0012958560199 0.06252782655691462 21.628931969037097 19.0 0.0 0.0 17.0 
572.0013278547281 0.009210786837429872 2.8248326449708827 19.0 0.0 0.0 16.0 
573.0006561181849 0.036546225715907196 9.650148735952115 19.0 0.0 0.0 16.0 
574.0062153821975 0.036546225715907196 9.650148735952115 19.0 0.0 0.0 15.0 
575.0011788005904 0.036546225715907196 9.650148735952115 19.0 0.0 0.0 15.0 
576.0018865039102 0.016991100404509272 4.741303294216294 19.0 0.0 0.0 15.0 
577.0007134416846 0.016991100404509272 4.741303294216294 19.0 0.0 0.0 15.0 
578.002539418221 0.04372765788276977 11.416374190922625 18.0 0.0 0.0 15.0 
579.0001343357957 0.049298668504510076 11.416374190922625 18.0 0.0 0.0 15.0 
580.0038099775992 0.049298668504510076 11.416374190922625 18.0 0.0 0.0 16.0 
581.0002133520687 0.005571010621740578 1.5859144763849997 18.0 0.0 0.0 15.0 
582.0003253973471 0.01721870160231906 5.823845490289244 18.0 0.0 0.0 15.0 
583.0008919800069 0.055936177313462 13.56308427872159 18.0 0.0 0.0 15.0 
584.0006925739542 0.024409603515757723 10.159766485632588 18.0 0.0 0.0 15.0 
585.0003825150408 0.05084334931323396 17.08972740201702 18.0 0.0 0.0 15.0 
586.0004608106701 0.09162782043497475 17.08972740201702 18.0 0.0 0.0 15.0 
587.0055085896938 0.06745422091228839 12.759280826795248 18.0 0.0 0.0 16.0 
588.0000089830448 0.11420275819590363 17.08953007589838 18.0 0.0 0.0 17.0 
589.0001394950731 0.20912963080221333 20.322831005338656 18.0 0.0 0.0 17.0 
590.0004247415153 0.19333082923733105 20.041522946817565 18.0 0.0 0.0 17.0 
591.0018865039102 0.10641621414431418 13.545775930331246 18.0 0.0 0.0 16.0 
592.0002325753576 0.03134005444758142 13.174008435496404 18.0 0.0 0.0 15.0 
593.0040916733223 0.03134005444758142 13.174008435496404 18.0 0.0 0.0 15.0 
594.0016357880569 0.041220531807623036 15.402395209057516 20.0 0.0 0.0 15.0 
595.0058469783226 0.007621636196439852 3.810818098219926 21.0 0.0 0.0 15.0 
596.0018865039102 0.0 0.0 22.0 0.0 0.0 18.0 
597.001394907951 0.0 0.0 24.0 0.0 0.0 18.0 
598.0009087013303 0.018778324955702873 6.2450499078869655 24.0 0.0 0.0 17.0 
599.0001578360447 0.018778324955702873 6.2450499078869655 24.0 0.0 0.0 17.0 
600.0002640318625 0.0 0.0 23.0 0.0 0.0 17.0 
#####################################################################
# End of data export. Simulation finished at: 2019-02-25T20:11+0000 #
#####################################################################
