#####################################################################
# Alchemist log file - simulation started at: 2019-02-25T20:44+0000 #
#####################################################################
# seed = 188.0
#
# The columns have the following meaning: 
# time distance-rep[Mean] distance-rep[Max] leader-rep[CountDistinct] distance-share[Mean] distance-share[Max] leader-share[CountDistinct] 
0.0 NaN NaN NaN NaN NaN NaN 
1.0027558858017445 0.0 0.0 499.0 0.0 0.0 65.0 
2.001774772858452 0.0 0.0 116.0 0.0 0.0 63.0 
3.0029738352855304 0.0 0.0 107.0 0.0 0.0 52.0 
4.000049290023248 0.0 0.0 102.0 0.0 0.0 46.0 
5.00368883903222 0.0 0.0 95.0 0.02043411527762667 10.217057638813316 43.0 
6.004366614737251 0.0 0.0 89.0 0.027748491242508125 13.87424562125409 38.0 
7.001444984274048 0.0 0.0 86.0 0.0 0.0 37.0 
8.001050359858386 0.0 0.0 79.0 0.0 0.0 38.0 
9.000984872959314 0.0 0.0 74.0 0.0 0.0 39.0 
10.000772042850214 0.0 0.0 69.0 0.0 0.0 34.0 
11.000620615081582 0.0 0.0 64.0 0.0 0.0 31.0 
12.001774772858452 0.0 0.0 60.0 0.0 0.0 29.0 
13.000077964592377 0.0 0.0 57.0 0.0 0.0 27.0 
14.000628114352143 0.0 0.0 55.0 0.0 0.0 30.0 
15.00241203856531 0.0 0.0 54.0 0.0 0.0 28.0 
16.007207948055317 0.0 0.0 54.0 0.0 0.0 25.0 
17.000432976826122 0.0 0.0 53.0 0.0 0.0 27.0 
18.000167580902744 0.0 0.0 53.0 0.0 0.0 28.0 
19.000028615830473 0.0 0.0 52.0 0.01115860618466839 5.579303092334186 24.0 
20.001004352804493 0.0 0.0 52.0 0.01115860618466839 5.579303092334186 23.0 
21.00274036041729 0.0 0.0 50.0 0.0023361121734313357 1.1680560867156657 23.0 
22.001774772858454 0.0 0.0 48.0 0.0 0.0 25.0 
23.000131107386867 0.0 0.0 46.0 0.0 0.0 21.0 
24.001231725135902 0.0 0.0 45.0 0.0 0.0 20.0 
25.00026158923034 0.0 0.0 45.0 0.0 0.0 20.0 
26.00055059219114 0.0 0.0 44.0 0.0 0.0 18.0 
27.00137182176986 0.0 0.0 43.0 0.0 0.0 16.0 
28.002413398216632 0.0 0.0 42.0 0.0 0.0 14.0 
29.00035043925039 0.0 0.0 41.0 0.0 0.0 15.0 
30.001089870568563 0.0 0.0 41.0 0.0 0.0 16.0 
31.00731369934258 0.0 0.0 41.0 0.0 0.0 15.0 
32.001774772858454 0.0 0.0 41.0 0.0 0.0 16.0 
33.0004054430817 0.0 0.0 38.0 0.0 0.0 16.0 
34.00036037389666 0.0 0.0 39.0 0.0 0.0 15.0 
35.00219145090767 0.0 0.0 38.0 0.0 0.0 15.0 
36.000618299250014 0.0 0.0 38.0 0.0 0.0 15.0 
37.00106370830712 0.0 0.0 38.0 0.0 0.0 14.0 
38.00112189698853 0.0 0.0 35.0 0.0 0.0 14.0 
39.000646844984686 0.0 0.0 34.0 0.0 0.0 14.0 
40.0009451927578 0.0 0.0 34.0 0.0 0.0 14.0 
41.006610180688895 0.0 0.0 34.0 0.0 0.0 14.0 
42.00126433506905 0.0 0.0 34.0 0.0 0.0 14.0 
43.0004389002225 0.0 0.0 31.0 0.0 0.0 14.0 
44.001975551924154 0.0 0.0 33.0 0.0 0.0 14.0 
45.000760304093234 0.0 0.0 32.0 0.0 0.0 14.0 
46.0023465337315 0.0 0.0 31.0 0.0 0.0 14.0 
47.000038971278435 0.0 0.0 32.0 0.0 0.0 14.0 
48.002693541987796 0.0 0.0 33.0 0.0 0.0 15.0 
49.006232351015775 0.0 0.0 32.0 0.0 0.0 15.0 
50.00254464690922 0.0 0.0 31.0 0.0 0.0 15.0 
51.0022079717587 0.0 0.0 29.0 0.0 0.0 15.0 
52.001774772858454 0.0 0.0 29.0 0.0 0.0 15.0 
53.000424844333374 0.0 0.0 27.0 0.0 0.0 15.0 
54.002230270917835 0.0 0.0 27.0 0.0 0.0 15.0 
55.00372116747683 0.0 0.0 27.0 0.0 0.0 15.0 
56.000477404698735 0.0 0.0 28.0 0.0 0.0 15.0 
57.00139380856106 0.0 0.0 28.0 0.0 0.0 16.0 
58.002514104160554 0.0 0.0 27.0 0.0 0.0 16.0 
59.00045904319611 0.0 0.0 26.0 0.0 0.0 16.0 
60.004260978874896 0.0 0.0 26.0 0.0 0.0 16.0 
61.00193175932012 0.0 0.0 26.0 0.0 0.0 16.0 
62.001774772858454 0.0 0.0 26.0 0.0 0.0 16.0 
63.00163338155547 0.0 0.0 26.0 0.0 0.0 16.0 
64.00128986638947 0.0 0.0 26.0 0.0 0.0 16.0 
65.0001447147257 0.0 0.0 26.0 0.0 0.0 16.0 
66.00095313863956 0.0 0.0 25.0 0.0 0.0 16.0 
67.00177477285845 0.0 0.0 25.0 0.0 0.0 16.0 
68.00062210614797 0.0 0.0 25.0 0.0 0.0 16.0 
69.00480541827625 0.012913400061028212 6.456700030514071 26.0 0.0 0.0 16.0 
70.00186775266152 0.0 0.0 27.0 0.0 0.0 16.0 
71.0048888358912 0.02241100572947051 11.205502864735195 28.0 0.0 0.0 16.0 
72.00177477285845 0.017786370424857978 8.893185212428989 24.0 0.0 0.0 16.0 
73.00229394987527 0.0 0.0 25.0 0.0 0.0 16.0 
74.00145906116789 0.0 0.0 25.0 0.0 0.0 16.0 
75.00081275573616 0.0 0.0 25.0 0.0 0.0 16.0 
76.00286818677837 0.0 0.0 25.0 0.0 0.0 16.0 
77.00177477285845 0.0 0.0 24.0 0.0 0.0 16.0 
78.00311915661457 0.0 0.0 24.0 0.0 0.0 16.0 
79.00033947723551 0.0 0.0 24.0 0.0 0.0 16.0 
80.00057022590416 0.0 0.0 24.0 0.0 0.0 16.0 
81.00170457291321 0.0 0.0 24.0 0.0 0.0 16.0 
82.0008839872499 0.0 0.0 24.0 0.0 0.0 16.0 
83.00142842750301 0.0 0.0 25.0 0.0 0.0 17.0 
84.00360321937563 0.0 0.0 24.0 0.0 0.0 17.0 
85.00043758027226 0.0 0.0 24.0 0.0 0.0 18.0 
86.00101757019034 0.0 0.0 24.0 0.0 0.0 18.0 
87.00096379592995 0.0 0.0 26.0 0.0 0.0 20.0 
88.00411509924584 0.0 0.0 26.0 0.0 0.0 19.0 
89.00085600213497 0.0 0.0 25.0 0.0 0.0 19.0 
90.00112518948265 0.0 0.0 24.0 0.0 0.0 19.0 
91.00460704942518 0.0 0.0 24.0 0.0 0.0 19.0 
92.00177477285845 0.0 0.0 24.0 0.0 0.0 20.0 
93.00032882917615 0.0 0.0 23.0 0.0 0.0 19.0 
94.00046771100688 0.0 0.0 23.0 0.0 0.0 19.0 
95.00125330569017 0.0 0.0 22.0 0.0 0.0 19.0 
96.00196829132872 0.0 0.0 22.0 0.0 0.0 19.0 
97.00017814064958 0.0 0.0 21.0 0.0 0.0 19.0 
98.0035986054044 0.0 0.0 21.0 0.0 0.0 19.0 
99.0002493082029 0.0 0.0 21.0 0.0 0.0 19.0 
100.00446316703695 0.0 0.0 21.0 0.0 0.0 19.0 
101.0001111408905 0.0 0.0 20.0 0.0 0.0 22.0 
102.00177477285845 0.0 0.0 20.0 0.0 0.0 21.0 
103.00029382191639 0.0 0.0 20.0 0.0 0.0 21.0 
104.00121373586495 0.0 0.0 19.0 0.02852629305180941 14.13751287168742 20.0 
105.0028284075394 0.0 0.0 19.0 2.512673084346472E-4 0.12563365421732442 21.0 
106.00074115843069 0.0 0.0 19.0 0.0 0.0 20.0 
107.00175815026354 0.0 0.0 20.0 0.0 0.0 19.0 
108.00051030153247 0.0 0.0 20.0 0.0 0.0 19.0 
109.00103658711647 0.0 0.0 20.0 0.0 0.0 19.0 
110.00184685337643 0.0 0.0 20.0 0.0 0.0 19.0 
111.0022879063133 0.0 0.0 20.0 0.0 0.0 19.0 
112.00177477285845 0.0 0.0 20.0 0.0 0.0 19.0 
113.0007724416687 0.0 0.0 20.0 0.0 0.0 19.0 
114.00349904750888 0.0 0.0 20.0 0.0 0.0 19.0 
115.00335163838545 0.0 0.0 20.0 0.0 0.0 19.0 
116.00249899155223 0.0 0.0 20.0 0.0 0.0 18.0 
117.00161737368424 0.0 0.0 19.0 0.0 0.0 18.0 
118.00167023693248 0.0 0.0 19.0 0.0 0.0 18.0 
119.00099514490572 0.0 0.0 19.0 0.0 0.0 18.0 
120.00084385040257 0.0 0.0 19.0 0.0 0.0 17.0 
121.00609677866488 0.0 0.0 19.0 0.0 0.0 17.0 
122.00177477285845 0.0 0.0 19.0 0.0 0.0 17.0 
123.00145970069698 0.0 0.0 18.0 0.0 0.0 17.0 
124.00317060583292 0.0 0.0 18.0 0.0 0.0 17.0 
125.00034834328848 0.028960646979491394 14.4803234897457 18.0 0.0 0.0 16.0 
126.00076376420448 0.0 0.0 18.0 0.0 0.0 16.0 
127.00003726006241 0.08227304616539337 17.146325515461058 17.0 0.0 0.0 16.0 
128.0010992693249 0.0661750603662712 17.146325515461058 18.0 0.0 0.0 16.0 
129.0051942069807 0.05332640350119513 15.941204667674583 18.0 0.0 0.0 16.0 
130.00085851053558 0.05332640350119513 15.941204667674583 18.0 0.0 0.0 17.0 
131.00116415470444 0.0 0.0 17.0 0.0 0.0 17.0 
132.00177477285845 0.027475163510825188 13.737581755412606 17.0 0.0 0.0 16.0 
133.00046015385317 0.03612444926058848 12.643077988984913 16.0 0.0 0.0 15.0 
134.0004325593885 0.05411953627428673 12.643077988984913 16.0 0.0 0.0 14.0 
135.00446316703693 0.05411953627428673 12.643077988984913 17.0 0.0 0.0 15.0 
136.00105276887612 0.0708472305508512 12.597331903204264 17.0 0.0 0.0 14.0 
137.00061832083188 0.0708472305508512 12.597331903204264 17.0 0.0 0.0 14.0 
138.00765931584598 0.07768968778608819 19.97228477648099 17.0 0.0 0.0 14.0 
139.0022844518089 0.07768968778608819 19.97228477648099 17.0 0.0 0.0 14.0 
140.00446316703693 0.06305490689313117 19.97228477648099 17.0 0.0 0.0 14.0 
141.00654139246768 0.07839061792435532 10.164367002423461 17.0 0.0 0.0 14.0 
142.00177477285845 0.07839061792435532 10.164367002423461 17.0 0.0 0.0 14.0 
143.00402364485495 0.08736090640793633 9.296933748049895 17.0 0.0 0.0 14.0 
144.00280428471376 0.09100076285877018 13.11492670495278 16.0 0.0 0.0 14.0 
145.00299722829044 0.07240689536267017 13.11492670495278 17.0 0.0 0.0 13.0 
146.00019077665874 0.0980758286220174 23.101485439508252 17.0 0.0 0.0 13.0 
147.00170285958166 0.0980758286220174 23.101485439508252 16.0 0.0 0.0 13.0 
148.00048511390432 0.11566609614235085 23.101485439508252 16.0 0.0 0.0 13.0 
149.00227603012542 0.11566609614235085 23.101485439508252 16.0 0.0 0.0 13.0 
150.0041963484486 0.14084661189500255 30.448305902690237 16.0 0.0 0.0 13.0 
151.00175071261427 0.12978529393306976 25.631540384902138 16.0 0.0 0.0 12.0 
152.00100480418874 0.08927723463149725 19.67443207234473 16.0 0.0 0.0 12.0 
153.00039113228993 0.09723771069729385 19.67443207234473 15.0 0.0 0.0 12.0 
154.00012630217824 0.10736020562612676 27.054954536494563 16.0 0.0 0.0 12.0 
155.00055314275943 0.05325029655313743 11.818693647372527 15.0 0.0 0.0 13.0 
156.0012095202602 0.17035761289160836 30.36983497622026 15.0 0.0 0.0 13.0 
157.000351487752 0.24456987817301346 31.78198719601494 15.0 0.0 0.0 13.0 
158.00070686589612 0.12392064343229363 23.93534650566926 15.0 0.0 0.0 13.0 
159.00015308261044 0.18466031338473432 30.36983497622026 15.0 0.0 0.0 12.0 
160.00139053129536 0.19345912925575987 30.36983497622026 15.0 0.0 0.0 12.0 
161.00269563078902 0.16972142181941552 26.32525453706097 15.0 0.0 0.0 12.0 
162.0003652560309 0.12195533695389757 21.221031545200418 15.0 0.0 0.0 12.0 
163.00341008475178 0.08464827726685853 20.488000177030045 15.0 0.0 0.0 12.0 
164.0001181181989 0.14780116139826263 27.838922713016473 15.0 0.0 0.0 12.0 
165.00446316703693 0.14111388601204364 26.32525453706097 15.0 0.0 0.0 12.0 
166.00187861182442 0.08074449372458192 11.260694376343878 15.0 0.0 0.0 12.0 
167.00177477285845 0.07284916212899176 11.260694376343878 15.0 0.0 0.0 12.0 
168.0001225371499 0.11706207284871614 18.229936541946586 15.0 0.0 0.0 12.0 
169.00002817691936 0.12379028822775864 18.229936541946586 15.0 0.0 0.0 12.0 
170.00096157906654 0.15277251239118464 18.229936541946586 15.0 0.0 0.0 11.0 
171.00619024148776 0.17083545994064636 18.96940909550503 15.0 0.0 0.0 11.0 
172.00177477285845 0.14417559481699474 18.96940909550503 15.0 0.0 0.0 11.0 
173.00007319621844 0.14474628265651182 18.96940909550503 15.0 0.0 0.0 11.0 
174.00197599759684 0.19656740133483477 23.91930420601227 14.0 0.0 0.0 11.0 
175.00446316703693 0.20205443559717476 23.91930420601227 13.0 0.0 0.0 11.0 
176.01095415342883 0.17147535009026568 21.822203253446673 13.0 0.0 0.0 11.0 
177.0017433246158 0.17445271082017155 21.822203253446673 14.0 0.0 0.0 11.0 
178.0045962538706 0.1671293026086264 21.692705738731348 14.0 0.0 0.0 11.0 
179.00306659167018 0.22296205263316204 26.06309613924782 14.0 0.0 0.0 11.0 
180.00002643057056 0.2330242960762947 23.53565104378262 14.0 0.0 0.0 11.0 
181.00277082945107 0.24977067368147363 21.711520188699097 14.0 0.0 0.0 11.0 
182.00177477285845 0.3119899478712055 24.202989402965642 14.0 0.0 0.0 11.0 
183.00862825612003 0.2828066050257051 28.66075750350487 15.0 0.0 0.0 11.0 
184.000485744759 0.24626975424357592 17.38330987891206 15.0 0.0 0.0 11.0 
185.0007304499729 0.2776019339497787 17.38330987891206 15.0 0.0 0.0 11.0 
186.00110554556045 0.2966689385725962 21.799116228583443 15.0 0.0 0.0 11.0 
187.00177477285845 0.38045154575054174 26.98024339821083 15.0 0.0 0.0 11.0 
188.00335852254312 0.33673926127960535 21.799116228583443 15.0 0.0 0.0 11.0 
189.00000825256583 0.3526456181653382 25.449834302238486 15.0 0.0 0.0 11.0 
190.00325808951808 0.47385006839458044 30.197534000114473 15.0 0.0 0.0 11.0 
191.00080368329708 0.509350034823747 33.77404960601646 15.0 0.0 0.0 11.0 
192.00177477285845 0.6660968332383237 33.77404960601646 15.0 0.0 0.0 12.0 
193.00411783181585 0.5987394812759319 33.77404960601646 15.0 0.0 0.0 20.0 
194.0000319989853 0.6718092097796527 39.14992397526075 15.0 0.0 0.0 16.0 
195.00136729760038 0.7489460131448351 39.14992397526075 16.0 6.70445980722205E-4 0.33522299036110326 15.0 
196.0001393562677 0.9258716584778828 46.54615964662551 16.0 0.01534767643281735 7.6738382164086545 16.0 
197.00161876031888 0.9936721555298343 46.54615964662551 18.0 0.0 0.0 15.0 
198.00207528184413 1.2007356020727937 48.501928666966364 19.0 0.0 0.0 15.0 
199.0001004545806 1.0994646238938441 48.501928666966364 18.0 0.0 0.0 15.0 
200.00159106002044 1.2934813066858581 48.501928666966364 19.0 0.0 0.0 15.0 
201.00104400226576 1.5100506747608766 55.33522434350755 18.0 0.0 0.0 15.0 
202.00005483487925 1.344651027744082 55.33522434350755 18.0 0.0 0.0 15.0 
203.00066336459588 1.384107903545968 55.33522434350755 18.0 0.0 0.0 15.0 
204.0000711672367 1.3304553121704834 55.33522434350755 18.0 0.0 0.0 15.0 
205.00446316703693 1.51054966009384 55.33522434350755 18.0 0.0 0.0 15.0 
206.00472702128195 1.7098129651451577 64.19530074286945 18.0 0.0 0.0 15.0 
207.00177477285845 1.7084476414485077 64.19530074286945 17.0 0.0 0.0 15.0 
208.00137069453575 1.71472681500335 64.19530074286945 17.0 0.0 0.0 15.0 
209.00046076740176 1.5527190795931975 64.19530074286945 19.0 0.0 0.0 16.0 
210.00068333060818 1.470680956490762 64.19530074286945 19.0 0.0 0.0 16.0 
211.00438003901672 1.307182508610532 56.73104163098759 19.0 0.0 0.0 16.0 
212.00072192317668 0.9384623714709956 46.28738104110337 19.0 0.0 0.0 16.0 
213.00105934005353 0.9429714939896802 46.28738104110337 19.0 0.0 0.0 16.0 
214.00286642507808 0.8720510835728761 46.28738104110337 19.0 0.0 0.0 16.0 
215.0028216497879 0.9782950477725757 46.28738104110337 19.0 0.0 0.0 16.0 
216.00048625879631 1.1668681751041499 42.61296684622252 20.0 0.0 0.0 16.0 
217.00177477285845 1.2928997834349194 42.61296684622252 19.0 0.0 0.0 16.0 
218.0000002699663 1.2232885526595034 42.61296684622252 19.0 0.0 0.0 16.0 
219.0045041643739 1.2801649068774574 42.61296684622252 19.0 0.0 0.0 16.0 
220.00005766482764 1.254461036283001 42.61296684622252 18.0 0.0 0.0 16.0 
221.0002827727254 1.6390119286056057 50.00428302267542 19.0 0.0 0.0 16.0 
222.00177477285845 1.8404333883091122 51.283813170333104 18.0 0.0 0.0 16.0 
223.0008963065227 1.7159685471723507 49.00480888979604 18.0 0.0 0.0 16.0 
224.00001819142292 1.7002565872336761 49.00480888979604 18.0 0.0 0.0 16.0 
225.00074227997072 1.7526180239316187 49.00480888979604 17.0 0.0 0.0 16.0 
226.004488890026 1.4176507825887994 41.447961922996 17.0 0.0 0.0 15.0 
227.00127128738774 1.4599618198422153 39.529508194944555 17.0 0.0 0.0 15.0 
228.0028171368315 1.3884644649601623 39.529508194944555 17.0 0.0 0.0 15.0 
229.00174526705453 1.2478391027531706 37.75599076637849 17.0 0.0 0.0 15.0 
230.00058641948553 1.201396580398576 37.75599076637849 17.0 0.0 0.0 15.0 
231.00033139866574 1.0058927265863156 30.345453970462245 17.0 0.0 0.0 15.0 
232.00177477285845 1.0206420475709925 30.345453970462245 17.0 0.0 0.0 15.0 
233.00035117807107 0.9456251404552374 30.345453970462245 17.0 0.0 0.0 15.0 
234.0065145871596 0.8341901853521339 30.015574875781766 17.0 0.0 0.0 15.0 
235.0003545121648 0.9070979923018948 36.80123349613646 17.0 0.0 0.0 15.0 
236.00092641943456 0.9624795995596311 39.905447115923465 18.0 0.0 0.0 15.0 
237.0006842215153 0.9738859414392727 39.905447115923465 19.0 0.0 0.0 15.0 
238.00053112516477 0.887653021911563 39.905447115923465 19.0 0.0 0.0 15.0 
239.00037409458315 0.9763852048936135 39.905447115923465 19.0 0.0 0.0 14.0 
240.00073148678905 0.9597241422940289 39.905447115923465 19.0 0.0 0.0 14.0 
241.00330369318218 1.0439183647628567 45.209060299734034 20.0 0.0 0.0 14.0 
242.00177477285845 1.0186239138491249 45.209060299734034 20.0 0.0 0.0 15.0 
243.0001532182462 0.14098204586969917 40.10080932901249 21.0 0.0 0.0 14.0 
244.00139475992293 0.0141287581588721 7.064379079436037 21.0 0.0 0.0 14.0 
245.00188838735465 0.0020033594131657027 1.0016797065828484 21.0 0.0 0.0 14.0 
246.00080646083987 0.0061876299447719205 3.0938149723859567 21.0 0.0 0.0 14.0 
247.00177477285845 0.0 0.0 21.0 0.0 0.0 14.0 
248.00225833029972 0.0 0.0 21.0 0.0 0.0 14.0 
249.00126824078845 0.0 0.0 21.0 0.0 0.0 14.0 
250.00117051795027 0.0 0.0 20.0 0.0 0.0 14.0 
251.0039207714043 0.006015512767270854 3.0077563836354386 20.0 0.0 0.0 14.0 
252.00147141290034 0.0 0.0 19.0 0.0 0.0 14.0 
253.00384423133193 0.012339156555288095 6.169578277644064 20.0 0.0 0.0 14.0 
254.00569533861506 0.012339156555288095 6.169578277644064 17.0 0.0 0.0 14.0 
255.00446316703693 0.012339156555288095 6.169578277644064 17.0 0.0 0.0 14.0 
256.00121836709803 0.028495243891066266 12.353927447993556 17.0 0.0 0.0 15.0 
257.0017747728584 0.014164808496657506 5.040594137123975 16.0 0.0 0.0 15.0 
258.0022730147666 0.014164808496657506 5.040594137123975 16.0 0.0 0.0 15.0 
259.00144378051755 0.014164808496657506 5.040594137123975 16.0 0.0 0.0 15.0 
260.0000793127809 0.014164808496657506 5.040594137123975 16.0 0.0 0.0 15.0 
261.00067131105664 0.043580870234602304 13.02958815591009 16.0 0.0 0.0 16.0 
262.0017747728584 0.02923480773310723 13.02958815591009 16.0 0.0 0.0 16.0 
263.00275076700075 0.02923480773310723 13.02958815591009 17.0 0.0 0.0 16.0 
264.0005197574447 0.02923480773310723 13.02958815591009 18.0 0.0 0.0 16.0 
265.0002416400542 0.02923480773310723 13.02958815591009 17.0 0.0 0.0 16.0 
266.00053832360976 0.05923165396724968 24.11519070441622 17.0 0.0 0.0 16.0 
267.0017747728584 0.0 0.0 16.0 0.0 0.0 16.0 
268.0000254768362 0.04823038140883273 24.11519070441622 17.0 0.0 0.0 16.0 
269.0016860870411 0.04823038140883273 24.11519070441622 16.0 0.0 0.0 16.0 
270.0019355507823 0.04823038140883273 24.11519070441622 16.0 0.0 0.0 16.0 
271.00026719394367 0.05652687323883508 28.26343661941749 16.0 0.0 0.0 15.0 
272.0017747728584 0.005470273688388401 2.7351368441942157 16.0 0.0 0.0 16.0 
273.0000524673201 0.0512004462344935 25.600223117246657 16.0 0.0 0.0 17.0 
274.0026552267791 0.0512004462344935 25.600223117246657 15.0 0.0 0.0 16.0 
275.0006514158871 0.0512004462344935 25.600223117246657 15.0 0.0 0.0 16.0 
276.00331733569794 0.14847002575095447 40.87046589550886 15.0 0.0 0.0 15.0 
277.00064088216556 0.1447741554208251 40.87046589550886 15.0 0.0 0.0 15.0 
278.0048595721779 0.143328333843436 40.87046589550886 15.0 0.0 0.0 15.0 
279.0025574297954 0.143328333843436 40.87046589550886 15.0 0.0 0.0 15.0 
280.00033692497647 0.22104176225752334 42.67488519876835 15.0 0.0 0.0 15.0 
281.0015046079616 0.31594124448816785 49.923941613418606 15.0 0.0 0.0 15.0 
282.0017747728584 0.34457918335394166 49.923941613418606 15.0 0.0 0.0 15.0 
283.0007662903169 0.3410703144369184 49.923941613418606 15.0 0.0 0.0 15.0 
284.0028575358887 0.35625068661232867 49.923941613418606 15.0 0.0 0.0 14.0 
285.00346196192237 0.33243895274287955 42.79715352522345 15.0 0.0 0.0 14.0 
286.0007991546175 0.42844042350643324 50.12475960922089 15.0 0.0 0.0 14.0 
287.00025317120804 0.48574849470810993 50.12475960922089 15.0 0.0 0.0 14.0 
288.0012599651097 0.4929086696126692 50.12475960922089 15.0 0.0 0.0 15.0 
289.0059781889459 0.5023954948719174 50.12475960922089 15.0 0.0 0.0 15.0 
290.00022775585126 0.4970543699072723 43.00460600358977 15.0 0.0 0.0 19.0 
291.0025498539892 0.5721242337357485 50.32744242167675 16.0 0.0 0.0 19.0 
292.0006909769273 0.6586700547614073 50.32744242167675 16.0 0.0 0.0 18.0 
293.00124590302124 0.7560596024564946 83.07888263923286 16.0 0.0 0.0 17.0 
294.0024653143391 0.7476539821946646 75.7661842528587 16.0 0.0 0.0 17.0 
295.00414395262885 0.7515698906307807 75.7661842528587 15.0 0.0 0.0 17.0 
296.004250988692 0.8390142350949437 83.1014187000543 16.0 0.0 0.0 17.0 
297.00099599988596 0.8039864478422163 83.1014187000543 15.0 0.0 0.0 16.0 
298.00065968736726 0.8597994465789929 83.1014187000543 15.0 0.0 0.0 16.0 
299.0001217171438 0.7534419843356238 75.92689601877078 16.0 0.0 0.0 16.0 
300.0022528460539 0.8385058981788021 75.92689601877078 16.0 0.0 0.0 16.0 
301.0015249175374 0.8559784380367758 83.25938850961023 16.0 0.0 0.0 16.0 
302.0000937422011 0.8996149861114985 83.25938850961023 16.0 0.0 0.0 16.0 
303.000992311202 0.9457623060958297 83.25938850961023 16.0 0.0 0.0 18.0 
304.00056654333906 0.9393364731718508 78.34374143095607 16.0 0.0 0.0 17.0 
305.00446316703693 0.9518004474447622 78.34374143095607 16.0 0.0 0.0 17.0 
306.0004002730035 1.0954502291139443 85.72021641908361 16.0 0.0 0.0 17.0 
307.0006600526284 1.3415752662508702 114.3903630191802 17.0 0.0 0.0 17.0 
308.00321759152826 1.621185842970107 117.64842355678144 17.0 0.0 0.0 18.0 
309.0010400772262 1.1729711333491795 107.04959938157867 17.0 0.0 0.0 18.0 
310.00091571580026 1.1754431201252415 107.04959938157867 17.0 0.0 0.0 18.0 
311.00077144244756 1.4978059737804996 125.0155269868954 17.0 0.0 0.0 18.0 
312.00068923431627 1.5723185560782729 122.43402629841165 17.0 0.0 0.0 18.0 
313.0006451419267 1.7379111947156913 122.43402629841165 17.0 0.0 0.0 18.0 
314.0006702251066 1.8716558313969642 122.43402629841165 16.0 0.0 0.0 18.0 
315.00124160549535 1.7610055220982312 122.43402629841165 16.0 0.0 0.0 19.0 
316.0062209295162 1.9889975840086 129.82452891693862 16.0 0.0 0.0 19.0 
317.0017747728584 1.7802959303381356 129.82452891693862 16.0 0.0 0.0 19.0 
318.0013076845682 1.5900701165277316 129.77547176247475 16.0 0.0 0.0 20.0 
319.00301281322 1.5601985854768525 129.77547176247475 16.0 0.0 0.0 19.0 
320.0009809385866 1.597577602532824 132.1864571785306 15.0 0.0 0.0 19.0 
321.00624595459124 1.552838242359 139.56212055544069 16.0 0.0 0.0 19.0 
322.0017747728584 1.2898363064517333 139.56212055544069 16.0 0.0 0.0 19.0 
323.0020387877754 1.2715987632930514 139.56212055544069 16.0 0.0 0.0 19.0 
324.0000862336365 1.0570851012053721 139.56212055544069 16.0 0.0 0.0 18.0 
325.00257341893894 1.0869950639017 147.04903175096746 16.0 0.0 0.0 18.0 
326.00156353625573 1.1714170071324828 154.42940544520064 16.0 0.0 0.0 18.0 
327.00031411684967 1.170210251501409 154.42940544520064 16.0 0.0 0.0 18.0 
328.00045229698884 1.1852832530378192 154.42940544520064 16.0 0.0 0.0 22.0 
329.00177759314096 1.2003926368158584 161.98409733422176 16.0 0.0 0.0 22.0 
330.00047961346155 1.4591457845110705 161.98409733422176 16.0 0.0 0.0 22.0 
331.00322702699003 1.564798523037479 169.41784430080907 16.0 0.0 0.0 20.0 
332.0009240174184 1.2970515015977577 169.41784430080907 16.0 0.0 0.0 20.0 
333.0006073468665 1.3076373967940336 169.41784430080907 16.0 0.0 0.0 19.0 
334.0012052378501 1.335943808252424 169.41784430080907 17.0 0.0 0.0 19.0 
335.000114116482 1.2495383982581074 166.8829133056596 17.0 0.007611730773269389 3.805865386634707 19.0 
336.0013882101373 1.0585156216644662 174.3199889157736 18.0 0.0 0.0 19.0 
337.0001485533249 0.712777464124927 171.28761071080828 18.0 0.0 0.0 18.0 
338.0026335802838 1.456255693354625 184.41157858348043 17.0 0.0 0.0 18.0 
339.00085419999095 0.7086574308594163 171.28761071080828 16.0 0.0 0.0 19.0 
340.0005914854657 1.4652500456353152 191.96801080274696 17.0 0.0 0.0 18.0 
341.00125140053643 1.5598790054496308 199.41001209555452 17.0 0.0 0.0 18.0 
342.0017747728584 1.1700187569950566 189.25118662562284 17.0 0.0 0.0 18.0 
343.00182627188025 0.824525618849495 199.41001209555452 17.0 0.0 0.0 18.0 
344.001257991556 0.09292928368999519 16.646838946886845 18.0 0.0 0.0 18.0 
345.00055939331645 0.06041116253360001 16.646838946886845 18.0 0.0 0.0 18.0 
346.00544356551194 0.06409711598146858 16.646838946886845 20.0 0.0 0.0 18.0 
347.00095317736964 0.11027286695781222 31.363092019636525 20.0 0.0 0.0 18.0 
348.0025679352121 0.2590740203434805 31.363092019636525 21.0 0.0 0.0 18.0 
349.00042796202484 0.1908080739288151 30.547435622809417 21.0 0.0 0.0 18.0 
350.0013747671025 0.2527322708681407 58.48811652833302 20.0 0.0034433685527351697 1.721684276367597 18.0 
351.00059817326263 0.3887086092107141 58.48811652833302 21.0 0.0034433685527351697 1.721684276367597 18.0 
352.0017747728584 0.20113114653377417 24.81493726068973 18.0 0.0185301516983931 9.265075849196506 22.0 
353.00035687603383 0.546573134414107 44.514091029454306 18.0 0.0 0.0 23.0 
354.0007792938709 0.7795662887891524 70.33947426008501 17.0 0.0 0.0 22.0 
355.0015564040759 0.9684035212915872 70.33947426008501 17.0 0.01398118250869776 6.990591254348857 21.0 
356.00890965601184 1.0553079705822863 52.87479543126267 17.0 0.01398118250869776 6.990591254348857 20.0 
357.00076603083215 1.0219019236705704 57.215416352495936 17.0 0.0 0.0 20.0 
358.00205655692235 1.3447972003477573 64.44662995939615 16.0 0.0 0.0 19.0 
359.0030468899382 1.32400591911783 64.44662995939615 16.0 0.0 0.0 20.0 
360.0027554574019 1.3609239112485527 64.44662995939615 16.0 0.0 0.0 20.0 
361.004439723239 1.4706385143506235 68.88809237012845 16.0 0.0 0.0 20.0 
362.001159752762 1.6607749007472805 73.58246739836483 16.0 0.0 0.0 18.0 
363.0001967091828 1.7732949457313538 76.06719999428839 16.0 0.0 0.0 18.0 
364.0015543167774 1.7491452275694095 76.06719999428839 17.0 0.0 0.0 19.0 
365.0001162755271 1.7568081551255053 76.06719999428839 17.0 0.0 0.0 19.0 
366.0003008803443 1.8673281820486252 76.06719999428839 17.0 0.0 0.0 19.0 
367.0015078157044 1.9052942031212756 80.58322883093996 17.0 0.0 0.0 19.0 
368.0009954309977 2.389895788580342 95.74568488552148 17.0 0.0 0.0 19.0 
369.00435932331885 2.600111068281953 95.74568488552148 17.0 0.0 0.0 19.0 
370.0004622762804 2.955863463423766 107.9333778667924 17.0 0.0 0.0 18.0 
371.00021328158573 3.0221902806549967 95.74568488552148 17.0 0.0 0.0 19.0 
372.00031303859305 3.147353670510681 95.74568488552148 16.0 0.0 0.0 18.0 
373.00077187357476 3.2892557822653266 104.03373331102517 16.0 0.0 0.0 18.0 
374.0052811513161 3.479420145307397 104.03373331102517 16.0 0.0 0.0 18.0 
375.0020594277015 3.3287643415936996 104.03373331102517 16.0 0.0 0.0 18.0 
376.00128749834255 3.3846682418966956 104.03373331102517 16.0 0.0 0.0 19.0 
377.0017747728584 3.5391710516735624 104.03373331102517 16.0 0.0 0.0 18.0 
378.0047243648893 3.6709011954639825 103.50723352204955 16.0 0.0 0.0 18.0 
379.0001336523266 3.3488146685055047 100.64338514352136 16.0 0.0 0.0 18.0 
380.00446316703693 3.384465115571818 97.80851023664098 16.0 0.0 0.0 19.0 
381.0001219691098 3.3333297098652253 96.94845884631133 17.0 0.0 0.0 19.0 
382.0017747728584 3.3300489739341885 96.94845884631133 19.0 0.0 0.0 19.0 
383.0003813052769 3.446144321548783 105.2069168678646 18.0 0.0 0.0 19.0 
384.00007579064555 3.7111972184801996 108.43654156388908 17.0 0.0 0.0 18.0 
385.0007032753883 3.5122086237785983 108.43654156388908 17.0 0.0 0.0 19.0 
386.0046442633579 4.110196835541266 108.43654156388908 16.0 0.0 0.0 19.0 
387.0005989298791 4.194229377806088 115.89049773730972 17.0 0.0 0.0 19.0 
388.00020241959515 4.223003358982934 122.95938097908174 18.0 0.0 0.0 19.0 
389.0025512864931 3.70017883564011 112.5205506597884 18.0 0.0 0.0 19.0 
390.00034790683503 3.9128554637297714 122.95938097908174 18.0 0.0 0.0 19.0 
391.00048757952123 3.5545206781285597 111.29657993476906 18.0 0.0 0.0 19.0 
392.0017747728584 3.5909605992556592 100.63850489116913 18.0 0.0 0.0 19.0 
393.0015519263749 3.964007105769353 107.62647689674446 18.0 0.0 0.0 19.0 
394.0006715800637 2.9727789463308265 107.45675188425389 18.0 0.0 0.0 18.0 
395.0005939528562 3.3818090901799693 107.62647689674446 18.0 0.0 0.0 19.0 
396.0021048642414 3.712431282394722 108.69089834432077 18.0 0.0 0.0 18.0 
397.00031088253075 3.4055535809737587 119.44571349371864 18.0 0.0 0.0 17.0 
398.0000750045099 3.2707092599560665 99.7254351850724 17.0 0.0 0.0 16.0 
399.0029895325838 3.50269935574396 106.55008918187576 17.0 0.0 0.0 19.0 
400.00303154373375 3.520405978824195 106.55008918187576 17.0 0.0 0.0 18.0 
401.0007187939869 4.008081433799187 113.51067661355478 17.0 0.0 0.0 18.0 
402.0017747728584 4.379227122800712 150.67523784978994 17.0 0.0 0.0 18.0 
403.0028898006751 4.283977042908429 150.67523784978994 17.0 0.0 0.0 18.0 
404.000521540973 4.270378645157257 151.36602667665068 17.0 0.0 0.0 17.0 
405.0022487360987 3.819823719283667 151.36602667665068 18.0 0.0 0.0 17.0 
406.000640470752 4.690080666013109 157.18849254743606 19.0 0.0 0.0 17.0 
407.00059965472184 3.860011555210148 157.18849254743606 19.0 0.0 0.0 17.0 
408.00041530439194 3.956633576786825 115.87661064779013 19.0 0.0 0.0 17.0 
409.00801628477416 3.677484919597128 115.87661064779013 19.0 0.0 0.0 17.0 
410.0005393671835 3.916036649811445 164.74658405202865 19.0 0.0 0.0 17.0 
411.00149199335067 4.018213866227185 164.74658405202865 19.0 0.0 0.0 17.0 
412.0017747728584 4.136858648380666 115.79224481330158 19.0 0.0 0.0 17.0 
413.0024319297214 4.102083612138474 115.79224481330158 19.0 0.0 0.0 17.0 
414.0004636620505 3.6577213906371018 115.79224481330158 19.0 0.0 0.0 17.0 
415.00025283308923 3.4439166122650344 114.08061413885662 19.0 0.0 0.0 16.0 
416.00017310718863 3.6883909134181585 171.49501717599935 18.0 0.0 0.0 16.0 
417.00092227690624 3.6984819556416957 171.49501717599935 18.0 0.0 0.0 16.0 
418.00057087991814 3.5578726347348417 120.37911460890007 18.0 0.0 0.0 16.0 
419.0000309328188 3.2789946794087492 127.75284820475792 18.0 0.0 0.0 16.0 
420.00084066235087 2.85143082149938 127.75284820475792 18.0 0.0 0.0 16.0 
421.000422093046 2.7172445835332777 127.64436207330306 18.0 0.0 0.0 16.0 
422.0011380508016 2.4804099866604874 172.10991349115767 19.0 0.0 0.0 17.0 
423.00258549033396 2.258315022634057 172.10991349115767 19.0 0.0 0.0 16.0 
424.001395644292 1.9623689186160187 172.10991349115767 20.0 0.0 0.0 16.0 
425.0005897694992 2.0246222327247825 172.10991349115767 20.0 0.0 0.0 16.0 
426.0038930550756 1.9272614467248128 172.59904947567594 20.0 0.0 0.0 16.0 
427.0017747728584 1.7682369590694558 172.59904947567594 20.0 0.0 0.0 16.0 
428.0028085225869 1.99272204186998 172.59904947567594 19.0 0.0 0.0 16.0 
429.00069656303697 2.0144464117448875 172.59904947567594 19.0 0.0 0.0 16.0 
430.00446316703693 1.8776761378187423 172.59904947567594 18.0 0.0 0.0 16.0 
431.0006550427724 1.8656895339308797 173.61247511339195 18.0 0.0 0.0 16.0 
432.0006349298054 1.6731621271193027 172.96934716500698 18.0 0.0 0.0 15.0 
433.00147446756574 1.6918460011405894 172.96934716500698 18.0 0.0 0.0 15.0 
434.00475142306965 1.6233980925399802 172.96934716500698 19.0 0.0 0.0 16.0 
435.0011270070165 1.4997296485290856 172.96934716500698 19.0 0.0 0.0 16.0 
436.00071543330273 1.775359546063772 172.03580136009583 19.0 0.0 0.0 16.0 
437.0017747728584 1.654209887955405 171.74529291412875 19.0 0.0 0.0 15.0 
438.00112927927324 1.6156734997924584 171.74529291412875 19.0 0.0 0.0 16.0 
439.00059230712594 1.3074044674585414 171.74529291412875 19.0 0.0 0.0 16.0 
440.00107221376936 1.9110270583522155 174.17133216493983 19.0 0.0 0.0 16.0 
441.00252559586187 1.9620833845822305 174.17133216493983 19.0 0.0 0.0 16.0 
442.00175191370164 1.4237015682641057 171.17804310434735 19.0 0.0 0.0 15.0 
443.00201386312057 1.4421514856551596 171.17804310434735 19.0 0.0 0.0 16.0 
444.0008037289699 1.4593006976436897 171.17804310434735 19.0 0.0 0.0 16.0 
445.001415374052 1.3775804503126423 171.17804310434735 19.0 0.0 0.0 16.0 
446.00186388379063 1.7710160508331827 173.1427466570297 19.0 0.0 0.0 16.0 
447.0009175893097 1.782814280150389 173.1427466570297 19.0 0.0 0.0 17.0 
448.0049657707727 1.3799826546389033 171.15567238066762 18.0 0.0 0.0 17.0 
449.0029423693207 1.7825063936306138 173.1427466570297 18.0 0.0 0.0 17.0 
450.0016470316848 1.8920959882557746 173.1427466570297 18.0 0.0 0.0 17.0 
451.00256865741784 1.8307889482639668 165.7470265315401 19.0 0.0 0.0 17.0 
452.0014789051066 1.9449434094080176 165.7470265315401 19.0 0.0 0.0 17.0 
453.00033274739883 1.9131238892929352 165.7470265315401 19.0 0.0 0.0 17.0 
454.000449857882 1.887060278241734 165.7470265315401 18.0 0.0 0.0 17.0 
455.0038561422777 2.016221934289868 165.99113284395912 18.0 0.004200026385063364 2.1000131925316907 17.0 
456.00276786753096 2.2794459778581846 165.99113284395912 19.0 0.004200026385063364 2.1000131925316907 17.0 
457.000554663861 2.4948960155537567 165.99113284395912 20.0 0.004200026385063364 2.1000131925316907 17.0 
458.0033005730236 2.5543944872253195 165.99113284395912 20.0 0.0 0.0 18.0 
459.0005520077473 2.5619147787903582 165.99113284395912 20.0 0.0 0.0 18.0 
460.0032468716352 2.76017175570386 173.40524071762462 19.0 0.010422826324147115 5.211413162073541 18.0 
461.0005088240509 2.749313060788086 166.19078716645805 19.0 0.010422826324147115 5.211413162073541 18.0 
462.0017747728584 2.30846535086003 166.19078716645805 19.0 0.010422826324147115 5.211413162073541 18.0 
463.00318248590173 2.973837998203889 166.19078716645805 19.0 0.004765803769316189 2.3829018846580823 18.0 
464.00177671878015 2.8128648950255224 166.19078716645805 19.0 0.004765803769316189 2.3829018846580823 18.0 
465.0024070079612 2.6370542099771446 173.60962249543638 19.0 0.021989497800016612 8.91157303498187 18.0 
466.0034894020532 1.7090444074386286 166.19419947727982 19.0 0.017246679519636696 8.623339759818293 19.0 
467.0009669247192 1.241259031072848 166.19419947727982 19.0 0.0 0.0 23.0 
468.0016853941479 1.2762198053254052 166.19419947727982 19.0 0.0 0.0 20.0 
469.0028291907516 0.954360855555139 173.68096410991006 19.0 0.0 0.0 20.0 
470.00301757528314 0.8425816240973829 173.68096410991006 19.0 0.0 0.0 20.0 
471.00062552348675 0.5689171811228932 166.2684540268408 19.0 0.0 0.0 19.0 
472.0016760604328 0.5660061489908309 164.85317958169628 19.0 0.0 0.0 19.0 
473.0010302556806 0.3054112057303749 26.78266415707418 18.0 0.0 0.0 21.0 
474.0002713886222 0.638443775084295 166.2684540268408 19.0 0.0 0.0 20.0 
475.0005343857156 0.6148584708632883 172.287838390758 19.0 0.0 0.0 19.0 
476.00039041895906 0.27028279408177186 25.78793049303951 18.0 0.0 0.0 19.0 
477.0017747728584 0.6790557344524962 166.29359470095278 18.0 0.007513780670889463 3.7568903354447514 19.0 
478.0020123767074 0.4414774827325675 31.974767996880104 18.0 0.0019074609367783165 0.9537304683891534 19.0 
479.00195596505046 0.4778474927777348 31.974767996880104 17.0 0.0019074609367783165 0.9537304683891534 18.0 
480.00183800835794 0.4226897981678142 31.464256396538445 17.0 0.0 0.0 18.0 
481.0017200516654 0.4231186743138156 31.464256396538445 17.0 0.0 0.0 17.0 
482.0016020949729 0.6467482845402391 31.578100332991085 17.0 0.0 0.0 17.0 
483.0002810162828 0.7164774425918212 37.726353173756934 17.0 0.0 0.0 16.0 
484.00136618158785 0.6340032751034205 37.726353173756934 17.0 0.0 0.0 16.0 
485.00124822489533 0.6330456457380482 34.429367376241515 17.0 0.0 0.0 16.0 
486.000405148889 0.5932620657083582 34.429367376241515 17.0 0.0 0.0 16.0 
487.0010123115103 0.8630591590628488 40.91835556515932 17.0 0.0 0.0 16.0 
488.0008943548178 0.8693124905412376 40.91835556515932 17.0 0.0 0.0 16.0 
489.00077639812525 0.8616539950533132 41.54287205815646 17.0 0.0 0.0 16.0 
490.00065844143273 0.7745819305417981 41.54287205815646 17.0 0.0 0.0 16.0 
491.00000602670644 0.5480726811705844 41.54287205815646 17.0 0.0 0.0 16.0 
492.0004225280477 0.6638471306382367 48.00620811287641 17.0 0.0 0.0 16.0 
493.0003045713552 0.7071392442480988 50.07359557030216 17.0 0.0 0.0 16.0 
494.00018661466265 0.5615239002598669 35.7851668853813 17.0 0.0 0.0 17.0 
495.00006865797013 0.5311244695973989 30.38680704377461 17.0 0.0 0.0 17.0 
496.00274106137124 0.5985290951589106 30.38680704377461 17.0 0.0 0.0 17.0 
497.0017747728584 0.6959948029560421 37.43314560835904 17.0 0.0 0.0 18.0 
498.00088530004564 0.802105308780392 37.043873568214934 17.0 0.0 0.0 18.0 
499.0007076371829 0.8108406837437965 44.361316274572346 18.0 0.0 0.0 18.0 
500.00053204829356 0.6962444138181754 36.91283969629231 18.0 0.0 0.0 18.0 
501.0025530895339 0.512750684565001 36.91283969629231 19.0 0.0 0.0 18.0 
502.000433512888 0.7973683714612518 43.57071661339782 18.0 0.0 0.0 18.0 
503.0021165188103 0.9688702093848202 43.57071661339782 18.0 0.0 0.0 19.0 
504.0024807374559 1.0781891248056032 43.57071661339782 19.0 0.0 0.0 20.0 
505.00201143442683 1.0843615982814692 41.19792518662888 20.0 0.0 0.0 21.0 
506.0040006560455 1.0701397362907636 41.19792518662888 20.0 0.0 0.0 21.0 
507.0007630491346 1.4605291474693263 49.91466850262458 21.0 0.0 0.0 21.0 
508.0018649103769 1.461900351565507 49.91466850262458 21.0 0.0 0.0 20.0 
509.0040316732125 1.32948240018046 49.91466850262458 21.0 0.0 0.0 20.0 
510.00010636939186 1.3242331146245139 49.91466850262458 22.0 0.0 0.0 20.0 
511.00553293843564 1.4472474621702227 52.43738675999103 21.0 0.0 0.0 20.0 
512.0017747728584 1.533885206378062 56.59395334494468 21.0 0.0 0.0 21.0 
513.0018570758133 1.5864227547827832 56.59395334494468 20.0 0.0 0.0 21.0 
514.0010857336088 1.5071625385301581 56.59395334494468 21.0 0.0 0.0 21.0 
515.0004269524909 1.5097816841213323 56.59395334494468 19.0 0.0 0.0 20.0 
516.002755390618 1.541305003800357 56.0863348554019 19.0 0.0 0.0 20.0 
517.0017747728584 1.5366166952190237 63.557350128315136 19.0 0.0 0.0 20.0 
518.0006347374359 1.344320492509642 56.329331962647245 19.0 0.0 0.0 20.0 
519.0055328653405 1.520854863827703 63.557350128315136 18.0 0.0 0.0 20.0 
520.0024590805459 1.627948506314693 56.85236077278756 18.0 0.0 0.0 20.0 
521.0002945245342 1.4107503741144463 64.31018561756463 18.0 0.0 0.0 20.0 
522.0000952103704 1.6213957193990225 64.31018561756463 18.0 0.0 0.0 20.0 
523.0014636751788 1.4570910433801691 64.31018561756463 18.0 0.0 0.0 20.0 
524.0002682455596 1.3757604751927892 64.31018561756463 18.0 0.0 0.0 20.0 
525.0044631670369 1.3099883684617555 64.31018561756463 17.0 0.0 0.0 20.0 
526.0001496412655 1.2968309732045964 64.25257832294972 18.0 0.0 0.0 19.0 
527.0017747728584 1.655559325302226 71.71423314306912 18.0 0.0 0.0 18.0 
528.0000770501707 1.866823911255789 71.71423314306912 18.0 0.0 0.0 18.0 
529.0001965230267 1.8106610784790482 78.48550683223414 17.0 0.0 0.0 19.0 
530.001647736495 1.9087739840138613 78.48550683223414 17.0 0.0 0.0 19.0 
531.0028979348388 2.021037033272301 73.8403539567501 16.0 0.0 0.0 19.0 
532.0017747728584 2.289509585453352 73.8403539567501 17.0 0.0 0.0 19.0 
533.0002339335024 2.2295596964541398 76.60637954863665 17.0 0.0 0.0 19.0 
534.0001679097342 2.7290488038282565 85.89668191574737 18.0 0.0 0.0 19.0 
535.0018994564227 2.5741894431433914 80.52267353899288 18.0 0.0 0.0 19.0 
536.0000706051434 2.6010961306959732 80.52267353899288 18.0 0.0 0.0 20.0 
537.0007759515703 3.2943796481355343 88.01390267765652 18.0 0.0 0.0 20.0 
538.0045701828735 3.025186358430756 84.0840997435867 18.0 0.0 0.0 20.0 
539.0006661106287 3.0823801121776326 83.85167965529433 18.0 0.0 0.0 20.0 
540.0000940954499 2.8172711264686856 83.85167965529433 17.0 0.0034951741219372986 1.747587060968641 20.0 
541.0036462469062 2.646463697361531 93.50966414662605 18.0 0.0034951741219372986 1.747587060968641 20.0 
542.000020884533 3.2086158783639758 91.36219448318542 18.0 0.0034951741219372986 1.747587060968641 20.0 
543.0013402637902 3.07395946777518 91.36219448318542 17.0 0.0034951741219372986 1.747587060968641 20.0 
544.0014404695436 2.923863665763847 84.03979627177097 16.0 0.0 0.0 21.0 
545.0000762104831 2.9175683083678496 84.03979627177097 16.0 0.0 0.0 20.0 
546.0001368870048 2.3101305194850155 84.03979627177097 16.0 0.0 0.0 20.0 
547.0017747728584 2.403222317493966 91.53974091943161 15.0 0.0 0.0 20.0 
548.0002439094304 2.178733193007143 93.03869542287879 15.0 0.0 0.0 20.0 
549.0009238832674 2.162497771174892 104.72652691597659 16.0 0.0 0.0 20.0 
550.0000025079916 2.1619073071367034 93.03869542287879 16.0 0.0 0.0 18.0 
551.0000785099229 2.304900831473425 106.14785299656069 15.0 0.0 0.0 18.0 
552.0013749577018 2.337072372240252 91.53595920449209 15.0 0.0 0.0 18.0 
553.0016922926909 2.3847687700337494 91.53595920449209 15.0 0.0 0.0 18.0 
554.0042223042444 2.444847246866592 84.0536518281063 15.0 0.0 0.0 18.0 
555.0025492570721 2.5006232793335252 84.0536518281063 15.0 0.0 0.0 18.0 
556.0011534663053 2.8481187132420387 106.35604951886631 15.0 0.0 0.0 18.0 
557.0001892611101 3.348050366941353 113.90976141967218 15.0 0.0 0.0 18.0 
558.0011960580771 3.3760550930241053 113.90976141967218 15.0 0.0 0.0 18.0 
559.0015858490572 3.4764658922486364 113.90976141967218 15.0 0.0 0.0 18.0 
560.0011615400545 3.5328018044606098 113.90976141967218 14.0 0.0 0.0 18.0 
561.0011970074272 3.6695463290709207 106.5573765599309 14.0 0.0 0.0 18.0 
562.0017747728584 4.162515146591915 114.10887165051906 14.0 0.0 0.0 18.0 
563.0026671220828 4.205261327984085 114.10887165051906 14.0 0.0 0.0 18.0 
564.0021287478189 4.183099679791551 114.10887165051906 14.0 0.0 0.0 18.0 
565.0022083151446 4.262012862340139 114.10887165051906 14.0 0.0 0.0 18.0 
566.0003693174197 4.737344172536512 167.3717864641925 14.0 0.0 0.0 19.0 
567.0001483961593 5.283134757883376 174.8845955311338 14.0 0.0 0.0 18.0 
568.0020541785186 5.532763436472448 174.8845955311338 14.0 0.0 0.0 17.0 
569.0016374192691 5.984484926247816 174.8845955311338 14.0 0.0 0.0 18.0 
570.0017489449797 6.03996880907377 174.8845955311338 14.0 0.0 0.0 18.0 
571.0023312942616 5.764942248680706 141.59179604112876 15.0 0.0 0.0 18.0 
572.001362526649 5.700460721838194 148.67500719596677 15.0 0.0 0.0 17.0 
573.0015621991233 4.931948496684853 112.59562390754826 15.0 0.0 0.0 17.0 
574.0003588442976 4.715501744546755 91.4405772096789 15.0 0.0 0.0 17.0 
575.0011136623618 4.218801604142171 91.38367943573815 15.0 0.0 0.0 17.0 
576.000565531391 4.2353522343556795 91.77178645174786 15.0 0.0 0.0 17.0 
577.0002086195236 3.8010576349032723 97.08083515223558 16.0 0.0 0.0 18.0 
578.0002752383634 4.168975224336168 95.2939350517783 17.0 0.0 0.0 19.0 
579.0001463872686 3.6680038742410703 90.56142055510117 16.0 0.0 0.0 19.0 
580.002707438217 4.016651907846759 95.2939350517783 16.0 0.0 0.0 18.0 
581.0001498225035 4.160840598469412 90.56142055510117 18.0 0.0 0.0 18.0 
582.0005178232103 4.814971947703501 104.25200913123194 18.0 0.0 0.0 18.0 
583.0015464740289 4.428725568339513 97.96083038969465 18.0 0.0 0.0 19.0 
584.0015799173802 4.708273715483028 97.96083038969465 19.0 0.0 0.0 19.0 
585.0002726133808 3.978472503373693 96.14099253523636 19.0 0.04647986935279148 14.433175543381793 18.0 
586.002176862639 2.65384485717065 92.2141506457503 19.0 0.04647986935279148 14.433175543381793 18.0 
587.0016612796913 2.419342102922324 90.10769917488079 19.0 0.04647986935279148 14.433175543381793 18.0 
588.0009465601643 2.257886326810132 88.71624854077169 20.0 0.017613518266027865 8.80675913301397 18.0 
589.0002664501226 1.8906105330945358 88.71624854077169 20.0 0.018134777937481823 9.067388968740858 18.0 
590.000087715327 1.3338151415860786 88.71624854077169 20.0 0.0 0.0 17.0 
591.0042857455433 1.0531916095608083 94.47438618171083 20.0 0.0 0.0 17.0 
592.0017747728584 0.677949738440507 94.47438618171083 20.0 0.0 0.0 17.0 
593.0075513223143 0.2490435937418978 37.69180342848736 20.0 0.0 0.0 16.0 
594.0000735090473 0.23833470864059367 37.69180342848736 19.0 0.0 0.0 16.0 
595.0003364543962 0.2886535843852841 45.11322584102095 19.0 0.0 0.0 16.0 
596.0002004132803 0.33525472989497423 45.11322584102095 19.0 0.0 0.0 16.0 
597.0009171844772 0.49744508820726746 51.97534745468906 19.0 0.0 0.0 16.0 
598.0007742244279 0.49744508820726746 51.97534745468906 18.0 0.0 0.0 17.0 
599.0024576712443 0.49676692186789284 51.97534745468906 18.0 0.0 0.0 17.0 
600.0014742819242 0.5817746791921865 59.339508516578405 18.0 0.0 0.0 17.0 
#####################################################################
# End of data export. Simulation finished at: 2019-02-25T20:47+0000 #
#####################################################################
