#####################################################################
# Alchemist log file - simulation started at: 2019-02-25T20:11+0000 #
#####################################################################
# seed = 66.0
#
# The columns have the following meaning: 
# time distance-rep[Mean] distance-rep[Max] leader-rep[CountDistinct] distance-share[Mean] distance-share[Max] leader-share[CountDistinct] 
0.0 NaN NaN NaN NaN NaN NaN 
1.0035563111310264 0.0 0.0 498.0 0.0 0.0 90.0 
2.0034033437917067 0.0 0.0 111.0 0.0 0.0 75.0 
3.0011136813528854 0.0 0.0 106.0 0.0 0.0 67.0 
4.000248665922102 0.0 0.0 98.0 0.0 0.0 58.0 
5.000771254002827 0.0 0.0 94.0 0.0 0.0 52.0 
6.000586216032762 0.0 0.0 91.0 0.0 0.0 48.0 
7.006927356193579 0.0 0.0 83.0 0.0 0.0 44.0 
8.001220827517464 0.0 0.0 78.0 0.0 0.0 41.0 
9.000080008392002 0.0 0.0 74.0 0.0 0.0 38.0 
10.001169206110514 0.0 0.0 73.0 0.0 0.0 37.0 
11.00415964853231 0.0 0.0 72.0 0.0 0.0 36.0 
12.000122487538343 0.0 0.0 66.0 0.0 0.0 35.0 
13.00014022047479 0.0 0.0 66.0 0.0 0.0 36.0 
14.000623790952902 0.0 0.0 62.0 0.0 0.0 32.0 
15.001977305391913 0.0 0.0 59.0 0.0 0.0 34.0 
16.00169724840184 0.0 0.0 57.0 0.0 0.0 35.0 
17.0003924560471 0.0 0.0 59.0 0.0 0.0 32.0 
18.001704538518997 0.0 0.0 56.0 0.0 0.0 32.0 
19.000452175860385 0.0 0.0 52.0 0.0 0.0 32.0 
20.001010240485126 0.0 0.0 51.0 0.0 0.0 27.0 
21.0018846743409 0.0 0.0 52.0 0.0 0.0 25.0 
22.001630971159006 0.0 0.0 52.0 0.006036063443550952 3.018031721775486 25.0 
23.001704538518997 0.0 0.0 51.0 0.0 0.0 26.0 
24.00180885726076 0.0 0.0 50.0 0.0 0.0 26.0 
25.002986567740233 0.0 0.0 49.0 0.04072654171123416 7.605167030146731 25.0 
26.000168167259325 0.0 0.0 45.0 0.0870521442563631 16.62730615928743 26.0 
27.0015423494559 0.0 0.0 43.0 0.0 0.0 25.0 
28.001122330014606 0.0 0.0 42.0 0.0 0.0 24.0 
29.0023261415625 0.0 0.0 38.0 0.0046345681813177554 2.3172840906588874 24.0 
30.00006881469882 0.0 0.0 40.0 0.0046345681813177554 2.3172840906588874 23.0 
31.000392854207746 0.0 0.0 39.0 0.0 0.0 22.0 
32.001334412283924 0.0 0.0 37.0 0.005516401784098474 2.7582008920492456 22.0 
33.00170453851899 0.0 0.0 40.0 0.012909847973140081 6.454923986570066 21.0 
34.00359437889815 0.0 0.0 38.0 0.0 0.0 21.0 
35.00123393598091 0.0 0.0 39.0 0.0 0.0 20.0 
36.00069995379046 0.0 0.0 39.0 0.0 0.0 20.0 
37.00052556482222 0.0 0.0 37.0 0.0 0.0 21.0 
38.00010744440874 0.0 0.0 36.0 0.0 0.0 20.0 
39.00132766368382 0.0 0.0 35.0 0.0 0.0 19.0 
40.005306942228074 0.0 0.0 35.0 0.0 0.0 18.0 
41.00055347709366 0.04756777407843592 23.78388703921786 34.0 0.0 0.0 18.0 
42.00231548615259 0.04756777407843592 23.78388703921786 33.0 0.0 0.0 18.0 
43.001311262343386 0.04756777407843592 23.78388703921786 33.0 0.0 0.0 18.0 
44.00026428924749 0.13413099991174496 35.87419316965406 33.0 0.0 0.0 18.0 
45.002618919181984 0.13413099991174496 35.87419316965406 33.0 0.0 0.0 18.0 
46.00173666098295 0.13724592250412576 37.37103851808655 33.0 0.0 0.0 18.0 
47.00661308117964 0.13724592250412576 37.37103851808655 33.0 0.0 0.0 18.0 
48.00170453851899 0.07474207703617278 37.37103851808655 35.0 0.013283535243702462 6.641767621851216 18.0 
49.00697046344532 0.006188603587096692 3.0511479039407163 34.0 0.027714034832261487 13.857017416130674 18.0 
50.00142900321103 0.006102295807881453 3.0511479039407163 34.0 0.027714034832261487 13.857017416130674 20.0 
51.00075956216597 0.011218207398751392 5.60910369937568 30.0 0.0 0.0 18.0 
52.00016302308317 0.029168404971587316 8.97509878641796 31.0 0.0 0.0 17.0 
53.00170453851899 0.017950197572835915 8.97509878641796 29.0 0.0 0.0 17.0 
54.000663316843784 0.0 0.0 29.0 0.0 0.0 17.0 
55.00157886567023 0.0 0.0 28.0 0.0 0.0 18.0 
56.001993535288264 0.0 0.0 28.0 0.0 0.0 17.0 
57.000000969153845 0.0 0.0 30.0 0.0 0.0 17.0 
58.00170453851899 0.0 0.0 31.0 0.0 0.0 17.0 
59.00053059715397 0.0 0.0 29.0 0.0 0.0 17.0 
60.00081135101504 0.0 0.0 30.0 0.0 0.0 17.0 
61.00144930981443 0.0 0.0 30.0 0.0 0.0 18.0 
62.00033601684773 0.0 0.0 29.0 0.0 0.0 19.0 
63.00170453851899 0.0 0.0 29.0 0.0 0.0 19.0 
64.00535604738452 8.43430072744641E-4 0.4217150363723192 29.0 0.0 0.0 18.0 
65.00058415233362 0.02051625370631808 7.847473673807997 29.0 0.0 0.0 18.0 
66.00159854872 0.042495863016533166 9.969074129987234 28.0 0.0 0.0 18.0 
67.00037575032495 0.047351374134933115 9.969074129987234 28.0 0.0 0.0 18.0 
68.001704538519 0.02741322587495846 7.847473673807997 28.0 0.0 0.0 18.0 
69.00770401133833 0.01171827852734255 3.5811041614152543 27.0 0.0 0.0 18.0 
70.0003249875411 0.030690629475890092 9.639578775520732 27.0 0.0 0.0 18.0 
71.0032785812102 0.03281521534903292 5.854865849164327 26.0 0.0 0.0 18.0 
72.00271061848844 0.047880488433743595 11.31389834882188 26.0 0.0 0.0 18.0 
73.0000434779987 0.047880488433743595 11.31389834882188 24.0 0.0 0.0 18.0 
74.00169800695856 0.04444439736854958 11.69722148978775 26.0 0.0 0.0 18.0 
75.00371187436744 0.13263425261670592 18.973588157576756 27.0 0.0 0.0 18.0 
76.0002194276093 0.20942631855342142 21.208977925920493 25.0 0.0 0.0 18.0 
77.00005050127318 0.15510350006052345 19.418362334287366 23.0 0.0 0.0 18.0 
78.00015095742181 0.15536796748146106 19.418362334287366 23.0 0.0 0.0 18.0 
79.00605614885826 0.1462880046637603 19.418362334287366 22.0 0.0 0.0 19.0 
80.00170076265955 0.37439625939353893 26.70817386484336 21.0 0.0 0.0 18.0 
81.00040853548784 0.4269454854010513 26.70817386484336 21.0 0.0 0.0 18.0 
82.00336683969824 0.4190880695562556 25.763363944648887 21.0 0.0 0.0 18.0 
83.00125719652233 0.4270851031833606 25.763363944648887 22.0 0.0 0.0 18.0 
84.00406876284872 0.40768683415486395 26.127787714953485 22.0 0.0 0.0 18.0 
85.00252762292415 0.5509912302950422 33.56139996135235 21.0 0.0 0.0 18.0 
86.00312307026861 0.5052407283689444 40.75718649987667 21.0 0.0 0.0 18.0 
87.0007672589574 0.38058478776903093 27.06383250495304 21.0 0.0 0.0 19.0 
88.00072311024707 0.30405423489163436 27.06383250495304 21.0 0.0 0.0 19.0 
89.00163710013481 0.33960688398515765 27.06383250495304 21.0 0.0 0.0 18.0 
90.0046353270259 0.49105137487942996 34.4346172971745 21.0 0.0 0.0 17.0 
91.00163737402163 0.5065113405104047 34.4346172971745 22.0 0.0 0.0 17.0 
92.00452392455914 0.40557208897825897 33.804586874310274 22.0 0.0 0.0 17.0 
93.001704538519 0.45424603095162486 24.47039045992159 22.0 0.0 0.0 17.0 
94.00031654077456 0.3731241553405822 23.309514499319363 22.0 0.0 0.0 16.0 
95.00031784620205 0.5937786450110886 35.63976373052222 22.0 0.0 0.0 16.0 
96.00070664635598 0.7149219507987792 44.125653514368395 22.0 0.0 0.0 16.0 
97.00036831393143 0.6118843281037328 35.63976373052222 22.0 0.0 0.0 16.0 
98.00075196278145 0.5490176222073806 35.63976373052222 22.0 0.0 0.0 16.0 
99.00355089278032 0.6141000049953459 35.63976373052222 21.0 0.0 0.0 16.0 
100.00135428756094 0.6709879212227279 43.01411907347102 22.0 0.0 0.0 16.0 
101.00066961519146 0.6979025855282218 44.141282656269084 21.0 0.0 0.0 15.0 
102.00045366325446 0.5054149218700493 36.632168624778075 20.0 0.0 0.0 15.0 
103.001704538519 0.4136153773505421 36.632168624778075 19.0 0.0 0.0 15.0 
104.00153354301604 0.40993959301252875 34.57422948992175 19.0 0.0 0.0 15.0 
105.00572816424574 0.5040176197906368 44.09601363187883 20.0 0.013156889326177777 6.578444663088845 16.0 
106.00104788736542 0.6525492073683469 44.09601363187883 20.0 0.018343110132084485 6.578444663088845 16.0 
107.00054263661694 0.571718230538838 44.09601363187883 20.0 0.009738940409846377 2.593110402953414 16.0 
108.00011513247527 0.57655133799478 44.62267769549399 20.0 0.009738940409846377 2.593110402953414 16.0 
109.00459747533232 0.34351559853666314 44.62267769549399 20.0 0.009738940409846377 2.593110402953414 16.0 
110.00576057275697 0.40282273451739337 52.03267233339784 19.0 0.023131871303318233 9.308352831474508 16.0 
111.00152245183757 0.29595173317419166 50.102446765576076 19.0 0.023131871303318233 9.308352831474508 16.0 
112.00031164328868 0.1957468396430391 49.05366440467657 19.0 0.004515165640369287 2.2575828201846377 16.0 
113.0005075052433 0.09580199935822925 47.90099967911473 20.0 0.008370855019410232 2.2575828201846377 16.0 
114.00021548057897 0.0 0.0 19.0 0.008370855019410232 2.2575828201846377 16.0 
115.00140813996833 0.0 0.0 18.0 0.03687308484393191 9.383287202618732 16.0 
116.00076731483405 0.0 0.0 18.0 0.022119933874284795 9.053255219347221 16.0 
117.00087011389 0.0 0.0 18.0 0.022119933874284795 9.053255219347221 16.0 
118.001704538519 0.0 0.0 18.0 0.0 0.0 18.0 
119.00829228022285 0.0 0.0 18.0 0.0 0.0 18.0 
120.0018689874973 0.0 0.0 18.0 0.0 0.0 17.0 
121.00090255720067 0.0 0.0 18.0 0.0 0.0 17.0 
122.00036152309603 0.0 0.0 18.0 0.0 0.0 15.0 
123.001704538519 0.0 0.0 18.0 0.0 0.0 15.0 
124.00481735333945 0.0 0.0 18.0 0.0 0.0 15.0 
125.00576057275697 0.0 0.0 18.0 0.0 0.0 15.0 
126.00162022907617 0.0 0.0 18.0 0.0 0.0 15.0 
127.00274007360467 0.004497986380645096 2.248993190322551 18.0 0.0 0.0 15.0 
128.001704538519 0.003148061495228515 1.5740307476142448 18.0 0.0 0.0 15.0 
129.00791970192728 0.003148061495228515 1.5740307476142448 18.0 0.0 0.0 15.0 
130.00576057275697 0.0 0.0 18.0 0.0 0.0 15.0 
131.00351665712094 0.0 0.0 18.0 0.0 0.0 15.0 
132.00253762575466 0.0 0.0 18.0 0.0 0.0 15.0 
133.00129114426716 0.0 0.0 18.0 0.0 0.0 15.0 
134.00180659273065 0.0038537169157735435 1.926858457886766 18.0 0.0 0.0 15.0 
135.00081392307314 0.009768132058357928 2.9572075712922015 19.0 0.0 0.0 16.0 
136.00016359183888 0.03190670740974028 10.604743214770878 19.0 0.0 0.0 17.0 
137.0051444065501 0.059796144164776174 10.604743214770878 19.0 0.0 0.0 17.0 
138.001704538519 0.05358947091783883 10.604743214770878 19.0 0.0 0.0 17.0 
139.00408422081804 0.05324538848530253 10.604743214770878 19.0 0.0 0.0 17.0 
140.0001469020022 0.10161279761977206 17.401754317583368 18.0 0.0 0.0 17.0 
141.0025856512159 0.13636414957366047 23.934572933035696 19.0 0.0 0.0 17.0 
142.00062741363814 0.07856668317256543 23.934572933035696 19.0 0.0 0.0 16.0 
143.00118601900468 0.13008613207264327 23.934572933035696 18.0 0.0 0.0 16.0 
144.0005482526293 0.15035845132484546 23.934572933035696 18.0 0.0 0.0 16.0 
145.00025793701445 0.20829227757124036 30.819567290282464 18.0 0.0 0.0 16.0 
146.0022512737716 0.16747756005259573 30.819567290282464 18.0 0.0 0.0 16.0 
147.0042793561968 0.1267316845520741 30.819567290282464 18.0 0.0 0.0 16.0 
148.0000667667514 0.07102002731092522 13.419050650639178 18.0 0.001102697918363273 0.5513489591816381 15.0 
149.00147217044278 0.15481840881435688 13.419050650639178 20.0 0.001102697918363273 0.5513489591816381 17.0 
150.0012591613856 0.19364103349026893 13.419050650639178 20.0 0.0 0.0 17.0 
151.00060796096406 0.1906246659304978 13.419050650639178 20.0 0.0 0.0 17.0 
152.00324127182375 0.20891580485932962 17.490306960329008 20.0 0.0 0.0 16.0 
153.001704538519 0.21038924892972646 21.757892447359495 20.0 0.0 0.0 17.0 
154.00111216359758 0.24304279537311665 28.09662266277371 20.0 0.0 0.0 18.0 
155.00137234646132 0.2412781861734744 23.687791410504076 20.0 0.0 0.0 17.0 
156.0023905185416 0.20652356895573643 19.01743421033325 19.0 0.0 0.0 17.0 
157.00068573674656 0.27673977962242285 34.29944591019043 19.0 0.0 0.0 16.0 
158.0014985707939 0.46292893609952 31.172642263637158 19.0 0.0 0.0 16.0 
159.0061402709332 0.4965691716264337 31.172642263637158 19.0 0.0 0.0 16.0 
160.00102028549864 0.5211884351188412 31.172642263637158 18.0 0.0 0.0 16.0 
161.0000595713974 0.4689106092066973 35.641981844881485 18.0 0.0 0.0 16.0 
162.00125324152634 0.33992047936044545 34.26826427080724 18.0 0.0 0.0 16.0 
163.001704538519 0.4223974980300982 30.979826419127193 18.0 0.0 0.0 15.0 
164.00060724389255 0.32388152926028074 33.48845440513381 18.0 0.0 0.0 15.0 
165.0008756268975 0.29452411592370903 27.4079164573225 18.0 0.0 0.0 15.0 
166.00071173004056 0.2990168269219831 27.4079164573225 18.0 0.0 0.0 17.0 
167.00311907361424 0.49346595037648355 34.686752881450445 18.0 0.0 0.0 16.0 
168.00052065343021 0.7033466087863851 42.012612261167305 18.0 0.0 0.0 16.0 
169.00875842212054 0.5227347177674279 35.079039102282366 18.0 0.0 0.0 15.0 
170.00139172798524 0.5118937320639156 35.079039102282366 18.0 0.0 0.0 14.0 
171.00113746223053 0.6601420719231922 35.079039102282366 18.0 0.0 0.0 14.0 
172.00463831235527 0.8928320119683124 44.801899809574024 17.0 0.0 0.0 14.0 
173.001704538519 1.1226486840719532 51.45556779539254 17.0 0.0 0.0 14.0 
174.00226004833394 1.4496007741425285 54.35043385434352 17.0 0.0 0.0 14.0 
175.00184830807024 1.7362179158815998 55.60102303619385 17.0 0.0 0.0 15.0 
176.00074870094545 1.7135332860758763 55.60102303619385 17.0 0.0 0.0 15.0 
177.0008539322765 2.1587234221023532 62.98213082817489 17.0 0.0 0.0 16.0 
178.001704538519 2.1411564573015385 63.52983811955181 17.0 0.0 0.0 16.0 
179.00290159890056 2.160195858100748 65.00347324267364 17.0 0.0 0.0 16.0 
180.00062251700786 2.22281512648242 65.00347324267364 17.0 0.006491919039449354 3.2459595197246927 15.0 
181.00023331352594 2.2425532711427354 68.73985096536632 17.0 0.01211895504917918 3.2459595197246927 16.0 
182.00016429869552 2.6791729518750844 72.32961997475002 17.0 0.006491919039449354 3.2459595197246927 16.0 
183.001704538519 2.9446443860645286 74.57868320549971 17.0 0.006491919039449354 3.2459595197246927 16.0 
184.00230610167446 2.7457556920394834 74.57868320549971 17.0 0.0 0.0 15.0 
185.00155132844245 2.654216988888985 74.57868320549971 16.0 0.0 0.0 15.0 
186.00264782849715 3.070596604091371 74.57868320549971 17.0 0.07090258843612801 8.543831481920165 15.0 
187.0008438320478 3.3112214393322374 82.5806027383955 17.0 0.0740662258499618 8.543831481920165 15.0 
188.001704538519 3.70762615060273 84.2657498832856 17.0 0.07722986326379593 8.543831481920165 15.0 
189.0018404907278 3.7046292007811203 84.2657498832856 16.0 0.07348144826178202 8.798146457279302 15.0 
190.0014619518028 3.734595361004058 84.2657498832856 16.0 0.09706461995207895 13.797236916178207 15.0 
191.00017000555493 3.9315706813058178 84.2657498832856 16.0 0.20666087601186572 16.203224469750978 15.0 
192.003251690169 4.764333388779137 91.52688744676698 17.0 0.20666087601186572 16.203224469750978 15.0 
193.001704538519 4.615549428483561 91.52688744676698 17.0 0.1848571503994951 13.797236916178207 16.0 
194.00188219319145 4.764156331892794 91.52688744676698 17.0 0.16334884642661446 13.797236916178207 17.0 
195.00174379708915 4.98373999949233 93.18000565201055 16.0 0.1853781198222366 19.24210274869239 17.0 
196.00220781103945 4.970945232477598 91.52688744676698 16.0 0.25143365989953753 26.446070049170658 17.0 
197.00119322702602 5.514889414885303 100.60057262111025 16.0 0.24093291672108708 26.446070049170658 18.0 
198.001704538519 5.765846303381231 100.5882018922315 17.0 0.2304321735426368 26.446070049170658 17.0 
199.00334492081353 5.915900792320732 100.60057262111025 17.0 0.04123792300645767 20.618961503228775 17.0 
200.00127445419932 6.490454119467306 108.90269781034618 17.0 0.040778955690189064 20.389477845094632 17.0 
201.0014487646691 6.42316856250627 108.90269781034618 17.0 0.0 0.0 17.0 
202.00268531967126 4.849233102352889 107.70640730578202 17.0 0.0 0.0 18.0 
203.001704538519 0.9238353143772982 62.27078724379078 18.0 0.0 0.0 18.0 
204.00875842212054 0.6004088530957989 49.6435854017688 18.0 0.0 0.0 18.0 
205.00059082558005 0.6565118401647326 48.54650586916375 18.0 0.0 0.0 17.0 
206.00286256472342 0.45996441949987665 41.74782703192844 18.0 0.0 0.0 17.0 
207.0002094165469 0.4352835866716939 34.769874625582645 18.0 0.0 0.0 17.0 
208.00112024125858 0.5285786056703509 50.392656761664455 19.0 0.0 0.0 17.0 
209.00162388801033 0.6195295914834376 50.392656761664455 19.0 0.0 0.0 17.0 
210.00166344136065 0.5583204856065569 49.797033895508065 19.0 0.0 0.0 17.0 
211.0013373803359 0.9185990745388252 57.659609505545404 20.0 0.0 0.0 17.0 
212.0005864976901 0.9461999067051526 55.67926862411247 20.0 0.0 0.0 17.0 
213.001704538519 1.033553488833143 55.67926862411247 21.0 0.0 0.0 17.0 
214.00067126634067 1.253575373659855 57.659609505545404 20.0 0.0 0.0 17.0 
215.0017597132905 1.4021342571976536 57.85871848167733 21.0 0.0 0.0 17.0 
216.0012034658268 1.5247903298212955 67.95299568546505 21.0 0.0 0.0 17.0 
217.00016633047952 1.4454619116852514 57.85871848167733 23.0 0.0 0.0 17.0 
218.00124235641576 1.5788565394442107 67.95299568546505 23.0 0.0 0.0 17.0 
219.00030299697508 1.701629934884855 67.95299568546505 22.0 0.0 0.0 17.0 
220.00131833822672 1.9406846362223102 69.37252844207393 22.0 0.0 0.0 17.0 
221.00446537136293 1.888963463679894 68.23029760031062 21.0 0.0 0.0 17.0 
222.0006090433277 2.155491122958755 75.51750534299111 23.0 0.0 0.0 17.0 
223.001704538519 2.029210356162817 75.51750534299111 23.0 0.0 0.0 17.0 
224.0024407987365 2.259277695780285 75.51750534299111 22.0 0.0 0.0 17.0 
225.000468257763 1.5126125969568092 69.66005226786001 21.0 0.0 0.0 15.0 
226.00438856441414 1.4049139435393518 63.683489885298286 21.0 0.0 0.0 15.0 
227.0097096468541 1.586488251181412 74.339552175986 21.0 0.0 0.0 15.0 
228.001704538519 1.446479986300421 74.339552175986 21.0 0.0 0.0 16.0 
229.0009762999706 1.3915086436028823 74.339552175986 20.0 0.0 0.0 16.0 
230.00194617539483 1.4409730864344645 73.20136072566066 19.0 0.0 0.0 16.0 
231.0041960927701 1.4991435419854957 73.20136072566066 19.0 0.0 0.0 16.0 
232.00038110568747 1.3166878586479343 73.20136072566066 19.0 0.0 0.0 16.0 
233.0000331815418 1.4864188824864366 82.47147164083611 19.0 0.0 0.0 16.0 
234.00332719675788 1.522511428695599 82.47147164083611 19.0 0.0 0.0 17.0 
235.0018150309759 1.3371853534758469 87.3416088488824 19.0 0.0 0.0 17.0 
236.00106568986916 1.4670359867582135 87.3416088488824 17.0 0.0 0.0 17.0 
237.00039267775387 1.3606180803126815 87.3416088488824 18.0 0.0 0.0 17.0 
238.0014507748714 1.1768970140937323 87.3416088488824 17.0 0.0 0.0 17.0 
239.00098151069827 0.8474844579429363 81.37402963416434 17.0 0.0 0.0 17.0 
240.00328681771884 0.7213164875123064 89.44482206182016 17.0 0.0 0.0 17.0 
241.00115118271793 0.9449383497793967 95.8998329946769 17.0 0.0 0.0 17.0 
242.00045948073128 0.9829903425767388 95.8998329946769 17.0 0.0 0.0 17.0 
243.00019534524031 0.9499303143534304 95.8998329946769 17.0 0.0 0.0 17.0 
244.0011889173 0.7450772579078333 89.44482206182016 17.0 0.0 0.0 17.0 
245.00165585378755 0.7072068648146431 95.46948500931694 16.0 0.0 0.0 17.0 
246.0006599142846 0.6125532730906593 100.83065277010354 17.0 0.0 0.0 17.0 
247.0004336898129 0.5758923615649604 100.83065277010354 17.0 0.0 0.0 17.0 
248.001704538519 0.7538244277090475 100.83065277010354 16.0 0.0 0.0 17.0 
249.00086288957434 0.6388654085332777 100.83065277010354 17.0 0.0 0.0 17.0 
250.00290321114014 0.47725261058949503 105.4038315947401 18.0 0.0 0.0 17.0 
251.00106397403675 0.4308654748109328 105.4038315947401 17.0 0.0 0.0 17.0 
252.00229741219337 0.4849858891677559 105.4038315947401 17.0 0.0 0.0 17.0 
253.0012662327382 0.5204096225668852 105.4038315947401 17.0 0.0 0.0 17.0 
254.0000425950367 0.5850906347909702 105.4038315947401 17.0 0.0 0.0 17.0 
255.00144690054702 0.584447111420801 116.37978337076805 17.0 0.0 0.0 17.0 
256.0007359595914 0.597156656553118 117.07732138986552 17.0 0.0 0.0 17.0 
257.00101933466937 0.603119443341978 117.07732138986552 17.0 0.0 0.0 16.0 
258.00090816864645 0.3247863956311453 117.07732138986552 17.0 0.0 0.0 16.0 
259.0019481561708 0.5980099064829534 117.07732138986552 17.0 0.0 0.0 15.0 
260.00082187925125 0.15767530271010896 29.22161485335343 16.0 0.0 0.0 15.0 
261.00168356451763 0.12453676294354073 28.812444416351724 16.0 0.0 0.0 15.0 
262.0027574788883 0.16856822994248605 29.22161485335343 16.0 0.0 0.0 15.0 
263.00137005367765 0.22116786057366328 42.574334959195426 16.0 0.0 0.0 15.0 
264.0016568174766 0.20828353770446884 42.574334959195426 16.0 0.0 0.0 15.0 
265.0003796457935 0.12313486778607767 29.059793744883223 16.0 0.0 0.0 15.0 
266.00427806817356 0.10570525474327752 29.059793744883223 16.0 0.0 0.0 15.0 
267.0014177866894 0.12873521012341171 29.059793744883223 18.0 0.0 0.0 15.0 
268.001704538519 0.1459878283211228 35.81911043253379 20.0 0.0 0.0 16.0 
269.0008820267495 0.20961501731619886 33.746544581211424 20.0 0.0 0.0 15.0 
270.0011193210195 0.21877125649086215 33.746544581211424 18.0 0.0 0.0 15.0 
271.00022256611516 0.20428243134376964 33.746544581211424 18.0 0.0 0.0 15.0 
272.0049913987117 0.309293123267747 40.555968433880736 18.0 0.0 0.0 15.0 
273.00031805622694 0.3272659216986272 46.71701424680441 18.0 0.0 0.0 15.0 
274.0044102224028 0.31276627296943016 46.71701424680441 18.0 0.0 0.0 15.0 
275.0009511834902 0.3358484273607467 46.71701424680441 18.0 0.0 0.0 15.0 
276.00381788760615 0.35129516241577935 46.71701424680441 19.0 0.0 0.0 16.0 
277.002021209924 0.4073876027460791 37.10403770703334 19.0 0.0 0.0 16.0 
278.001704538519 0.629916632902077 53.53357781748983 19.0 0.0 0.0 16.0 
279.00034798452464 0.5498060821754993 36.048172451085605 19.0 0.0 0.0 16.0 
280.00021697102875 0.5895559153422093 36.048172451085605 19.0 0.0 0.0 16.0 
281.0009559275004 0.6531272639244499 36.048172451085605 19.0 0.0 0.0 16.0 
282.0001409247767 0.7574644352528883 43.50973333910633 19.0 0.0 0.0 16.0 
283.001704538519 0.931141986395298 61.96564224173113 19.0 0.0 0.0 16.0 
284.0000597864671 1.0165054996718323 61.96564224173113 19.0 0.0 0.0 16.0 
285.00308219390473 0.7935516179411312 43.95633467897011 20.0 0.0 0.0 16.0 
286.0012141272497 0.6692908877384787 43.95633467897011 21.0 0.0 0.0 17.0 
287.001163132174 0.7446535850781715 55.80520275170147 21.0 0.0 0.0 17.0 
288.001704538519 0.5743585477608492 56.97228569146466 20.0 0.0 0.0 18.0 
289.00624234083983 0.45208073183388586 40.16875807407865 19.0 0.0 0.0 18.0 
290.00025145034226 0.5993836084109979 56.828460038867945 20.0 0.0 0.0 18.0 
291.0006613377615 0.5107496607928459 47.61413470288318 19.0 0.0 0.0 18.0 
292.00051833672796 0.7307544128056894 56.97228569146466 20.0 0.0 0.0 18.0 
293.001704538519 0.7475481851105265 54.6648819957054 19.0 0.0 0.0 18.0 
294.0023566015549 0.7152421897182284 54.6648819957054 18.0 0.0 0.0 18.0 
295.00045546643344 0.8587987291903769 79.43269700632652 18.0 0.0 0.0 17.0 
296.00148354239815 0.9141391167270843 66.21739588710608 18.0 0.0 0.0 17.0 
297.01204995073755 1.0610171622715145 87.41784430208065 19.0 0.0 0.0 17.0 
298.001704538519 1.0897355455041642 86.9335942531161 19.0 0.0 0.0 17.0 
299.00211852135885 1.7461193841056786 94.93306184386375 21.0 0.0 0.0 17.0 
300.00198151412445 1.7927084276998155 94.93306184386375 21.0 0.0 0.0 17.0 
301.00492980196327 1.8252058343943411 98.0146516288392 20.0 0.0 0.0 17.0 
302.00051343346286 1.7414919402692193 93.52831635832331 21.0 0.0 0.0 16.0 
303.001704538519 1.9444740556477103 100.96593194715041 19.0 0.0 0.0 16.0 
304.0005970229391 2.1552384875851676 103.05574413421999 19.0 0.0 0.0 16.0 
305.0010592923812 2.4207586375185417 105.4642259958747 19.0 0.0 0.0 16.0 
306.000972492163 2.243592951908142 103.05574413421999 19.0 0.0 0.0 16.0 
307.0047806703804 2.370081086454534 103.05574413421999 19.0 0.0 0.0 16.0 
308.000693634119 2.673915505757965 110.47222524764385 19.0 8.500224795670921E-5 0.04250112397835437 16.0 
309.00002084496253 2.6935394632524408 110.47222524764385 19.0 8.500224795670921E-5 0.04250112397835437 16.0 
310.00395849871586 2.6406230273055376 108.9688403072276 19.0 0.0 0.0 16.0 
311.00129549358405 2.6122505076446405 108.9688403072276 19.0 0.0 0.0 16.0 
312.00067088834857 3.1544396899481977 108.9688403072276 19.0 0.0 0.0 16.0 
313.001704538519 3.361299451985634 116.41683747135721 19.0 0.0025128237587846857 1.2564118793923456 16.0 
314.00614988631565 3.758956260353494 116.41683747135721 19.0 0.0025128237587846857 1.2564118793923456 16.0 
315.0041128293417 3.6463906283999905 115.10602680120058 19.0 0.0025128237587846857 1.2564118793923456 16.0 
316.0006740196874 3.5551693140963705 115.10602680120058 19.0 0.0 0.0 16.0 
317.00213778882136 4.609344302657451 122.52764487272475 19.0 0.004273984338633822 1.1642779196674269 16.0 
318.0010864962388 5.245729302286411 122.52764487272475 19.0 0.0062602613288093205 1.6132756961764017 16.0 
319.0001612912803 5.567186224392665 128.50726135647727 19.0 0.0062602613288093205 1.6132756961764017 17.0 
320.00217972631555 5.349656551138637 128.50726135647727 19.0 0.017771869247216927 5.964827875146938 19.0 
321.0003494732489 5.379966922103102 128.50726135647727 18.0 0.02097955748861036 5.964827875146938 19.0 
322.0019330301639 6.076680070707591 128.50726135647727 17.0 0.028136744063496564 5.964827875146938 18.0 
323.0002069969676 6.751805890744358 135.93537910596785 17.0 0.041937000568449435 8.105147106636565 18.0 
324.00185469586324 7.0230393973553396 148.39635319321445 17.0 0.041937000568449435 8.105147106636565 18.0 
325.00098238726207 6.968262053240821 148.39635319321445 17.0 0.07378188307475228 11.490904879618512 18.0 
326.0005776760595 7.922936598343598 152.39779067821274 17.0 0.08200642031001512 11.490904879618512 18.0 
327.0034151803434 8.553874849970843 155.79519007769198 17.0 0.03658695772365938 6.410154820843019 20.0 
328.001704538519 9.293237796577456 159.78967104678242 17.0 0.07507439913046576 12.943428415327332 19.0 
329.0011672515984 9.477119173253943 159.78967104678242 17.0 0.032112590442624614 8.415329095023594 19.0 
330.00009165805125 9.982724623166249 159.78967104678242 18.0 0.020145249176564087 6.887996352654426 19.0 
331.00171209584937 9.828028325335907 158.29740802357117 18.0 0.020145249176564087 6.887996352654426 19.0 
332.0027012466656 10.644794050530017 165.7969009779202 18.0 0.020145249176564087 6.887996352654426 19.0 
333.001704538519 12.400078164338812 170.26305215730474 18.0 0.07188286348740791 14.345064567772965 19.0 
334.00454940632136 11.83356905969835 170.26305215730474 18.0 0.009718686811659518 4.8593434058297476 20.0 
335.00040302574615 11.434830532585956 170.37579592425027 18.0 0.0 0.0 20.0 
336.0033504007111 11.979627360804606 165.89898894983367 18.0 0.0 0.0 20.0 
337.00156810109473 11.769839784692554 169.08128347335253 18.0 0.0 0.0 20.0 
338.001704538519 13.736104344955852 177.81595061992584 18.0 0.0 0.0 19.0 
339.00006564372916 13.0323415760976 174.78171684848377 18.0 0.0 0.0 19.0 
340.003452290663 13.246324803859704 176.07649737868087 18.0 0.0 0.0 19.0 
341.0026599802258 13.083153668707112 176.07649737868087 19.0 0.0 0.0 18.0 
342.0013623988633 13.577098015681425 178.29472965483802 20.0 0.0 0.0 18.0 
343.001704538519 14.552104521579016 183.87171906302206 21.0 0.0 0.0 18.0 
344.0030915444306 13.831918340897735 183.87171906302206 22.0 0.0 0.0 18.0 
345.00187724392634 13.807315779709034 183.87171906302206 23.0 0.0 0.0 17.0 
346.0026231986065 13.851350783504385 183.87171906302206 23.0 0.0 0.0 17.0 
347.02288066714243 13.964622947893512 189.47064330809752 23.0 0.0 0.0 17.0 
348.00019651805377 15.623008080274609 193.10414122286556 21.0 0.0 0.0 17.0 
349.00875842212054 14.601187422401802 188.0142201475433 21.0 0.0 0.0 16.0 
350.00144950659427 15.42716208460615 193.10414122286556 22.0 0.0 0.0 16.0 
351.00156694823187 14.897844130057438 188.0142201475433 22.0 0.0 0.0 16.0 
352.0004321238259 15.196973217559172 193.10414122286556 22.0 0.0 0.0 16.0 
353.001388095879 15.349815854591077 191.96397828543667 22.0 0.0 0.0 16.0 
354.0036103546524 15.758060839018436 191.96397828543667 23.0 0.0 0.0 16.0 
355.00105703125024 15.528164484181168 191.96397828543667 21.0 0.0 0.0 16.0 
356.0042943785426 15.720145429513043 191.96397828543667 21.0 0.0 0.0 16.0 
357.0029540835134 15.700299117769218 191.96397828543667 21.0 0.0 0.0 16.0 
358.001704538519 16.01300018919986 193.11004912266048 21.0 0.0 0.0 16.0 
359.0049023337925 15.47797766998593 193.11004912266048 21.0 0.0 0.0 16.0 
360.0013593268491 15.575517893507515 202.46869582287343 22.0 0.0 0.0 16.0 
361.0049903515006 15.602626307004664 202.46869582287343 22.0 0.0 0.0 16.0 
362.0006120414705 13.269829901073107 202.46869582287343 20.0 0.0 0.0 16.0 
363.00120718676766 10.177907416186693 184.79648546073315 19.0 0.0 0.0 16.0 
364.0002229019401 10.858498804515843 184.79648546073315 19.0 0.0 0.0 16.0 
365.0001760379065 10.102611185783227 181.7046364831586 19.0 0.0 0.0 16.0 
366.00013583149484 8.930956227180957 181.7046364831586 19.0 0.0 0.0 16.0 
367.0023338034701 9.199876991524587 181.7046364831586 19.0 0.0 0.0 16.0 
368.001704538519 8.63507391187077 180.57551113137725 19.0 0.0 0.0 16.0 
369.00340629255317 8.946849502158658 180.57551113137725 19.0 0.0 0.0 16.0 
370.00128412411016 9.134682195512053 188.1227980977967 19.0 0.0 0.0 16.0 
371.0002227668331 8.086974267315236 188.1227980977967 19.0 0.0 0.0 16.0 
372.0012772730719 9.48932775675289 188.50991278461225 19.0 0.0 0.0 16.0 
373.001704538519 9.812789547264906 189.11931839887666 20.0 0.0 0.0 17.0 
374.0013833382999 9.733826947126898 189.11931839887666 20.0 0.0 0.0 17.0 
375.0008859288397 10.342386088466519 189.11931839887666 19.0 0.0 0.0 16.0 
376.00018183913113 10.492585522722749 189.11931839887666 19.0 0.0 0.0 16.0 
377.00066919178033 10.859365741717866 189.11931839887666 19.0 0.0 0.0 16.0 
378.00139135139034 11.663144912779124 195.597897021405 20.0 0.0 0.0 17.0 
379.0001395591275 11.908309958332104 195.597897021405 20.0 0.0 0.0 17.0 
380.00206695757436 12.049887065818714 195.597897021405 20.0 0.0 0.0 17.0 
381.00211782461406 12.182717573964434 195.597897021405 20.0 0.0 0.0 17.0 
382.00226676666125 12.50992677027441 215.11395542758117 20.0 0.0 0.0 17.0 
383.00049540843264 12.715985513845038 215.11395542758117 20.0 0.0 0.0 17.0 
384.000333306335 13.028352234279096 215.11395542758117 20.0 0.0 0.0 18.0 
385.0010578107841 12.77012287810844 215.11395542758117 20.0 0.0 0.0 19.0 
386.00027836294583 12.623599518139448 215.11395542758117 20.0 0.0 0.0 21.0 
387.00170950507766 12.952224897902195 214.4639442397359 20.0 0.0 0.0 22.0 
388.00165025193195 12.730282530999103 220.2900134644404 20.0 0.0 0.0 21.0 
389.0001012589011 12.917356619238396 220.2900134644404 20.0 0.0 0.0 21.0 
390.00224767302547 12.682985606100528 220.2900134644404 19.0 0.0 0.0 20.0 
391.0004117144498 12.672525119773656 220.2900134644404 19.0 0.0 0.0 19.0 
392.0007890307681 13.668321495384017 213.14544034433868 19.0 0.0 0.0 19.0 
393.0000961391644 14.579012143938172 247.52570823037053 19.0 0.0 0.0 19.0 
394.0000669300666 14.446556716352294 247.52570823037053 19.0 0.0 0.0 19.0 
395.00161820273433 14.58199704474398 247.52570823037053 19.0 0.0 0.0 18.0 
396.00171935081005 15.139659265588715 247.52570823037053 19.0 0.0 0.0 19.0 
397.0012608582157 14.972215989557982 253.0373704179533 19.0 0.0 0.0 19.0 
398.00127371798646 15.242467082169572 258.9031408686592 19.0 0.0 0.0 19.0 
399.001939479309 15.574139777398232 258.9031408686592 19.0 0.0 0.0 19.0 
400.00288884788336 16.072619836414127 258.9031408686592 19.0 0.0 0.0 19.0 
401.0034192167748 15.885414959147193 258.9031408686592 19.0 0.0 0.0 19.0 
402.0007663248254 15.458743989788358 264.3714987787269 19.0 0.0 0.0 19.0 
403.001704538519 15.778706311031204 270.3820821101194 19.0 0.0 0.0 18.0 
404.0001138135671 15.658342640671309 270.3820821101194 18.0 0.0 0.0 19.0 
405.0033868861508 16.736873296250387 270.3820821101194 19.0 0.0 0.0 18.0 
406.0024768075661 16.270431306785287 270.3820821101194 19.0 0.0 0.0 17.0 
407.00347038254387 16.570982557905907 274.5524627496979 19.0 0.0 0.0 17.0 
408.00118030872994 16.56809505285283 282.0227601693148 19.0 0.0 0.0 16.0 
409.00198619824783 14.54329219373625 282.0227601693148 17.0 0.0 0.0 16.0 
410.00007277283845 15.831478843229021 282.0227601693148 17.0 0.0 0.0 17.0 
411.0004133291832 16.237916040544288 336.7765059899184 19.0 0.0 0.0 17.0 
412.00316223826064 16.75885191697438 344.22151379540514 19.0 0.0 0.0 17.0 
413.0003412500607 17.725710577031233 344.22151379540514 18.0 0.0 0.0 15.0 
414.00209441455985 17.40748522535914 315.3358184739152 17.0 0.0 0.0 15.0 
415.00132424958 18.59899772853124 328.48501111596624 17.0 0.0 0.0 16.0 
416.00264226361395 18.18019377619449 328.48501111596624 18.0 0.0 0.0 16.0 
417.00000236622844 16.493848732629107 301.0249477985961 18.0 0.0 0.0 16.0 
418.0010057052956 16.245455357254706 298.9149461906833 18.0 0.0 0.0 16.0 
419.0001425789781 16.03905806372602 298.9149461906833 17.0 0.0 0.0 16.0 
420.0013638040888 14.703171962110405 298.9149461906833 17.0 0.0 0.0 16.0 
421.00003463696737 12.828830746968228 304.5681969746499 18.0 0.0 0.0 16.0 
422.00205330801873 9.557811020576764 287.83849500124103 18.0 0.0 0.0 16.0 
423.00022418274875 9.969538323386583 295.1468261409121 18.0 0.0 0.0 16.0 
424.0007834573821 10.738427102091604 312.0409140524696 17.0 0.0 0.0 16.0 
425.0008107881283 7.815649219546783 295.1468261409121 17.0 0.0 0.0 18.0 
426.0022386026101 8.513846008834745 295.1468261409121 18.0 0.0 0.0 18.0 
427.002441970518 8.293556947247238 301.000360412952 18.0 0.0 0.0 18.0 
428.00019680125286 7.712453301015267 302.55200887256245 18.0 0.0 0.0 18.0 
429.00225616535636 8.012612989871368 309.8430631497589 18.0 0.0 0.0 18.0 
430.0007038983828 7.625345889043301 309.8430631497589 18.0 0.0 0.0 18.0 
431.00180335040244 6.577813991951788 309.8430631497589 18.0 0.0 0.0 17.0 
432.0004295296296 5.5580757834776415 309.8430631497589 18.0 0.0 0.0 17.0 
433.0002256046526 6.923943293279653 329.4711992775656 18.0 0.0 0.0 17.0 
434.0004543719254 4.457386862439891 329.4711992775656 18.0 0.0 0.0 17.0 
435.00576057275697 3.894375117423561 324.52520463800624 18.0 0.0 0.0 16.0 
436.00359397598913 2.69474549626377 324.52520463800624 18.0 0.0 0.0 16.0 
437.0044097549389 1.3860511917699632 286.9599517574887 18.0 0.0 0.0 16.0 
438.001704538519 1.5376149492161613 294.27044864702435 18.0 0.0 0.0 16.0 
439.00510363136743 0.9552635823859396 48.47528166242145 18.0 0.0 0.0 16.0 
440.0011589465012 0.9525226501990921 48.47528166242145 19.0 0.0 0.0 16.0 
441.00119758912666 0.9596160204796758 48.47528166242145 19.0 0.0 0.0 16.0 
442.00088743371396 0.9184658054713469 48.05249671131739 19.0 0.0 0.0 17.0 
443.0009002644798 0.8276380204809393 44.20244560023562 18.0 0.0 0.0 17.0 
444.0014243308982 0.8315857508680212 46.176310793776594 19.0 0.0 0.0 16.0 
445.0001143618782 0.8308846561525287 46.176310793776594 19.0 0.0 0.0 16.0 
446.005822261008 0.8161019650977406 46.176310793776594 18.0 0.0 0.0 17.0 
447.0015701671874 0.7983516335902623 46.176310793776594 18.0 0.0 0.0 16.0 
448.0012923848622 0.7418744174838093 44.37169869275843 18.0 0.0 0.0 15.0 
449.003119144679 0.75077350871787 46.77443076443984 18.0 0.006142339261511908 3.0711696307559464 15.0 
450.00067731280325 0.7475023829477588 46.77443076443984 18.0 0.006142339261511908 3.0711696307559464 15.0 
451.0009535998071 0.7097206786201314 42.933146199317434 18.0 0.006142339261511908 3.0711696307559464 15.0 
452.00001393031295 0.6923865807704295 42.933146199317434 18.0 0.0179079963703703 5.88282855442921 15.0 
453.001704538519 0.6515525595180967 41.20276158779595 18.0 0.0448418317853921 12.62187118597464 15.0 
454.00098963399955 0.6515525595180967 41.20276158779595 18.0 0.0448418317853921 12.62187118597464 15.0 
455.00075209732165 0.6138086821137958 43.75074964265016 18.0 0.0 0.0 16.0 
456.0003970408788 0.5521924839012003 33.37327767944902 18.0 0.0 0.0 17.0 
457.0000042696953 0.5537763372061322 37.783043286675934 18.0 0.0 0.0 17.0 
458.001704538519 0.49009533008514106 37.783043286675934 18.0 0.0 0.0 17.0 
459.0016768182819 0.49009533008514106 37.783043286675934 18.0 0.0 0.0 16.0 
460.0003466020941 0.5060470389860154 37.783043286675934 18.0 0.0 0.0 16.0 
461.00049248919515 0.6285223649740853 66.67476468927754 18.0 0.0 0.0 16.0 
462.00603323003634 0.490569187201344 45.29932767271342 18.0 0.0 0.0 16.0 
463.001704538519 0.5921148147818563 62.955014319791076 18.0 0.0 0.0 16.0 
464.00143848597384 0.5921148147818563 62.955014319791076 18.0 0.0 0.0 16.0 
465.0033621190748 0.6074790694617398 62.955014319791076 18.0 0.0 0.0 16.0 
466.001263703088 0.5884354417148894 55.478890190757966 18.0 0.0 0.0 16.0 
467.01095353634787 0.7652259232555058 76.32737146458169 18.0 0.0 0.0 16.0 
468.0003894537224 0.8636425100664586 68.93186233248178 18.0 0.0 0.0 16.0 
469.00115040512463 1.0061202550035424 68.93186233248178 20.0 0.0 0.0 16.0 
470.0019288361012 0.9941242764871246 68.93186233248178 22.0 0.0 0.0 16.0 
471.0019088276109 0.9378441968541054 68.93186233248178 22.0 0.0 0.0 16.0 
472.00307597616643 0.7933615913391017 66.65928307587234 22.0 0.0 0.0 16.0 
473.00114415333536 0.7229290145668784 59.14541197016183 21.0 0.0 0.0 16.0 
474.00360160582755 0.7815036483343354 59.14541197016183 21.0 0.0 0.0 16.0 
475.00314126282285 0.8017530532447273 59.14541197016183 21.0 0.0 0.0 16.0 
476.0033091983835 0.7993714369713019 59.14541197016183 21.0 0.0 0.0 16.0 
477.0014611828156 0.7149979147195592 60.313676748825 21.0 0.0 0.0 17.0 
478.00115192113503 0.45416378808968205 44.27132908112145 21.0 0.0 0.0 17.0 
479.0026474825564 0.4589719582615419 44.27132908112145 21.0 0.0 0.0 17.0 
480.0002094636331 0.5440581765793323 46.4522128761929 21.0 0.0 0.0 17.0 
481.00001788988845 0.4216631641946661 44.27132908112145 21.0 0.0 0.0 17.0 
482.0036003340413 0.48455818778232185 40.63612986905673 21.0 0.0 0.0 17.0 
483.0011328342845 0.43694014525331787 36.167679356443585 21.0 0.0 0.0 17.0 
484.00090149431855 0.4920545400265817 36.167679356443585 21.0 0.0 0.0 16.0 
485.00405666256563 0.5761987039960492 36.167679356443585 21.0 0.0 0.0 16.0 
486.0006636192132 0.554050470607011 41.960446359290586 21.0 0.0 0.0 17.0 
487.0002929470732 0.6009592167882182 41.960446359290586 21.0 0.0 0.0 17.0 
488.001704538519 0.49893254258449177 49.44493870978093 21.0 0.0 0.0 17.0 
489.0001247547032 0.648040417325879 49.44493870978093 20.0 0.0 0.0 17.0 
490.00157494380994 0.6308917479756768 49.44493870978093 22.0 0.0 0.0 17.0 
491.00145700030083 0.5757277719420523 55.205898812428046 21.0 0.0 0.0 16.0 
492.0040065567585 0.5775497626837856 55.205898812428046 21.0 0.0 0.0 16.0 
493.001704538519 0.7148832978844948 62.72545838127223 20.0 0.0 0.0 16.0 
494.00062042703377 0.667778135748097 62.72545838127223 20.0 0.0 0.0 16.0 
495.0001602077674 0.7638409969839338 62.72545838127223 20.0 0.0 0.0 16.0 
496.0046606210717 0.7476071030434556 68.70303455979627 20.0 0.0 0.0 17.0 
497.0006660023937 0.9446675948514925 76.30648469841196 20.0 0.0 0.0 17.0 
498.001704538519 0.9459640332883139 76.30648469841196 20.0 0.015114302402622647 3.804188808818509 17.0 
499.00068156923174 1.0577417175586543 76.30648469841196 19.0 0.03221697193192408 6.09386363582675 17.0 
500.00119307588466 0.7431504290944327 60.881951483617 19.0 0.036604556154561874 6.272634558407702 17.0 
501.0003265350695 1.0354173535738962 76.30648469841196 19.0 0.012187727271653489 6.09386363582675 17.0 
502.0006002636488 1.0493229384020728 67.418964344953 19.0 0.0 0.0 17.0 
503.000622839423 1.2975803374440167 89.93723382534483 19.0 0.0 0.0 17.0 
504.00223889872024 1.3042292679172933 89.93723382534483 19.0 0.0 0.0 17.0 
505.00078328867363 1.461014090120494 89.93723382534483 19.0 0.0 0.0 17.0 
506.0055269833697 1.1603135187395295 75.62022004371494 19.0 0.0 0.0 17.0 
507.0055279960417 1.2319926970548787 73.14056122694052 19.0 0.0 0.0 18.0 
508.00023706271793 1.2556723667812966 88.85841111067703 19.0 0.0 0.0 20.0 
509.00540933735573 1.09670514807984 88.85841111067703 19.0 0.012802286198767644 6.401143099383802 20.0 
510.00140170455836 0.9282663041612463 71.83236088488718 19.0 0.027845049550282355 13.922524775141227 19.0 
511.0013355825493 1.07152332079551 76.01365836313698 19.0 0.0 0.0 20.0 
512.001454826387 0.9200505094216807 71.83236088488718 19.0 0.0 0.0 20.0 
513.001704538519 1.1768274571853714 87.78921389685081 19.0 0.0 0.0 19.0 
514.000781592762 1.0878312884542967 87.78921389685081 19.0 0.0 0.0 19.0 
515.0027768538358 1.0843027233410998 87.78921389685081 19.0 0.0 0.0 19.0 
516.0031135780858 0.8252723800209247 70.30074642541808 19.0 0.0 0.0 20.0 
517.00084938883 1.1683841849632404 95.27692417974902 19.0 0.0 0.0 18.0 
518.001704538519 0.9840136052069896 86.82899537201024 19.0 0.0 0.0 18.0 
519.0028987693071 1.0043880792415742 86.82899537201024 19.0 0.0 0.0 18.0 
520.0003072922749 0.9330277044561721 81.32631386976749 18.0 0.0 0.0 18.0 
521.000650319613 0.8853085431019816 68.99016015621032 18.0 0.0 0.0 18.0 
522.0038058066363 0.95535621630785 73.95406403201412 18.0 0.0 0.0 18.0 
523.0004330530146 0.843924690865967 73.95406403201412 18.0 0.0 0.0 18.0 
524.0038967464116 0.8303648206332257 73.95406403201412 18.0 0.0 0.0 18.0 
525.0010882530628 0.6913863379336107 67.83323397115322 18.0 0.0 0.0 18.0 
526.0005434049358 0.9140192153794462 67.83323397115322 18.0 0.0 0.0 18.0 
527.0030467840213 0.7938277943195803 67.32290546103621 18.0 0.0 0.0 18.0 
528.001704538519 0.5824287602878966 37.102647392625244 18.0 0.0 0.0 18.0 
529.0021048165211 0.5680586143678767 37.102647392625244 18.0 0.0 0.0 18.0 
530.0000677284373 0.6079025420888093 37.102647392625244 18.0 0.0 0.0 18.0 
531.0025605920325 0.7917514997210244 53.52590826577455 18.0 0.0 0.0 18.0 
532.0010797965351 0.84738454927463 50.93622377645889 18.0 0.0 0.0 19.0 
533.0007656602103 0.8190093942454741 50.93622377645889 18.0 0.0 0.0 19.0 
534.0007933234268 0.7984356533395762 50.93622377645889 18.0 0.0 0.0 19.0 
535.0020446343927 0.7007516077931263 50.93622377645889 17.0 0.0 0.0 19.0 
536.0009261386654 0.7656551504162283 50.93622377645889 17.0 0.0 0.0 19.0 
537.0005873459962 0.6843829912694144 48.23194726124902 17.0 0.0 0.0 18.0 
538.001704538519 0.7832397964229436 48.84736475849493 17.0 0.0 0.0 18.0 
539.001332196884 0.6540361811487966 48.84736475849493 18.0 0.0 0.0 16.0 
540.0033891753353 0.6540361811487966 48.84736475849493 19.0 0.0 0.0 16.0 
541.0074999697165 0.5208588835302459 50.139446742270394 20.0 0.0 0.0 18.0 
542.0033417404475 0.5748968829714832 51.487790656951034 19.0 0.0 0.0 18.0 
543.001704538519 0.6642548173103178 55.084562699118834 19.0 0.0 0.0 18.0 
544.0069414681923 0.6919596426684257 55.084562699118834 20.0 0.0 0.0 18.0 
545.000649195696 0.7154344766974431 67.66409753707046 20.0 0.0 0.0 18.0 
546.0022490432302 0.7045611063283614 57.05435130195201 20.0 0.0 0.0 18.0 
547.0043097556187 0.8830592474880563 73.81435487885824 19.0 0.0 0.0 18.0 
548.001704538519 0.754471931294478 73.81435487885824 20.0 0.0 0.0 18.0 
549.000669274949 0.7630203982173968 73.81435487885824 19.0 0.0 0.0 18.0 
550.0007972833415 0.6813627368123967 57.02614809451387 20.0 0.0 0.0 18.0 
551.001951303695 0.6579488613864947 66.59910167436408 20.0 0.0 0.0 18.0 
552.0023864705147 0.711683432706893 68.11320448509463 20.0 0.0 0.0 18.0 
553.0011887660005 0.8752078611382865 68.11320448509463 20.0 0.0 0.0 18.0 
554.0045828582857 0.9242402433740893 68.11320448509463 20.0 0.0 0.0 18.0 
555.005760572757 0.8995885905016379 68.11320448509463 20.0 0.0 0.0 18.0 
556.003298160873 0.8926178955928078 61.273108888019465 20.0 0.0 0.0 18.0 
557.0020720177043 0.9087873438048286 62.62794905394844 20.0 0.0 0.0 18.0 
558.000222707618 0.9919688084123306 68.37698146952357 19.0 0.0 0.0 18.0 
559.002033067286 1.0444333469500091 68.37698146952357 19.0 0.0 0.0 18.0 
560.0014964981291 0.9896408391458509 68.37698146952357 19.0 0.0 0.0 19.0 
561.0006887453244 1.2014859927886232 70.21672517046068 19.0 0.0 0.0 22.0 
562.0004505727724 1.0142955058435887 70.21672517046068 19.0 0.0 0.0 21.0 
563.001704538519 1.228094669771672 77.31632741505541 19.0 0.0 0.0 21.0 
564.001705374747 0.9736648088170966 77.31632741505541 20.0 0.0 0.0 21.0 
565.0004753056935 1.1513911662006784 77.31632741505541 20.0 0.0 0.0 21.0 
566.0034673262641 1.0283113538657498 79.29440899938305 21.0 0.0 0.0 19.0 
567.0038630390576 1.0194331469463627 68.26189072233853 22.0 0.0 0.0 19.0 
568.0004880961337 0.8537818166236609 68.26189072233853 21.0 0.0 0.0 19.0 
569.0003794480695 0.7196550316454308 68.26189072233853 21.0 0.0 0.0 19.0 
570.0000548010485 0.4711279468467258 68.26189072233853 21.0 0.0 0.0 19.0 
571.000791174468 0.01284008682647318 2.6448946054223086 21.0 0.0 0.0 19.0 
572.0003396560738 0.0 0.0 21.0 0.0 0.0 19.0 
573.0003323963798 0.0 0.0 21.0 0.0 0.0 19.0 
574.0087584221205 0.0 0.0 21.0 0.0 0.0 19.0 
575.0005965348935 0.0 0.0 21.0 0.0 0.0 19.0 
576.0038995389192 0.0 0.0 21.0 0.0 0.0 19.0 
577.0023553859555 0.0 0.0 21.0 0.0 0.0 19.0 
578.0010217458092 0.0 0.0 21.0 0.0 0.0 19.0 
579.0003065139166 0.0 0.0 21.0 0.0 0.0 19.0 
580.0008327601377 0.0 0.0 21.0 0.0 0.0 20.0 
581.0002537335179 0.01416107714513383 7.080538572566979 21.0 0.0 0.0 20.0 
582.0012283516027 0.01416107714513383 7.080538572566979 22.0 0.0 0.0 21.0 
583.000745177853 0.0 0.0 22.0 0.0 0.0 21.0 
584.0005557716559 0.0 0.0 21.0 0.0 0.0 22.0 
585.0015098511161 0.0 0.0 21.0 0.0 0.0 22.0 
586.0050232847461 0.0 0.0 21.0 0.0 0.0 21.0 
587.0024950764245 0.0 0.0 21.0 0.0 0.0 22.0 
588.001704538519 0.0 0.0 20.0 0.0 0.0 23.0 
589.0033880232968 0.0 0.0 21.0 0.0 0.0 23.0 
590.0002406512264 0.0 0.0 21.0 0.0 0.0 23.0 
591.0035810814356 0.0 0.0 21.0 0.0 0.0 23.0 
592.0023190019019 0.0 0.0 21.0 0.0 0.0 23.0 
593.001704538519 0.0 0.0 21.0 0.0 0.0 23.0 
594.0012033409447 0.0 0.0 21.0 0.0 0.0 22.0 
595.0013107385532 0.0 0.0 22.0 0.0 0.0 22.0 
596.0019465085602 0.0022767627518895713 1.138381375944789 23.0 0.0 0.0 23.0 
597.0008216369721 0.0022767627518895713 1.138381375944789 23.0 0.0 0.0 22.0 
598.001704538519 0.0073837150230611605 3.6918575115305714 22.0 0.0 0.0 21.0 
599.0003349339662 0.0073837150230611605 3.6918575115305714 22.0 0.0 0.0 21.0 
600.0032497720725 0.0073837150230611605 3.6918575115305714 22.0 0.0 0.0 21.0 
#####################################################################
# End of data export. Simulation finished at: 2019-02-25T20:14+0000 #
#####################################################################
