#####################################################################
# Alchemist log file - simulation started at: 2019-02-25T20:44+0000 #
#####################################################################
# seed = 186.0
#
# The columns have the following meaning: 
# time distance-rep[Mean] distance-rep[Max] leader-rep[CountDistinct] distance-share[Mean] distance-share[Max] leader-share[CountDistinct] 
0.0 NaN NaN NaN NaN NaN NaN 
1.0003368765709812 0.0 0.0 496.0 0.0 0.0 72.0 
2.000043488464826 0.0 0.0 133.0 0.0 0.0 68.0 
3.0033082527122623 0.0 0.0 109.0 0.0 0.0 57.0 
4.000029212667239 0.0 0.0 105.0 0.0 0.0 50.0 
5.000544089735294 0.0 0.0 96.0 0.0 0.0 47.0 
6.000447908961474 0.0 0.0 93.0 0.0 0.0 42.0 
7.004368099696772 0.0 0.0 86.0 0.0 0.0 39.0 
8.000628478420374 0.0 0.0 82.0 0.0 0.0 33.0 
9.000926372212108 0.0 0.0 74.0 0.0 0.0 31.0 
10.00042584715072 0.0 0.0 75.0 0.0 0.0 29.0 
11.00029974785918 0.0 0.0 68.0 0.0 0.0 29.0 
12.001220290112114 0.0 0.0 65.0 0.0 0.0 27.0 
13.000113736796498 0.0 0.0 66.0 0.0 0.0 28.0 
14.00012856366525 0.0 0.0 59.0 0.007130870336339293 3.5654351681696426 28.0 
15.001861048332252 0.0 0.0 56.0 0.0 0.0 30.0 
16.00211229240489 0.0 0.0 57.0 0.0 0.0 28.0 
17.004709212086887 0.0 0.0 54.0 0.0 0.0 25.0 
18.00323982115558 0.0 0.0 55.0 0.0 0.0 25.0 
19.00087470985201 0.0 0.0 54.0 0.0 0.0 26.0 
20.001088115969342 0.0 0.0 51.0 0.0 0.0 23.0 
21.001961565026434 0.0 0.0 48.0 0.0 0.0 22.0 
22.000828497399706 0.0 0.0 50.0 0.0 0.0 22.0 
23.000298787309493 0.0 0.0 47.0 0.0 0.0 22.0 
24.0003951196384 0.0 0.0 48.0 0.0 0.0 20.0 
25.00127648259899 0.0 0.0 49.0 0.0 0.0 22.0 
26.00211229240489 0.0 0.0 46.0 0.0 0.0 23.0 
27.00085837714535 0.0 0.0 47.0 0.0 0.0 22.0 
28.000518921675905 0.0 0.0 44.0 0.0 0.0 22.0 
29.000799256704404 0.0 0.0 45.0 0.0 0.0 21.0 
30.002130077155563 0.0 0.0 45.0 0.0 0.0 20.0 
31.000342684657284 0.0 0.0 44.0 0.0 0.0 20.0 
32.00372453812697 0.0 0.0 43.0 0.0 0.0 20.0 
33.000749537440605 0.0 0.0 42.0 0.0 0.0 21.0 
34.002988421468515 0.0 0.0 38.0 0.0 0.0 19.0 
35.000887638241124 0.0 0.0 36.0 0.0 0.0 19.0 
36.00097223060084 0.0 0.0 36.0 0.0 0.0 21.0 
37.000037145432515 0.0070787619049300175 3.5393809524650237 35.0 0.0 0.0 21.0 
38.00067025935912 0.0070787619049300175 3.5393809524650237 34.0 0.0 0.0 21.0 
39.00364593068535 0.0070787619049300175 3.5393809524650237 35.0 0.0 0.0 21.0 
40.0034456341277 0.0 0.0 33.0 0.0 0.0 21.0 
41.00211229240489 0.0 0.0 35.0 0.0 0.0 20.0 
42.001683816933124 0.0 0.0 37.0 0.0 0.0 19.0 
43.00037173093512 0.0 0.0 41.0 0.0 0.0 19.0 
44.00103211226634 0.0 0.0 38.0 0.0 0.0 19.0 
45.00169251633532 0.0 0.0 37.0 0.0 0.0 19.0 
46.00116902149989 0.0 0.0 36.0 0.0020967613919378883 1.0483806959689446 19.0 
47.00010671592182 0.0 0.0 35.0 0.0 0.0 21.0 
48.002251877960816 0.0 0.0 33.0 0.0 0.0 22.0 
49.00061977754993 0.0 0.0 35.0 0.0 0.0 21.0 
50.002652294290144 0.0 0.0 34.0 0.0 0.0 20.0 
51.00211229240489 0.0 0.0 35.0 0.0 0.0 20.0 
52.00092913752525 0.0 0.0 34.0 0.0 0.0 20.0 
53.00133413174541 0.0 0.0 33.0 0.0 0.0 20.0 
54.00223693620219 0.0 0.0 32.0 0.0 0.0 20.0 
55.000409924970505 0.0 0.0 33.0 0.0 0.0 20.0 
56.001672600097386 0.0 0.0 32.0 0.0 0.0 20.0 
57.00145040475866 0.0 0.0 29.0 0.0 0.0 20.0 
58.001931648394645 0.0 0.0 28.0 0.0 0.0 21.0 
59.00030188768818 0.0 0.0 27.0 0.0 0.0 21.0 
60.0013567407137 0.0 0.0 27.0 0.0 0.0 21.0 
61.000546704089544 0.0 0.0 27.0 0.0 0.0 21.0 
62.00026732449902 0.0 0.0 26.0 0.0 0.0 21.0 
63.00330825271226 0.0 0.0 25.0 0.0 0.0 21.0 
64.00039869949842 0.0 0.0 23.0 0.0 0.0 21.0 
65.00041183990021 0.0 0.0 23.0 0.0 0.0 21.0 
66.00211229240489 0.0 0.0 22.0 0.0 0.0 21.0 
67.00119304831938 0.0 0.0 22.0 0.0 0.0 21.0 
68.00173178801742 0.0 0.0 22.0 0.0 0.0 21.0 
69.00042464507197 0.0 0.0 22.0 0.0 0.0 21.0 
70.00204814840207 0.0 0.0 22.0 0.0 0.0 21.0 
71.00177080973432 0.0 0.0 21.0 0.0 0.0 20.0 
72.00044833408141 0.0 0.0 21.0 0.0 0.0 19.0 
73.00283968011122 0.0 0.0 21.0 0.0 0.0 19.0 
74.00629936896908 0.0 0.0 22.0 0.0 0.0 19.0 
75.00333872716446 0.0 0.0 23.0 0.0 0.0 20.0 
76.00017945519511 0.0 0.0 22.0 0.0 0.0 20.0 
77.00435161881106 0.0 0.0 22.0 0.0 0.0 20.0 
78.0000191800505 0.0 0.0 21.0 0.0 0.0 19.0 
79.00065630275934 0.0 0.0 21.0 0.0 0.0 19.0 
80.00163064230074 0.0 0.0 21.0 0.0 0.0 19.0 
81.00211229240489 0.0 0.0 21.0 0.0 0.0 19.0 
82.00184977120209 0.0 0.0 22.0 0.0 0.0 19.0 
83.00077614820911 0.0 0.0 22.0 0.0 0.0 19.0 
84.00173081480642 0.0 0.0 22.0 0.0 0.0 19.0 
85.00095895957712 0.0 0.0 22.0 0.0 0.0 20.0 
86.00097388348576 0.005426300125297334 2.7131500626486798 21.0 0.0 0.0 22.0 
87.00758667785259 0.020313716490675805 10.156858245337844 21.0 0.0 0.0 21.0 
88.00027414413951 0.0 0.0 22.0 0.0 0.0 20.0 
89.00066456247465 0.0 0.0 22.0 0.0 0.0 20.0 
90.00137602340918 0.0 0.0 21.0 0.0 0.0 20.0 
91.00211229240489 0.0 0.0 21.0 0.0 0.0 20.0 
92.00253969982558 0.0 0.0 22.0 0.0 0.0 20.0 
93.00330825271226 0.0 0.0 20.0 0.0 0.0 20.0 
94.00039501265266 0.0 0.0 20.0 0.0 0.0 20.0 
95.00036818825906 0.0 0.0 20.0 0.0 0.0 20.0 
96.00009392654155 0.0 0.0 20.0 0.0 0.0 20.0 
97.00228741433003 0.0 0.0 20.0 0.0 0.0 20.0 
98.00084631960803 0.0 0.0 20.0 0.0 0.0 20.0 
99.00029343863758 0.0 0.0 20.0 0.0 0.0 21.0 
100.00246291616595 0.0 0.0 20.0 0.0 0.0 20.0 
101.00109470484398 0.0 0.0 20.0 0.0 0.0 20.0 
102.0028725588212 0.0 0.0 20.0 0.0 0.0 20.0 
103.00105212042963 0.011072414014848252 5.536207007424139 20.0 0.0 0.0 20.0 
104.00319245107367 0.027457664005344398 10.200471199484724 19.0 0.0 0.0 20.0 
105.00183857409822 0.027457664005344398 10.200471199484724 19.0 0.0 0.0 20.0 
106.0005423973168 0.039742573659340454 10.200471199484724 19.0 0.0 0.0 20.0 
107.00124895970258 0.039742573659340454 10.200471199484724 19.0 0.0 0.0 20.0 
108.0030457349067 0.039742573659340454 10.200471199484724 19.0 0.0 0.0 20.0 
109.00256232111154 0.0537160731444556 14.76775585552815 19.0 0.0 0.0 19.0 
110.0009556486633 0.041699129270073236 20.8495646350367 20.0 0.0 0.0 19.0 
111.00211229240489 0.0 0.0 20.0 0.0 0.0 19.0 
112.00012815684671 0.0 0.0 20.0 0.0 0.0 19.0 
113.00072410504366 0.0 0.0 19.0 0.0 0.0 18.0 
114.00020384612277 0.0 0.0 19.0 0.0 0.0 18.0 
115.0042724555804 0.0 0.0 18.0 0.0 0.0 18.0 
116.00111705959885 0.0 0.0 18.0 0.0 0.0 18.0 
117.00488257929624 0.0 0.0 18.0 0.0 0.0 18.0 
118.00088966211379 0.0 0.0 18.0 0.0 0.0 18.0 
119.00283093539574 0.0 0.0 18.0 0.0 0.0 18.0 
120.00053816326523 0.0 0.0 18.0 0.0 0.0 18.0 
121.00078797152348 0.004023072519020206 2.011536259510109 18.0 0.0 0.0 18.0 
122.0000475865204 0.004023072519020206 2.011536259510109 18.0 0.0 0.0 18.0 
123.00017884118733 0.004023072519020206 2.011536259510109 19.0 0.0 0.0 19.0 
124.00164492992533 0.004023072519020206 2.011536259510109 19.0 0.0 0.0 19.0 
125.00179972734274 0.01063756414662823 3.307245813804002 20.0 0.0 0.0 20.0 
126.00147538959662 0.02288090669899981 11.440453349499961 20.0 0.0 0.0 19.0 
127.00183470910811 0.04256169704615909 11.440453349499961 20.0 0.0 0.0 19.0 
128.00134263617053 0.01968079034715916 9.840395173579594 20.0 0.0 0.0 20.0 
129.00040293536907 0.02620323457514696 9.840395173579594 20.0 0.0 0.0 20.0 
130.00271257386964 0.038866363832041236 14.694873223212113 20.0 0.0 0.0 21.0 
131.0021122924049 0.0029541731576289776 1.4770865788144931 20.0 0.0 0.0 21.0 
132.00521817768657 0.01645305598578049 7.515244924875333 20.0 0.0 0.0 21.0 
133.00087143373366 0.03348733039958841 8.517137206903953 20.0 0.0 0.0 20.0 
134.000500024287 0.10862735359182653 45.79653958900914 20.0 0.0 0.0 19.0 
135.00145375738404 0.0942018232939688 33.41359262337056 20.0 0.0 0.0 19.0 
136.00154380369793 0.07553961576357437 13.981666774184106 21.0 0.0 0.0 19.0 
137.00064887540697 0.08930844395190636 21.105805373710155 19.0 0.0 0.0 19.0 
138.00224380797843 0.08930844395190636 21.105805373710155 19.0 0.0 0.0 19.0 
139.0018246555001 0.08902452634026709 21.105805373710155 18.0 0.0 0.0 18.0 
140.00025735915108 0.08902452634026709 21.105805373710155 19.0 0.0 0.0 19.0 
141.000626484223 0.013658610196848496 6.829305098424243 19.0 0.0 0.0 18.0 
142.00042765217444 0.09224869896262007 27.35004458074377 19.0 0.0 0.0 17.0 
143.00025075693702 0.031813897205095 14.055777680647168 19.0 0.0 0.0 17.0 
144.00107216076893 0.021315736576514473 10.657868288257276 18.0 0.0 0.0 17.0 
145.0015910339331 0.021315736576514473 10.657868288257276 19.0 0.0 0.0 18.0 
146.0000768499373 0.0 0.0 19.0 0.0 0.0 18.0 
147.0010217367736 0.0 0.0 18.0 0.0 0.0 18.0 
148.001603876192 0.0 0.0 18.0 0.0 0.0 18.0 
149.00168519120913 0.0 0.0 18.0 0.0 0.0 18.0 
150.0003410927886 0.0 0.0 18.0 0.0 0.0 18.0 
151.00116305223295 0.0 0.0 18.0 0.0 0.0 18.0 
152.0004828066764 0.0 0.0 18.0 0.0 0.0 18.0 
153.00220564029993 0.01946981151815339 9.73490575907664 18.0 0.0 0.0 18.0 
154.00168708112247 0.0 0.0 17.0 0.0 0.0 17.0 
155.00205738548257 0.032655466408428424 16.327733204214212 17.0 0.0 0.0 17.0 
156.0021122924049 0.032655466408428424 16.327733204214212 18.0 0.0 0.0 18.0 
157.00358069470818 0.026950483057548442 13.475241528774205 18.0 0.0 0.0 18.0 
158.00330825271226 0.026950483057548442 13.475241528774205 16.0 0.0 0.0 18.0 
159.0006992048099 0.026950483057548442 13.475241528774205 17.0 0.0 0.0 19.0 
160.00342309716214 0.04048398694299791 20.241993471499 17.0 0.0 0.0 19.0 
161.00063101686013 0.04048398694299791 20.241993471499 17.0 0.0 0.0 19.0 
162.00568757789523 0.03558086562853376 17.790432814266865 17.0 0.0 0.0 19.0 
163.00330825271226 0.037785632472085856 17.790432814266865 17.0 0.0 0.0 19.0 
164.00091449823358 0.037785632472085856 17.790432814266865 17.0 0.0 0.0 19.0 
165.0005092667383 0.045667829450395214 17.790432814266865 17.0 0.0 0.0 19.0 
166.00171267516808 0.07223601667389756 24.65064341557627 17.0 0.0 0.0 19.0 
167.00211477860944 0.06610009412560469 22.475077157144597 17.0 0.0 0.0 19.0 
168.0013206919836 0.06610009412560469 22.475077157144597 16.0 0.0 0.0 18.0 
169.00230373533668 0.07695690508652386 22.475077157144597 16.0 0.0 0.0 18.0 
170.0042724555804 0.05908499571644091 29.542497858220628 17.0 0.0 0.0 19.0 
171.00093146765914 0.06685046281461893 29.542497858220628 17.0 0.0 0.0 19.0 
172.00128319460418 0.056801467343748864 27.804537666507287 17.0 0.0 0.0 19.0 
173.0022990910112 0.06444236016481822 27.804537666507287 16.0 0.0 0.0 18.0 
174.00320463416358 0.07043584659373818 27.804537666507287 16.0 0.0 0.0 18.0 
175.00200113716608 0.08507830330464788 27.804537666507287 16.0 0.0 0.0 18.0 
176.0021122924049 0.1080130306028533 34.93624378421259 17.0 0.0 0.0 19.0 
177.00046936622635 0.03417534696068615 8.209522531455264 17.0 0.0 0.0 19.0 
178.00122068599205 0.0 0.0 18.0 0.0 0.0 19.0 
179.00502763787895 0.0 0.0 20.0 0.0 0.0 19.0 
180.0001149813276 0.010541907132969963 5.2709535664849625 21.0 0.0 0.0 19.0 
181.0021122924049 0.001271684573639556 0.6358422868197806 20.0 0.0 0.0 19.0 
182.00121753931305 0.001271684573639556 0.6358422868197806 20.0 0.0 0.0 19.0 
183.00306891478294 0.001271684573639556 0.6358422868197806 20.0 0.0 0.0 19.0 
184.00076667838186 0.001271684573639556 0.6358422868197806 19.0 0.0 0.0 19.0 
185.00355008469228 0.014090916171618062 7.045458085809031 19.0 0.0 0.0 19.0 
186.0021122924049 0.004701442942045024 2.3507214710224957 19.0 0.0 0.0 19.0 
187.00079815279176 0.009853980000656508 2.5762685293057643 18.0 0.0 0.0 19.0 
188.0006530985629 0.009853980000656508 2.5762685293057643 19.0 0.0 0.0 19.0 
189.0006018008262 0.022601009064847775 8.724236003118051 18.0 0.0 0.0 18.0 
190.00170365505528 0.04485190356172108 11.1254472484367 18.0 0.0 0.0 18.0 
191.00044475948062 0.052764390981982996 11.1254472484367 18.0 0.0 0.0 18.0 
192.0012046367947 0.1003237195137129 18.496162526116763 18.0 0.0 0.0 18.0 
193.00079692400055 0.15474710589117005 18.496162526116763 18.0 0.0 0.0 18.0 
194.0023967611689 0.2830181407311111 37.045426072421805 18.0 0.0 0.0 18.0 
195.00108235064306 0.22468560951246883 30.84146924126904 19.0 0.0 0.0 18.0 
196.0021122924049 0.2456526958597511 30.84146924126904 19.0 0.0 0.0 18.0 
197.00032541242692 0.3692995280955991 38.39768242998008 19.0 0.0 0.0 19.0 
198.00330825271226 0.34743224757583396 38.39768242998008 19.0 0.0 0.0 19.0 
199.0018854924827 0.3131449311934662 30.860330561229148 18.0 0.0 0.0 20.0 
200.0018391421218 0.3730966117024758 30.860330561229148 18.0 0.0 0.0 20.0 
201.00020641188615 0.36367769005737716 30.860330561229148 18.0 0.0 0.0 19.0 
202.00340254020583 0.502981244164592 38.44930026557361 19.0 0.0 0.0 19.0 
203.00238058385852 0.5577602852289685 38.44930026557361 20.0 0.0 0.0 19.0 
204.00629936896908 0.4909757865280647 37.87113474888707 20.0 0.0 0.0 20.0 
205.00137817592173 0.4471805808134847 51.23475525017895 20.0 0.0 0.0 20.0 
206.0021122924049 0.0639967990724812 11.18905030397724 20.0 0.0 0.0 20.0 
207.00355859216845 0.11349085607486256 18.72843740909343 20.0 0.0 0.0 19.0 
208.0029144643427 0.0926320158413749 18.72843740909343 20.0 0.0 0.0 18.0 
209.00225828861878 0.07813842025989434 18.72843740909343 20.0 0.0 0.0 18.0 
210.00243398197074 0.11977573914734665 39.547096852819834 20.0 0.0 0.0 18.0 
211.0006873426228 0.14258985631985654 39.547096852819834 21.0 0.0 0.0 19.0 
212.00682981484402 0.19098777886274515 55.946792578553044 21.0 0.0 0.0 18.0 
213.0027610640294 0.24105544110445573 53.02404319097457 22.0 0.0 0.0 19.0 
214.00087239445133 0.0 0.0 23.0 0.0 0.0 19.0 
215.00327005134133 0.0 0.0 22.0 0.0 0.0 19.0 
216.0021122924049 0.0 0.0 23.0 0.0 0.0 18.0 
217.00015215941823 0.0 0.0 21.0 0.0 0.0 18.0 
218.0019775026181 0.0 0.0 20.0 0.0 0.0 18.0 
219.0043980358223 0.0 0.0 20.0 0.0 0.0 18.0 
220.00396261730705 0.0 0.0 20.0 0.0 0.0 18.0 
221.0021122924049 0.0 0.0 19.0 0.0 0.0 19.0 
222.00002691837983 0.0 0.0 20.0 0.0 0.0 20.0 
223.00010658650717 0.0 0.0 20.0 0.0 0.0 19.0 
224.00019440060245 0.0 0.0 20.0 0.0 0.0 20.0 
225.00009510563152 0.0 0.0 21.0 0.0 0.0 21.0 
226.0021122924049 0.0 0.0 19.0 0.0 0.0 21.0 
227.0004882012106 0.0 0.0 19.0 0.0 0.0 21.0 
228.0009863442661 0.0 0.0 18.0 0.0 0.0 21.0 
229.00381298387308 0.0 0.0 18.0 0.0 0.0 20.0 
230.0042724555804 0.0 0.0 18.0 0.0 0.0 20.0 
231.00069257285696 0.0 0.0 18.0 0.0 0.0 20.0 
232.00063332895982 0.0 0.0 18.0 0.0 0.0 20.0 
233.0000922805403 0.0 0.0 18.0 0.0 0.0 20.0 
234.00067065764304 0.0 0.0 18.0 0.0 0.0 20.0 
235.00197082632286 0.0 0.0 18.0 0.0 0.0 20.0 
236.0021122924049 0.0 0.0 19.0 0.0 0.0 20.0 
237.00020668235993 0.0 0.0 19.0 0.0 0.0 19.0 
238.00011619479176 0.0 0.0 19.0 0.0 0.0 19.0 
239.00035981004154 0.0 0.0 18.0 0.0 0.0 18.0 
240.0042724555804 0.0 0.0 19.0 0.0 0.0 19.0 
241.00051904433883 0.0 0.0 19.0 0.0 0.0 19.0 
242.00089508929725 0.0 0.0 19.0 0.0 0.0 19.0 
243.00046249374847 0.0 0.0 19.0 0.0 0.0 18.0 
244.0021378695413 0.0 0.0 18.0 0.0 0.0 17.0 
245.0042724555804 0.0 0.0 18.0 0.0 0.0 17.0 
246.00039539320395 0.0 0.0 18.0 0.0 0.0 17.0 
247.0077221045693 0.0 0.0 18.0 0.0 0.0 15.0 
248.0007052349683 0.0 0.0 18.0 0.0 0.0 15.0 
249.00255895993647 0.0 0.0 18.0 0.0 0.0 15.0 
250.0042724555804 0.0 0.0 18.0 0.0 0.0 15.0 
251.0021122924049 0.0 0.0 18.0 0.0 0.0 16.0 
252.00414827208698 0.0 0.0 17.0 0.0 0.0 16.0 
253.0005360155552 0.0 0.0 17.0 0.0 0.0 16.0 
254.00112855379544 0.0 0.0 17.0 0.0 0.0 16.0 
255.00042268310136 0.0 0.0 16.0 0.0 0.0 16.0 
256.0021122924049 0.018586870067688343 6.865982653966057 16.0 0.0 0.0 16.0 
257.0007932417706 0.01730359319542029 6.224344217832083 16.0 0.0 0.0 16.0 
258.00330825271226 0.006411747490481532 2.4274523798780763 17.0 0.0 0.0 17.0 
259.0025421814938 0.004854904759756163 2.4274523798780763 17.0 0.0 0.0 17.0 
260.0042724555804 0.024230922234224045 7.693047811305803 17.0 0.0 0.0 17.0 
261.0021122924049 0.0467847607493046 12.753303535235943 18.0 0.0 0.0 18.0 
262.00015083100516 0.06462100303515876 12.753303535235943 19.0 0.0 0.0 18.0 
263.00238942480263 0.07270310640380553 12.753303535235943 19.0 0.0 0.0 18.0 
264.0009293066865 0.08809061753078226 12.753303535235943 18.0 0.0 0.0 18.0 
265.00111414867433 0.07791276875560024 14.675937777720378 17.0 0.0 0.0 18.0 
266.0019328315477 0.08058076892333023 14.675937777720378 17.0 0.0 0.0 18.0 
267.0017587172682 0.1181199292291871 20.858238076772693 17.0 0.0 0.0 18.0 
268.0007829569003 0.1975810733955323 24.037071607460973 17.0 0.0 0.0 18.0 
269.0000091775578 0.21498999383299983 24.947822907255272 18.0 0.0 0.0 20.0 
270.0001091143733 0.3558106342500995 51.530437355281435 18.0 0.0 0.0 20.0 
271.00040097777367 0.24498358598735073 24.947822907255272 18.0 0.0 0.0 20.0 
272.00110738407915 0.3798374564717257 31.557919344954456 18.0 0.0 0.0 19.0 
273.00156817319896 0.379951987856061 31.186490574654158 18.0 0.0 0.0 19.0 
274.000442258961 0.4108302296913866 35.3292783947596 18.0 0.0 0.0 19.0 
275.0004129491399 0.5307430081603661 55.84736680143891 18.0 0.0 0.0 19.0 
276.00122742160465 0.5338270116830113 55.84736680143891 18.0 0.0 0.0 18.0 
277.00298534066604 0.47703237698470563 53.73689946775812 18.0 0.0 0.0 18.0 
278.0021430694502 0.3992046530006213 53.73689946775812 18.0 0.0 0.0 19.0 
279.0000188374775 0.5149277957193102 65.12954535329891 18.0 0.0 0.0 19.0 
280.00123956750525 0.535554625327831 57.906295089943114 18.0 0.0 0.0 19.0 
281.0021122924049 0.5436202094881019 57.906295089943114 18.0 0.0 0.0 19.0 
282.0003382216718 0.48289786797338613 55.30185950805159 19.0 0.0 0.0 19.0 
283.00031171083646 0.4904415781208505 55.30185950805159 19.0 0.0 0.0 19.0 
284.0017881229516 0.4533837742221623 55.30185950805159 19.0 0.0 0.0 18.0 
285.0005190679848 0.5642204852285942 67.13180288123823 18.0 0.0 0.0 17.0 
286.0021122924049 0.5626121938548794 67.13180288123823 18.0 0.0 0.0 17.0 
287.002360394661 0.5249859225469791 64.8565089205054 18.0 0.0 0.0 17.0 
288.00330825271226 0.5544210216943468 64.8565089205054 18.0 0.0 0.0 17.0 
289.00585937383755 0.4388827288468917 45.61659521184404 18.0 0.0 0.0 17.0 
290.00158053514787 0.42368510149998545 38.357117727669106 18.0 0.0 0.0 17.0 
291.00076269297136 0.4318709201534129 38.357117727669106 18.0 0.0 0.0 17.0 
292.0011086715009 0.5389310609458821 56.2520714284376 18.0 0.0 0.0 17.0 
293.0000905157086 0.44057980164073524 36.93467174457257 18.0 0.0 0.0 17.0 
294.00035665588035 0.5788272627293138 56.2520714284376 18.0 0.0 0.0 17.0 
295.00003892803795 0.5517236503074815 48.776045451223865 18.0 0.0 0.0 17.0 
296.0021122924049 0.5784775255951629 48.776045451223865 18.0 0.0 0.0 17.0 
297.0014868066929 0.537637164942386 47.65289488068271 18.0 0.0 0.0 17.0 
298.00330825271226 0.5396996959162288 47.65289488068271 19.0 0.0 0.0 17.0 
299.00424822421945 0.5522370304928331 47.65289488068271 17.0 0.0 0.0 17.0 
300.00172640841635 0.5523421343462709 47.65289488068271 18.0 0.0 0.0 17.0 
301.0006128353484 0.5501219963101052 42.08567276511195 18.0 0.0 0.0 17.0 
302.0005763497256 0.5629000166402897 42.879415088913646 18.0 0.0 0.0 17.0 
303.0030496034685 0.5843721567401444 42.879415088913646 17.0 0.0 0.0 17.0 
304.00160176479164 0.7041854105100994 68.3466824090687 17.0 0.0 0.0 17.0 
305.0042724555804 1.0234916729101031 78.54029964167819 17.0 0.0 0.0 17.0 
306.00064603669796 0.8778044964811154 72.31551589808726 17.0 0.0 0.0 17.0 
307.0020813381392 1.1778773445291397 77.73970171987605 17.0 0.0 0.0 17.0 
308.00084085197443 1.224722087922393 77.73970171987605 18.0 0.0 0.0 18.0 
309.0001710606276 1.1909264528039851 77.73970171987605 18.0 0.0 0.0 18.0 
310.00152948669813 1.1680767391494489 73.83796174215121 18.0 0.0 0.0 18.0 
311.0021122924049 1.428008977749594 96.83121508934812 18.0 0.0 0.0 18.0 
312.00024477709405 1.4393352929459873 96.5566540928375 18.0 0.0 0.0 19.0 
313.00018253429255 1.3185505900343828 73.41726820231838 19.0 0.0 0.0 20.0 
314.00273336943553 1.3682267370811432 73.41726820231838 19.0 0.0 0.0 20.0 
315.0042724555804 1.4616334489046403 73.41726820231838 20.0 0.0 0.0 20.0 
316.0004339671083 1.3161366709555662 69.91463636191435 20.0 0.0 0.0 20.0 
317.0022363057055 1.480772913376762 69.79280105775428 18.0 0.0 0.0 20.0 
318.0001289705798 1.650654906048419 69.79280105775428 18.0 0.0 0.0 20.0 
319.0001601776147 1.4488894217762878 69.79280105775428 17.0 0.0 0.0 20.0 
320.0007750371675 1.4960792368277804 68.5517232359253 18.0 0.0 0.0 20.0 
321.00124397301596 1.5286243007121743 68.5517232359253 18.0 0.0 0.0 20.0 
322.0014000342701 1.556695729552519 70.31253924496974 17.0 0.0 0.0 21.0 
323.0014910144539 1.6545550597430565 71.41293604434912 17.0 0.0 0.0 22.0 
324.0031669181904 1.6358972377144867 71.41293604434912 17.0 0.0 0.0 20.0 
325.0042724555804 1.6231099274574325 75.89869243088458 17.0 0.0 0.0 20.0 
326.0021122924049 1.6188157628243605 75.89869243088458 17.0 0.0 0.0 20.0 
327.00035352601475 1.6225304012042023 76.11155743890441 17.0 0.0 0.0 20.0 
328.0009081199754 1.8968544329075112 76.11155743890441 17.0 0.0 0.0 20.0 
329.00137457649475 1.5595391092907736 68.79999322817037 17.0 0.0 0.0 20.0 
330.00034555095317 1.0427676918482585 67.81242545850239 17.0 0.0 0.0 21.0 
331.0010488591956 1.0204220037708702 67.81242545850239 17.0 0.0 0.0 21.0 
332.00072274150597 1.1401431895502891 55.78867506765718 17.0 0.0 0.0 20.0 
333.0009457023473 1.1949996337957043 61.86073646696707 17.0 0.0 0.0 20.0 
334.00124270651804 1.1168254044838997 61.86073646696707 17.0 0.0 0.0 20.0 
335.00059050066227 0.9279236763994463 61.86073646696707 17.0 0.0 0.0 20.0 
336.0011593450352 1.1913351631113631 78.13523597322381 17.0 0.0 0.0 20.0 
337.00076844182087 1.1395500182997422 55.606250385910045 17.0 0.0 0.0 20.0 
338.00152060780204 1.3373119747866618 61.818737726454515 17.0 0.0 0.0 20.0 
339.00417862872905 1.3705445469665725 61.818737726454515 18.0 0.0 0.0 19.0 
340.00045286441275 1.056891070522029 61.818737726454515 18.0 0.0 0.0 19.0 
341.001237944115 1.2555576722412982 55.70214309758461 18.0 0.0 0.0 18.0 
342.00008006173397 1.4041989360170877 55.70214309758461 18.0 0.0 0.0 17.0 
343.00211511231146 1.7928195110426386 62.048429776838816 18.0 0.0 0.0 17.0 
344.00181525178914 1.7012684031042506 62.048429776838816 18.0 0.0 0.0 17.0 
345.001529236777 1.7737202898170583 62.048429776838816 18.0 0.0 0.0 17.0 
346.00102874200485 1.675259654326482 58.02969437410542 18.0 0.0 0.0 17.0 
347.0024586303097 2.279338288304217 74.9304516908341 18.0 0.0 0.0 17.0 
348.00200862816297 2.051195252212045 62.51997377067687 18.0 0.0 0.0 17.0 
349.00219254876305 2.257840067247506 69.90929340853666 18.0 0.0 0.0 16.0 
350.0026448425993 2.4337091406756532 69.90929340853666 18.0 0.0 0.0 16.0 
351.0021122924049 2.451344909559547 69.90929340853666 18.0 0.0 0.0 16.0 
352.0006709070549 2.576807350171908 68.62593159755568 18.0 0.0 0.0 16.0 
353.000189624028 2.8774319473981684 103.61327389816273 17.0 0.0 0.0 16.0 
354.00629936896905 3.059380937464444 103.61327389816273 17.0 0.0 0.0 16.0 
355.00260608037115 2.879814388989636 75.4850597614867 17.0 0.0 0.0 16.0 
356.0018661405485 2.690632026448884 75.4850597614867 17.0 0.0 0.0 16.0 
357.000310818983 3.086636400239854 103.61327389816273 16.0 0.002678484322956597 1.3392421614782961 16.0 
358.00330825271226 2.599148001336743 87.70485847392689 16.0 0.0 0.0 17.0 
359.0003389165255 2.8818507733336354 106.83680344518444 16.0 0.0 0.0 17.0 
360.0030114206421 2.5961697049925005 87.70485847392689 16.0 0.0 0.0 17.0 
361.0021122924049 2.4252258150325527 87.70485847392689 16.0 0.0 0.0 17.0 
362.0008486797139 2.4403097011749932 87.70485847392689 16.0 0.0 0.0 17.0 
363.0030402539362 2.3662006512237523 100.37012633080553 16.0 0.0 0.0 17.0 
364.0026885225834 2.7352715521091078 100.37012633080553 17.0 0.0 0.0 17.0 
365.00145029142493 2.4539254282060035 100.37012633080553 17.0 0.0 0.0 16.0 
366.0021122924049 0.8431110286232878 100.37012633080553 18.0 0.0 0.0 16.0 
367.00030820123243 0.8049550354963974 57.975175403684034 18.0 0.0 0.0 16.0 
368.00031037726114 0.585316141155141 52.66517021622849 18.0 0.0 0.0 16.0 
369.00114909656133 0.582329321120833 52.66517021622849 18.0 0.0 0.0 15.0 
370.001886393816 0.5668442595256903 52.66517021622849 18.0 0.0 0.0 15.0 
371.0021122924049 0.6251090382318895 52.66517021622849 18.0 0.0 0.0 15.0 
372.0000129096829 0.7854270498024885 52.989618394951606 17.0 0.0 0.0 15.0 
373.00211288804536 0.7969754720019859 60.46040250102806 17.0 0.0 0.0 15.0 
374.0004393906849 0.7958447493158501 60.46040250102806 17.0 0.0 0.0 15.0 
375.0014188987717 0.7808241847313123 60.46040250102806 17.0 0.0 0.0 16.0 
376.0003137299686 0.8399824281815758 60.46040250102806 17.0 0.0 0.0 17.0 
377.0049734026315 1.0776796810776321 67.8933328250991 17.0 0.0 0.0 17.0 
378.0000422466256 0.9372842954408452 56.41133622300481 17.0 0.0 0.0 17.0 
379.0003526681193 1.0265687416468652 56.41133622300481 18.0 0.0 0.0 17.0 
380.0042724555804 1.140077723589772 56.41133622300481 18.0 0.0 0.0 17.0 
381.0020214657108 1.1891275044690288 56.41133622300481 19.0 0.0 0.0 17.0 
382.00218692168903 1.5658778203594843 71.1929636244173 19.0 0.0 0.0 16.0 
383.00033745226153 1.5786227275052123 71.1929636244173 19.0 0.0 0.0 14.0 
384.00056103641043 1.6609263465216728 71.1929636244173 18.0 0.0 0.0 15.0 
385.00014229630773 1.6440681795875758 71.1929636244173 18.0 0.0 0.0 18.0 
386.0006576605222 1.4996580670462183 67.8574691050872 17.0 0.0 0.0 19.0 
387.00346744120793 1.7670984665701865 66.05296524169398 17.0 0.0 0.0 16.0 
388.000131554269 1.7847673459281561 66.05296524169398 17.0 0.0 0.0 16.0 
389.00294972720314 1.8062967700465031 66.05296524169398 17.0 0.0 0.0 16.0 
390.0007674540811 1.7907821611111745 72.10346243066363 17.0 0.0 0.0 15.0 
391.0021122924049 1.8498054821159662 72.10346243066363 17.0 0.0 0.0 15.0 
392.00003262734674 2.186803282064817 80.93523611529076 17.0 0.0 0.0 15.0 
393.0003989302083 2.2100864922947707 80.93523611529076 17.0 0.0 0.0 15.0 
394.0019103876481 2.212240494558824 80.93523611529076 17.0 0.0 0.0 15.0 
395.0030246968582 2.064918514550365 80.93523611529076 17.0 0.0 0.0 15.0 
396.0021122924049 2.053194771374007 80.93523611529076 16.0 0.0 0.0 15.0 
397.0012749429587 2.104699440169485 87.99083428546817 16.0 0.0 0.0 15.0 
398.0004000660089 2.12347263828932 87.99083428546817 16.0 0.0 0.0 15.0 
399.00450391319544 1.9771186219599532 61.07654163509471 16.0 0.0 0.0 15.0 
400.0005210044222 1.9514992969781595 61.07654163509471 16.0 0.0 0.0 15.0 
401.0021122924049 1.9547893526200224 62.20244843379936 16.0 0.0 0.0 15.0 
402.0041719091542 2.00193869505711 62.20244843379936 16.0 0.0 0.0 16.0 
403.00006323182157 2.0697298645757103 62.20244843379936 16.0 0.0 0.0 15.0 
404.0058823126521 2.2079069762279504 62.20244843379936 16.0 0.0 0.0 15.0 
405.0042724555804 2.3287153893064274 82.4887523291124 16.0 0.0 0.0 16.0 
406.00031776906667 2.1560114887500355 69.60136834888732 16.0 0.0 0.0 16.0 
407.0030782907473 2.4095730060848353 83.50023730737473 16.0 0.0 0.0 16.0 
408.0001531487438 2.454836424439302 83.50023730737473 16.0 0.0 0.0 16.0 
409.00177239585196 2.5071729574962447 83.50023730737473 16.0 0.0 0.0 16.0 
410.0018047656273 2.5250376070309763 83.50023730737473 16.0 0.0 0.0 16.0 
411.0021122924049 2.4474141893149843 78.07556026774716 16.0 0.0 0.0 16.0 
412.00003530074423 2.5263152245155154 79.70773455998705 17.0 0.0 0.0 16.0 
413.00092164369977 2.2553567302603206 79.70773455998705 17.0 0.0 0.0 16.0 
414.0002837697909 2.153826125471177 79.70773455998705 17.0 0.0 0.0 16.0 
415.00273575268574 1.8693391277523204 79.70773455998705 17.0 0.0 0.0 16.0 
416.0021122924049 1.620612244275103 70.26509759657858 17.0 0.0 0.0 16.0 
417.0008545054417 1.8100205122451551 76.15513723842349 17.0 0.0 0.0 16.0 
418.0009486049699 1.8667129082450309 87.32393353217805 17.0 0.0 0.0 16.0 
419.0007842511618 1.876789135494465 83.6850193773476 17.0 0.0 0.0 16.0 
420.00064093638986 1.6637986954963648 83.6850193773476 18.0 0.0 0.0 16.0 
421.00098603225786 1.6536644143206074 87.24215214222227 19.0 0.0 0.0 16.0 
422.00106298298107 1.758157391243384 91.19246134268468 19.0 0.0 0.0 16.0 
423.00330825271226 1.4503242510286403 89.8954605151335 19.0 0.0 0.0 16.0 
424.0049468356655 0.7054242327543199 63.288423800448925 19.0 0.0 0.0 16.0 
425.0042724555804 0.46977435299030973 62.967917614181886 19.0 0.0 0.0 16.0 
426.0005744220899 0.2787092917823501 51.370881580461656 18.0 0.0 0.0 16.0 
427.00071717147233 0.16230839609414083 28.52566878867262 18.0 0.0 0.0 17.0 
428.00085228904675 0.19392417382135274 28.52566878867262 18.0 0.0 0.0 17.0 
429.0023235222106 0.12508345614910832 15.807888863606195 18.0 0.0 0.0 17.0 
430.00122868234763 0.07221552596032214 18.642154945996623 17.0 0.008853805775559618 3.2322555762942784 18.0 
431.0003708168879 0.06720924398800251 21.7718375897378 17.0 0.0 0.0 18.0 
432.00042958819023 0.0124169219474222 6.208460973711141 16.0 0.0 0.0 16.0 
433.00008997778855 0.0124169219474222 6.208460973711141 16.0 0.0 0.0 16.0 
434.00194510710224 0.01887698944600769 6.208460973711141 16.0 0.0 0.0 16.0 
435.00122768559356 0.018270769423058827 8.71389055419192 16.0 0.0 0.0 16.0 
436.0019612873791 0.030466488117082125 13.38029061390742 15.0 0.0 0.0 16.0 
437.0004483232609 0.027603569542489634 13.38029061390742 16.0 0.0 0.0 16.0 
438.0019695424881 0.053230350531946496 13.38029061390742 15.0 0.0 0.0 16.0 
439.0018448613415 0.06480331369778952 16.705000306667415 15.0 0.0 0.0 16.0 
440.0002519251054 0.08622013293323763 19.463480685943892 15.0 0.0 0.0 16.0 
441.00099769715194 0.13573264870359725 19.463480685943892 16.0 0.0 0.0 16.0 
442.00408870033243 0.10927571986515655 26.636822306586424 16.0 0.0 0.0 16.0 
443.00190658883145 0.12221813495812259 26.636822306586424 16.0 0.0 0.0 16.0 
444.00064980009716 0.13832773778930801 26.636822306586424 16.0 0.0 0.0 16.0 
445.0003621535799 0.2247329398894561 30.2275131734699 16.0 0.0 0.0 16.0 
446.0021122924049 0.2947432069610014 39.2346902776608 16.0 0.0 0.0 17.0 
447.00375122928136 0.36328872802735057 42.7319311602069 16.0 0.0 0.0 16.0 
448.00330825271226 0.4899104945359887 42.7319311602069 16.0 0.0 0.0 16.0 
449.0006686554932 0.4203975551533352 42.7319311602069 16.0 0.0 0.0 16.0 
450.00037272744294 0.6428956164634807 41.00422129702051 16.0 0.0 0.0 16.0 
451.00199090435393 0.7914131316559656 41.00422129702051 16.0 0.0 0.0 16.0 
452.0014940044288 0.8242253726281402 41.00422129702051 16.0 0.0 0.0 16.0 
453.00159215346383 0.8235546925671239 41.00422129702051 16.0 0.0 0.0 16.0 
454.00578976031557 0.8733879743100585 47.75173274022458 16.0 0.0 0.0 16.0 
455.0020539262542 1.0849446251062715 52.1595106709793 16.0 0.0 0.0 15.0 
456.001553525155 1.2699953414554415 52.1595106709793 16.0 0.0 0.0 15.0 
457.0015398540193 1.2461370027745944 52.1595106709793 16.0 0.0 0.0 15.0 
458.0014602143605 1.2434088743608895 52.1595106709793 16.0 0.0 0.0 16.0 
459.0037067589795 1.418313996647166 74.0678686835318 16.0 0.0 0.0 16.0 
460.00075219864607 1.582919336854978 74.0678686835318 16.0 0.0 0.0 15.0 
461.0003833669869 1.3654613371114566 64.08424170447881 16.0 0.0 0.0 15.0 
462.005791148065 1.3822525313011345 64.08424170447881 17.0 0.0 0.0 15.0 
463.00015676049287 1.3696703049249266 64.08424170447881 17.0 0.0 0.0 15.0 
464.0002949464643 1.3333212734307456 77.32402503126156 18.0 0.0 0.0 15.0 
465.0009775650378 1.8003840355563732 77.32402503126156 16.0 0.0 0.0 16.0 
466.0002083095375 1.603817725906357 77.32402503126156 16.0 0.0 0.0 16.0 
467.001897215349 1.7100315771104597 77.32402503126156 15.0 0.0 0.0 17.0 
468.00181223599355 1.8283755361565002 77.32402503126156 16.0 0.0 0.0 17.0 
469.00549029802846 1.8163454148570106 73.3725893960966 16.0 0.002020120695497445 1.0100603477487198 17.0 
470.00242990794146 1.944621878181321 79.31673545487217 17.0 0.004040241390994891 1.0100603477487198 18.0 
471.0021122924049 1.830754157470597 77.95991106901226 16.0 0.004040241390994891 1.0100603477487198 18.0 
472.00281059690536 1.6840476563946987 65.50710821314578 17.0 0.004040241390994891 1.0100603477487198 18.0 
473.0019329569883 1.6910983277505691 70.47961797698491 17.0 0.03050029907870632 7.6250747696766155 18.0 
474.0011366109029 1.8997902839885343 85.13950555649342 17.0 0.06001094165963895 14.179329735438387 18.0 
475.0013135741849 2.34890710440813 91.5816027828825 17.0 0.06001094165963895 14.179329735438387 18.0 
476.0001434251436 2.4087733255894763 91.5816027828825 17.0 0.062286872240616756 14.179329735438387 18.0 
477.0028501305939 2.233275697992909 81.56702119168347 16.0 0.07569476574238294 20.88327648632179 18.0 
478.0010533693981 2.1954511986807166 81.56702119168347 16.0 0.07012521244352014 20.88327648632179 18.0 
479.0015159731935 2.237225517620592 84.67993834747466 16.0 0.09663789170248338 27.435669364920187 18.0 
480.0000881270415 2.9810594189183153 90.45441198267872 16.0 0.10974267745968082 27.435669364920187 18.0 
481.0008678632005 3.0833235869682625 90.45441198267872 15.0 0.141620616554599 27.435669364920187 17.0 
482.00000202507965 2.7062222422758984 90.44567589781451 15.0 0.08674927782475943 27.435669364920187 17.0 
483.0006577675695 2.8857745666166568 90.44567589781451 15.0 0.0 0.0 15.0 
484.00076789632215 2.6563995287965465 90.44567589781451 16.0 0.0 0.0 15.0 
485.00090178627556 2.2701463971063536 100.09429524843353 16.0 0.0 0.0 15.0 
486.0000822570851 2.186970281603571 106.2863463195365 16.0 0.0 0.0 15.0 
487.0026109451688 1.6275815854042057 100.09429524843353 16.0 0.0 0.0 15.0 
488.00047135179426 1.5674768092137454 100.09429524843353 16.0 0.0 0.0 15.0 
489.0053717220963 1.7336399404892888 108.36116038693723 16.0 0.0 0.0 14.0 
490.00080275075493 1.8795461800211852 108.36116038693723 16.0 0.0 0.0 14.0 
491.0021122924049 1.8579260349306232 108.36116038693723 16.0 0.0 0.0 14.0 
492.0017907861508 1.7519614917697037 108.36116038693723 16.0 0.0 0.0 14.0 
493.0019427086726 1.5021327245997724 99.1746071299741 16.0 0.0 0.0 13.0 
494.0025821951971 1.553357983632127 105.45250906289465 15.0 0.0 0.0 13.0 
495.0042724555804 1.6277163071629936 104.56787323626975 17.0 0.0 0.0 16.0 
496.00037291705104 1.6320938192911605 104.56787323626975 17.0 0.0 0.0 15.0 
497.0029282706727 1.659942481055855 107.21839380864378 17.0 0.0 0.0 15.0 
498.0019938411869 1.704317822346972 107.21839380864378 17.0 0.0 0.0 15.0 
499.00629936896905 1.4582989216763211 98.47307841196982 17.0 0.0 0.0 13.0 
500.0042724555804 1.5738822781388593 104.83277590323462 17.0 0.0 0.0 14.0 
501.0021122924049 1.5916800941584885 103.95344030047573 17.0 0.0 0.0 15.0 
502.0002247221745 1.6275065490666487 103.95344030047573 17.0 0.0 0.0 15.0 
503.0009797890882 1.6247543227250618 103.95344030047573 17.0 0.0 0.0 14.0 
504.00084803157597 1.6730732435007736 97.91105572425175 17.0 0.0 0.0 14.0 
505.00412580520947 1.7749419703378297 104.3575829304778 16.0 0.0 0.0 14.0 
506.0021122924049 1.774384216824634 103.48406688160003 17.0 0.0 0.0 14.0 
507.0027529014779 1.8227331683184798 103.48406688160003 16.0 0.0 0.0 16.0 
508.00068103279415 2.038553653734234 115.24187107856721 17.0 0.0 0.0 16.0 
509.00147091577355 2.0990685896326653 115.24187107856721 18.0 0.0 0.0 15.0 
510.00032119723863 1.4768173460020058 121.60550701271751 20.0 0.0 0.0 15.0 
511.00006143097477 1.196682691031585 121.60550701271751 21.0 0.0 0.0 16.0 
512.0013542812106 1.406445798534185 121.60550701271751 20.0 0.0 0.0 16.0 
513.001181025255 1.1965014310445303 114.73740161588614 19.0 0.0 0.0 16.0 
514.0018652776845 1.4161203375689748 114.73740161588614 19.0 0.0 0.0 16.0 
515.0006532369237 1.2745912991888264 121.16914003300167 19.0 0.0 0.0 16.0 
516.0015162102904 1.2746738247929488 121.16914003300167 19.0 0.0 0.0 16.0 
517.0005847006579 1.2882264754282247 121.16914003300167 19.0 0.0 0.0 16.0 
518.0004619878569 1.3017791260634923 121.16914003300167 18.0 0.0 0.0 16.0 
519.0054754634406 1.3006083716481498 122.71567805679092 18.0 0.0 0.0 16.0 
520.0002855425122 1.3532510732187264 122.71567805679092 19.0 0.0 0.0 16.0 
521.0014786146011 1.3536244742151573 122.71567805679092 19.0 0.0 0.0 16.0 
522.003852335682 1.3536244742151573 122.71567805679092 19.0 0.0 0.0 16.0 
523.0003829738836 0.968469494613467 129.64606022713565 19.0 0.0 0.0 16.0 
524.0018510237968 1.2836396797137377 144.42402385744305 19.0 0.0 0.0 17.0 
525.0028148891448 1.3096273970889545 144.42402385744305 20.0 0.0 0.0 18.0 
526.002112292405 1.322988911889669 144.42402385744305 20.0 0.0 0.0 18.0 
527.0005151468673 1.0818736476086603 144.42402385744305 20.0 0.0 0.0 18.0 
528.0033082527123 1.1095837173634175 144.42402385744305 19.0 0.0 0.0 18.0 
529.0017971161374 1.1225836149670543 149.57045581144763 19.0 0.0 0.0 18.0 
530.0035796033958 1.1482331804036607 149.57045581144763 19.0 0.0 0.0 18.0 
531.000040820904 0.5982818232457894 149.57045581144763 18.0 0.0 0.0 18.0 
532.0012186389755 0.8624568924829039 149.57045581144763 18.0 0.0 0.0 18.0 
533.002876549736 1.194671895066469 159.26645304968827 18.0 0.0 0.0 18.0 
534.0001380862011 0.28832337286796905 144.16168643398458 18.0 0.0 0.0 17.0 
535.0009845427676 1.2337915159404536 165.76576401994413 18.0 0.0 0.0 17.0 
536.0018309993341 0.3258486254832176 162.92431274160884 18.0 0.0 0.0 17.0 
537.0006483838196 0.301877210303114 150.93860515155683 18.0 0.0 0.0 17.0 
538.0033082527123 0.0 0.0 18.0 0.0 0.0 17.0 
539.0006667010479 0.0 0.0 18.0 9.152700722812012E-4 0.4576350361406014 17.0 
540.0020118429583 0.029166904027845726 14.583452013922852 18.0 0.0 0.0 17.0 
541.0002367499889 0.029166904027845726 14.583452013922852 18.0 0.0 0.0 17.0 
542.0003190293822 0.029166904027845726 14.583452013922852 18.0 0.0 0.0 17.0 
543.0005441915799 0.029166904027845726 14.583452013922852 18.0 0.0 0.0 17.0 
544.0010618837662 0.014704318149224686 7.352159074612331 18.0 0.0 0.0 17.0 
545.0001735753012 0.029628949424222166 14.814474712111092 18.0 0.0 0.0 17.0 
546.0016001130116 0.029628949424222166 14.814474712111092 18.0 0.0 0.0 16.0 
547.0014347987208 0.029628949424222166 14.814474712111092 18.0 0.0 0.0 17.0 
548.0033082527123 0.014695497248939827 7.347748624469915 19.0 0.0 0.0 17.0 
549.0006089414037 0.029231435546460405 14.615717773230216 19.0 0.0 0.0 17.0 
550.0020864611979 0.029231435546460405 14.615717773230216 19.0 0.0 0.0 17.0 
551.0008027349852 0.029231435546460405 14.615717773230216 19.0 1.0696660863300068E-4 0.053483304316500835 17.0 
552.0057896455055 0.029231435546460405 14.615717773230216 19.0 1.0696660863300068E-4 0.053483304316500835 17.0 
553.001621510884 0.014422832224193768 7.211416112096856 19.0 1.0696660863300068E-4 0.053483304316500835 17.0 
554.0013882669741 0.027106543999039553 13.553271999519751 19.0 1.0696660863300068E-4 0.053483304316500835 18.0 
555.0011963281945 0.027106543999039553 13.553271999519751 18.0 0.0 0.0 18.0 
556.0010205635128 0.027106543999039553 13.553271999519751 18.0 0.003435932970594048 1.7179664852970404 17.0 
557.0000169854839 0.027106543999039553 13.553271999519751 18.0 0.0 0.0 18.0 
558.0006210343186 0.017604503570331484 6.155617536987535 18.0 0.0 0.0 18.0 
559.0011937609057 0.012311235073975111 6.155617536987535 18.0 0.0 0.0 18.0 
560.0000517691248 0.03104375629719119 9.032504463609115 18.0 0.0 0.0 18.0 
561.0003024458193 0.04388746538070851 9.032504463609115 18.0 0.014176102518825898 7.088051259412907 18.0 
562.004133991715 0.05893463413058267 12.992532064344346 16.0 0.014176102518825898 7.088051259412907 18.0 
563.0004764061276 0.03294957000189392 9.032504463609115 16.0 0.03371610797796843 14.25234067488097 18.0 
564.0027860446282 0.00331245040543344 1.656225202716712 16.0 0.044980162869825764 14.25234067488097 18.0 
565.0009529945742 0.016657744371167474 4.7891757080410855 16.0 0.05995421496386263 21.739366721899586 18.0 
566.0000108673793 0.0011678036669555934 0.5839018334777961 16.0 0.0899381057110748 21.739366721899586 18.0 
567.0018062911913 0.015621560836625704 4.271083940770126 15.0 0.10409448278099563 21.739366721899586 18.0 
568.0001648238531 0.003214984729429681 1.6074923647148296 15.0 0.2057554122408031 33.90273388098751 17.0 
569.0000993561795 0.004896727787270648 1.6074923647148296 14.0 0.21115179395834283 34.030598163780496 17.0 
570.0022641603018 0.0 0.0 15.0 0.14295003093259107 28.901546793046663 17.0 
571.002112292405 0.0 0.0 15.0 0.11539083588805882 27.898783800584283 17.0 
572.0025130054493 0.0 0.0 15.0 0.12237759866116278 27.898783800584283 17.0 
573.0003638939071 0.0 0.0 16.0 0.10949029384999895 31.89052301818174 18.0 
574.0012041909713 0.0 0.0 16.0 0.04824332016306639 10.108684777681901 18.0 
575.0003534427503 0.0 0.0 16.0 0.07999861813922676 27.008795196659577 19.0 
576.002112292405 0.0 0.0 16.0 0.2002772475954417 34.560566115453895 18.0 
577.0012000568049 0.0 0.0 16.0 0.214373232377898 34.560566115453895 18.0 
578.0033082527123 0.0 0.0 16.0 0.1185524603245845 18.112443683420963 20.0 
579.002513785849 0.0 0.0 16.0 0.07035981330010671 18.112443683420963 20.0 
580.0026963237017 0.0 0.0 16.0 0.08919752730872209 25.678767717172803 20.0 
581.0015296890124 0.0 0.0 16.0 0.25994825201459343 34.736648202236296 20.0 
582.0014086641456 0.0 0.0 16.0 0.2891294091620839 34.736648202236296 19.0 
583.000362151493 0.0 0.0 16.0 0.3030542151113716 34.736648202236296 19.0 
584.006299368969 0.0 0.0 16.0 0.3030542151113716 34.736648202236296 19.0 
585.0042724555803 0.007058080969540702 2.336352386769647 16.0 0.30790280647107043 35.01740970159332 19.0 
586.0012835079324 0.007058080969540702 2.336352386769647 16.0 0.3623273933058124 40.360564123927304 19.0 
587.0053455353429 0.007058080969540702 2.336352386769647 18.0 0.3980167081724626 40.360564123927304 19.0 
588.0033082527123 0.004672704773539278 2.336352386769647 17.0 0.3789953499359306 40.26205403640094 19.0 
589.000722924443 0.004672704773539278 2.336352386769647 17.0 0.3789953499359306 40.26205403640094 19.0 
590.0003635331399 0.004006486425354257 2.00324321267712 17.0 0.37353437987271265 40.26205403640094 20.0 
591.0001227986243 0.0 0.0 18.0 0.4932815411952435 47.77917098644045 20.0 
592.0001698866503 0.022648522392725547 11.324261196362642 19.0 0.5201664686003323 47.77917098644045 20.0 
593.0033082527123 0.0 0.0 18.0 0.4281905188636989 44.812885748667554 20.0 
594.0038834989954 0.0022883153679532065 1.1441576839766014 18.0 0.4281905188636989 44.812885748667554 20.0 
595.0007685291472 0.0022883153679532065 1.1441576839766014 19.0 0.4337216989598892 44.812885748667554 20.0 
596.002112292405 0.0 0.0 19.0 0.5031003662641335 52.39847057784834 20.0 
597.001991390944 0.0022883153679532065 1.1441576839766014 19.0 0.37324720295481356 52.39847057784834 20.0 
598.0005236013205 0.0 0.0 19.0 0.18367003723403585 46.13575627266718 20.0 
599.0018830923569 0.0042574756465361945 2.1287378232680965 19.0 0.09139852468870188 45.699262344350586 20.0 
600.0001372255225 0.0042574756465361945 2.1287378232680965 20.0 0.0 0.0 19.0 
#####################################################################
# End of data export. Simulation finished at: 2019-02-25T20:47+0000 #
#####################################################################
